17
Coordinates from ORCA-job inp
  C   -0.08098545783539      0.04293492359775     -0.19374805848637
  C   0.66135785448614      1.21218104124741     -0.35387798526073
  C   0.49987807954042     -1.08846182298964      0.39102099162111
  C   2.00330447380315      1.24829350822215      0.07748898845990
  C   2.59190219679193      0.10854713791422      0.66808726024884
  C   1.83258540466926     -1.05056931878201      0.81894083951185
  H   0.21675821524556      2.10000967046375     -0.80975880288730
  C   2.78682023303887      2.42607085464251     -0.07532401052011
  H   -1.12150347042418      0.01497627863981     -0.52874952967752
  H   -0.08810181278331     -2.00241867267969      0.51344510511121
  H   3.63232464309238      0.16216819248515      0.99702631654946
  H   2.28717267464656     -1.93386753320232      1.27614862124199
  N   3.51999287438052      3.33541443561988     -0.16710742684954
  O   4.31478041208240      4.25055402428062     -0.23784463525882
  O   5.38961688689152      1.89614938070932      1.43585066139479
  S   6.37998313857792      2.89495341692852      0.93516172437558
  O   7.18271365379608      2.49956448290250     -0.24936005957437
