14
Coordinates from ORCA-job mol E -859.237978842167
  C       1.806706     -0.418493      0.362677
  C       2.891785      0.379631      0.027026
  C       2.011790     -1.762569      0.650846
  C       4.175363     -0.165492     -0.019813
  C       4.367979     -1.519359      0.272403
  C       3.285668     -2.319652      0.608187
  H       2.752000      1.430944     -0.200991
  C       6.432126      0.558177     -0.497294
  H       0.807174      0.000522      0.400517
  Cl      0.645411     -2.772258      1.074926
  H       5.366945     -1.944654      0.236289
  H       3.429435     -3.370348      0.835653
  N       5.236557      0.675152     -0.362653
  O       7.590701      0.584237     -0.663463
14
Coordinates from ORCA-job mol E -859.237993933070
  C       1.806162     -0.417804      0.362601
  C       2.891830      0.380036      0.027375
  C       2.012142     -1.762039      0.650509
  C       4.175303     -0.166401     -0.018953
  C       4.368603     -1.520472      0.273317
  C       3.285811     -2.320527      0.608660
  H       2.751519      1.431583     -0.200627
  C       6.432062      0.558573     -0.497948
  H       0.806677      0.002180      0.399796
  Cl      0.643873     -2.772602      1.074062
  H       5.367335     -1.946501      0.237392
  H       3.430015     -3.371520      0.835878
  N       5.237189      0.674445     -0.362391
  O       7.591118      0.586889     -0.665362
14
Coordinates from ORCA-job mol E -859.238000407792
  C       1.805702     -0.417271      0.362491
  C       2.892197      0.380122      0.027523
  C       2.012652     -1.761275      0.650080
  C       4.175068     -0.167834     -0.018276
  C       4.368973     -1.521807      0.273988
  C       3.285480     -2.321497      0.609064
  H       2.751365      1.431639     -0.200249
  C       6.432296      0.559272     -0.498547
  H       0.806743      0.003909      0.399167
  Cl      0.642367     -2.772512      1.073494
  H       5.367280     -1.948690      0.238520
  H       3.430096     -3.372430      0.836194
  N       5.237838      0.672973     -0.361768
  O       7.591582      0.591242     -0.667372
14
Coordinates from ORCA-job mol E -859.238001231185
  C       1.805681     -0.417265      0.362452
  C       2.892490      0.379965      0.027515
  C       2.012721     -1.761081      0.649991
  C       4.175055     -0.168344     -0.018109
  C       4.368886     -1.522213      0.274111
  C       3.285117     -2.321781      0.609162
  H       2.751577      1.431437     -0.200206
  C       6.432559      0.559672     -0.498739
  H       0.806953      0.004318      0.399003
  Cl      0.642013     -2.772268      1.073444
  H       5.367049     -1.949366      0.238809
  H       3.429767     -3.372651      0.836309
  N       5.238070      0.672195     -0.361387
  O       7.591703      0.593223     -0.668043
