-------------------------------------------------------------
----------------------- !PROPERTIES! ------------------------
-------------------------------------------------------------
# -----------------------------------------------------------
$ PAL_Flags
   description: The PAL Flags
   geom. index: 1
   prop. index: 1
        Diskflag:     2
# -----------------------------------------------------------
$ SCF_Energy
   description: The SCF energy
   geom. index: 1
   prop. index: 1
        SCF Energy:    -1062.6734645612
# -----------------------------------------------------------
$ DFT_Energy
   description: The DFT energy
   geom. index: 1
   prop. index: 1
   Number of Alpha Electrons                 55.0000472762 
   Number of Beta  Electrons                 55.0000472762 
   Total number of  Electrons               110.0000945525 
   Exchange energy                         -108.7187418139 
   Correlation energy                        -3.7168463489 
   Correlation energy NL                      0.0000000000 
   Exchange-Correlation energy             -112.4355881628 
   Embedding correction                       0.0000000000 
   Total DFT Energy (No VdW correction)   -1062.6734645612 
# -----------------------------------------------------------
$ VdW_Correction
   description: The Van der Waals Correction
   geom. index: 1
   prop. index: 1
        Van der Waals Correction:       -0.0080070825
# -----------------------------------------------------------
$ PAL_Flags
   description: The PAL Flags
   geom. index: 2
   prop. index: 1
        Diskflag:     2
# -----------------------------------------------------------
$ SCF_Energy
   description: The SCF energy
   geom. index: 2
   prop. index: 1
        SCF Energy:    -1062.7104255601
# -----------------------------------------------------------
$ DFT_Energy
   description: The DFT energy
   geom. index: 2
   prop. index: 1
   Number of Alpha Electrons                 55.0000574856 
   Number of Beta  Electrons                 55.0000574856 
   Total number of  Electrons               110.0001149712 
   Exchange energy                         -108.7934182981 
   Correlation energy                        -3.7238659757 
   Correlation energy NL                      0.0000000000 
   Exchange-Correlation energy             -112.5172842739 
   Embedding correction                       0.0000000000 
   Total DFT Energy (No VdW correction)   -1062.7104255601 
# -----------------------------------------------------------
$ VdW_Correction
   description: The Van der Waals Correction
   geom. index: 2
   prop. index: 1
        Van der Waals Correction:       -0.0081219080
# -----------------------------------------------------------
$ PAL_Flags
   description: The PAL Flags
   geom. index: 3
   prop. index: 1
        Diskflag:     2
# -----------------------------------------------------------
$ SCF_Energy
   description: The SCF energy
   geom. index: 3
   prop. index: 1
        SCF Energy:    -1062.7342044761
# -----------------------------------------------------------
$ DFT_Energy
   description: The DFT energy
   geom. index: 3
   prop. index: 1
   Number of Alpha Electrons                 55.0000504094 
   Number of Beta  Electrons                 55.0000504094 
   Total number of  Electrons               110.0001008187 
   Exchange energy                         -108.8762421894 
   Correlation energy                        -3.7306987445 
   Correlation energy NL                      0.0000000000 
   Exchange-Correlation energy             -112.6069409340 
   Embedding correction                       0.0000000000 
   Total DFT Energy (No VdW correction)   -1062.7342044761 
# -----------------------------------------------------------
$ VdW_Correction
   description: The Van der Waals Correction
   geom. index: 3
   prop. index: 1
        Van der Waals Correction:       -0.0082131911
# -----------------------------------------------------------
$ PAL_Flags
   description: The PAL Flags
   geom. index: 4
   prop. index: 1
        Diskflag:     2
# -----------------------------------------------------------
$ SCF_Energy
   description: The SCF energy
   geom. index: 4
   prop. index: 1
        SCF Energy:    -1062.7381968516
# -----------------------------------------------------------
$ DFT_Energy
   description: The DFT energy
   geom. index: 4
   prop. index: 1
   Number of Alpha Electrons                 55.0000375664 
   Number of Beta  Electrons                 55.0000375664 
   Total number of  Electrons               110.0000751327 
   Exchange energy                         -108.9507314543 
   Correlation energy                        -3.7360767684 
   Correlation energy NL                      0.0000000000 
   Exchange-Correlation energy             -112.6868082226 
   Embedding correction                       0.0000000000 
   Total DFT Energy (No VdW correction)   -1062.7381968516 
# -----------------------------------------------------------
$ VdW_Correction
   description: The Van der Waals Correction
   geom. index: 4
   prop. index: 1
        Van der Waals Correction:       -0.0082586054
# -----------------------------------------------------------
$ PAL_Flags
   description: The PAL Flags
   geom. index: 5
   prop. index: 1
        Diskflag:     2
# -----------------------------------------------------------
$ SCF_Energy
   description: The SCF energy
   geom. index: 5
   prop. index: 1
        SCF Energy:    -1062.7402337131
# -----------------------------------------------------------
$ DFT_Energy
   description: The DFT energy
   geom. index: 5
   prop. index: 1
   Number of Alpha Electrons                 55.0000262487 
   Number of Beta  Electrons                 55.0000262487 
   Total number of  Electrons               110.0000524973 
   Exchange energy                         -108.9079938221 
   Correlation energy                        -3.7326681140 
   Correlation energy NL                      0.0000000000 
   Exchange-Correlation energy             -112.6406619361 
   Embedding correction                       0.0000000000 
   Total DFT Energy (No VdW correction)   -1062.7402337131 
# -----------------------------------------------------------
$ VdW_Correction
   description: The Van der Waals Correction
   geom. index: 5
   prop. index: 1
        Van der Waals Correction:       -0.0082136628
# -----------------------------------------------------------
$ PAL_Flags
   description: The PAL Flags
   geom. index: 6
   prop. index: 1
        Diskflag:     2
# -----------------------------------------------------------
$ SCF_Energy
   description: The SCF energy
   geom. index: 6
   prop. index: 1
        SCF Energy:    -1062.7405332944
# -----------------------------------------------------------
$ DFT_Energy
   description: The DFT energy
   geom. index: 6
   prop. index: 1
   Number of Alpha Electrons                 55.0000371917 
   Number of Beta  Electrons                 55.0000371917 
   Total number of  Electrons               110.0000743833 
   Exchange energy                         -108.9075829806 
   Correlation energy                        -3.7329633759 
   Correlation energy NL                      0.0000000000 
   Exchange-Correlation energy             -112.6405463564 
   Embedding correction                       0.0000000000 
   Total DFT Energy (No VdW correction)   -1062.7405332944 
# -----------------------------------------------------------
$ VdW_Correction
   description: The Van der Waals Correction
   geom. index: 6
   prop. index: 1
        Van der Waals Correction:       -0.0082142518
# -----------------------------------------------------------
$ PAL_Flags
   description: The PAL Flags
   geom. index: 7
   prop. index: 1
        Diskflag:     2
# -----------------------------------------------------------
$ SCF_Energy
   description: The SCF energy
   geom. index: 7
   prop. index: 1
        SCF Energy:    -1062.7404784622
# -----------------------------------------------------------
$ DFT_Energy
   description: The DFT energy
   geom. index: 7
   prop. index: 1
   Number of Alpha Electrons                 55.0000078518 
   Number of Beta  Electrons                 55.0000078518 
   Total number of  Electrons               110.0000157037 
   Exchange energy                         -108.9143517317 
   Correlation energy                        -3.7335555155 
   Correlation energy NL                      0.0000000000 
   Exchange-Correlation energy             -112.6479072472 
   Embedding correction                       0.0000000000 
   Total DFT Energy (No VdW correction)   -1062.7404784622 
# -----------------------------------------------------------
$ VdW_Correction
   description: The Van der Waals Correction
   geom. index: 7
   prop. index: 1
        Van der Waals Correction:       -0.0082163523
# -----------------------------------------------------------
$ PAL_Flags
   description: The PAL Flags
   geom. index: 8
   prop. index: 1
        Diskflag:     2
# -----------------------------------------------------------
$ SCF_Energy
   description: The SCF energy
   geom. index: 8
   prop. index: 1
        SCF Energy:    -1062.7406998750
# -----------------------------------------------------------
$ DFT_Energy
   description: The DFT energy
   geom. index: 8
   prop. index: 1
   Number of Alpha Electrons                 55.0000177341 
   Number of Beta  Electrons                 55.0000177341 
   Total number of  Electrons               110.0000354682 
   Exchange energy                         -108.9134028690 
   Correlation energy                        -3.7331683481 
   Correlation energy NL                      0.0000000000 
   Exchange-Correlation energy             -112.6465712170 
   Embedding correction                       0.0000000000 
   Total DFT Energy (No VdW correction)   -1062.7406998750 
# -----------------------------------------------------------
$ VdW_Correction
   description: The Van der Waals Correction
   geom. index: 8
   prop. index: 1
        Van der Waals Correction:       -0.0082090085
# -----------------------------------------------------------
$ PAL_Flags
   description: The PAL Flags
   geom. index: 9
   prop. index: 1
        Diskflag:     2
# -----------------------------------------------------------
$ SCF_Energy
   description: The SCF energy
   geom. index: 9
   prop. index: 1
        SCF Energy:    -1062.7407239131
# -----------------------------------------------------------
$ DFT_Energy
   description: The DFT energy
   geom. index: 9
   prop. index: 1
   Number of Alpha Electrons                 55.0000163126 
   Number of Beta  Electrons                 55.0000163126 
   Total number of  Electrons               110.0000326252 
   Exchange energy                         -108.9107867405 
   Correlation energy                        -3.7330786714 
   Correlation energy NL                      0.0000000000 
   Exchange-Correlation energy             -112.6438654119 
   Embedding correction                       0.0000000000 
   Total DFT Energy (No VdW correction)   -1062.7407239131 
# -----------------------------------------------------------
$ VdW_Correction
   description: The Van der Waals Correction
   geom. index: 9
   prop. index: 1
        Van der Waals Correction:       -0.0082089912
# -----------------------------------------------------------
$ PAL_Flags
   description: The PAL Flags
   geom. index: 10
   prop. index: 1
        Diskflag:     2
# -----------------------------------------------------------
$ SCF_Energy
   description: The SCF energy
   geom. index: 10
   prop. index: 1
        SCF Energy:    -1062.7407339986
# -----------------------------------------------------------
$ DFT_Energy
   description: The DFT energy
   geom. index: 10
   prop. index: 1
   Number of Alpha Electrons                 55.0000128726 
   Number of Beta  Electrons                 55.0000128726 
   Total number of  Electrons               110.0000257452 
   Exchange energy                         -108.9111950303 
   Correlation energy                        -3.7331082863 
   Correlation energy NL                      0.0000000000 
   Exchange-Correlation energy             -112.6443033167 
   Embedding correction                       0.0000000000 
   Total DFT Energy (No VdW correction)   -1062.7407339986 
# -----------------------------------------------------------
$ VdW_Correction
   description: The Van der Waals Correction
   geom. index: 10
   prop. index: 1
        Van der Waals Correction:       -0.0082089140
# -----------------------------------------------------------
$ PAL_Flags
   description: The PAL Flags
   geom. index: 11
   prop. index: 1
        Diskflag:     2
# -----------------------------------------------------------
$ SCF_Energy
   description: The SCF energy
   geom. index: 11
   prop. index: 1
        SCF Energy:    -1062.7407526672
# -----------------------------------------------------------
$ DFT_Energy
   description: The DFT energy
   geom. index: 11
   prop. index: 1
   Number of Alpha Electrons                 55.0000015832 
   Number of Beta  Electrons                 55.0000015832 
   Total number of  Electrons               110.0000031663 
   Exchange energy                         -108.9118634706 
   Correlation energy                        -3.7331584134 
   Correlation energy NL                      0.0000000000 
   Exchange-Correlation energy             -112.6450218840 
   Embedding correction                       0.0000000000 
   Total DFT Energy (No VdW correction)   -1062.7407526672 
# -----------------------------------------------------------
$ VdW_Correction
   description: The Van der Waals Correction
   geom. index: 11
   prop. index: 1
        Van der Waals Correction:       -0.0082098711
# -----------------------------------------------------------
$ PAL_Flags
   description: The PAL Flags
   geom. index: 12
   prop. index: 1
        Diskflag:     2
# -----------------------------------------------------------
$ SCF_Energy
   description: The SCF energy
   geom. index: 12
   prop. index: 1
        SCF Energy:    -1062.7407642810
# -----------------------------------------------------------
$ DFT_Energy
   description: The DFT energy
   geom. index: 12
   prop. index: 1
   Number of Alpha Electrons                 54.9999929664 
   Number of Beta  Electrons                 54.9999929664 
   Total number of  Electrons               109.9999859328 
   Exchange energy                         -108.9121624275 
   Correlation energy                        -3.7331957154 
   Correlation energy NL                      0.0000000000 
   Exchange-Correlation energy             -112.6453581428 
   Embedding correction                       0.0000000000 
   Total DFT Energy (No VdW correction)   -1062.7407642810 
# -----------------------------------------------------------
$ VdW_Correction
   description: The Van der Waals Correction
   geom. index: 12
   prop. index: 1
        Van der Waals Correction:       -0.0082124235
# -----------------------------------------------------------
$ PAL_Flags
   description: The PAL Flags
   geom. index: 13
   prop. index: 1
        Diskflag:     2
# -----------------------------------------------------------
$ SCF_Energy
   description: The SCF energy
   geom. index: 13
   prop. index: 1
        SCF Energy:    -1062.7407812680
# -----------------------------------------------------------
$ DFT_Energy
   description: The DFT energy
   geom. index: 13
   prop. index: 1
   Number of Alpha Electrons                 54.9999853725 
   Number of Beta  Electrons                 54.9999853725 
   Total number of  Electrons               109.9999707450 
   Exchange energy                         -108.9126617232 
   Correlation energy                        -3.7333051460 
   Correlation energy NL                      0.0000000000 
   Exchange-Correlation energy             -112.6459668692 
   Embedding correction                       0.0000000000 
   Total DFT Energy (No VdW correction)   -1062.7407812680 
# -----------------------------------------------------------
$ VdW_Correction
   description: The Van der Waals Correction
   geom. index: 13
   prop. index: 1
        Van der Waals Correction:       -0.0082233970
# -----------------------------------------------------------
$ PAL_Flags
   description: The PAL Flags
   geom. index: 14
   prop. index: 1
        Diskflag:     2
# -----------------------------------------------------------
$ SCF_Energy
   description: The SCF energy
   geom. index: 14
   prop. index: 1
        SCF Energy:    -1062.7407925638
# -----------------------------------------------------------
$ DFT_Energy
   description: The DFT energy
   geom. index: 14
   prop. index: 1
   Number of Alpha Electrons                 54.9999862051 
   Number of Beta  Electrons                 54.9999862051 
   Total number of  Electrons               109.9999724103 
   Exchange energy                         -108.9123432239 
   Correlation energy                        -3.7332689531 
   Correlation energy NL                      0.0000000000 
   Exchange-Correlation energy             -112.6456121771 
   Embedding correction                       0.0000000000 
   Total DFT Energy (No VdW correction)   -1062.7407925638 
# -----------------------------------------------------------
$ VdW_Correction
   description: The Van der Waals Correction
   geom. index: 14
   prop. index: 1
        Van der Waals Correction:       -0.0082211763
# -----------------------------------------------------------
$ PAL_Flags
   description: The PAL Flags
   geom. index: 15
   prop. index: 1
        Diskflag:     2
# -----------------------------------------------------------
$ SCF_Energy
   description: The SCF energy
   geom. index: 15
   prop. index: 1
        SCF Energy:    -1062.7408061510
# -----------------------------------------------------------
$ DFT_Energy
   description: The DFT energy
   geom. index: 15
   prop. index: 1
   Number of Alpha Electrons                 54.9999893792 
   Number of Beta  Electrons                 54.9999893792 
   Total number of  Electrons               109.9999787584 
   Exchange energy                         -108.9121336878 
   Correlation energy                        -3.7332707513 
   Correlation energy NL                      0.0000000000 
   Exchange-Correlation energy             -112.6454044392 
   Embedding correction                       0.0000000000 
   Total DFT Energy (No VdW correction)   -1062.7408061510 
# -----------------------------------------------------------
$ VdW_Correction
   description: The Van der Waals Correction
   geom. index: 15
   prop. index: 1
        Van der Waals Correction:       -0.0082247349
# -----------------------------------------------------------
$ PAL_Flags
   description: The PAL Flags
   geom. index: 16
   prop. index: 1
        Diskflag:     2
# -----------------------------------------------------------
$ SCF_Energy
   description: The SCF energy
   geom. index: 16
   prop. index: 1
        SCF Energy:    -1062.7408111713
# -----------------------------------------------------------
$ DFT_Energy
   description: The DFT energy
   geom. index: 16
   prop. index: 1
   Number of Alpha Electrons                 54.9999903727 
   Number of Beta  Electrons                 54.9999903727 
   Total number of  Electrons               109.9999807454 
   Exchange energy                         -108.9123378249 
   Correlation energy                        -3.7332792167 
   Correlation energy NL                      0.0000000000 
   Exchange-Correlation energy             -112.6456170416 
   Embedding correction                       0.0000000000 
   Total DFT Energy (No VdW correction)   -1062.7408111713 
# -----------------------------------------------------------
$ VdW_Correction
   description: The Van der Waals Correction
   geom. index: 16
   prop. index: 1
        Van der Waals Correction:       -0.0082273936
# -----------------------------------------------------------
$ PAL_Flags
   description: The PAL Flags
   geom. index: 17
   prop. index: 1
        Diskflag:     2
# -----------------------------------------------------------
$ SCF_Energy
   description: The SCF energy
   geom. index: 17
   prop. index: 1
        SCF Energy:    -1062.7408160566
# -----------------------------------------------------------
$ DFT_Energy
   description: The DFT energy
   geom. index: 17
   prop. index: 1
   Number of Alpha Electrons                 54.9999942492 
   Number of Beta  Electrons                 54.9999942492 
   Total number of  Electrons               109.9999884984 
   Exchange energy                         -108.9122768854 
   Correlation energy                        -3.7332966192 
   Correlation energy NL                      0.0000000000 
   Exchange-Correlation energy             -112.6455735047 
   Embedding correction                       0.0000000000 
   Total DFT Energy (No VdW correction)   -1062.7408160566 
# -----------------------------------------------------------
$ VdW_Correction
   description: The Van der Waals Correction
   geom. index: 17
   prop. index: 1
        Van der Waals Correction:       -0.0082382918
# -----------------------------------------------------------
$ PAL_Flags
   description: The PAL Flags
   geom. index: 18
   prop. index: 1
        Diskflag:     2
# -----------------------------------------------------------
$ SCF_Energy
   description: The SCF energy
   geom. index: 18
   prop. index: 1
        SCF Energy:    -1062.7408160134
# -----------------------------------------------------------
$ DFT_Energy
   description: The DFT energy
   geom. index: 18
   prop. index: 1
   Number of Alpha Electrons                 54.9999997170 
   Number of Beta  Electrons                 54.9999997170 
   Total number of  Electrons               109.9999994340 
   Exchange energy                         -108.9119315662 
   Correlation energy                        -3.7332999547 
   Correlation energy NL                      0.0000000000 
   Exchange-Correlation energy             -112.6452315209 
   Embedding correction                       0.0000000000 
   Total DFT Energy (No VdW correction)   -1062.7408160134 
# -----------------------------------------------------------
$ VdW_Correction
   description: The Van der Waals Correction
   geom. index: 18
   prop. index: 1
        Van der Waals Correction:       -0.0082528268
# -----------------------------------------------------------
$ PAL_Flags
   description: The PAL Flags
   geom. index: 19
   prop. index: 1
        Diskflag:     2
# -----------------------------------------------------------
$ SCF_Energy
   description: The SCF energy
   geom. index: 19
   prop. index: 1
        SCF Energy:    -1062.7408161197
# -----------------------------------------------------------
$ DFT_Energy
   description: The DFT energy
   geom. index: 19
   prop. index: 1
   Number of Alpha Electrons                 55.0000040915 
   Number of Beta  Electrons                 55.0000040915 
   Total number of  Electrons               110.0000081831 
   Exchange energy                         -108.9115208446 
   Correlation energy                        -3.7332977693 
   Correlation energy NL                      0.0000000000 
   Exchange-Correlation energy             -112.6448186139 
   Embedding correction                       0.0000000000 
   Total DFT Energy (No VdW correction)   -1062.7408161197 
# -----------------------------------------------------------
$ VdW_Correction
   description: The Van der Waals Correction
   geom. index: 19
   prop. index: 1
        Van der Waals Correction:       -0.0082633520
# -----------------------------------------------------------
$ PAL_Flags
   description: The PAL Flags
   geom. index: 20
   prop. index: 1
        Diskflag:     2
# -----------------------------------------------------------
$ SCF_Energy
   description: The SCF energy
   geom. index: 20
   prop. index: 1
        SCF Energy:    -1062.7408111092
# -----------------------------------------------------------
$ DFT_Energy
   description: The DFT energy
   geom. index: 20
   prop. index: 1
   Number of Alpha Electrons                 55.0000097728 
   Number of Beta  Electrons                 55.0000097728 
   Total number of  Electrons               110.0000195455 
   Exchange energy                         -108.9110831919 
   Correlation energy                        -3.7332976443 
   Correlation energy NL                      0.0000000000 
   Exchange-Correlation energy             -112.6443808362 
   Embedding correction                       0.0000000000 
   Total DFT Energy (No VdW correction)   -1062.7408111092 
# -----------------------------------------------------------
$ VdW_Correction
   description: The Van der Waals Correction
   geom. index: 20
   prop. index: 1
        Van der Waals Correction:       -0.0082755267
# -----------------------------------------------------------
$ PAL_Flags
   description: The PAL Flags
   geom. index: 21
   prop. index: 1
        Diskflag:     2
# -----------------------------------------------------------
$ SCF_Energy
   description: The SCF energy
   geom. index: 21
   prop. index: 1
        SCF Energy:    -1062.7408110088
# -----------------------------------------------------------
$ DFT_Energy
   description: The DFT energy
   geom. index: 21
   prop. index: 1
   Number of Alpha Electrons                 55.0000112632 
   Number of Beta  Electrons                 55.0000112632 
   Total number of  Electrons               110.0000225263 
   Exchange energy                         -108.9111728208 
   Correlation energy                        -3.7333033286 
   Correlation energy NL                      0.0000000000 
   Exchange-Correlation energy             -112.6444761493 
   Embedding correction                       0.0000000000 
   Total DFT Energy (No VdW correction)   -1062.7408110088 
# -----------------------------------------------------------
$ VdW_Correction
   description: The Van der Waals Correction
   geom. index: 21
   prop. index: 1
        Van der Waals Correction:       -0.0082772045
# -----------------------------------------------------------
$ PAL_Flags
   description: The PAL Flags
   geom. index: 22
   prop. index: 1
        Diskflag:     2
# -----------------------------------------------------------
$ SCF_Energy
   description: The SCF energy
   geom. index: 22
   prop. index: 1
        SCF Energy:    -1062.7408098728
# -----------------------------------------------------------
$ DFT_Energy
   description: The DFT energy
   geom. index: 22
   prop. index: 1
   Number of Alpha Electrons                 55.0000132708 
   Number of Beta  Electrons                 55.0000132708 
   Total number of  Electrons               110.0000265417 
   Exchange energy                         -108.9114426451 
   Correlation energy                        -3.7333198677 
   Correlation energy NL                      0.0000000000 
   Exchange-Correlation energy             -112.6447625129 
   Embedding correction                       0.0000000000 
   Total DFT Energy (No VdW correction)   -1062.7408098728 
# -----------------------------------------------------------
$ VdW_Correction
   description: The Van der Waals Correction
   geom. index: 22
   prop. index: 1
        Van der Waals Correction:       -0.0082791430
# -----------------------------------------------------------
$ PAL_Flags
   description: The PAL Flags
   geom. index: 23
   prop. index: 1
        Diskflag:     2
# -----------------------------------------------------------
$ SCF_Energy
   description: The SCF energy
   geom. index: 23
   prop. index: 1
        SCF Energy:    -1062.7408103250
# -----------------------------------------------------------
$ DFT_Energy
   description: The DFT energy
   geom. index: 23
   prop. index: 1
   Number of Alpha Electrons                 55.0000138461 
   Number of Beta  Electrons                 55.0000138461 
   Total number of  Electrons               110.0000276921 
   Exchange energy                         -108.9116865615 
   Correlation energy                        -3.7333307496 
   Correlation energy NL                      0.0000000000 
   Exchange-Correlation energy             -112.6450173111 
   Embedding correction                       0.0000000000 
   Total DFT Energy (No VdW correction)   -1062.7408103250 
# -----------------------------------------------------------
$ VdW_Correction
   description: The Van der Waals Correction
   geom. index: 23
   prop. index: 1
        Van der Waals Correction:       -0.0082787284
# -----------------------------------------------------------
$ PAL_Flags
   description: The PAL Flags
   geom. index: 24
   prop. index: 1
        Diskflag:     2
# -----------------------------------------------------------
$ SCF_Energy
   description: The SCF energy
   geom. index: 24
   prop. index: 1
        SCF Energy:    -1062.7408085066
# -----------------------------------------------------------
$ DFT_Energy
   description: The DFT energy
   geom. index: 24
   prop. index: 1
   Number of Alpha Electrons                 55.0000152517 
   Number of Beta  Electrons                 55.0000152517 
   Total number of  Electrons               110.0000305033 
   Exchange energy                         -108.9119602800 
   Correlation energy                        -3.7333498695 
   Correlation energy NL                      0.0000000000 
   Exchange-Correlation energy             -112.6453101495 
   Embedding correction                       0.0000000000 
   Total DFT Energy (No VdW correction)   -1062.7408085066 
# -----------------------------------------------------------
$ VdW_Correction
   description: The Van der Waals Correction
   geom. index: 24
   prop. index: 1
        Van der Waals Correction:       -0.0082798192
# -----------------------------------------------------------
$ PAL_Flags
   description: The PAL Flags
   geom. index: 25
   prop. index: 1
        Diskflag:     2
# -----------------------------------------------------------
$ SCF_Energy
   description: The SCF energy
   geom. index: 25
   prop. index: 1
        SCF Energy:    -1062.7408100168
# -----------------------------------------------------------
$ DFT_Energy
   description: The DFT energy
   geom. index: 25
   prop. index: 1
   Number of Alpha Electrons                 55.0000149554 
   Number of Beta  Electrons                 55.0000149554 
   Total number of  Electrons               110.0000299107 
   Exchange energy                         -108.9120700257 
   Correlation energy                        -3.7333510849 
   Correlation energy NL                      0.0000000000 
   Exchange-Correlation energy             -112.6454211106 
   Embedding correction                       0.0000000000 
   Total DFT Energy (No VdW correction)   -1062.7408100168 
# -----------------------------------------------------------
$ VdW_Correction
   description: The Van der Waals Correction
   geom. index: 25
   prop. index: 1
        Van der Waals Correction:       -0.0082783200
# -----------------------------------------------------------
$ PAL_Flags
   description: The PAL Flags
   geom. index: 26
   prop. index: 1
        Diskflag:     2
# -----------------------------------------------------------
$ SCF_Energy
   description: The SCF energy
   geom. index: 26
   prop. index: 1
        SCF Energy:    -1062.7408107474
# -----------------------------------------------------------
$ DFT_Energy
   description: The DFT energy
   geom. index: 26
   prop. index: 1
   Number of Alpha Electrons                 55.0000147728 
   Number of Beta  Electrons                 55.0000147728 
   Total number of  Electrons               110.0000295456 
   Exchange energy                         -108.9120111556 
   Correlation energy                        -3.7333489358 
   Correlation energy NL                      0.0000000000 
   Exchange-Correlation energy             -112.6453600914 
   Embedding correction                       0.0000000000 
   Total DFT Energy (No VdW correction)   -1062.7408107474 
# -----------------------------------------------------------
$ VdW_Correction
   description: The Van der Waals Correction
   geom. index: 26
   prop. index: 1
        Van der Waals Correction:       -0.0082782762
# -----------------------------------------------------------
$ PAL_Flags
   description: The PAL Flags
   geom. index: 27
   prop. index: 1
        Diskflag:     2
# -----------------------------------------------------------
$ SCF_Energy
   description: The SCF energy
   geom. index: 27
   prop. index: 1
        SCF Energy:    -1062.7408114927
# -----------------------------------------------------------
$ DFT_Energy
   description: The DFT energy
   geom. index: 27
   prop. index: 1
   Number of Alpha Electrons                 55.0000146481 
   Number of Beta  Electrons                 55.0000146481 
   Total number of  Electrons               110.0000292961 
   Exchange energy                         -108.9119025339 
   Correlation energy                        -3.7333462480 
   Correlation energy NL                      0.0000000000 
   Exchange-Correlation energy             -112.6452487819 
   Embedding correction                       0.0000000000 
   Total DFT Energy (No VdW correction)   -1062.7408114927 
# -----------------------------------------------------------
$ VdW_Correction
   description: The Van der Waals Correction
   geom. index: 27
   prop. index: 1
        Van der Waals Correction:       -0.0082786964
# -----------------------------------------------------------
$ PAL_Flags
   description: The PAL Flags
   geom. index: 28
   prop. index: 1
        Diskflag:     2
# -----------------------------------------------------------
$ SCF_Energy
   description: The SCF energy
   geom. index: 28
   prop. index: 1
        SCF Energy:    -1062.7408129494
# -----------------------------------------------------------
$ DFT_Energy
   description: The DFT energy
   geom. index: 28
   prop. index: 1
   Number of Alpha Electrons                 55.0000143819 
   Number of Beta  Electrons                 55.0000143819 
   Total number of  Electrons               110.0000287639 
   Exchange energy                         -108.9117855182 
   Correlation energy                        -3.7333444085 
   Correlation energy NL                      0.0000000000 
   Exchange-Correlation energy             -112.6451299267 
   Embedding correction                       0.0000000000 
   Total DFT Energy (No VdW correction)   -1062.7408129494 
# -----------------------------------------------------------
$ VdW_Correction
   description: The Van der Waals Correction
   geom. index: 28
   prop. index: 1
        Van der Waals Correction:       -0.0082790441
# -----------------------------------------------------------
$ PAL_Flags
   description: The PAL Flags
   geom. index: 29
   prop. index: 1
        Diskflag:     2
# -----------------------------------------------------------
$ SCF_Energy
   description: The SCF energy
   geom. index: 29
   prop. index: 1
        SCF Energy:    -1062.7408136833
# -----------------------------------------------------------
$ DFT_Energy
   description: The DFT energy
   geom. index: 29
   prop. index: 1
   Number of Alpha Electrons                 55.0000143443 
   Number of Beta  Electrons                 55.0000143443 
   Total number of  Electrons               110.0000286885 
   Exchange energy                         -108.9117278487 
   Correlation energy                        -3.7333465780 
   Correlation energy NL                      0.0000000000 
   Exchange-Correlation energy             -112.6450744267 
   Embedding correction                       0.0000000000 
   Total DFT Energy (No VdW correction)   -1062.7408136833 
# -----------------------------------------------------------
$ VdW_Correction
   description: The Van der Waals Correction
   geom. index: 29
   prop. index: 1
        Van der Waals Correction:       -0.0082794710
# -----------------------------------------------------------
$ SCF_Electric_Properties
   description: The SCF Calculated Electric Properties
   geom. index: 29
   prop. index: 1
       Filename                          : mol.scfp 
       Do Dipole Moment Calculation      : true 
       Do Quadrupole Moment Calculation  : false 
       Do Polarizability Calculation     : false 
** Dipole moment part of electric properties **
        Magnitude of dipole moment (Debye) :        2.4813719709
        Electronic Contribution:
                  0    
      0      11.918367
      1      14.901315
      2      -1.256479
        Nuclear Contribution:
                  0    
      0     -12.297992
      1     -15.776550
      2       1.463524
        Total Dipole moment:
                  0    
      0      -0.379625
      1      -0.875235
      2       0.207046
# -----------------------------------------------------------
$ PAL_Flags
   description: The PAL Flags
   geom. index: 30
   prop. index: 1
        Diskflag:     2
# -----------------------------------------------------------
$ SCF_Energy
   description: The SCF energy
   geom. index: 30
   prop. index: 1
        SCF Energy:    -1062.7408137108
# -----------------------------------------------------------
$ DFT_Energy
   description: The DFT energy
   geom. index: 30
   prop. index: 1
   Number of Alpha Electrons                 55.0000143441 
   Number of Beta  Electrons                 55.0000143441 
   Total number of  Electrons               110.0000286882 
   Exchange energy                         -108.9117441544 
   Correlation energy                        -3.7333461351 
   Correlation energy NL                      0.0000000000 
   Exchange-Correlation energy             -112.6450902895 
   Embedding correction                       0.0000000000 
   Total DFT Energy (No VdW correction)   -1062.7408137108 
# -----------------------------------------------------------
$ VdW_Correction
   description: The Van der Waals Correction
   geom. index: 30
   prop. index: 1
        Van der Waals Correction:       -0.0082794710
# -----------------------------------------------------------
$ THERMOCHEMISTRY_Energies
   description: The Thermochemistry energies
   geom. index: 30
   prop. index: 1
        Temperature (Kelvin)           :        298.1500000000
        Pressure (atm)                 :          1.0000000000
        Total Mass (AMU)               :        213.0095788828
        Spin Degeneracy                :          1.0000000000
        Electronic Energy (Hartree)    :      -1062.7335074250
        Translational Energy (Hartree) :          0.0014162714
        Rotational Energy (Hartree)    :          0.0014162714
        Vibrational Energy (Hartree)   :          0.0119720839
        Number of frequencies          :     63      
        Scaling Factor for frequencies :          1.0000000000
        Vibrational frequencies        :     
                  0    
      0       0.000000
      1       0.000000
      2       0.000000
      3       0.000000
      4       0.000000
      5       0.000000
      6      17.039301
      7      23.970714
      8      34.025120
      9      58.163484
     10      62.472662
     11      91.566058
     12      95.725299
     13     107.104133
     14     121.484581
     15     174.923908
     16     227.502987
     17     257.945777
     18     307.958451
     19     344.217921
     20     450.650550
     21     461.081902
     22     499.338225
     23     537.843127
     24     550.776420
     25     558.895706
     26     592.950880
     27     641.096047
     28     712.460833
     29     749.897050
     30     750.822102
     31     827.949088
     32     842.095438
     33     928.183431
     34     961.232934
     35     1051.674719
     36     1071.438415
     37     1113.574005
     38     1122.440288
     39     1167.380999
     40     1169.278421
     41     1190.175469
     42     1208.795362
     43     1283.418862
     44     1284.109852
     45     1307.886176
     46     1356.932338
     47     1460.250406
     48     1467.958822
     49     1485.345511
     50     1496.655811
     51     1499.441771
     52     1554.442222
     53     1622.628150
     54     1625.949202
     55     2356.164277
     56     2985.819746
     57     3060.674223
     58     3133.760704
     59     3172.382751
     60     3178.489363
     61     3194.436592
     62     3206.564565
        Zero Point Energy (Hartree)    :          0.1431086656
        Inner Energy (Hartree)         :      -1062.5755941327
        Enthalpy (Hartree)             :      -1062.5746499236
        Electronic entropy             :          0.0000000000
        Rotational entropy             :          0.0154381693
        Vibrational entropy            :          0.0225841639
        Translational entropy          :          0.0154381693
        Entropy                        :          0.0579645129
        Gibbs Energy (Hartree)         :      -1062.6326144366
        Is Linear                      :                 false
# -------------------------------------------------------------
----------------------- !GEOMETRIES! ------------------------
# -------------------------------------------------------------
------------------------ !GEOMETRY! -------------------------
    Number of atoms:    21 
    Geometry Index:     1 
    Coordinates:
               0 C      0.892380000000   -1.448480000000    0.186310000000
               1 C      1.681630000000   -0.852800000000   -0.793260000000
               2 C      0.603370000000   -0.749930000000    1.359830000000
               3 C      2.178900000000    0.432870000000   -0.612290000000
               4 C      1.893580000000    1.130410000000    0.568670000000
               5 C      1.112490000000    0.541530000000    1.543650000000
               6 O      1.992300000000   -1.710380000000   -2.241820000000
               7 C      3.469310000000    2.055640000000   -1.882330000000
               8 H      0.514410000000   -2.449910000000    0.018500000000
               9 H     -0.131370000000   -1.210800000000    2.241730000000
              10 H      2.296740000000    2.128120000000    0.718140000000
              11 H      0.884050000000    1.067050000000    2.465340000000
              12 N      2.964080000000    0.996370000000   -1.623860000000
              13 O      4.007130000000    3.037060000000   -2.250890000000
              14 O      4.386140000000    3.776280000000    0.933660000000
              15 S      5.626660000000    3.454240000000    0.207390000000
              16 O      5.995950000000    2.033840000000    0.107660000000
              17 C      1.519880000000   -3.144620000000   -2.307880000000
              18 H      1.775470000000   -3.560830000000   -3.259900000000
              19 H      0.458280000000   -3.176810000000   -2.177940000000
              20 H      1.991450000000   -3.711540000000   -1.532550000000
------------------------ !GEOMETRY! -------------------------
    Number of atoms:    21 
    Geometry Index:     2 
    Coordinates:
               0 C      0.894562923926   -1.487694582762    0.144776961889
               1 C      1.682228044259   -0.876494963421   -0.817691891612
               2 C      0.603330959774   -0.798612613116    1.317710977157
               3 C      2.181226183886    0.404888479527   -0.641141753461
               4 C      1.889818603542    1.090490970591    0.543863974651
               5 C      1.105774919142    0.490431347743    1.514308114813
               6 O      1.996617482728   -1.634660762512   -2.179118128504
               7 C      3.468662571602    2.031364937393   -1.902407181225
               8 H      0.519557403211   -2.489687806215   -0.030472491388
               9 H     -0.085348628996   -1.249404474505    2.135129154234
              10 H      2.291967927319    2.087535747366    0.698716904884
              11 H      0.875573137497    1.011148723934    2.438203229157
              12 N      2.965767695638    0.970749443398   -1.647569519964
              13 O      4.004675179783    3.014076832409   -2.267377374067
              14 O      4.369909573918    3.750232843840    0.919436166698
              15 S      5.614198878892    3.432588465769    0.197651890600
              16 O      5.987642723172    2.013526766479    0.097218534724
              17 C      1.520243049406   -3.028254357048   -2.202525884817
              18 H      1.784660208228   -3.445774259510   -3.164683622794
              19 H      0.443307295111   -3.053747455046   -2.074787544239
              20 H      1.998453867960   -3.595393284313   -1.411080516737
------------------------ !GEOMETRY! -------------------------
    Number of atoms:    21 
    Geometry Index:     3 
    Coordinates:
               0 C      0.881015358312   -1.517666574575    0.145364781635
               1 C      1.669868793808   -0.910057650605   -0.818711919130
               2 C      0.592958170020   -0.821160660108    1.313307570408
               3 C      2.173106713265    0.372714398866   -0.650365516281
               4 C      1.881554307727    1.061264881654    0.531415683850
               5 C      1.095064936326    0.465446246512    1.505791706762
               6 O      1.990705881661   -1.559422572035   -2.077229022313
               7 C      3.461563999635    1.986120609749   -1.921027767431
               8 H      0.501392456184   -2.517902385745   -0.016320798273
               9 H     -0.060699685581   -1.256145141819    2.087196000802
              10 H      2.287121579233    2.057977017806    0.679679475216
              11 H      0.868649486406    0.994364389898    2.425862969824
              12 N      2.957000486848    0.928672995002   -1.657862846730
              13 O      3.999383696044    2.964481073875   -2.293810492710
              14 O      4.360236617757    3.729083396462    0.886726644379
              15 S      5.605427786909    3.403099376683    0.170333306235
              16 O      5.976887589681    1.982763221009    0.083212391201
              17 C      1.545352697653   -2.926490706606   -2.154187100129
              18 H      1.851389604415   -3.286191802879   -3.134808097330
              19 H      0.457072867524   -2.984773840105   -2.063660347197
              20 H      2.017776656171   -3.528866273040   -1.372746622787
------------------------ !GEOMETRY! -------------------------
    Number of atoms:    21 
    Geometry Index:     4 
    Coordinates:
               0 C      0.862853263321   -1.536663296968    0.179143771973
               1 C      1.654369587844   -0.952489537680   -0.805990748001
               2 C      0.581891381414   -0.820055640168    1.337899998159
               3 C      2.162415210315    0.341090084164   -0.640926983353
               4 C      1.874766645088    1.043715096025    0.530979954984
               5 C      1.085685451099    0.464329252101    1.515267963911
               6 O      1.978797268703   -1.511415605537   -1.948431050597
               7 C      3.456843845678    1.930084982373   -1.935065964552
               8 H      0.473457131498   -2.536844238958    0.050649646333
               9 H     -0.045107467770   -1.249862055576    2.097158859428
              10 H      2.288160004936    2.039464842224    0.664289098941
              11 H      0.867847704189    1.010851919841    2.427042939085
              12 N      2.948921918401    0.879501558047   -1.652491186119
              13 O      3.998918574195    2.899200978434   -2.326492528176
              14 O      4.348184105195    3.732794545487    0.837778053655
              15 S      5.595728638381    3.386962770152    0.135135745590
              16 O      5.962972906623    1.963858514964    0.080396193716
              17 C      1.572768426311   -2.854710384140   -2.160850853473
              18 H      1.964309653134   -3.116536279916   -3.148227205190
              19 H      0.476084827947   -2.949662857580   -2.167684585836
              20 H      2.002960923495   -3.526304647293   -1.401421120479
------------------------ !GEOMETRY! -------------------------
    Number of atoms:    21 
    Geometry Index:     5 
    Coordinates:
               0 C      0.882197162948   -1.534282387952    0.198375018597
               1 C      1.674522444682   -0.956901848826   -0.792371195116
               2 C      0.594576982870   -0.812449516131    1.353049488774
               3 C      2.176074286428    0.343522002594   -0.625969204290
               4 C      1.881656416406    1.051559628616    0.540476945612
               5 C      1.091172383971    0.475441180954    1.525334684600
               6 O      2.019496337981   -1.567162437986   -1.975956075715
               7 C      3.470003947106    1.930499694957   -1.927050271036
               8 H      0.498017383568   -2.538539894092    0.076688338429
               9 H     -0.021907122779   -1.249117442179    2.120146672255
              10 H      2.292080803441    2.048958523029    0.670374940210
              11 H      0.869056287393    1.026211752531    2.433492878271
              12 N      2.967245250286    0.879531609303   -1.636565427165
              13 O      4.008751920667    2.898915945626   -2.325778633227
              14 O      4.328147038752    3.776353919388    0.829928714321
              15 S      5.583485814440    3.427276834499    0.142926869860
              16 O      5.958338565385    2.005355675468    0.109758477897
              17 C      1.541762860824   -2.889301029971   -2.202492846194
              18 H      1.966860058679   -3.188781513298   -3.163190197819
              19 H      0.444722091926   -2.914095420728   -2.267091986447
              20 H      1.886569085027   -3.575685275802   -1.415927191816
------------------------ !GEOMETRY! -------------------------
    Number of atoms:    21 
    Geometry Index:     6 
    Coordinates:
               0 C      0.850782923683   -1.516632586887    0.168338006818
               1 C      1.645081242209   -0.939428030292   -0.821261819247
               2 C      0.579066144890   -0.809030271965    1.336283480527
               3 C      2.162090430462    0.355530488293   -0.634694965822
               4 C      1.884682548063    1.049394807272    0.542998788004
               5 C      1.093199442359    0.469129186002    1.525452118458
               6 O      1.972077780918   -1.542130738460   -1.999784489722
               7 C      3.465455358860    1.944533038800   -1.927590000238
               8 H      0.447410266070   -2.513165991472    0.034057988648
               9 H     -0.041927820970   -1.261582218437    2.110164112289
              10 H      2.308256519151    2.039832740328    0.683505609508
              11 H      0.883448582698    1.011564812730    2.441507033172
              12 N      2.954396239541    0.896188388071   -1.642617187535
              13 O      4.011829068181    2.910762108278   -2.322053019740
              14 O      4.351100429421    3.770446560275    0.836374121519
              15 S      5.600728872353    3.409688438919    0.145028795960
              16 O      5.958885738187    1.983558423384    0.104119941088
              17 C      1.566641965607   -2.896198059622   -2.177467096966
              18 H      1.933006467085   -3.183253708883   -3.164640841904
              19 H      0.472482316917   -2.992492495894   -2.153265748040
              20 H      2.014135484316   -3.549404890439   -1.416294826778
------------------------ !GEOMETRY! -------------------------
    Number of atoms:    21 
    Geometry Index:     7 
    Coordinates:
               0 C      0.908716426707   -1.547888987799    0.191682583829
               1 C      1.710406357060   -0.979921829543   -0.798266009421
               2 C      0.607306427222   -0.826363497456    1.344266131574
               3 C      2.202750681468    0.328823394741   -0.619212575417
               4 C      1.896603663752    1.037004870293    0.540931152111
               5 C      1.098829325781    0.461284507308    1.522117218115
               6 O      2.057891410098   -1.591017443907   -1.947249277283
               7 C      3.498552007752    1.915108131028   -1.927497715799
               8 H      0.517500797385   -2.551504872650    0.069328482783
               9 H     -0.017214988645   -1.284188194330    2.115093983133
              10 H      2.303153231110    2.036115604017    0.669880313683
              11 H      0.867101629383    1.018023768307    2.424136912025
              12 N      3.003141673169    0.864720547581   -1.623969526348
              13 O      4.033542512873    2.881336507153   -2.338021426371
              14 O      4.294514672426    3.841090010262    0.798119096439
              15 S      5.564301142659    3.480680269323    0.144413095359
              16 O      5.946062978843    2.060020047441    0.153691832312
              17 C      1.502802268377   -2.878320870326   -2.199349591636
              18 H      1.924289696421   -3.199210357557   -3.152833837442
              19 H      0.408674824768   -2.833654213052   -2.282579455409
              20 H      1.783903261392   -3.594827390836   -1.416521386236
------------------------ !GEOMETRY! -------------------------
    Number of atoms:    21 
    Geometry Index:     8 
    Coordinates:
               0 C      0.873774276329   -1.529516624849    0.186060510747
               1 C      1.674318619303   -0.962835173339   -0.806480540973
               2 C      0.589621599138   -0.814051055079    1.346725425737
               3 C      2.182570462706    0.338407117147   -0.619518895369
               4 C      1.893972000509    1.040259377859    0.548796809308
               5 C      1.097134061102    0.466057548639    1.531669640095
               6 O      2.012388783534   -1.566284677084   -1.970992042919
               7 C      3.485308723044    1.920517524934   -1.926851591345
               8 H      0.469793074677   -2.526720564748    0.060005733056
               9 H     -0.029801259264   -1.266669040845    2.110190173014
              10 H      2.312908556781    2.033631750267    0.682299377580
              11 H      0.879065702916    1.018316615043    2.439810571700
              12 N      2.981233336869    0.873524677302   -1.626161691466
              13 O      4.027355688225    2.883723624420   -2.335170137871
              14 O      4.319829802052    3.823774166159    0.803360522877
              15 S      5.581279572361    3.452430207848    0.139742597877
              16 O      5.946666597268    2.027447750287    0.139035505977
              17 C      1.537016064734   -2.889359619597   -2.199097869711
              18 H      1.929576187884   -3.178540478678   -3.175097189649
              19 H      0.439536010261   -2.921656330223   -2.224545269527
              20 H      1.909282139572   -3.585146795463   -1.435621639137
------------------------ !GEOMETRY! -------------------------
    Number of atoms:    21 
    Geometry Index:     9 
    Coordinates:
               0 C      0.873496390203   -1.529114882817    0.182135600189
               1 C      1.674317481818   -0.961504126303   -0.809013805872
               2 C      0.590030803551   -0.815835068717    1.344353557511
               3 C      2.184743271048    0.338004169135   -0.619676374802
               4 C      1.897380140290    1.038029521067    0.549860803655
               5 C      1.099395562385    0.463314357580    1.531747396805
               6 O      2.011523942033   -1.566256005834   -1.976594128998
               7 C      3.488760010941    1.920384296185   -1.926961977103
               8 H      0.468965163395   -2.526085755211    0.054307340155
               9 H     -0.033418153818   -1.271224362304    2.109073881152
              10 H      2.317874277213    2.030524489838    0.684959177012
              11 H      0.882576354170    1.014485640182    2.440831996538
              12 N      2.984661732826    0.873846512908   -1.625218481136
              13 O      4.031098336837    2.883188840210   -2.335890887952
              14 O      4.317239761227    3.832913381432    0.798936500655
              15 S      5.580058897575    3.457482163313    0.140274514756
              16 O      5.942938940780    2.031864046107    0.145010096720
              17 C      1.533918419072   -2.889964037402   -2.197290765306
              18 H      1.923233519069   -3.184398510570   -3.172902346589
              19 H      0.436438472013   -2.920404428978   -2.218707385956
              20 H      1.907596677374   -3.581940239823   -1.431074711433
------------------------ !GEOMETRY! -------------------------
    Number of atoms:    21 
    Geometry Index:     10 
    Coordinates:
               0 C      0.873899005052   -1.529857627310    0.181806172232
               1 C      1.676240488544   -0.963707780726   -0.808888984714
               2 C      0.590812770112   -0.817002273446    1.344532926379
               3 C      2.188473999721    0.335011631841   -0.617548221817
               4 C      1.901848590543    1.034707038516    0.552035413677
               5 C      1.102149741292    0.460967938010    1.533402012962
               6 O      2.012900523395   -1.567955308385   -1.976025347463
               7 C      3.494026017524    1.915792450416   -1.927006213086
               8 H      0.467309969305   -2.526051533988    0.053888783678
               9 H     -0.033959044068   -1.273120117798    2.107323326922
              10 H      2.324082071635    2.026418623019    0.687531998106
              11 H      0.886253272427    1.012646500575    2.442378677126
              12 N      2.990369661911    0.870193774752   -1.621959156043
              13 O      4.036475367206    2.877527559180   -2.338472444836
              14 O      4.310679078321    3.847814027556    0.789408734695
              15 S      5.576175160760    3.466077088293    0.139596860789
              16 O      5.936505906401    2.039869018998    0.155263131945
              17 C      1.529421777211   -2.889247061687   -2.199306473935
              18 H      1.918593997247   -3.184491004340   -3.174657787252
              19 H      0.431872731201   -2.914416591487   -2.221781526608
              20 H      1.898698914260   -3.583866351989   -1.433361882758
------------------------ !GEOMETRY! -------------------------
    Number of atoms:    21 
    Geometry Index:     11 
    Coordinates:
               0 C      0.872818515703   -1.531385225593    0.180655809759
               1 C      1.679952425388   -0.969464646336   -0.808221739483
               2 C      0.593083072447   -0.819935401049    1.345495936369
               3 C      2.200182532057    0.325447707880   -0.611406742424
               4 C      1.917638601351    1.023918980897    0.559303093473
               5 C      1.112542779127    0.453620840925    1.538975603869
               6 O      2.013688427875   -1.571857522367   -1.976361675595
               7 C      3.511062608509    1.900480099458   -1.927324855893
               8 H      0.458771892267   -2.524443747528    0.051920383969
               9 H     -0.036097325107   -1.276773824897    2.103209069906
              10 H      2.346698903190    2.012495316056    0.696584413384
              11 H      0.900854705300    1.006251642386    2.448321390631
              12 N      3.008260943030    0.858193284816   -1.612013103885
              13 O      4.054292338118    2.858826286656   -2.346129808781
              14 O      4.288510789982    3.895797942383    0.756883251623
              15 S      5.562553723129    3.491686950884    0.138057252138
              16 O      5.911570673984    2.063437646082    0.189532769890
              17 C      1.516485639994   -2.887289946167   -2.206113615211
              18 H      1.904749316581   -3.183242685506   -3.181546438043
              19 H      0.418782418406   -2.900104332436   -2.230148611578
              20 H      1.876427018669   -3.588349366542   -1.441512384119
------------------------ !GEOMETRY! -------------------------
    Number of atoms:    21 
    Geometry Index:     12 
    Coordinates:
               0 C      0.871133313931   -1.532317532904    0.179290925708
               1 C      1.681972352762   -0.973276907616   -0.807903373150
               2 C      0.595648938733   -0.822035384736    1.346133613484
               3 C      2.210204848867    0.317785251748   -0.607437374861
               4 C      1.931928918007    1.015147541703    0.564914166449
               5 C      1.122810404005    0.447594677916    1.543128100309
               6 O      2.012171460960   -1.574321675159   -1.977715159548
               7 C      3.525959984076    1.887564185725   -1.927835228940
               8 H      0.450463091852   -2.522393510620    0.049105528220
               9 H     -0.036743798448   -1.278082577683    2.101294232133
              10 H      2.367173147518    2.000776586287    0.704150232248
              11 H      0.915073626087    1.000177036321    2.453406318548
              12 N      3.023378921866    0.848090380355   -1.604693608617
              13 O      4.070240977911    2.843253946193   -2.351688556957
              14 O      4.268429305784    3.936044052811    0.728125806782
              15 S      5.549569069293    3.511304291424    0.138414988211
              16 O      5.885894658878    2.081364581038    0.220242806325
              17 C      1.505925707891   -2.885833485324   -2.211374715107
              18 H      1.892496623375   -3.181495160295   -3.187563723217
              19 H      0.408157474428   -2.890751432203   -2.235338571886
              20 H      1.860940972226   -3.591284864981   -1.448496406134
------------------------ !GEOMETRY! -------------------------
    Number of atoms:    21 
    Geometry Index:     13 
    Coordinates:
               0 C      0.867768480414   -1.534247999441    0.176107999780
               1 C      1.687429026988   -0.982306914195   -0.807305624656
               2 C      0.604707620486   -0.826564684240    1.347897447414
               3 C      2.237219262911    0.298226100765   -0.599033723439
               4 C      1.970632861031    0.993216120434    0.577789657733
               5 C      1.152175501100    0.432918972123    1.552620651178
               6 O      2.007283718815   -1.580483348178   -1.981732536161
               7 C      3.565889325095    1.853524198212   -1.928752397549
               8 H      0.430035332558   -2.516241629230    0.041500335652
               9 H     -0.034788820914   -1.278294832927    2.099335163235
              10 H      2.421879310946    1.971155832363    0.721838442494
              11 H      0.954510723408    0.984431496970    2.465800323921
              12 N      3.063343174233    0.821094314071   -1.587737096665
              13 O      4.113387257472    2.803064849848   -2.363162854858
              14 O      4.213277439908    4.037191993056    0.649563235829
              15 S      5.511075440373    3.557850760353    0.143598578148
              16 O      5.807277715343    2.125282389823    0.303033511343
              17 C      1.478215264330   -2.881517348526   -2.224721960613
              18 H      1.859119306506   -3.175732593505   -3.203602092608
              19 H      0.380499688672   -2.866852580284   -2.247510047943
              20 H      1.821892370326   -3.598405097495   -1.467367012234
------------------------ !GEOMETRY! -------------------------
    Number of atoms:    21 
    Geometry Index:     14 
    Coordinates:
               0 C      0.867787897005   -1.534441772561    0.176810966833
               1 C      1.685812601354   -0.979977671427   -0.806782486426
               2 C      0.603046196003   -0.826792436965    1.347908708303
               3 C      2.232699142777    0.301995799311   -0.600061217289
               4 C      1.963991652368    0.996737715489    0.576722484574
               5 C      1.147318649894    0.434461725613    1.551495582555
               6 O      2.006905369525   -1.578276424158   -1.981087792499
               7 C      3.559512688677    1.859479815798   -1.929663488681
               8 H      0.433052279618   -2.517612650895    0.041383041800
               9 H     -0.034794255106   -1.277968711827    2.101282864333
              10 H      2.411785609321    1.975893681531    0.720692945412
              11 H      0.947080595496    0.984962714318    2.464748615326
              12 N      3.055534758760    0.826289855147   -1.591098179099
              13 O      4.107621036787    2.809207130275   -2.362446416556
              14 O      4.226263941439    4.027110289322    0.658130961708
              15 S      5.519860192091    3.547993352010    0.141836159469
              16 O      5.813697869394    2.113988641086    0.292123186196
              17 C      1.483624997950   -2.881728770739   -2.222425189548
              18 H      1.865251622434   -3.175073722626   -3.201327855561
              19 H      0.385831186935   -2.872314879644   -2.245211774059
              20 H      1.830945967277   -3.596623679058   -1.464871116791
------------------------ !GEOMETRY! -------------------------
    Number of atoms:    21 
    Geometry Index:     15 
    Coordinates:
               0 C      0.868251999745   -1.535131754782    0.177295525828
               1 C      1.685447409454   -0.978420481844   -0.806278084812
               2 C      0.605465632700   -0.828026422866    1.348463801090
               3 C      2.233981549425    0.302978102403   -0.601021752803
               4 C      1.966312905596    0.996762394817    0.577228933454
               5 C      1.151107637031    0.433267882443    1.551512098699
               6 O      2.004435441776   -1.576822582313   -1.981718222731
               7 C      3.561206334874    1.858870919073   -1.932530327232
               8 H      0.433748607357   -2.517819114334    0.038354433084
               9 H     -0.030617051680   -1.275076382589    2.106395377087
              10 H      2.413658579419    1.975605576547    0.722540867017
              11 H      0.949666847253    0.980634744750    2.466438029287
              12 N      3.053933386035    0.826618281297   -1.594376155175
              13 O      4.112514181319    2.806962573265   -2.364204186881
              14 O      4.230467853899    4.045772744707    0.645864795827
              15 S      5.520215056595    3.541503395527    0.144850244256
              16 O      5.786331151342    2.103136311624    0.306038028157
              17 C      1.483554950964   -2.880724878308   -2.222558622443
              18 H      1.863527800414   -3.172396493325   -3.202710182302
              19 H      0.385663297301   -2.874244747510   -2.244447964380
              20 H      1.833956429181   -3.596140068581   -1.466976635028
------------------------ !GEOMETRY! -------------------------
    Number of atoms:    21 
    Geometry Index:     16 
    Coordinates:
               0 C      0.870743733163   -1.534455968943    0.178183248830
               1 C      1.685164184187   -0.976604029366   -0.807398445692
               2 C      0.607229013918   -0.826504824202    1.348336349463
               3 C      2.229861701622    0.306991571360   -0.604867879075
               4 C      1.961738950951    1.001537362568    0.572746304169
               5 C      1.149780174711    0.436857958278    1.548748984110
               6 O      2.004634481319   -1.576351592164   -1.981971395681
               7 C      3.554085708870    1.864904581322   -1.934207929415
               8 H      0.439618224099   -2.518716760350    0.039711111853
               9 H     -0.026392104869   -1.272633918695    2.109122750559
              10 H      2.406694322879    1.981858317443    0.716725860909
              11 H      0.947053528264    0.983643895998    2.463739738805
              12 N      3.045615148554    0.831479076484   -1.601194788462
              13 O      4.106397917091    2.813940482406   -2.362130164641
              14 O      4.238908565174    4.036003817132    0.658045841619
              15 S      5.524250007621    3.528308492143    0.149604021019
              16 O      5.783299327730    2.087638915175    0.301136163678
              17 C      1.487357453149   -2.881866095600   -2.220263318004
              18 H      1.867082450810   -3.174375376029   -3.200276321670
              19 H      0.389415001049   -2.878913054928   -2.241541887645
              20 H      1.840292209707   -3.595432850030   -1.464088244731
------------------------ !GEOMETRY! -------------------------
    Number of atoms:    21 
    Geometry Index:     17 
    Coordinates:
               0 C      0.877628008013   -1.532917587679    0.179927170922
               1 C      1.686418960898   -0.975028404432   -0.810759146009
               2 C      0.615818567833   -0.823189725344    1.348932354361
               3 C      2.226677779092    0.311420343060   -0.613183390422
               4 C      1.960496609960    1.008144983921    0.563296680774
               5 C      1.154652968414    0.443074962683    1.543885236886
               6 O      2.004007494827   -1.577216103698   -1.984340503070
               7 C      3.546964026204    1.871692256608   -1.938572852981
               8 H      0.450592178095   -2.519343316439    0.043630347099
               9 H     -0.013355331506   -1.267632403950    2.114528657998
              10 H      2.402403182871    1.990770278417    0.703169107721
              11 H      0.952044254347    0.989884012330    2.458875160725
              12 N      3.035375522700    0.836699142606   -1.615021020594
              13 O      4.102775361653    2.822170035575   -2.358619010299
              14 O      4.244794189386    4.035976008111    0.670338265790
              15 S      5.522572712260    3.505734264947    0.165924037827
              16 O      5.752227737231    2.059352815937    0.311163418860
              17 C      1.488854824839   -2.884018927049   -2.218240804414
              18 H      1.865763398636   -3.178678278573   -3.198694178952
              19 H      0.390818367241   -2.883910142589   -2.236246079796
              20 H      1.845299187008   -3.595674214443   -1.461833452425
------------------------ !GEOMETRY! -------------------------
    Number of atoms:    21 
    Geometry Index:     18 
    Coordinates:
               0 C      0.886739888084   -1.530531565543    0.181926944604
               1 C      1.687882705426   -0.973179672645   -0.815406208551
               2 C      0.626977566808   -0.818264797256    1.349700390007
               3 C      2.222350874997    0.316676059144   -0.624049494353
               4 C      1.958551804278    1.016559070649    0.550727326156
               5 C      1.160406964392    0.451479062861    1.537751176573
               6 O      2.002771675394   -1.577949849096   -1.988055297344
               7 C      3.538302617732    1.880701392621   -1.943893872766
               8 H      0.464476698380   -2.519801135103    0.050814494403
               9 H      0.003271218859   -1.263292614972    2.119287572240
              10 H      2.396065965124    2.002225486373    0.684279066479
              11 H      0.959389058791    1.000247572313    2.451882608815
              12 N      3.022643652978    0.843662961257   -1.632644117759
              13 O      4.098404973683    2.833300223478   -2.353282883672
              14 O      4.251202603657    4.032268518977    0.688866623981
              15 S      5.519318155492    3.476523516272    0.187234271510
              16 O      5.714541781812    2.023948599129    0.321591184597
              17 C      1.490641157000   -2.887079063232   -2.215559401006
              18 H      1.863767503215   -3.184335551880   -3.196629709624
              19 H      0.392535482085   -2.890587220704   -2.227957453322
              20 H      1.852587651814   -3.595260992645   -1.458423220970
------------------------ !GEOMETRY! -------------------------
    Number of atoms:    21 
    Geometry Index:     19 
    Coordinates:
               0 C      0.892614309131   -1.529095826187    0.182898723615
               1 C      1.689229829360   -0.972535821950   -0.818225193671
               2 C      0.634756145522   -0.815091202112    1.350307346617
               3 C      2.221455353866    0.318610841011   -0.630539309589
               4 C      1.959398560352    1.020573518279    0.543315366624
               5 C      1.165428208900    0.456103481417    1.534408516847
               6 O      2.001557551551   -1.578488068332   -1.990865901210
               7 C      3.535568938052    1.884650672507   -1.947580056923
               8 H      0.471802206635   -2.519622873205    0.056586982318
               9 H      0.013994468166   -1.262202928408    2.120824522500
              10 H      2.394526875977    2.007778471507    0.672681768629
              11 H      0.966859887857    1.007617680915    2.447398135096
              12 N      3.017158393315    0.846615135492   -1.643162602582
              13 O      4.098404981281    2.838424775005   -2.350279903260
              14 O      4.251774936469    4.033709299636    0.698041540847
              15 S      5.514114017010    3.460279256844    0.201532098188
              16 O      5.686155871872    2.004276555900    0.331040414513
              17 C      1.490082429657   -2.888857944163   -2.214472783450
              18 H      1.860524868708   -3.187226341699   -3.196182257590
              19 H      0.391967508708   -2.893289571662   -2.222576399763
              20 H      1.855454657613   -3.594919110797   -1.456991007755
------------------------ !GEOMETRY! -------------------------
    Number of atoms:    21 
    Geometry Index:     20 
    Coordinates:
               0 C      0.898738974395   -1.527596011399    0.183702533391
               1 C      1.689206270652   -0.970244349091   -0.821431549196
               2 C      0.643252349974   -0.812082102589    1.351145985569
               3 C      2.218695442809    0.322385952817   -0.638184683631
               4 C      1.958496427542    1.025802415287    0.535380824612
               5 C      1.170094070885    0.460872746925    1.530924680745
               6 O      1.998600512517   -1.577187234380   -1.994483281539
               7 C      3.532443738422    1.889618075709   -1.952482751375
               8 H      0.479842547566   -2.519597359280    0.063171640575
               9 H      0.026877034693   -1.262501848801    2.123045765713
              10 H      2.390228807272    2.014764562992    0.660824993771
              11 H      0.974657166760    1.015436633816    2.442742196311
              12 N      3.008844034599    0.851507000460   -1.655434792028
              13 O      4.099965537252    2.843699702273   -2.347418664307
              14 O      4.257061902826    4.036574543461    0.707193109707
              15 S      5.510277776283    3.438295934702    0.216911209577
              16 O      5.649864466449    1.978206661665    0.340506946293
              17 C      1.491086557266   -2.890402160806   -2.212602298072
              18 H      1.858614489369   -3.188987237559   -3.195318038448
              19 H      0.393008804353   -2.898586646497   -2.215222219769
              20 H      1.862973088116   -3.592669279704   -1.454811607898
------------------------ !GEOMETRY! -------------------------
    Number of atoms:    21 
    Geometry Index:     21 
    Coordinates:
               0 C      0.899758709871   -1.527786030587    0.183947703488
               1 C      1.688876846166   -0.969268797819   -0.821481657734
               2 C      0.644373936267   -0.812255543184    1.351580300047
               3 C      2.217426699573    0.323845834035   -0.639131483015
               4 C      1.956904993022    1.027031458296    0.534626115575
               5 C      1.169837028618    0.461198163310    1.530707903203
               6 O      1.997879293342   -1.575991878226   -1.994897395681
               7 C      3.531940562107    1.890450056501   -1.953760388868
               8 H      0.481308629500   -2.520064564694    0.064572598143
               9 H      0.029158271748   -1.263779455770    2.123794822451
              10 H      2.387258280223    2.016536120341    0.659941043864
              11 H      0.974742226520    1.016405591100    2.442221954896
              12 N      3.006107164400    0.853220912809   -1.657252536824
              13 O      4.101299382274    2.843729180390   -2.347713978832
              14 O      4.261768690347    4.039078506357    0.707393125526
              15 S      5.511471586610    3.432723101626    0.218430843632
              16 O      5.640852114133    1.971630895098    0.341119649355
              17 C      1.492212438642   -2.890104659482   -2.212185592051
              18 H      1.859410135833   -3.187927017373   -3.195275750935
              19 H      0.394147947185   -2.899878577008   -2.213887375090
              20 H      1.866095063620   -3.591483295721   -1.454589901152
------------------------ !GEOMETRY! -------------------------
    Number of atoms:    21 
    Geometry Index:     22 
    Coordinates:
               0 C      0.901129949351   -1.528090559447    0.184295504731
               1 C      1.688107937291   -0.967576974441   -0.821606007179
               2 C      0.645616705082   -0.812711763247    1.352181700524
               3 C      2.214844475039    0.326543864989   -0.640426160343
               4 C      1.953765254477    1.029151856801    0.533636090336
               5 C      1.168831471552    0.461658324150    1.530407825325
               6 O      1.997050273233   -1.574068873775   -1.995324741956
               7 C      3.530503010707    1.891995204803   -1.955617135724
               8 H      0.483862618377   -2.520960030569    0.066179121106
               9 H      0.032295471335   -1.265381284931    2.125312759727
              10 H      2.382037650676    2.019527735023    0.659099234097
              11 H      0.973883128688    1.017297760199    2.441714146669
              12 N      3.000969213134    0.856507696131   -1.659678827229
              13 O      4.102966725850    2.843756544490   -2.348468416887
              14 O      4.270879244006    4.042664273384    0.708382398675
              15 S      5.514435900421    3.423733200803    0.220085204954
              16 O      5.627747799964    1.961141813666    0.340462853255
              17 C      1.494579498709   -2.889585386691   -2.211407243225
              18 H      1.861519434334   -3.186543776092   -3.194883286948
              19 H      0.396540547973   -2.902158613606   -2.212210453123
              20 H      1.871263689802   -3.589591011640   -1.453974566785
------------------------ !GEOMETRY! -------------------------
    Number of atoms:    21 
    Geometry Index:     23 
    Coordinates:
               0 C      0.901405256022   -1.528490881993    0.184521217786
               1 C      1.687861630184   -0.967079837924   -0.821272107841
               2 C      0.645441826765   -0.813393331054    1.352525539134
               3 C      2.213668508979    0.327575639203   -0.640186792230
               4 C      1.952048896209    1.029730988894    0.533990702953
               5 C      1.167734927587    0.461356490978    1.530728429834
               6 O      1.997198440292   -1.573257058277   -1.995079308756
               7 C      3.530183200924    1.892126451479   -1.956266466324
               8 H      0.484724383991   -2.521599057871    0.066417475245
               9 H      0.032626382657   -1.266209553417    2.126032750358
              10 H      2.379466964484    2.020451916848    0.659902687936
              11 H      0.972438982616    1.016827422928    2.442071448704
              12 N      2.998822205465    0.857968655494   -1.659497296983
              13 O      4.104199064151    2.842729134958   -2.349650132657
              14 O      4.276133228346    4.045633864608    0.708228551930
              15 S      5.516594650253    3.421138289704    0.219453914357
              16 O      5.622982703311    1.957991883058    0.338848853524
              17 C      1.495761051948   -2.889063551358   -2.211334370603
              18 H      1.862784260323   -3.185608845056   -3.194916186501
              19 H      0.397726109081   -2.902556204553   -2.212255433527
              20 H      1.873027326412   -3.588962416649   -1.454103476341
------------------------ !GEOMETRY! -------------------------
    Number of atoms:    21 
    Geometry Index:     24 
    Coordinates:
               0 C      0.902843637213   -1.528782839441    0.185079094625
               1 C      1.687515698310   -0.966163832470   -0.821394498903
               2 C      0.646562898988   -0.814038579175    1.353234742311
               3 C      2.211317966224    0.329621657560   -0.640881288548
               4 C      1.949417330616    1.031341986775    0.533366835455
               5 C      1.166939827677    0.461636202510    1.530813165502
               6 O      1.997216918793   -1.572042872284   -1.995231244792
               7 C      3.529481473350    1.892740419364   -1.958165345486
               8 H      0.487778853485   -2.522624815250    0.067350842783
               9 H      0.035161480728   -1.267020507560    2.127806848921
              10 H      2.375195276433    2.022843012339    0.659258014304
              11 H      0.971381793689    1.016748393173    2.442322027014
              12 N      2.994096150394    0.861166450328   -1.660725000562
              13 O      4.107104717499    2.841154507943   -2.351747358512
              14 O      4.285872876071    4.052280812154    0.710315741002
              15 S      5.519099649135    3.414053067784    0.221197200445
              16 O      5.608019412133    1.949489159427    0.337255371861
              17 C      1.497633738074   -2.888505505140   -2.211121386647
              18 H      1.864242582286   -3.184845115755   -3.194925536684
              19 H      0.399611882681   -2.903802006478   -2.211475827586
              20 H      1.876335836220   -3.587939595804   -1.454172396504
------------------------ !GEOMETRY! -------------------------
    Number of atoms:    21 
    Geometry Index:     25 
    Coordinates:
               0 C      0.902506976534   -1.528999801276    0.185212172891
               1 C      1.687736401498   -0.966727916260   -0.821031358347
               2 C      0.645952332693   -0.814518526505    1.353368777924
               3 C      2.211644647780    0.328947274247   -0.639861087873
               4 C      1.949598904127    1.030645413694    0.534305989094
               5 C      1.166587982555    0.461067167624    1.531443416818
               6 O      1.997785218161   -1.572347271085   -1.994824911552
               7 C      3.530719671060    1.891514969863   -1.958140592191
               8 H      0.487525751852   -2.522823338121    0.066756348432
               9 H      0.034037483549   -1.267173527462    2.127701869624
              10 H      2.375651582868    2.022021354260    0.660286906277
              11 H      0.970639726015    1.015677217562    2.443162374345
              12 N      2.995043911680    0.860763960018   -1.658995748879
              13 O      4.108657219776    2.839139866478   -2.353312623066
              14 O      4.286258804769    4.054937792076    0.710588524152
              15 S      5.519082247813    3.416893467492    0.220155290129
              16 O      5.608293072213    1.952350787033    0.335631564416
              17 C      1.497191056953   -2.888247897004   -2.211644564732
              18 H      1.863875152666   -3.184641160456   -3.195392845719
              19 H      0.399154785577   -2.902704364492   -2.212355471980
              20 H      1.874887069857   -3.588465467687   -1.454894029764
------------------------ !GEOMETRY! -------------------------
    Number of atoms:    21 
    Geometry Index:     26 
    Coordinates:
               0 C      0.902480983474   -1.528758494721    0.185291447641
               1 C      1.688116581388   -0.967349455392   -0.821151733247
               2 C      0.646153152128   -0.814189169449    1.353318730633
               3 C      2.212525932269    0.327962511748   -0.639659044285
               4 C      1.950881457380    1.030089480999    0.534347286636
               5 C      1.167391098430    0.461211031154    1.531533468495
               6 O      1.997984521778   -1.573066544601   -1.994848537661
               7 C      3.532077082079    1.890429264574   -1.958401025573
               8 H      0.487415571564   -2.522534541098    0.066434461329
               9 H      0.033783315626   -1.266617832318    2.127351258812
              10 H      2.377579988324    2.021238120692    0.659759126828
              11 H      0.971452775349    1.015567340979    2.443391503886
              12 N      2.996611587054    0.859896200232   -1.658402961542
              13 O      4.109924855848    2.837800405114   -2.354477395987
              14 O      4.283821679884    4.055730094423    0.713686349427
              15 S      5.516879739481    3.419644745122    0.221026907781
              16 O      5.607834924896    1.955051383114    0.334328733631
              17 C      1.496136221895   -2.888489127248   -2.211962263822
              18 H      1.862620848646   -3.185196740303   -3.195669545416
              19 H      0.398091461044   -2.901908792224   -2.212478812442
              20 H      1.873066221466   -3.589199880796   -1.455257955127
------------------------ !GEOMETRY! -------------------------
    Number of atoms:    21 
    Geometry Index:     27 
    Coordinates:
               0 C      0.902291244869   -1.528462387503    0.185229233845
               1 C      1.688377851356   -0.967684402159   -0.821267653260
               2 C      0.646315010358   -0.813683784587    1.353146317620
               3 C      2.213523001584    0.327182901183   -0.639692491034
               4 C      1.952243968825    1.029663155884    0.534260710583
               5 C      1.168278259176    0.461434247477    1.531409411445
               6 O      1.997906998507   -1.573615733198   -1.994927590013
               7 C      3.533083809850    1.889666545207   -1.958548732029
               8 H      0.486794800307   -2.522041184613    0.066199213716
               9 H      0.033555983357   -1.266005871411    2.126899478157
              10 H      2.379630848139    2.020531634131    0.659295439915
              11 H      0.972492995779    1.015809004646    2.443282606986
              12 N      2.998311608715    0.858810914974   -1.658266943019
              13 O      4.110329898245    2.837259627646   -2.355006717397
              14 O      4.280301715459    4.054447120222    0.716574081710
              15 S      5.514464521545    3.422032053464    0.221765748481
              16 O      5.609123809154    1.957521079072    0.333221138805
              17 C      1.495229695711   -2.888780193671   -2.212023626509
              18 H      1.861670029047   -3.185655842380   -3.195689226901
              19 H      0.397181781176   -2.901458475648   -2.212449745771
              20 H      1.871722168843   -3.589660408735   -1.455250655330
------------------------ !GEOMETRY! -------------------------
    Number of atoms:    21 
    Geometry Index:     28 
    Coordinates:
               0 C      0.901702707587   -1.528098148118    0.185002033528
               1 C      1.688657320161   -0.967979102711   -0.821263597110
               2 C      0.646068149916   -0.813031858001    1.352790824446
               3 C      2.214949345114    0.326270510069   -0.639558980375
               4 C      1.953969566585    1.029052213984    0.534392537232
               5 C      1.169154090892    0.461598053601    1.531235577880
               6 O      1.997856310453   -1.574228382064   -1.994869942389
               7 C      3.534161985200    1.888754027342   -1.958547889434
               8 H      0.485340971434   -2.521273270878    0.065729357824
               9 H      0.032651471139   -1.265142111734    2.126140112527
              10 H      2.382347392532    2.019477266624    0.659313316506
              11 H      0.973523122357    1.016108818611    2.443061075794
              12 N      3.000759629883    0.857201319717   -1.657898932135
              13 O      4.110115531378    2.836901293405   -2.355542981922
              14 O      4.275108169336    4.050980786399    0.720457690508
              15 S      5.511423346287    3.425609715448    0.221923501743
              16 O      5.613500174900    1.961388959139    0.330802078689
              17 C      1.494277526551   -2.889105866110   -2.211939901096
              18 H      1.860915055293   -3.186159834118   -3.195476702553
              19 H      0.396227131202   -2.900905348239   -2.212625383841
              20 H      1.870121001801   -3.590109042368   -1.454963795823
------------------------ !GEOMETRY! -------------------------
    Number of atoms:    21 
    Geometry Index:     29 
    Coordinates:
               0 C      0.901331065564   -1.527940577445    0.184801363315
               1 C      1.688832402871   -0.968050921885   -0.821188326200
               2 C      0.645881316330   -0.812737451829    1.352577170325
               3 C      2.215859588270    0.325888072717   -0.639438664032
               4 C      1.955012800667    1.028678864870    0.534574570112
               5 C      1.169691410957    0.461549867064    1.531156798863
               6 O      1.997867603925   -1.574472233924   -1.994790987038
               7 C      3.534777196275    1.888184288185   -1.958604049253
               8 H      0.484284040643   -2.520803220120    0.065452959226
               9 H      0.032084298540   -1.264599833974    2.125792638488
              10 H      2.383944837556    2.018828914376    0.659738283076
              11 H      0.974213786273    1.016217913936    2.442925833261
              12 N      3.002140273127    0.856251714173   -1.657702009848
              13 O      4.109966495016    2.836669695189   -2.355886394545
              14 O      4.272201510421    4.049166945100    0.722199604004
              15 S      5.509635242271    3.427426544171    0.221859095657
              16 O      5.615537022855    1.963361443905    0.329528617675
              17 C      1.493847882399   -2.889183453906   -2.211865287839
              18 H      1.860635189154   -3.186339045374   -3.195322246867
              19 H      0.395793852696   -2.900535286884   -2.212884640933
              20 H      1.869292184190   -3.590252238346   -1.454764327447
------------------------ !GEOMETRY! -------------------------
    Number of atoms:    21 
    Geometry Index:     30 
    Coordinates:
               0 C      0.901331065564   -1.527940577445    0.184801363315
               1 C      1.688832402871   -0.968050921885   -0.821188326200
               2 C      0.645881316330   -0.812737451829    1.352577170325
               3 C      2.215859588270    0.325888072717   -0.639438664032
               4 C      1.955012800667    1.028678864870    0.534574570112
               5 C      1.169691410957    0.461549867064    1.531156798863
               6 O      1.997867603925   -1.574472233924   -1.994790987038
               7 C      3.534777196275    1.888184288185   -1.958604049253
               8 H      0.484284040643   -2.520803220120    0.065452959226
               9 H      0.032084298540   -1.264599833974    2.125792638488
              10 H      2.383944837556    2.018828914376    0.659738283076
              11 H      0.974213786273    1.016217913936    2.442925833261
              12 N      3.002140273127    0.856251714173   -1.657702009848
              13 O      4.109966495016    2.836669695189   -2.355886394545
              14 O      4.272201510421    4.049166945100    0.722199604004
              15 S      5.509635242271    3.427426544171    0.221859095657
              16 O      5.615537022855    1.963361443905    0.329528617675
              17 C      1.493847882399   -2.889183453906   -2.211865287839
              18 H      1.860635189154   -3.186339045374   -3.195322246867
              19 H      0.395793852696   -2.900535286884   -2.212884640933
              20 H      1.869292184190   -3.590252238346   -1.454764327447
