!DLPNO-CCSD(T) Extrapolate(3/4,cc) cc-pVQZ/C TightPNO TightSCF 
%geom maxiter 300 end
%maxcore 4000 
%pal nprocs 36
end

*xyz 0 1
16       0.000000000      0.000000000      0.384030000
8        0.000000000      1.259580000     -0.373599000
8        0.000000000     -1.259580000     -0.373599000

*
