!DLPNO-CCSD(T) Extrapolate(3/4,cc) cc-pVQZ/C TightPNO TightSCF 
%geom maxiter 300 end
%maxcore 4000 
%pal nprocs 36
end

*xyz 0 1
6       -2.555405869     -0.892098023     -0.434508706
6       -1.803161539      0.265705720     -0.600272754
6       -1.981559459     -2.032449961      0.124680751
6       -0.460705371      0.278113892     -0.199700179
6        0.122443457     -0.865622533      0.365178100
6       -0.645144294     -2.013929753      0.521730593
1       -2.241469610      1.153735403     -1.033413773
6        0.330049404      1.452320062     -0.359234328
1       -3.591599755     -0.902549820     -0.742892890
1       -2.571801708     -2.929278055      0.250714958
1        1.158364976     -0.833869676      0.672026477
1       -0.196770783     -2.896547556      0.956380227
7        1.068546819      2.362154236     -0.468178093
8        1.848873732      3.283336709     -0.552907376
8        2.912308521      0.994672907      1.206005340
16       3.898855517      1.972156335      0.728269047
8        4.708175961      1.604150110     -0.433877398

*
