-------------------------------------------------------------
----------------------- !PROPERTIES! ------------------------
-------------------------------------------------------------
# -----------------------------------------------------------
$ PAL_Flags
   description: The PAL Flags
   geom. index: 1
   prop. index: 1
        Diskflag:     2
# -----------------------------------------------------------
$ SCF_Energy
   description: The SCF energy
   geom. index: 1
   prop. index: 1
        SCF Energy:     -513.8434721942
# -----------------------------------------------------------
$ DFT_Energy
   description: The DFT energy
   geom. index: 1
   prop. index: 1
   Number of Alpha Electrons                 39.0000139899 
   Number of Beta  Electrons                 39.0000139899 
   Total number of  Electrons                78.0000279798 
   Exchange energy                          -67.8078311495 
   Correlation energy                        -2.5904407205 
   Correlation energy NL                      0.0000000000 
   Exchange-Correlation energy              -70.3982718700 
   Embedding correction                       0.0000000000 
   Total DFT Energy (No VdW correction)    -513.8434721942 
# -----------------------------------------------------------
$ Solvation_Details
   description: Details concerning solvation
   geom. index: 1
   prop. index: 1
     Epsilon:                2.2800000000
     Refrac:                 1.5010000000
     RSolv:                  1.3000000000
     Surface Type:                      2
     Number of Points:               1021
     Surface Area:         655.3547791900
     Dielectric Energy:     -0.0041891035
# -----------------------------------------------------------
$ VdW_Correction
   description: The Van der Waals Correction
   geom. index: 1
   prop. index: 1
        Van der Waals Correction:       -0.0064225592
# -----------------------------------------------------------
$ PAL_Flags
   description: The PAL Flags
   geom. index: 2
   prop. index: 1
        Diskflag:     2
# -----------------------------------------------------------
$ SCF_Energy
   description: The SCF energy
   geom. index: 2
   prop. index: 1
        SCF Energy:     -514.0035528807
# -----------------------------------------------------------
$ DFT_Energy
   description: The DFT energy
   geom. index: 2
   prop. index: 1
   Number of Alpha Electrons                 39.0000024012 
   Number of Beta  Electrons                 39.0000024012 
   Total number of  Electrons                78.0000048024 
   Exchange energy                          -67.6486928761 
   Correlation energy                        -2.5810394553 
   Correlation energy NL                      0.0000000000 
   Exchange-Correlation energy              -70.2297323314 
   Embedding correction                       0.0000000000 
   Total DFT Energy (No VdW correction)    -514.0035528807 
# -----------------------------------------------------------
$ Solvation_Details
   description: Details concerning solvation
   geom. index: 2
   prop. index: 1
     Epsilon:                2.2800000000
     Refrac:                 1.5010000000
     RSolv:                  1.3000000000
     Surface Type:                      2
     Number of Points:               1022
     Surface Area:         662.1642186749
     Dielectric Energy:     -0.0043718975
# -----------------------------------------------------------
$ VdW_Correction
   description: The Van der Waals Correction
   geom. index: 2
   prop. index: 1
        Van der Waals Correction:       -0.0064230040
# -----------------------------------------------------------
$ PAL_Flags
   description: The PAL Flags
   geom. index: 3
   prop. index: 1
        Diskflag:     2
# -----------------------------------------------------------
$ SCF_Energy
   description: The SCF energy
   geom. index: 3
   prop. index: 1
        SCF Energy:     -514.0950666278
# -----------------------------------------------------------
$ DFT_Energy
   description: The DFT energy
   geom. index: 3
   prop. index: 1
   Number of Alpha Electrons                 38.9999927946 
   Number of Beta  Electrons                 38.9999927946 
   Total number of  Electrons                77.9999855893 
   Exchange energy                          -67.5272678203 
   Correlation energy                        -2.5731583511 
   Correlation energy NL                      0.0000000000 
   Exchange-Correlation energy              -70.1004261714 
   Embedding correction                       0.0000000000 
   Total DFT Energy (No VdW correction)    -514.0950666278 
# -----------------------------------------------------------
$ Solvation_Details
   description: Details concerning solvation
   geom. index: 3
   prop. index: 1
     Epsilon:                2.2800000000
     Refrac:                 1.5010000000
     RSolv:                  1.3000000000
     Surface Type:                      2
     Number of Points:               1031
     Surface Area:         667.3911800141
     Dielectric Energy:     -0.0045763851
# -----------------------------------------------------------
$ VdW_Correction
   description: The Van der Waals Correction
   geom. index: 3
   prop. index: 1
        Van der Waals Correction:       -0.0064423177
# -----------------------------------------------------------
$ PAL_Flags
   description: The PAL Flags
   geom. index: 4
   prop. index: 1
        Diskflag:     2
# -----------------------------------------------------------
$ SCF_Energy
   description: The SCF energy
   geom. index: 4
   prop. index: 1
        SCF Energy:     -514.1415264770
# -----------------------------------------------------------
$ DFT_Energy
   description: The DFT energy
   geom. index: 4
   prop. index: 1
   Number of Alpha Electrons                 38.9999959320 
   Number of Beta  Electrons                 38.9999959320 
   Total number of  Electrons                77.9999918640 
   Exchange energy                          -67.4442825307 
   Correlation energy                        -2.5668930907 
   Correlation energy NL                      0.0000000000 
   Exchange-Correlation energy              -70.0111756214 
   Embedding correction                       0.0000000000 
   Total DFT Energy (No VdW correction)    -514.1415264770 
# -----------------------------------------------------------
$ Solvation_Details
   description: Details concerning solvation
   geom. index: 4
   prop. index: 1
     Epsilon:                2.2800000000
     Refrac:                 1.5010000000
     RSolv:                  1.3000000000
     Surface Type:                      2
     Number of Points:               1029
     Surface Area:         671.5439271665
     Dielectric Energy:     -0.0048952413
# -----------------------------------------------------------
$ VdW_Correction
   description: The Van der Waals Correction
   geom. index: 4
   prop. index: 1
        Van der Waals Correction:       -0.0064053734
# -----------------------------------------------------------
$ PAL_Flags
   description: The PAL Flags
   geom. index: 5
   prop. index: 1
        Diskflag:     2
# -----------------------------------------------------------
$ SCF_Energy
   description: The SCF energy
   geom. index: 5
   prop. index: 1
        SCF Energy:     -514.1578365326
# -----------------------------------------------------------
$ DFT_Energy
   description: The DFT energy
   geom. index: 5
   prop. index: 1
   Number of Alpha Electrons                 39.0000031641 
   Number of Beta  Electrons                 39.0000031641 
   Total number of  Electrons                78.0000063281 
   Exchange energy                          -67.3813450674 
   Correlation energy                        -2.5617629689 
   Correlation energy NL                      0.0000000000 
   Exchange-Correlation energy              -69.9431080363 
   Embedding correction                       0.0000000000 
   Total DFT Energy (No VdW correction)    -514.1578365326 
# -----------------------------------------------------------
$ Solvation_Details
   description: Details concerning solvation
   geom. index: 5
   prop. index: 1
     Epsilon:                2.2800000000
     Refrac:                 1.5010000000
     RSolv:                  1.3000000000
     Surface Type:                      2
     Number of Points:               1036
     Surface Area:         676.3381128392
     Dielectric Energy:     -0.0052543121
# -----------------------------------------------------------
$ VdW_Correction
   description: The Van der Waals Correction
   geom. index: 5
   prop. index: 1
        Van der Waals Correction:       -0.0063586036
# -----------------------------------------------------------
$ PAL_Flags
   description: The PAL Flags
   geom. index: 6
   prop. index: 1
        Diskflag:     2
# -----------------------------------------------------------
$ SCF_Energy
   description: The SCF energy
   geom. index: 6
   prop. index: 1
        SCF Energy:     -514.1615833473
# -----------------------------------------------------------
$ DFT_Energy
   description: The DFT energy
   geom. index: 6
   prop. index: 1
   Number of Alpha Electrons                 39.0000083012 
   Number of Beta  Electrons                 39.0000083012 
   Total number of  Electrons                78.0000166024 
   Exchange energy                          -67.3477972269 
   Correlation energy                        -2.5588978479 
   Correlation energy NL                      0.0000000000 
   Exchange-Correlation energy              -69.9066950748 
   Embedding correction                       0.0000000000 
   Total DFT Energy (No VdW correction)    -514.1615833473 
# -----------------------------------------------------------
$ Solvation_Details
   description: Details concerning solvation
   geom. index: 6
   prop. index: 1
     Epsilon:                2.2800000000
     Refrac:                 1.5010000000
     RSolv:                  1.3000000000
     Surface Type:                      2
     Number of Points:               1038
     Surface Area:         679.4530776990
     Dielectric Energy:     -0.0054935533
# -----------------------------------------------------------
$ VdW_Correction
   description: The Van der Waals Correction
   geom. index: 6
   prop. index: 1
        Van der Waals Correction:       -0.0063271830
# -----------------------------------------------------------
$ PAL_Flags
   description: The PAL Flags
   geom. index: 7
   prop. index: 1
        Diskflag:     2
# -----------------------------------------------------------
$ SCF_Energy
   description: The SCF energy
   geom. index: 7
   prop. index: 1
        SCF Energy:     -514.1625879202
# -----------------------------------------------------------
$ DFT_Energy
   description: The DFT energy
   geom. index: 7
   prop. index: 1
   Number of Alpha Electrons                 39.0000082747 
   Number of Beta  Electrons                 39.0000082747 
   Total number of  Electrons                78.0000165495 
   Exchange energy                          -67.3396505927 
   Correlation energy                        -2.5576933630 
   Correlation energy NL                      0.0000000000 
   Exchange-Correlation energy              -69.8973439557 
   Embedding correction                       0.0000000000 
   Total DFT Energy (No VdW correction)    -514.1625879202 
# -----------------------------------------------------------
$ Solvation_Details
   description: Details concerning solvation
   geom. index: 7
   prop. index: 1
     Epsilon:                2.2800000000
     Refrac:                 1.5010000000
     RSolv:                  1.3000000000
     Surface Type:                      2
     Number of Points:               1041
     Surface Area:         680.9288305501
     Dielectric Energy:     -0.0056231893
# -----------------------------------------------------------
$ VdW_Correction
   description: The Van der Waals Correction
   geom. index: 7
   prop. index: 1
        Van der Waals Correction:       -0.0063096906
# -----------------------------------------------------------
$ PAL_Flags
   description: The PAL Flags
   geom. index: 8
   prop. index: 1
        Diskflag:     2
# -----------------------------------------------------------
$ SCF_Energy
   description: The SCF energy
   geom. index: 8
   prop. index: 1
        SCF Energy:     -514.1629413619
# -----------------------------------------------------------
$ DFT_Energy
   description: The DFT energy
   geom. index: 8
   prop. index: 1
   Number of Alpha Electrons                 39.0000050169 
   Number of Beta  Electrons                 39.0000050169 
   Total number of  Electrons                78.0000100339 
   Exchange energy                          -67.3325066553 
   Correlation energy                        -2.5570315091 
   Correlation energy NL                      0.0000000000 
   Exchange-Correlation energy              -69.8895381644 
   Embedding correction                       0.0000000000 
   Total DFT Energy (No VdW correction)    -514.1629413619 
# -----------------------------------------------------------
$ Solvation_Details
   description: Details concerning solvation
   geom. index: 8
   prop. index: 1
     Epsilon:                2.2800000000
     Refrac:                 1.5010000000
     RSolv:                  1.3000000000
     Surface Type:                      2
     Number of Points:               1041
     Surface Area:         682.1070534341
     Dielectric Energy:     -0.0056895137
# -----------------------------------------------------------
$ VdW_Correction
   description: The Van der Waals Correction
   geom. index: 8
   prop. index: 1
        Van der Waals Correction:       -0.0062980502
# -----------------------------------------------------------
$ PAL_Flags
   description: The PAL Flags
   geom. index: 9
   prop. index: 1
        Diskflag:     2
# -----------------------------------------------------------
$ SCF_Energy
   description: The SCF energy
   geom. index: 9
   prop. index: 1
        SCF Energy:     -514.1631153477
# -----------------------------------------------------------
$ DFT_Energy
   description: The DFT energy
   geom. index: 9
   prop. index: 1
   Number of Alpha Electrons                 39.0000012891 
   Number of Beta  Electrons                 39.0000012891 
   Total number of  Electrons                78.0000025781 
   Exchange energy                          -67.3360005388 
   Correlation energy                        -2.5570893189 
   Correlation energy NL                      0.0000000000 
   Exchange-Correlation energy              -69.8930898577 
   Embedding correction                       0.0000000000 
   Total DFT Energy (No VdW correction)    -514.1631153477 
# -----------------------------------------------------------
$ Solvation_Details
   description: Details concerning solvation
   geom. index: 9
   prop. index: 1
     Epsilon:                2.2800000000
     Refrac:                 1.5010000000
     RSolv:                  1.3000000000
     Surface Type:                      2
     Number of Points:               1039
     Surface Area:         682.3913428198
     Dielectric Energy:     -0.0056978234
# -----------------------------------------------------------
$ VdW_Correction
   description: The Van der Waals Correction
   geom. index: 9
   prop. index: 1
        Van der Waals Correction:       -0.0062947130
# -----------------------------------------------------------
$ PAL_Flags
   description: The PAL Flags
   geom. index: 10
   prop. index: 1
        Diskflag:     2
# -----------------------------------------------------------
$ SCF_Energy
   description: The SCF energy
   geom. index: 10
   prop. index: 1
        SCF Energy:     -514.1631902130
# -----------------------------------------------------------
$ DFT_Energy
   description: The DFT energy
   geom. index: 10
   prop. index: 1
   Number of Alpha Electrons                 38.9999991446 
   Number of Beta  Electrons                 38.9999991446 
   Total number of  Electrons                77.9999982893 
   Exchange energy                          -67.3388270892 
   Correlation energy                        -2.5572977608 
   Correlation energy NL                      0.0000000000 
   Exchange-Correlation energy              -69.8961248500 
   Embedding correction                       0.0000000000 
   Total DFT Energy (No VdW correction)    -514.1631902130 
# -----------------------------------------------------------
$ Solvation_Details
   description: Details concerning solvation
   geom. index: 10
   prop. index: 1
     Epsilon:                2.2800000000
     Refrac:                 1.5010000000
     RSolv:                  1.3000000000
     Surface Type:                      2
     Number of Points:               1039
     Surface Area:         682.4034414530
     Dielectric Energy:     -0.0056834915
# -----------------------------------------------------------
$ VdW_Correction
   description: The Van der Waals Correction
   geom. index: 10
   prop. index: 1
        Van der Waals Correction:       -0.0062949410
# -----------------------------------------------------------
$ PAL_Flags
   description: The PAL Flags
   geom. index: 11
   prop. index: 1
        Diskflag:     2
# -----------------------------------------------------------
$ SCF_Energy
   description: The SCF energy
   geom. index: 11
   prop. index: 1
        SCF Energy:     -514.1632083586
# -----------------------------------------------------------
$ DFT_Energy
   description: The DFT energy
   geom. index: 11
   prop. index: 1
   Number of Alpha Electrons                 38.9999986702 
   Number of Beta  Electrons                 38.9999986702 
   Total number of  Electrons                77.9999973404 
   Exchange energy                          -67.3402114517 
   Correlation energy                        -2.5574124876 
   Correlation energy NL                      0.0000000000 
   Exchange-Correlation energy              -69.8976239393 
   Embedding correction                       0.0000000000 
   Total DFT Energy (No VdW correction)    -514.1632083586 
# -----------------------------------------------------------
$ Solvation_Details
   description: Details concerning solvation
   geom. index: 11
   prop. index: 1
     Epsilon:                2.2800000000
     Refrac:                 1.5010000000
     RSolv:                  1.3000000000
     Surface Type:                      2
     Number of Points:               1039
     Surface Area:         682.3317649763
     Dielectric Energy:     -0.0056759551
# -----------------------------------------------------------
$ VdW_Correction
   description: The Van der Waals Correction
   geom. index: 11
   prop. index: 1
        Van der Waals Correction:       -0.0062957072
# -----------------------------------------------------------
$ PAL_Flags
   description: The PAL Flags
   geom. index: 12
   prop. index: 1
        Diskflag:     2
# -----------------------------------------------------------
$ SCF_Energy
   description: The SCF energy
   geom. index: 12
   prop. index: 1
        SCF Energy:     -514.1632121483
# -----------------------------------------------------------
$ DFT_Energy
   description: The DFT energy
   geom. index: 12
   prop. index: 1
   Number of Alpha Electrons                 38.9999984841 
   Number of Beta  Electrons                 38.9999984841 
   Total number of  Electrons                77.9999969682 
   Exchange energy                          -67.3403795855 
   Correlation energy                        -2.5574317072 
   Correlation energy NL                      0.0000000000 
   Exchange-Correlation energy              -69.8978112927 
   Embedding correction                       0.0000000000 
   Total DFT Energy (No VdW correction)    -514.1632121483 
# -----------------------------------------------------------
$ Solvation_Details
   description: Details concerning solvation
   geom. index: 12
   prop. index: 1
     Epsilon:                2.2800000000
     Refrac:                 1.5010000000
     RSolv:                  1.3000000000
     Surface Type:                      2
     Number of Points:               1039
     Surface Area:         682.3318653891
     Dielectric Energy:     -0.0056773182
# -----------------------------------------------------------
$ VdW_Correction
   description: The Van der Waals Correction
   geom. index: 12
   prop. index: 1
        Van der Waals Correction:       -0.0062957157
# -----------------------------------------------------------
$ PAL_Flags
   description: The PAL Flags
   geom. index: 13
   prop. index: 1
        Diskflag:     2
# -----------------------------------------------------------
$ SCF_Energy
   description: The SCF energy
   geom. index: 13
   prop. index: 1
        SCF Energy:     -514.1632103378
# -----------------------------------------------------------
$ DFT_Energy
   description: The DFT energy
   geom. index: 13
   prop. index: 1
   Number of Alpha Electrons                 38.9999983812 
   Number of Beta  Electrons                 38.9999983812 
   Total number of  Electrons                77.9999967623 
   Exchange energy                          -67.3400541774 
   Correlation energy                        -2.5574038221 
   Correlation energy NL                      0.0000000000 
   Exchange-Correlation energy              -69.8974579996 
   Embedding correction                       0.0000000000 
   Total DFT Energy (No VdW correction)    -514.1632103378 
# -----------------------------------------------------------
$ Solvation_Details
   description: Details concerning solvation
   geom. index: 13
   prop. index: 1
     Epsilon:                2.2800000000
     Refrac:                 1.5010000000
     RSolv:                  1.3000000000
     Surface Type:                      2
     Number of Points:               1039
     Surface Area:         682.3745468050
     Dielectric Energy:     -0.0056834963
# -----------------------------------------------------------
$ VdW_Correction
   description: The Van der Waals Correction
   geom. index: 13
   prop. index: 1
        Van der Waals Correction:       -0.0062952983
# -----------------------------------------------------------
$ PAL_Flags
   description: The PAL Flags
   geom. index: 14
   prop. index: 1
        Diskflag:     2
# -----------------------------------------------------------
$ SCF_Energy
   description: The SCF energy
   geom. index: 14
   prop. index: 1
        SCF Energy:     -514.1632085425
# -----------------------------------------------------------
$ DFT_Energy
   description: The DFT energy
   geom. index: 14
   prop. index: 1
   Number of Alpha Electrons                 38.9999983814 
   Number of Beta  Electrons                 38.9999983814 
   Total number of  Electrons                77.9999967628 
   Exchange energy                          -67.3397931403 
   Correlation energy                        -2.5573806876 
   Correlation energy NL                      0.0000000000 
   Exchange-Correlation energy              -69.8971738279 
   Embedding correction                       0.0000000000 
   Total DFT Energy (No VdW correction)    -514.1632085425 
# -----------------------------------------------------------
$ Solvation_Details
   description: Details concerning solvation
   geom. index: 14
   prop. index: 1
     Epsilon:                2.2800000000
     Refrac:                 1.5010000000
     RSolv:                  1.3000000000
     Surface Type:                      2
     Number of Points:               1039
     Surface Area:         682.4054755870
     Dielectric Energy:     -0.0056878286
# -----------------------------------------------------------
$ VdW_Correction
   description: The Van der Waals Correction
   geom. index: 14
   prop. index: 1
        Van der Waals Correction:       -0.0062950253
# -----------------------------------------------------------
$ SCF_Electric_Properties
   description: The SCF Calculated Electric Properties
   geom. index: 14
   prop. index: 1
       Filename                          : mol.scfp 
       Do Dipole Moment Calculation      : true 
       Do Quadrupole Moment Calculation  : false 
       Do Polarizability Calculation     : false 
** Dipole moment part of electric properties **
        Magnitude of dipole moment (Debye) :        4.1210073527
        Electronic Contribution:
                  0    
      0      10.141727
      1       0.545793
      2      -1.511078
        Nuclear Contribution:
                  0    
      0     -11.727819
      1      -0.751652
      2       1.776664
        Total Dipole moment:
                  0    
      0      -1.586092
      1      -0.205859
      2       0.265586
# -----------------------------------------------------------
$ PAL_Flags
   description: The PAL Flags
   geom. index: 15
   prop. index: 1
        Diskflag:     2
# -----------------------------------------------------------
$ SCF_Energy
   description: The SCF energy
   geom. index: 15
   prop. index: 1
        SCF Energy:     -514.1632085404
# -----------------------------------------------------------
$ DFT_Energy
   description: The DFT energy
   geom. index: 15
   prop. index: 1
   Number of Alpha Electrons                 38.9999983815 
   Number of Beta  Electrons                 38.9999983815 
   Total number of  Electrons                77.9999967630 
   Exchange energy                          -67.3397889834 
   Correlation energy                        -2.5573805448 
   Correlation energy NL                      0.0000000000 
   Exchange-Correlation energy              -69.8971695283 
   Embedding correction                       0.0000000000 
   Total DFT Energy (No VdW correction)    -514.1632085404 
# -----------------------------------------------------------
$ Solvation_Details
   description: Details concerning solvation
   geom. index: 15
   prop. index: 1
     Epsilon:                2.2800000000
     Refrac:                 1.5010000000
     RSolv:                  1.3000000000
     Surface Type:                      2
     Number of Points:               1039
     Surface Area:         682.4054755870
     Dielectric Energy:     -0.0056878220
# -----------------------------------------------------------
$ VdW_Correction
   description: The Van der Waals Correction
   geom. index: 15
   prop. index: 1
        Van der Waals Correction:       -0.0062950253
# -----------------------------------------------------------
$ THERMOCHEMISTRY_Energies
   description: The Thermochemistry energies
   geom. index: 15
   prop. index: 1
        Temperature (Kelvin)           :        298.1500000000
        Pressure (atm)                 :          1.0000000000
        Total Mass (AMU)               :        149.0476784692
        Spin Degeneracy                :          1.0000000000
        Electronic Energy (Hartree)    :       -514.1603821584
        Translational Energy (Hartree) :          0.0014162714
        Rotational Energy (Hartree)    :          0.0014162714
        Vibrational Energy (Hartree)   :          0.0068631471
        Number of frequencies          :     54      
        Scaling Factor for frequencies :          1.0000000000
        Vibrational frequencies        :     
                  0    
      0       0.000000
      1       0.000000
      2       0.000000
      3       0.000000
      4       0.000000
      5       0.000000
      6      57.504536
      7      84.086440
      8      91.921156
      9     170.651614
     10     226.688301
     11     254.051777
     12     306.377210
     13     342.527410
     14     451.871330
     15     459.470245
     16     536.338603
     17     552.642678
     18     561.516373
     19     593.033341
     20     646.573233
     21     712.382871
     22     748.686564
     23     752.144609
     24     825.853869
     25     841.566551
     26     926.318517
     27     963.865751
     28     1042.618279
     29     1068.132474
     30     1119.767845
     31     1166.025210
     32     1166.228642
     33     1184.462522
     34     1207.864157
     35     1275.574680
     36     1305.366163
     37     1354.910426
     38     1458.598796
     39     1464.601484
     40     1476.344137
     41     1490.046121
     42     1493.110908
     43     1549.754691
     44     1620.265225
     45     1621.215646
     46     2334.558361
     47     2994.470116
     48     3072.912009
     49     3138.423006
     50     3171.355461
     51     3177.852241
     52     3193.544790
     53     3210.302198
        Zero Point Energy (Hartree)    :          0.1354698224
        Inner Energy (Hartree)         :       -514.0152166461
        Enthalpy (Hartree)             :       -514.0142724371
        Electronic entropy             :          0.0000000000
        Rotational entropy             :          0.0144459520
        Vibrational entropy            :          0.0117016023
        Translational entropy          :          0.0144459520
        Entropy                        :          0.0455840248
        Gibbs Energy (Hartree)         :       -514.0598564619
        Is Linear                      :                 false
# -------------------------------------------------------------
----------------------- !GEOMETRIES! ------------------------
# -------------------------------------------------------------
------------------------ !GEOMETRY! -------------------------
    Number of atoms:    18 
    Geometry Index:     1 
    Coordinates:
               0 C      1.806710000000   -0.418490000000    0.362680000000
               1 C      2.891780000000    0.379630000000    0.027030000000
               2 C      2.011790000000   -1.762570000000    0.650850000000
               3 C      4.175360000000   -0.165490000000   -0.019810000000
               4 C      4.367980000000   -1.519360000000    0.272400000000
               5 C      3.285670000000   -2.319650000000    0.608190000000
               6 O      2.752000000000    1.430940000000   -0.200990000000
               7 C      6.432130000000    0.558180000000   -0.497290000000
               8 H      0.807170000000    0.000520000000    0.400520000000
               9 H      0.972250000000   -2.400030000000    0.942780000000
              10 H      5.366950000000   -1.944650000000    0.236290000000
              11 H      3.429430000000   -3.370350000000    0.835650000000
              12 N      5.236560000000    0.675150000000   -0.362650000000
              13 O      7.590700000000    0.584240000000   -0.663460000000
              14 C      1.800770000000    1.872760000000   -0.175010000000
              15 H      1.881690000000    2.908880000000   -0.429580000000
              16 H      1.390310000000    1.778150000000    0.808590000000
              17 H      1.160190000000    1.381840000000   -0.877550000000
------------------------ !GEOMETRY! -------------------------
    Number of atoms:    18 
    Geometry Index:     2 
    Coordinates:
               0 C      1.816996996541   -0.442647835311    0.366952189992
               1 C      2.906329655700    0.369362456422    0.027459647935
               2 C      2.026886923219   -1.788076845089    0.654782941784
               3 C      4.192820271329   -0.190891370668   -0.016218895360
               4 C      4.381829151860   -1.543585072595    0.276212201613
               5 C      3.298814774489   -2.344644138410    0.612276277778
               6 O      2.789116350313    1.478144597742   -0.217153927862
               7 C      6.450593182660    0.529337726337   -0.493038558715
               8 H      0.815742547130   -0.033572449117    0.407360374042
               9 H      1.012498184662   -2.420591562348    0.942106013138
              10 H      5.380714702459   -1.969407718604    0.240239367985
              11 H      3.443330862486   -3.395415045558    0.839648702097
              12 N      5.256045004091    0.647654118017   -0.358848973674
              13 O      7.610318030907    0.553545316017   -0.658923626724
              14 C      1.747321982440    1.940571639722   -0.183658305375
              15 H      1.808392366373    2.987214399697   -0.437996888652
              16 H      1.326828415330    1.846113099421    0.808598264473
              17 H      1.094860598011    1.446588684325   -0.891156804475
------------------------ !GEOMETRY! -------------------------
    Number of atoms:    18 
    Geometry Index:     3 
    Coordinates:
               0 C      1.826932363574   -0.464742471106    0.370781538855
               1 C      2.916966104368    0.359158386369    0.028435678417
               2 C      2.039027454418   -1.811500039234    0.658614850076
               3 C      4.205604506161   -0.217629235844   -0.011643555306
               4 C      4.391220281295   -1.568215473281    0.280760286629
               5 C      3.307665386865   -2.370056782351    0.617058267333
               6 O      2.825429051979    1.537481296182   -0.236036099798
               7 C      6.464269901541    0.501533730678   -0.488407567606
               8 H      0.823718701089   -0.065013724524    0.413631616645
               9 H      1.074467467756   -2.428178509671    0.935365694403
              10 H      5.390586316893   -1.993271644709    0.244539911296
              11 H      3.452804783295   -3.420955702189    0.844363559344
              12 N      5.270927522021    0.619328922250   -0.354219711364
              13 O      7.625348857430    0.525636724500   -0.654472372698
              14 C      1.698421641365    2.001482943443   -0.191297290474
              15 H      1.738358194894    3.056111800966   -0.444642187793
              16 H      1.270509199097    1.905296493380    0.808020770178
              17 H      1.037182265959    1.503233285141   -0.902213388137
------------------------ !GEOMETRY! -------------------------
    Number of atoms:    18 
    Geometry Index:     4 
    Coordinates:
               0 C      1.838840984553   -0.484184098617    0.373739577863
               1 C      2.926034087044    0.342756286372    0.031153829937
               2 C      2.047674916538   -1.832493574144    0.662338136024
               3 C      4.214355214603   -0.244685898797   -0.006349730286
               4 C      4.398242091153   -1.592521954221    0.285626383777
               5 C      3.313682505722   -2.394457529486    0.621999852816
               6 O      2.860293346123    1.585306567602   -0.251946924645
               7 C      6.473863151224    0.476853853198   -0.484007558914
               8 H      0.833670945376   -0.089944864561    0.418074014890
               9 H      1.148082142631   -2.426383839208    0.924735451480
              10 H      5.398931488733   -2.014696875673    0.248522064605
              11 H      3.459551765642   -3.445394722304    0.849145429870
              12 N      5.281116276378    0.591410046328   -0.349008678447
              13 O      7.635489628866    0.503732942013   -0.650894374946
              14 C      1.651798657566    2.056752630108   -0.197921811035
              15 H      1.678637349120    3.117670665762   -0.450991890278
              16 H      1.216646086436    1.961949058925    0.805877106606
              17 H      0.982529362290    1.558031306702   -0.911450879317
------------------------ !GEOMETRY! -------------------------
    Number of atoms:    18 
    Geometry Index:     5 
    Coordinates:
               0 C      1.851410553776   -0.504369828589    0.376742138492
               1 C      2.933392424679    0.319458946091    0.035788192753
               2 C      2.054454743451   -1.854419349210    0.666453667440
               3 C      4.221744050657   -0.268224506096   -0.001625057674
               4 C      4.407047781830   -1.614132732385    0.289728672323
               5 C      3.321553340559   -2.416426931760    0.626149817230
               6 O      2.881473283286    1.614630440229   -0.261558610547
               7 C      6.480769021804    0.461651143158   -0.481564182653
               8 H      0.844046317570   -0.113359260630    0.422019892567
               9 H      1.185769080543   -2.452152719966    0.925368156441
              10 H      5.410127206576   -2.030665611749    0.250959529638
              11 H      3.470314034420   -3.467119531314    0.852769055476
              12 N      5.288010003965    0.568868821300   -0.344604602509
              13 O      7.642121367491    0.495768991554   -0.650272204812
              14 C      1.611346820363    2.111805805216   -0.205299055667
              15 H      1.646734145165    3.174363739307   -0.459959903828
              16 H      1.171726355581    2.024440813390    0.798969538442
              17 H      0.937399468284    1.619581771453   -0.921425043112
------------------------ !GEOMETRY! -------------------------
    Number of atoms:    18 
    Geometry Index:     6 
    Coordinates:
               0 C      1.858880465274   -0.519161606235    0.379283426464
               1 C      2.938332551697    0.298528261883    0.040207772455
               2 C      2.058402515353   -1.869501262738    0.669407400448
               3 C      4.227860601074   -0.281041774157    0.000751872888
               4 C      4.414166474659   -1.627302083229    0.292069060432
               5 C      3.327720288449   -2.429425233178    0.628402564743
               6 O      2.883439111652    1.621011746184   -0.263215343572
               7 C      6.485432102876    0.456838713265   -0.481224976549
               8 H      0.850917227059   -0.126553923998    0.424207465323
               9 H      1.194206593466   -2.480934036801    0.930610054536
              10 H      5.418592921169   -2.040141449700    0.252194563418
              11 H      3.478930121860   -3.479957098823    0.854483700992
              12 N      5.292546233570    0.557124161033   -0.342383649849
              13 O      7.646252950393    0.498091393450   -0.651664893480
              14 C      1.584637031353    2.149307998154   -0.210462949656
              15 H      1.643213902491    3.209746667316   -0.467926103596
              16 H      1.145256244171    2.069492662819    0.793614317382
              17 H      0.910652663435    1.663576864754   -0.929714282380
------------------------ !GEOMETRY! -------------------------
    Number of atoms:    18 
    Geometry Index:     7 
    Coordinates:
               0 C      1.860485857225   -0.530361133322    0.381783756834
               1 C      2.940471335057    0.281617808822    0.043953322530
               2 C      2.059252431427   -1.880254904440    0.671809093625
               3 C      4.231445480198   -0.287742040779    0.001885706461
               4 C      4.417545050133   -1.635467140809    0.293536443303
               5 C      3.330717831361   -2.437348648497    0.629795430767
               6 O      2.874875136187    1.614600897485   -0.260530691742
               7 C      6.486912253373    0.456909624838   -0.481459564984
               8 H      0.853709544487   -0.133127061129    0.425622507569
               9 H      1.207705283327   -2.492049217709    0.931300969225
              10 H      5.422439988308   -2.046909309952    0.253241417267
              11 H      3.483819227444   -3.487754074510    0.855502084399
              12 N      5.293914730944    0.551241424141   -0.341101029484
              13 O      7.647233418432    0.504423395827   -0.653274564930
              14 C      1.567490967616    2.172460865080   -0.213606788728
              15 H      1.655644079367    3.229005044598   -0.474329408878
              16 H      1.130429386067    2.098750568926    0.790741999177
              17 H      0.895347999047    1.691703901431   -0.936230682412
------------------------ !GEOMETRY! -------------------------
    Number of atoms:    18 
    Geometry Index:     8 
    Coordinates:
               0 C      1.860149565269   -0.538628704685    0.383836661950
               1 C      2.941729937475    0.270953413386    0.046329027388
               2 C      2.059829042318   -1.888155680754    0.673593218918
               3 C      4.234159541043   -0.290237459096    0.002124152495
               4 C      4.419807887124   -1.639336818365    0.294094401803
               5 C      3.333602793249   -2.441604103681    0.630333410410
               6 O      2.864777363758    1.605456012909   -0.256991477876
               7 C      6.487268644431    0.460329645085   -0.482309375360
               8 H      0.855182360331   -0.136519431414    0.426474398831
               9 H      1.204212794242   -2.507970838798    0.935519964839
              10 H      5.424875983105   -2.050436240204    0.253677061445
              11 H      3.488717864009   -3.491858774965    0.855669198274
              12 N      5.294198354418    0.549624427940   -0.340678950429
              13 O      7.647220133279    0.513101884684   -0.655243396812
              14 C      1.558376235367    2.187112344988   -0.215855908490
              15 H      1.675219240855    3.239519308222   -0.479633832450
              16 H      1.122841328268    2.118224498980    0.789168561419
              17 H      0.887270931459    1.710126515768   -0.941467116353
------------------------ !GEOMETRY! -------------------------
    Number of atoms:    18 
    Geometry Index:     9 
    Coordinates:
               0 C      1.858075151310   -0.543777413817    0.385329037627
               1 C      2.941010067347    0.265831115861    0.047637065957
               2 C      2.059346865943   -1.892762989949    0.674733802919
               3 C      4.234435713584   -0.290671925576    0.002170330780
               4 C      4.419670067685   -1.640679093721    0.294374715752
               5 C      3.334585829692   -2.443631141272    0.630638318941
               6 O      2.855505632845    1.595770529402   -0.253412473675
               7 C      6.485864182328    0.464016809336   -0.482999642908
               8 H      0.854768626643   -0.137358015759    0.426869504738
               9 H      1.207375936747   -2.511172375783    0.935889305939
              10 H      5.424655761961   -2.052125498541    0.254061375270
              11 H      3.491102181565   -3.493753406115    0.855753270783
              12 N      5.292723599192    0.549846599182   -0.340494716587
              13 O      7.645577335411    0.520344706539   -0.656645884506
              14 C      1.555331633823    2.192674122405   -0.216768886744
              15 H      1.694847027741    3.241262367171   -0.482790209208
              16 H      1.120184039166    2.127249435456    0.788409142858
              17 H      0.884380347016    1.718636175183   -0.944114057937
------------------------ !GEOMETRY! -------------------------
    Number of atoms:    18 
    Geometry Index:     10 
    Coordinates:
               0 C      1.856823326115   -0.545904807566    0.385960270146
               1 C      2.939875158034    0.265668110888    0.047818755088
               2 C      2.059105068858   -1.894506070153    0.675160970806
               3 C      4.233763449904   -0.290172609771    0.002113434064
               4 C      4.419038934594   -1.640328309828    0.294360126495
               5 C      3.335038674667   -2.444122878457    0.630699096572
               6 O      2.850985477980    1.590066074042   -0.251386974425
               7 C      6.484495214380    0.466878006069   -0.483538597844
               8 H      0.854460888846   -0.136983781928    0.426827262940
               9 H      1.205901842983   -2.513291300636    0.936609029698
              10 H      5.423977067484   -2.052042837367    0.254141987427
              11 H      3.492346121289   -3.494142921843    0.855719877911
              12 N      5.291329698071    0.550808441954   -0.340544008181
              13 O      7.644125520585    0.525048376686   -0.657521476672
              14 C      1.556216909235    2.192840031697   -0.216918251827
              15 H      1.708025320148    3.239288824849   -0.484101041691
              16 H      1.119844581109    2.129604463002    0.787928151895
              17 H      0.884086745717    1.720993188362   -0.944688612403
------------------------ !GEOMETRY! -------------------------
    Number of atoms:    18 
    Geometry Index:     11 
    Coordinates:
               0 C      1.856826632265   -0.546256162036    0.386027140230
               1 C      2.939198051101    0.266818840211    0.047629814880
               2 C      2.059096264873   -1.894677514423    0.675202338017
               3 C      4.233093589388   -0.290150851416    0.002175887454
               4 C      4.418635827756   -1.640063979277    0.294351941657
               5 C      3.335041259896   -2.444324124606    0.630758946334
               6 O      2.850623976318    1.588745358972   -0.250973275479
               7 C      6.483942566977    0.467665685688   -0.483694503430
               8 H      0.854640150488   -0.136633898713    0.426693962096
               9 H      1.205699020550   -2.513181400551    0.936614936353
              10 H      5.423612758026   -2.051709083621    0.254118492674
              11 H      3.492489127827   -3.494304882150    0.855773195579
              12 N      5.290790592964    0.550938973352   -0.340526264816
              13 O      7.643579425085    0.526380230057   -0.657737085332
              14 C      1.557115512660    2.191831989967   -0.216792885531
              15 H      1.711853092754    3.237785794327   -0.484240329542
              16 H      1.119402206246    2.129623013088    0.787566972900
              17 H      0.883799944823    1.721212011131   -0.944309284045
------------------------ !GEOMETRY! -------------------------
    Number of atoms:    18 
    Geometry Index:     12 
    Coordinates:
               0 C      1.857240106100   -0.546481152977    0.386027466260
               1 C      2.938890161122    0.267566195750    0.047490086220
               2 C      2.059204366910   -1.894807766074    0.675225915400
               3 C      4.232711301856   -0.290502229954    0.002289931314
               4 C      4.418522126124   -1.640171213531    0.294382463072
               5 C      3.335055159689   -2.444706216450    0.630851858079
               6 O      2.851131967847    1.588471536529   -0.250923868847
               7 C      6.483809819612    0.467875127908   -0.483767323491
               8 H      0.855062136727   -0.136587494688    0.426622336709
               9 H      1.205763747079   -2.513327262560    0.936650990549
              10 H      5.423578455534   -2.051605466252    0.254082231547
              11 H      3.492515420767   -3.494668830013    0.855871551104
              12 N      5.290685620919    0.550565811220   -0.340444539466
              13 O      7.643457731338    0.527046303612   -0.657836552748
              14 C      1.557186777966    2.191559966612   -0.216734971338
              15 H      1.713200598197    3.237310425444   -0.484300912852
              16 H      1.118441795357    2.130214047802    0.787213307756
              17 H      0.882982706857    1.721948217624   -0.944059969268
------------------------ !GEOMETRY! -------------------------
    Number of atoms:    18 
    Geometry Index:     13 
    Coordinates:
               0 C      1.857639680321   -0.546664093278    0.386033837947
               1 C      2.938850961623    0.267818587601    0.047438464481
               2 C      2.059317195581   -1.894961943599    0.675258570272
               3 C      4.232588933667   -0.290944150866    0.002395267079
               4 C      4.418558511517   -1.640475919989    0.294428393357
               5 C      3.335065115417   -2.445101982377    0.630938536269
               6 O      2.851713087599    1.588454537389   -0.250942015983
               7 C      6.483896833154    0.467896012292   -0.483821355950
               8 H      0.855418493514   -0.136732408484    0.426633253566
               9 H      1.205974601725   -2.513538969376    0.936693124768
              10 H      5.423682363526   -2.051708331316    0.254055400371
              11 H      3.492485874563   -3.495060166288    0.855963559686
              12 N      5.290807345247    0.550012250191   -0.340342742534
              13 O      7.643549567380    0.527525066915   -0.657906420928
              14 C      1.556732096910    2.191794271455   -0.216732248377
              15 H      1.713475130910    3.237424433126   -0.484374527373
              16 H      1.117524003175    2.131101248998    0.786997498331
              17 H      0.882160204170    1.722861557606   -0.944076594983
------------------------ !GEOMETRY! -------------------------
    Number of atoms:    18 
    Geometry Index:     14 
    Coordinates:
               0 C      1.857758539449   -0.546660482142    0.386039551727
               1 C      2.938955775790    0.267790246350    0.047443869644
               2 C      2.059349865435   -1.894979727874    0.675267235016
               3 C      4.232641338221   -0.291134569945    0.002431418279
               4 C      4.418605605721   -1.640667337453    0.294449731381
               5 C      3.335037044118   -2.445236245932    0.630963187823
               6 O      2.851987648844    1.588466883459   -0.250938492548
               7 C      6.484027128441    0.467893486168   -0.483863627577
               8 H      0.855492821858   -0.136847501465    0.426687503166
               9 H      1.206031330928   -2.513543301784    0.936702705947
              10 H      5.423747135400   -2.051840049434    0.254043368815
              11 H      3.492399053834   -3.495204738950    0.855988398839
              12 N      5.290960170563    0.549697192556   -0.340288041127
              13 O      7.643680892547    0.527763460827   -0.657940938880
              14 C      1.556345632169    2.191982488252   -0.216732507053
              15 H      1.713189232986    3.237592617540   -0.484398843842
              16 H      1.117283632582    2.131473527323    0.787026086465
              17 H      0.881947151113    1.723154052504   -0.944240606074
------------------------ !GEOMETRY! -------------------------
    Number of atoms:    18 
    Geometry Index:     15 
    Coordinates:
               0 C      1.857758539449   -0.546660482142    0.386039551727
               1 C      2.938955775790    0.267790246350    0.047443869644
               2 C      2.059349865435   -1.894979727874    0.675267235016
               3 C      4.232641338221   -0.291134569945    0.002431418279
               4 C      4.418605605721   -1.640667337453    0.294449731381
               5 C      3.335037044118   -2.445236245932    0.630963187823
               6 O      2.851987648844    1.588466883459   -0.250938492548
               7 C      6.484027128441    0.467893486168   -0.483863627577
               8 H      0.855492821858   -0.136847501465    0.426687503166
               9 H      1.206031330928   -2.513543301784    0.936702705947
              10 H      5.423747135400   -2.051840049434    0.254043368815
              11 H      3.492399053834   -3.495204738950    0.855988398839
              12 N      5.290960170563    0.549697192556   -0.340288041127
              13 O      7.643680892547    0.527763460827   -0.657940938880
              14 C      1.556345632169    2.191982488252   -0.216732507053
              15 H      1.713189232986    3.237592617540   -0.484398843842
              16 H      1.117283632582    2.131473527323    0.787026086465
              17 H      0.881947151113    1.723154052504   -0.944240606074
