 28
  Energy -1160.116070917208  Dipole 2.48259  G(298) 101.39
 C    1.79917000   2.34389400  -2.39577200
 C    1.14532900   1.78988700  -1.30453800
 C    1.13723500   3.23625800  -3.23432000
 C   -0.18110500   2.13595500  -1.05374200
 C   -0.84706200   3.03178000  -1.88144700
 C   -0.18468100   3.57824900  -2.97398200
 H    1.66203200   1.10399700  -0.64100100
 C   -0.60160100   0.64885400   0.73960800
 H    2.83206100   2.07729900  -2.59135400
 H    1.65310200   3.66614800  -4.08575600
 H   -1.87714300   3.29009500  -1.66404300
 H   -0.70539100   4.27481900  -3.62189000
 N   -0.89312000   1.59902300   0.04981400
 O    1.74906900   1.96865900   2.35992300
 N   -0.33913300  -0.22168600   1.55670200
 S    1.82427000   0.66805700   2.96115400
 O    2.74212000  -0.26970300   2.38150400
 C   -0.66071000  -1.60072600   1.46079000
 C   -0.36750900  -2.41037300   2.55215600
 C   -1.23997000  -2.14380800   0.31557700
 C   -0.65511900  -3.76850500   2.49680000
 C   -1.52444400  -3.50126000   0.26980500
 C   -1.23177900  -4.31813300   1.35780000
 H    0.08003000  -1.97253600   3.43701700
 H   -1.46167200  -1.50654100  -0.53455500
 H   -0.42662200  -4.39822800   3.34969400
 H   -1.97475300  -3.92257800  -0.62242900
 H   -1.45260300  -5.37889600   1.31648600
