18
Coordinates from ORCA-job mol E -513.489450115574
  C      -0.079850     -0.050700      0.352730
  C       0.790790      1.025120      0.417570
  C       0.429680     -1.344550      0.407360
  C       2.175440      0.814630      0.536930
  C       2.666100     -0.501420      0.590590
  C       1.796390     -1.578170      0.525840
  O       0.405270      2.038240      0.376190
  C       3.064020      1.913010      0.602540
  H      -1.148310      0.110540      0.260350
  H      -0.313060     -2.385700      0.352600
  H       3.733490     -0.671410      0.683140
  H       2.174350     -2.593830      0.566760
  N       3.807010      2.809520      0.648640
  O       4.573100      3.736000      0.696380
  C      -0.516610      2.185830      0.296660
  H      -0.708460      3.238190      0.271390
  H      -1.020960      1.751350      1.134370
  H      -0.873140      1.736490     -0.606600
18
Coordinates from ORCA-job mol E -513.767470361297
  C      -0.063586     -0.061963      0.354214
  C       0.810228      1.021186      0.419254
  C       0.447205     -1.355728      0.408936
  C       2.198127      0.800173      0.538954
  C       2.684659     -0.516278      0.592252
  C       1.812480     -1.591624      0.527291
  O       0.449564      2.071715      0.379684
  C       3.090017      1.895154      0.604870
  H      -1.131426      0.094324      0.261951
  H      -0.289970     -2.382097      0.354540
  H       3.751776     -0.688302      0.684780
  H       2.188857     -2.607879      0.568073
  N       3.836027      2.789561      0.651251
  O       4.605315      3.713787      0.699316
  C      -0.585947      2.222820      0.290497
  H      -0.802412      3.278159      0.263131
  H      -1.097202      1.782527      1.133512
  H      -0.948462      1.767605     -0.619067
18
Coordinates from ORCA-job mol E -513.917376190310
  C      -0.048397     -0.087755      0.355716
  C       0.823227      1.012240      0.420411
  C       0.469780     -1.378653      0.411038
  C       2.218280      0.776936      0.540814
  C       2.704382     -0.537827      0.594064
  C       1.833468     -1.614282      0.529241
  O       0.469103      2.137891      0.380783
  C       3.110552      1.870295      0.606779
  H      -1.115876      0.053016      0.263649
  H      -0.248914     -2.370335      0.357962
  H       3.771981     -0.707759      0.686611
  H       2.211271     -2.629992      0.570149
  N       3.856815      2.764632      0.653216
  O       4.627153      3.689324      0.701465
  C      -0.650251      2.275326      0.284621
  H      -0.886426      3.332582      0.255600
  H      -1.170127      1.831190      1.131406
  H      -1.020771      1.816314     -0.630084
18
Coordinates from ORCA-job mol E -514.003373337853
  C      -0.030316     -0.106302      0.357394
  C       0.839356      0.998551      0.421855
  C       0.488457     -1.396266      0.412770
  C       2.237040      0.753040      0.542536
  C       2.722404     -0.559617      0.595730
  C       1.850623     -1.635714      0.530870
  O       0.497361      2.191840      0.382698
  C       3.128207      1.846640      0.608388
  H      -1.098203      0.026337      0.265386
  H      -0.208407     -2.331052      0.361130
  H       3.790488     -0.726916      0.688294
  H       2.227761     -2.651687      0.571750
  N       3.872301      2.742284      0.654702
  O       4.641341      3.668888      0.703014
  C      -0.709785      2.315492      0.279248
  H      -0.964669      3.374488      0.248655
  H      -1.239282      1.868981      1.129325
  H      -1.089427      1.854152     -0.640305
18
Coordinates from ORCA-job mol E -514.045442723950
  C      -0.010457     -0.128696      0.359222
  C       0.855142      0.975860      0.423287
  C       0.506971     -1.419608      0.414538
  C       2.253351      0.725997      0.544004
  C       2.740761     -0.583934      0.597428
  C       1.868987     -1.660691      0.532654
  O       0.520072      2.230201      0.384217
  C       3.140327      1.823105      0.609461
  H      -1.079251     -0.003623      0.267238
  H      -0.165467     -2.284663      0.364503
  H       3.809827     -0.745205      0.690053
  H       2.247020     -2.676390      0.573686
  N       3.878389      2.723245      0.655359
  O       4.642015      3.654642      0.703509
  C      -0.766653      2.359229      0.274058
  H      -1.021480      3.421919      0.243483
  H      -1.307102      1.918230      1.124936
  H      -1.157202      1.903522     -0.648196
18
Coordinates from ORCA-job mol E -514.060342713717
  C       0.011613     -0.150601      0.361103
  C       0.873010      0.948730      0.424812
  C       0.525902     -1.444548      0.416317
  C       2.270137      0.704245      0.545332
  C       2.760675     -0.603701      0.599215
  C       1.889432     -1.682020      0.534645
  O       0.533197      2.249098      0.385017
  C       3.150614      1.807274      0.610199
  H      -1.059057     -0.029156      0.268988
  H      -0.164529     -2.293860      0.364862
  H       3.830799     -0.757270      0.691987
  H       2.270539     -2.696712      0.576146
  N       3.879421      2.714638      0.655462
  O       4.634171      3.653204      0.703294
  C      -0.817111      2.404807      0.269433
  H      -1.050259      3.473256      0.240745
  H      -1.366511      1.975142      1.120849
  H      -1.216793      1.960613     -0.654966
18
Coordinates from ORCA-job mol E -514.064216381632
  C       0.023869     -0.167046      0.361993
  C       0.884784      0.925124      0.425693
  C       0.536534     -1.462963      0.417310
  C       2.280191      0.691985      0.545962
  C       2.771204     -0.616679      0.600181
  C       1.900481     -1.696241      0.535834
  O       0.531297      2.243731      0.384711
  C       3.156204      1.798877      0.610447
  H      -1.047620     -0.042239      0.269753
  H      -0.151440     -2.290131      0.366108
  H       3.841642     -0.766608      0.693119
  H       2.284524     -2.709934      0.577872
  N       3.877486      2.712164      0.655238
  O       4.624946      3.656249      0.702891
  C      -0.851416      2.433833      0.266370
  H      -1.050359      3.508001      0.240668
  H      -1.403330      2.014672      1.119544
  H      -1.253747      2.000347     -0.660252
18
Coordinates from ORCA-job mol E -514.065443227949
  C       0.031480     -0.179946      0.362574
  C       0.893429      0.908131      0.426328
  C       0.544213     -1.476834      0.418079
  C       2.287914      0.686611      0.546518
  C       2.778732     -0.623265      0.600896
  C       1.909241     -1.704163      0.536733
  O       0.524556      2.231950      0.384040
  C       3.160234      1.795788      0.610617
  H      -1.039724     -0.049643      0.270281
  H      -0.155960     -2.314640      0.366056
  H       3.849407     -0.771609      0.693881
  H       2.297073     -2.716493      0.579204
  N       3.874852      2.714285      0.654932
  O       4.616044      3.663108      0.702388
  C      -0.874887      2.456331      0.264233
  H      -1.035539      3.536139      0.241784
  H      -1.427748      2.045833      1.120110
  H      -1.278070      2.031558     -0.665214
18
Coordinates from ORCA-job mol E -514.065956111322
  C       0.032434     -0.189026      0.362625
  C       0.896224      0.897465      0.426468
  C       0.546206     -1.485419      0.418321
  C       2.290315      0.684423      0.546675
  C       2.780383     -0.626840      0.601103
  C       1.912140     -1.708550      0.537085
  O       0.515360      2.215754      0.383207
  C       3.160472      1.794328      0.610516
  H      -1.038122     -0.052279      0.270313
  H      -0.143805     -2.317427      0.367134
  H       3.851039     -0.775729      0.694116
  H       2.302817     -2.719806      0.579852
  N       3.870228      2.716633      0.654475
  O       4.607072      3.668755      0.701801
  C      -0.886411      2.467566      0.263190
  H      -1.012540      3.551219      0.243637
  H      -1.439137      2.063196      1.121202
  H      -1.289424      2.048877     -0.668282
18
Coordinates from ORCA-job mol E -514.066229910876
  C       0.031467     -0.194836      0.362428
  C       0.896192      0.892968      0.426282
  C       0.546400     -1.489945      0.418328
  C       2.290562      0.684489      0.546582
  C       2.780340     -0.627621      0.601135
  C       1.913495     -1.709897      0.537298
  O       0.508081      2.201636      0.382515
  C       3.159217      1.794611      0.610260
  H      -1.038408     -0.052504      0.270112
  H      -0.139373     -2.327923      0.367589
  H       3.850916     -0.777593      0.694266
  H       2.306346     -2.720295      0.580387
  N       3.864697      2.720260      0.653926
  O       4.597987      3.675211      0.701160
  C      -0.889297      2.473206      0.262958
  H      -0.987057      3.559435      0.245806
  H      -1.442938      2.073133      1.122154
  H      -1.293377      2.058804     -0.669748
18
Coordinates from ORCA-job mol E -514.066327912770
  C       0.030366     -0.197174      0.362200
  C       0.894620      0.893032      0.425972
  C       0.545546     -1.491060      0.418228
  C       2.289472      0.684637      0.546411
  C       2.779397     -0.627639      0.601106
  C       1.913431     -1.710107      0.537371
  O       0.505209      2.193271      0.382173
  C       3.157564      1.794872      0.610001
  H      -1.039181     -0.051401      0.269835
  H      -0.137264     -2.333492      0.367777
  H       3.849892     -0.778385      0.694340
  H       2.306930     -2.720214      0.580629
  N       3.859547      2.723240      0.653418
  O       4.590160      3.680411      0.700563
  C      -0.886470      2.473857      0.263251
  H      -0.968624      3.561244      0.247422
  H      -1.442275      2.076189      1.122203
  H      -1.293069      2.061859     -0.669460
18
Coordinates from ORCA-job mol E -514.066344016637
  C       0.030692     -0.197209      0.362157
  C       0.894148      0.894010      0.425847
  C       0.545331     -1.490903      0.418200
  C       2.289184      0.684013      0.546362
  C       2.779231     -0.628075      0.601121
  C       1.913302     -1.710496      0.537400
  O       0.506237      2.192328      0.382162
  C       3.157434      1.794341      0.609941
  H      -1.038891     -0.050801      0.269738
  H      -0.137643     -2.333791      0.367733
  H       3.849719     -0.778781      0.694389
  H       2.306392     -2.720743      0.580672
  N       3.857474      2.724198      0.653221
  O       4.586664      3.682532      0.700312
  C      -0.884449      2.473340      0.263452
  H      -0.964736      3.560877      0.247768
  H      -1.441868      2.076325      1.121732
  H      -1.292970      2.061974     -0.668765
18
Coordinates from ORCA-job mol E -514.066355264315
  C       0.031692     -0.197162      0.362136
  C       0.894249      0.894851      0.425728
  C       0.545398     -1.490957      0.418193
  C       2.289423      0.682672      0.546345
  C       2.779405     -0.629199      0.601175
  C       1.913282     -1.711494      0.537462
  O       0.508396      2.192098      0.382162
  C       3.158122      1.793010      0.609926
  H      -1.037962     -0.050279      0.269640
  H      -0.138522     -2.333235      0.367647
  H       3.849902     -0.779703      0.694488
  H       2.305637     -2.722012      0.580744
  N       3.854957      2.725296      0.652986
  O       4.581792      3.685480      0.699993
  C      -0.882766      2.473231      0.263631
  H      -0.962018      3.560862      0.248005
  H      -1.442081      2.077041      1.121097
  H      -1.293657      2.062639     -0.667920
18
Coordinates from ORCA-job mol E -514.066360621178
  C       0.032556     -0.197141      0.362112
  C       0.894867      0.895008      0.425662
  C       0.545556     -1.491218      0.418195
  C       2.290072      0.681452      0.546361
  C       2.779694     -0.630395      0.601234
  C       1.913257     -1.712503      0.537517
  O       0.510235      2.192065      0.382128
  C       3.159322      1.791563      0.609958
  H      -1.037116     -0.050024      0.269561
  H      -0.139281     -2.332572      0.367579
  H       3.850184     -0.780847      0.694589
  H       2.305025     -2.723243      0.580819
  N       3.852954      2.726261      0.652802
  O       4.577439      3.688230      0.699730
  C      -0.882158      2.473622      0.263712
  H      -0.960766      3.561302      0.248105
  H      -1.442307      2.078023      1.120868
  H      -1.294284      2.063557     -0.667491
18
Coordinates from ORCA-job mol E -514.066364729157
  C       0.033248     -0.196997      0.362055
  C       0.895874      0.894867      0.425601
  C       0.545562     -1.491469      0.418183
  C       2.291041      0.680187      0.546385
  C       2.779960     -0.631826      0.601291
  C       1.913010     -1.713588      0.537562
  O       0.512195      2.191973      0.382048
  C       3.161022      1.789810      0.610016
  H      -1.036391     -0.049704      0.269454
  H      -0.140165     -2.331855      0.367510
  H       3.850413     -0.782514      0.694699
  H       2.304159     -2.724566      0.580894
  N       3.850524      2.727593      0.652587
  O       4.571971      3.691824      0.699408
  C      -0.881579      2.474152      0.263794
  H      -0.959671      3.561866      0.248183
  H      -1.441758      2.078973      1.121047
  H      -1.294166      2.064414     -0.667276
18
Coordinates from ORCA-job mol E -514.066369227037
  C       0.033786     -0.196593      0.361952
  C       0.897286      0.894612      0.425529
  C       0.545257     -1.491571      0.418142
  C       2.292344      0.678723      0.546419
  C       2.780135     -0.633657      0.601351
  C       1.912384     -1.714821      0.537591
  O       0.514634      2.191835      0.381915
  C       3.163355      1.787534      0.610101
  H      -1.035776     -0.049084      0.269291
  H      -0.141392     -2.331014      0.367415
  H       3.850495     -0.784989      0.694828
  H       2.302743     -2.726102      0.580960
  N       3.847025      2.729632      0.652282
  O       4.564210      3.697001      0.698937
  C      -0.880396      2.474628      0.263938
  H      -0.958228      3.562345      0.248282
  H      -1.439837      2.079680      1.121670
  H      -1.292775      2.064981     -0.667164
18
Coordinates from ORCA-job mol E -514.066376131073
  C       0.034437     -0.195701      0.361749
  C       0.899765      0.894177      0.425399
  C       0.544340     -1.491506      0.418042
  C       2.294575      0.676252      0.546471
  C       2.780253     -0.636880      0.601437
  C       1.910969     -1.716836      0.537615
  O       0.518876      2.191580      0.381658
  C       3.167385      1.783577      0.610247
  H      -1.034956     -0.047652      0.268985
  H      -0.143659     -2.329736      0.367248
  H       3.850401     -0.789690      0.695035
  H       2.299916     -2.728657      0.581042
  N       3.840136      2.733613      0.651690
  O       4.549384      3.706751      0.698010
  C      -0.877419      2.475184      0.264268
  H      -0.955123      3.562884      0.248505
  H      -1.435093      2.080364      1.123050
  H      -1.288937      2.065414     -0.667011
18
Coordinates from ORCA-job mol E -514.066384080700
  C       0.035155     -0.194577      0.361491
  C       0.902867      0.893575      0.425221
  C       0.542874     -1.491347      0.417906
  C       2.297310      0.673050      0.546506
  C       2.780286     -0.641067      0.601516
  C       1.908979     -1.719375      0.537625
  O       0.524252      2.191238      0.381307
  C       3.172298      1.778585      0.610422
  H      -1.033998     -0.045474      0.268604
  H      -0.146583     -2.328452      0.367067
  H       3.850120     -0.796010      0.695262
  H       2.296098     -2.731888      0.581129
  N       3.830312      2.739053      0.650869
  O       4.528895      3.719788      0.696715
  C      -0.872538      2.475789      0.264774
  H      -0.950075      3.563472      0.248881
  H      -1.428002      2.081021      1.124868
  H      -1.283000      2.065760     -0.666724
18
Coordinates from ORCA-job mol E -514.066393253023
  C       0.036121     -0.193543      0.361212
  C       0.906509      0.892625      0.424994
  C       0.541008     -1.491371      0.417760
  C       2.300479      0.668991      0.546508
  C       2.780330     -0.646250      0.601578
  C       1.906618     -1.722560      0.537632
  O       0.530619      2.190768      0.380865
  C       3.177871      1.772636      0.610622
  H      -1.032718     -0.042609      0.268191
  H      -0.149968     -2.327451      0.366922
  H       3.849765     -0.803841      0.695488
  H       2.291549     -2.735894      0.581235
  N       3.817282      2.745825      0.649815
  O       4.502465      3.735847      0.695034
  C      -0.865607      2.476747      0.265456
  H      -0.942437      3.564458      0.249468
  H      -1.419125      2.082176      1.126815
  H      -1.275511      2.066586     -0.666154
18
Coordinates from ORCA-job mol E -514.066403712270
  C       0.037594     -0.192973      0.360940
  C       0.910731      0.891053      0.424723
  C       0.539007     -1.491955      0.417638
  C       2.304141      0.663857      0.546475
  C       2.780561     -0.652557      0.601626
  C       1.904156     -1.726621      0.537658
  O       0.537951      2.190072      0.380344
  C       3.184093      1.765647      0.610860
  H      -1.030848     -0.039206      0.267783
  H      -0.153618     -2.326944      0.366852
  H       3.849534     -0.813114      0.695712
  H       2.286573     -2.740894      0.581388
  N       3.800712      2.753764      0.648513
  O       4.469547      3.754726      0.692914
  C      -0.856655      2.478532      0.266300
  H      -0.931563      3.566367      0.250333
  H      -1.409322      2.084634      1.128526
  H      -1.267345      2.068754     -0.665145
18
Coordinates from ORCA-job mol E -514.066415624969
  C       0.039987     -0.193068      0.360669
  C       0.916116      0.888464      0.424419
  C       0.537040     -1.493474      0.417545
  C       2.308853      0.656953      0.546463
  C       2.781231     -0.660742      0.601718
  C       1.901643     -1.732185      0.537737
  O       0.547119      2.188949      0.379752
  C       3.191802      1.756763      0.611194
  H      -1.027920     -0.035154      0.267344
  H      -0.157744     -2.326854      0.366822
  H       3.849665     -0.824655      0.696012
  H       2.280970     -2.747606      0.581627
  N       3.778697      2.763304      0.646790
  O       4.426273      3.777876      0.690009
  C      -0.845084      2.481800      0.267366
  H      -0.916079      3.569908      0.251626
  H      -1.398635      2.089465      1.129848
  H      -1.258685      2.073397     -0.663501
18
Coordinates from ORCA-job mol E -514.066425027123
  C       0.043200     -0.193692      0.360416
  C       0.922482      0.885065      0.424146
  C       0.535519     -1.495765      0.417488
  C       2.314506      0.648851      0.546531
  C       2.782439     -0.670159      0.601884
  C       1.899398     -1.738829      0.537880
  O       0.557687      2.187413      0.379201
  C       3.200782      1.746593      0.611651
  H      -1.024073     -0.030953      0.266892
  H      -0.162035     -2.326779      0.366784
  H       3.850320     -0.837446      0.696420
  H       2.275261     -2.755528      0.581941
  N       3.753012      2.773223      0.644762
  O       4.375782      3.802835      0.686444
  C      -0.832282      2.486420      0.268536
  H      -0.897719      3.574907      0.253242
  H      -1.388383      2.096524      1.130642
  H      -1.250647      2.080459     -0.661422
18
Coordinates from ORCA-job mol E -514.066427958838
  C       0.044917     -0.194316      0.360352
  C       0.925694      0.883054      0.424091
  C       0.535240     -1.497247      0.417510
  C       2.317426      0.644810      0.546618
  C       2.783275     -0.674764      0.601980
  C       1.898666     -1.742239      0.537968
  O       0.562821      2.186396      0.379058
  C       3.205295      1.741677      0.611924
  H      -1.022046     -0.029360      0.266741
  H      -0.163920     -2.326695      0.366784
  H       3.850937     -0.843376      0.696615
  H       2.272903     -2.759539      0.582094
  N       3.740807      2.777635      0.643819
  O       4.351421      3.814241      0.684601
  C      -0.826528      2.489153      0.269039
  H      -0.888759      3.577856      0.254105
  H      -1.384864      2.100856      1.130510
  H      -1.248035      2.084997     -0.660370
18
Coordinates from ORCA-job mol E -514.066428879932
  C       0.044595     -0.194683      0.360472
  C       0.924932      0.882988      0.424220
  C       0.535791     -1.497439      0.417578
  C       2.316813      0.645625      0.546655
  C       2.783314     -0.673715      0.601955
  C       1.899239     -1.741687      0.537955
  O       0.561377      2.186245      0.379272
  C       3.204241      1.742879      0.611897
  H      -1.022447     -0.030350      0.266911
  H      -0.163234     -2.326853      0.366831
  H       3.851101     -0.841626      0.696518
  H       2.273977     -2.758806      0.582026
  N       3.744439      2.776431      0.644155
  O       4.358185      3.811153      0.684947
  C      -0.828391      2.489061      0.268829
  H      -0.890777      3.577770      0.254022
  H      -1.387628      2.100873      1.129785
  H      -1.250277      2.085274     -0.660589
18
Coordinates from ORCA-job mol E -514.066429046251
  C       0.044493     -0.194655      0.360533
  C       0.924840      0.883004      0.424306
  C       0.535919     -1.497397      0.417601
  C       2.316757      0.645823      0.546699
  C       2.783339     -0.673500      0.601957
  C       1.899339     -1.741546      0.537944
  O       0.561171      2.186175      0.379407
  C       3.204138      1.743032      0.611910
  H      -1.022572     -0.030581      0.266989
  H      -0.163142     -2.326755      0.366829
  H       3.851148     -0.841294      0.696486
  H       2.274161     -2.758635      0.581973
  N       3.745110      2.776079      0.644227
  O       4.359343      3.810534      0.684908
  C      -0.828728      2.489004      0.268774
  H      -0.891330      3.577704      0.254060
  H      -1.388179      2.100777      1.129575
  H      -1.250559      2.085371     -0.660737
