-------------------------------------------------------------
----------------------- !PROPERTIES! ------------------------
-------------------------------------------------------------
# -----------------------------------------------------------
$ PAL_Flags
   description: The PAL Flags
   geom. index: 1
   prop. index: 1
        Diskflag:     2
# -----------------------------------------------------------
$ SCF_Energy
   description: The SCF energy
   geom. index: 1
   prop. index: 1
        SCF Energy:     -513.4951714316
# -----------------------------------------------------------
$ DFT_Energy
   description: The DFT energy
   geom. index: 1
   prop. index: 1
   Number of Alpha Electrons                 38.9999896756 
   Number of Beta  Electrons                 38.9999896756 
   Total number of  Electrons                77.9999793513 
   Exchange energy                          -67.8965742513 
   Correlation energy                        -2.6009105395 
   Correlation energy NL                      0.0000000000 
   Exchange-Correlation energy              -70.4974847907 
   Embedding correction                       0.0000000000 
   Total DFT Energy (No VdW correction)    -513.4951714316 
# -----------------------------------------------------------
$ VdW_Correction
   description: The Van der Waals Correction
   geom. index: 1
   prop. index: 1
        Van der Waals Correction:       -0.0064049489
# -----------------------------------------------------------
$ PAL_Flags
   description: The PAL Flags
   geom. index: 2
   prop. index: 1
        Diskflag:     2
# -----------------------------------------------------------
$ SCF_Energy
   description: The SCF energy
   geom. index: 2
   prop. index: 1
        SCF Energy:     -513.7725764165
# -----------------------------------------------------------
$ DFT_Energy
   description: The DFT energy
   geom. index: 2
   prop. index: 1
   Number of Alpha Electrons                 38.9999878877 
   Number of Beta  Electrons                 38.9999878877 
   Total number of  Electrons                77.9999757755 
   Exchange energy                          -67.7200273366 
   Correlation energy                        -2.5918410302 
   Correlation energy NL                      0.0000000000 
   Exchange-Correlation energy              -70.3118683668 
   Embedding correction                       0.0000000000 
   Total DFT Energy (No VdW correction)    -513.7725764165 
# -----------------------------------------------------------
$ VdW_Correction
   description: The Van der Waals Correction
   geom. index: 2
   prop. index: 1
        Van der Waals Correction:       -0.0063587067
# -----------------------------------------------------------
$ PAL_Flags
   description: The PAL Flags
   geom. index: 3
   prop. index: 1
        Diskflag:     2
# -----------------------------------------------------------
$ SCF_Energy
   description: The SCF energy
   geom. index: 3
   prop. index: 1
        SCF Energy:     -513.9218008952
# -----------------------------------------------------------
$ DFT_Energy
   description: The DFT energy
   geom. index: 3
   prop. index: 1
   Number of Alpha Electrons                 38.9999813045 
   Number of Beta  Electrons                 38.9999813045 
   Total number of  Electrons                77.9999626090 
   Exchange energy                          -67.5704381307 
   Correlation energy                        -2.5826778473 
   Correlation energy NL                      0.0000000000 
   Exchange-Correlation energy              -70.1531159780 
   Embedding correction                       0.0000000000 
   Total DFT Energy (No VdW correction)    -513.9218008952 
# -----------------------------------------------------------
$ VdW_Correction
   description: The Van der Waals Correction
   geom. index: 3
   prop. index: 1
        Van der Waals Correction:       -0.0063472805
# -----------------------------------------------------------
$ PAL_Flags
   description: The PAL Flags
   geom. index: 4
   prop. index: 1
        Diskflag:     2
# -----------------------------------------------------------
$ SCF_Energy
   description: The SCF energy
   geom. index: 4
   prop. index: 1
        SCF Energy:     -514.0071250090
# -----------------------------------------------------------
$ DFT_Energy
   description: The DFT energy
   geom. index: 4
   prop. index: 1
   Number of Alpha Electrons                 38.9999792733 
   Number of Beta  Electrons                 38.9999792733 
   Total number of  Electrons                77.9999585467 
   Exchange energy                          -67.4628908598 
   Correlation energy                        -2.5754986069 
   Correlation energy NL                      0.0000000000 
   Exchange-Correlation energy              -70.0383894667 
   Embedding correction                       0.0000000000 
   Total DFT Energy (No VdW correction)    -514.0071250090 
# -----------------------------------------------------------
$ VdW_Correction
   description: The Van der Waals Correction
   geom. index: 4
   prop. index: 1
        Van der Waals Correction:       -0.0063866407
# -----------------------------------------------------------
$ PAL_Flags
   description: The PAL Flags
   geom. index: 5
   prop. index: 1
        Diskflag:     2
# -----------------------------------------------------------
$ SCF_Energy
   description: The SCF energy
   geom. index: 5
   prop. index: 1
        SCF Energy:     -514.0486757582
# -----------------------------------------------------------
$ DFT_Energy
   description: The DFT energy
   geom. index: 5
   prop. index: 1
   Number of Alpha Electrons                 38.9999897441 
   Number of Beta  Electrons                 38.9999897441 
   Total number of  Electrons                77.9999794883 
   Exchange energy                          -67.3912197777 
   Correlation energy                        -2.5695675670 
   Correlation energy NL                      0.0000000000 
   Exchange-Correlation energy              -69.9607873447 
   Embedding correction                       0.0000000000 
   Total DFT Energy (No VdW correction)    -514.0486757582 
# -----------------------------------------------------------
$ VdW_Correction
   description: The Van der Waals Correction
   geom. index: 5
   prop. index: 1
        Van der Waals Correction:       -0.0063615725
# -----------------------------------------------------------
$ PAL_Flags
   description: The PAL Flags
   geom. index: 6
   prop. index: 1
        Diskflag:     2
# -----------------------------------------------------------
$ SCF_Energy
   description: The SCF energy
   geom. index: 6
   prop. index: 1
        SCF Energy:     -514.0632083831
# -----------------------------------------------------------
$ DFT_Energy
   description: The DFT energy
   geom. index: 6
   prop. index: 1
   Number of Alpha Electrons                 38.9999955119 
   Number of Beta  Electrons                 38.9999955119 
   Total number of  Electrons                77.9999910238 
   Exchange energy                          -67.3267400655 
   Correlation energy                        -2.5644050892 
   Correlation energy NL                      0.0000000000 
   Exchange-Correlation energy              -69.8911451547 
   Embedding correction                       0.0000000000 
   Total DFT Energy (No VdW correction)    -514.0632083831 
# -----------------------------------------------------------
$ VdW_Correction
   description: The Van der Waals Correction
   geom. index: 6
   prop. index: 1
        Van der Waals Correction:       -0.0063149008
# -----------------------------------------------------------
$ PAL_Flags
   description: The PAL Flags
   geom. index: 7
   prop. index: 1
        Diskflag:     2
# -----------------------------------------------------------
$ SCF_Energy
   description: The SCF energy
   geom. index: 7
   prop. index: 1
        SCF Energy:     -514.0669221521
# -----------------------------------------------------------
$ DFT_Energy
   description: The DFT energy
   geom. index: 7
   prop. index: 1
   Number of Alpha Electrons                 38.9999964926 
   Number of Beta  Electrons                 38.9999964926 
   Total number of  Electrons                77.9999929853 
   Exchange energy                          -67.3066612969 
   Correlation energy                        -2.5620131496 
   Correlation energy NL                      0.0000000000 
   Exchange-Correlation energy              -69.8686744465 
   Embedding correction                       0.0000000000 
   Total DFT Energy (No VdW correction)    -514.0669221521 
# -----------------------------------------------------------
$ VdW_Correction
   description: The Van der Waals Correction
   geom. index: 7
   prop. index: 1
        Van der Waals Correction:       -0.0062871005
# -----------------------------------------------------------
$ PAL_Flags
   description: The PAL Flags
   geom. index: 8
   prop. index: 1
        Diskflag:     2
# -----------------------------------------------------------
$ SCF_Energy
   description: The SCF energy
   geom. index: 8
   prop. index: 1
        SCF Energy:     -514.0680616324
# -----------------------------------------------------------
$ DFT_Energy
   description: The DFT energy
   geom. index: 8
   prop. index: 1
   Number of Alpha Electrons                 38.9999984985 
   Number of Beta  Electrons                 38.9999984985 
   Total number of  Electrons                77.9999969971 
   Exchange energy                          -67.2870743491 
   Correlation energy                        -2.5603473944 
   Correlation energy NL                      0.0000000000 
   Exchange-Correlation energy              -69.8474217435 
   Embedding correction                       0.0000000000 
   Total DFT Energy (No VdW correction)    -514.0680616324 
# -----------------------------------------------------------
$ VdW_Correction
   description: The Van der Waals Correction
   geom. index: 8
   prop. index: 1
        Van der Waals Correction:       -0.0062649563
# -----------------------------------------------------------
$ PAL_Flags
   description: The PAL Flags
   geom. index: 9
   prop. index: 1
        Diskflag:     2
# -----------------------------------------------------------
$ SCF_Energy
   description: The SCF energy
   geom. index: 9
   prop. index: 1
        SCF Energy:     -514.0685633521
# -----------------------------------------------------------
$ DFT_Energy
   description: The DFT energy
   geom. index: 9
   prop. index: 1
   Number of Alpha Electrons                 39.0000001533 
   Number of Beta  Electrons                 39.0000001533 
   Total number of  Electrons                78.0000003065 
   Exchange energy                          -67.2896686989 
   Correlation energy                        -2.5600597810 
   Correlation energy NL                      0.0000000000 
   Exchange-Correlation energy              -69.8497284798 
   Embedding correction                       0.0000000000 
   Total DFT Energy (No VdW correction)    -514.0685633521 
# -----------------------------------------------------------
$ VdW_Correction
   description: The Van der Waals Correction
   geom. index: 9
   prop. index: 1
        Van der Waals Correction:       -0.0062565255
# -----------------------------------------------------------
$ PAL_Flags
   description: The PAL Flags
   geom. index: 10
   prop. index: 1
        Diskflag:     2
# -----------------------------------------------------------
$ SCF_Energy
   description: The SCF energy
   geom. index: 10
   prop. index: 1
        SCF Energy:     -514.0688521810
# -----------------------------------------------------------
$ DFT_Energy
   description: The DFT energy
   geom. index: 10
   prop. index: 1
   Number of Alpha Electrons                 39.0000017703 
   Number of Beta  Electrons                 39.0000017703 
   Total number of  Electrons                78.0000035407 
   Exchange energy                          -67.2923962981 
   Correlation energy                        -2.5601496312 
   Correlation energy NL                      0.0000000000 
   Exchange-Correlation energy              -69.8525459293 
   Embedding correction                       0.0000000000 
   Total DFT Energy (No VdW correction)    -514.0688521810 
# -----------------------------------------------------------
$ VdW_Correction
   description: The Van der Waals Correction
   geom. index: 10
   prop. index: 1
        Van der Waals Correction:       -0.0062537108
# -----------------------------------------------------------
$ PAL_Flags
   description: The PAL Flags
   geom. index: 11
   prop. index: 1
        Diskflag:     2
# -----------------------------------------------------------
$ SCF_Energy
   description: The SCF energy
   geom. index: 11
   prop. index: 1
        SCF Energy:     -514.0689714251
# -----------------------------------------------------------
$ DFT_Energy
   description: The DFT energy
   geom. index: 11
   prop. index: 1
   Number of Alpha Electrons                 39.0000029034 
   Number of Beta  Electrons                 39.0000029034 
   Total number of  Electrons                78.0000058068 
   Exchange energy                          -67.2967008932 
   Correlation energy                        -2.5604691137 
   Correlation energy NL                      0.0000000000 
   Exchange-Correlation energy              -69.8571700069 
   Embedding correction                       0.0000000000 
   Total DFT Energy (No VdW correction)    -514.0689714251 
# -----------------------------------------------------------
$ VdW_Correction
   description: The Van der Waals Correction
   geom. index: 11
   prop. index: 1
        Van der Waals Correction:       -0.0062555164
# -----------------------------------------------------------
$ PAL_Flags
   description: The PAL Flags
   geom. index: 12
   prop. index: 1
        Diskflag:     2
# -----------------------------------------------------------
$ SCF_Energy
   description: The SCF energy
   geom. index: 12
   prop. index: 1
        SCF Energy:     -514.0689899797
# -----------------------------------------------------------
$ DFT_Energy
   description: The DFT energy
   geom. index: 12
   prop. index: 1
   Number of Alpha Electrons                 39.0000033021 
   Number of Beta  Electrons                 39.0000033021 
   Total number of  Electrons                78.0000066042 
   Exchange energy                          -67.2977628732 
   Correlation energy                        -2.5605704718 
   Correlation energy NL                      0.0000000000 
   Exchange-Correlation energy              -69.8583333450 
   Embedding correction                       0.0000000000 
   Total DFT Energy (No VdW correction)    -514.0689899797 
# -----------------------------------------------------------
$ VdW_Correction
   description: The Van der Waals Correction
   geom. index: 12
   prop. index: 1
        Van der Waals Correction:       -0.0062567548
# -----------------------------------------------------------
$ PAL_Flags
   description: The PAL Flags
   geom. index: 13
   prop. index: 1
        Diskflag:     2
# -----------------------------------------------------------
$ SCF_Energy
   description: The SCF energy
   geom. index: 13
   prop. index: 1
        SCF Energy:     -514.0689970673
# -----------------------------------------------------------
$ DFT_Energy
   description: The DFT energy
   geom. index: 13
   prop. index: 1
   Number of Alpha Electrons                 39.0000036697 
   Number of Beta  Electrons                 39.0000036697 
   Total number of  Electrons                78.0000073394 
   Exchange energy                          -67.2980225691 
   Correlation energy                        -2.5606045789 
   Correlation energy NL                      0.0000000000 
   Exchange-Correlation energy              -69.8586271479 
   Embedding correction                       0.0000000000 
   Total DFT Energy (No VdW correction)    -514.0689970673 
# -----------------------------------------------------------
$ VdW_Correction
   description: The Van der Waals Correction
   geom. index: 13
   prop. index: 1
        Van der Waals Correction:       -0.0062575514
# -----------------------------------------------------------
$ PAL_Flags
   description: The PAL Flags
   geom. index: 14
   prop. index: 1
        Diskflag:     2
# -----------------------------------------------------------
$ SCF_Energy
   description: The SCF energy
   geom. index: 14
   prop. index: 1
        SCF Energy:     -514.0689962682
# -----------------------------------------------------------
$ DFT_Energy
   description: The DFT energy
   geom. index: 14
   prop. index: 1
   Number of Alpha Electrons                 39.0000037892 
   Number of Beta  Electrons                 39.0000037892 
   Total number of  Electrons                78.0000075783 
   Exchange energy                          -67.2976386304 
   Correlation energy                        -2.5605743089 
   Correlation energy NL                      0.0000000000 
   Exchange-Correlation energy              -69.8582129392 
   Embedding correction                       0.0000000000 
   Total DFT Energy (No VdW correction)    -514.0689962682 
# -----------------------------------------------------------
$ VdW_Correction
   description: The Van der Waals Correction
   geom. index: 14
   prop. index: 1
        Van der Waals Correction:       -0.0062576303
# -----------------------------------------------------------
$ PAL_Flags
   description: The PAL Flags
   geom. index: 15
   prop. index: 1
        Diskflag:     2
# -----------------------------------------------------------
$ SCF_Energy
   description: The SCF energy
   geom. index: 15
   prop. index: 1
        SCF Energy:     -514.0689945761
# -----------------------------------------------------------
$ DFT_Energy
   description: The DFT energy
   geom. index: 15
   prop. index: 1
   Number of Alpha Electrons                 39.0000037258 
   Number of Beta  Electrons                 39.0000037258 
   Total number of  Electrons                78.0000074516 
   Exchange energy                          -67.2971394350 
   Correlation energy                        -2.5605299597 
   Correlation energy NL                      0.0000000000 
   Exchange-Correlation energy              -69.8576693946 
   Embedding correction                       0.0000000000 
   Total DFT Energy (No VdW correction)    -514.0689945761 
# -----------------------------------------------------------
$ VdW_Correction
   description: The Van der Waals Correction
   geom. index: 15
   prop. index: 1
        Van der Waals Correction:       -0.0062576943
# -----------------------------------------------------------
$ PAL_Flags
   description: The PAL Flags
   geom. index: 16
   prop. index: 1
        Diskflag:     2
# -----------------------------------------------------------
$ SCF_Energy
   description: The SCF energy
   geom. index: 16
   prop. index: 1
        SCF Energy:     -514.0689948784
# -----------------------------------------------------------
$ DFT_Energy
   description: The DFT energy
   geom. index: 16
   prop. index: 1
   Number of Alpha Electrons                 39.0000034749 
   Number of Beta  Electrons                 39.0000034749 
   Total number of  Electrons                78.0000069498 
   Exchange energy                          -67.2967231114 
   Correlation energy                        -2.5604935677 
   Correlation energy NL                      0.0000000000 
   Exchange-Correlation energy              -69.8572166791 
   Embedding correction                       0.0000000000 
   Total DFT Energy (No VdW correction)    -514.0689948784 
# -----------------------------------------------------------
$ VdW_Correction
   description: The Van der Waals Correction
   geom. index: 16
   prop. index: 1
        Van der Waals Correction:       -0.0062581568
# -----------------------------------------------------------
$ PAL_Flags
   description: The PAL Flags
   geom. index: 17
   prop. index: 1
        Diskflag:     2
# -----------------------------------------------------------
$ SCF_Energy
   description: The SCF energy
   geom. index: 17
   prop. index: 1
        SCF Energy:     -514.0689989518
# -----------------------------------------------------------
$ DFT_Energy
   description: The DFT energy
   geom. index: 17
   prop. index: 1
   Number of Alpha Electrons                 39.0000029070 
   Number of Beta  Electrons                 39.0000029070 
   Total number of  Electrons                78.0000058140 
   Exchange energy                          -67.2964145746 
   Correlation energy                        -2.5604696987 
   Correlation energy NL                      0.0000000000 
   Exchange-Correlation energy              -69.8568842733 
   Embedding correction                       0.0000000000 
   Total DFT Energy (No VdW correction)    -514.0689989518 
# -----------------------------------------------------------
$ VdW_Correction
   description: The Van der Waals Correction
   geom. index: 17
   prop. index: 1
        Van der Waals Correction:       -0.0062596229
# -----------------------------------------------------------
$ PAL_Flags
   description: The PAL Flags
   geom. index: 18
   prop. index: 1
        Diskflag:     2
# -----------------------------------------------------------
$ SCF_Energy
   description: The SCF energy
   geom. index: 18
   prop. index: 1
        SCF Energy:     -514.0690076449
# -----------------------------------------------------------
$ DFT_Energy
   description: The DFT energy
   geom. index: 18
   prop. index: 1
   Number of Alpha Electrons                 39.0000021402 
   Number of Beta  Electrons                 39.0000021402 
   Total number of  Electrons                78.0000042803 
   Exchange energy                          -67.2964339271 
   Correlation energy                        -2.5604789877 
   Correlation energy NL                      0.0000000000 
   Exchange-Correlation energy              -69.8569129147 
   Embedding correction                       0.0000000000 
   Total DFT Energy (No VdW correction)    -514.0690076449 
# -----------------------------------------------------------
$ VdW_Correction
   description: The Van der Waals Correction
   geom. index: 18
   prop. index: 1
        Van der Waals Correction:       -0.0062621508
# -----------------------------------------------------------
$ PAL_Flags
   description: The PAL Flags
   geom. index: 19
   prop. index: 1
        Diskflag:     2
# -----------------------------------------------------------
$ SCF_Energy
   description: The SCF energy
   geom. index: 19
   prop. index: 1
        SCF Energy:     -514.0690209095
# -----------------------------------------------------------
$ DFT_Energy
   description: The DFT energy
   geom. index: 19
   prop. index: 1
   Number of Alpha Electrons                 39.0000012933 
   Number of Beta  Electrons                 39.0000012933 
   Total number of  Electrons                78.0000025867 
   Exchange energy                          -67.2967304858 
   Correlation energy                        -2.5605167064 
   Correlation energy NL                      0.0000000000 
   Exchange-Correlation energy              -69.8572471922 
   Embedding correction                       0.0000000000 
   Total DFT Energy (No VdW correction)    -514.0690209095 
# -----------------------------------------------------------
$ VdW_Correction
   description: The Van der Waals Correction
   geom. index: 19
   prop. index: 1
        Van der Waals Correction:       -0.0062656533
# -----------------------------------------------------------
$ PAL_Flags
   description: The PAL Flags
   geom. index: 20
   prop. index: 1
        Diskflag:     2
# -----------------------------------------------------------
$ SCF_Energy
   description: The SCF energy
   geom. index: 20
   prop. index: 1
        SCF Energy:     -514.0690370395
# -----------------------------------------------------------
$ DFT_Energy
   description: The DFT energy
   geom. index: 20
   prop. index: 1
   Number of Alpha Electrons                 39.0000005268 
   Number of Beta  Electrons                 39.0000005268 
   Total number of  Electrons                78.0000010535 
   Exchange energy                          -67.2971085563 
   Correlation energy                        -2.5605623694 
   Correlation energy NL                      0.0000000000 
   Exchange-Correlation energy              -69.8576709257 
   Embedding correction                       0.0000000000 
   Total DFT Energy (No VdW correction)    -514.0690370395 
# -----------------------------------------------------------
$ VdW_Correction
   description: The Van der Waals Correction
   geom. index: 20
   prop. index: 1
        Van der Waals Correction:       -0.0062698872
# -----------------------------------------------------------
$ PAL_Flags
   description: The PAL Flags
   geom. index: 21
   prop. index: 1
        Diskflag:     2
# -----------------------------------------------------------
$ SCF_Energy
   description: The SCF energy
   geom. index: 21
   prop. index: 1
        SCF Energy:     -514.0690534744
# -----------------------------------------------------------
$ DFT_Energy
   description: The DFT energy
   geom. index: 21
   prop. index: 1
   Number of Alpha Electrons                 38.9999999856 
   Number of Beta  Electrons                 38.9999999856 
   Total number of  Electrons                77.9999999713 
   Exchange energy                          -67.2972735519 
   Correlation energy                        -2.5605869931 
   Correlation energy NL                      0.0000000000 
   Exchange-Correlation energy              -69.8578605450 
   Embedding correction                       0.0000000000 
   Total DFT Energy (No VdW correction)    -514.0690534744 
# -----------------------------------------------------------
$ VdW_Correction
   description: The Van der Waals Correction
   geom. index: 21
   prop. index: 1
        Van der Waals Correction:       -0.0062750051
# -----------------------------------------------------------
$ PAL_Flags
   description: The PAL Flags
   geom. index: 22
   prop. index: 1
        Diskflag:     2
# -----------------------------------------------------------
$ SCF_Energy
   description: The SCF energy
   geom. index: 22
   prop. index: 1
        SCF Energy:     -514.0690628153
# -----------------------------------------------------------
$ DFT_Energy
   description: The DFT energy
   geom. index: 22
   prop. index: 1
   Number of Alpha Electrons                 38.9999999200 
   Number of Beta  Electrons                 38.9999999200 
   Total number of  Electrons                77.9999998400 
   Exchange energy                          -67.2969012982 
   Correlation energy                        -2.5605602525 
   Correlation energy NL                      0.0000000000 
   Exchange-Correlation energy              -69.8574615507 
   Embedding correction                       0.0000000000 
   Total DFT Energy (No VdW correction)    -514.0690628153 
# -----------------------------------------------------------
$ VdW_Correction
   description: The Van der Waals Correction
   geom. index: 22
   prop. index: 1
        Van der Waals Correction:       -0.0062805479
# -----------------------------------------------------------
$ PAL_Flags
   description: The PAL Flags
   geom. index: 23
   prop. index: 1
        Diskflag:     2
# -----------------------------------------------------------
$ SCF_Energy
   description: The SCF energy
   geom. index: 23
   prop. index: 1
        SCF Energy:     -514.0690615140
# -----------------------------------------------------------
$ DFT_Energy
   description: The DFT energy
   geom. index: 23
   prop. index: 1
   Number of Alpha Electrons                 39.0000000238 
   Number of Beta  Electrons                 39.0000000238 
   Total number of  Electrons                78.0000000477 
   Exchange energy                          -67.2961714995 
   Correlation energy                        -2.5605056537 
   Correlation energy NL                      0.0000000000 
   Exchange-Correlation energy              -69.8566771532 
   Embedding correction                       0.0000000000 
   Total DFT Energy (No VdW correction)    -514.0690615140 
# -----------------------------------------------------------
$ VdW_Correction
   description: The Van der Waals Correction
   geom. index: 23
   prop. index: 1
        Van der Waals Correction:       -0.0062827086
# -----------------------------------------------------------
$ PAL_Flags
   description: The PAL Flags
   geom. index: 24
   prop. index: 1
        Diskflag:     2
# -----------------------------------------------------------
$ SCF_Energy
   description: The SCF energy
   geom. index: 24
   prop. index: 1
        SCF Energy:     -514.0690587931
# -----------------------------------------------------------
$ DFT_Energy
   description: The DFT energy
   geom. index: 24
   prop. index: 1
   Number of Alpha Electrons                 38.9999999354 
   Number of Beta  Electrons                 38.9999999354 
   Total number of  Electrons                77.9999998709 
   Exchange energy                          -67.2958318010 
   Correlation energy                        -2.5604776577 
   Correlation energy NL                      0.0000000000 
   Exchange-Correlation energy              -69.8563094586 
   Embedding correction                       0.0000000000 
   Total DFT Energy (No VdW correction)    -514.0690587931 
# -----------------------------------------------------------
$ VdW_Correction
   description: The Van der Waals Correction
   geom. index: 24
   prop. index: 1
        Van der Waals Correction:       -0.0062812660
# -----------------------------------------------------------
$ PAL_Flags
   description: The PAL Flags
   geom. index: 25
   prop. index: 1
        Diskflag:     2
# -----------------------------------------------------------
$ SCF_Energy
   description: The SCF energy
   geom. index: 25
   prop. index: 1
        SCF Energy:     -514.0690580167
# -----------------------------------------------------------
$ DFT_Energy
   description: The DFT energy
   geom. index: 25
   prop. index: 1
   Number of Alpha Electrons                 38.9999998972 
   Number of Beta  Electrons                 38.9999998972 
   Total number of  Electrons                77.9999997943 
   Exchange energy                          -67.2958901912 
   Correlation energy                        -2.5604760976 
   Correlation energy NL                      0.0000000000 
   Exchange-Correlation energy              -69.8563662888 
   Embedding correction                       0.0000000000 
   Total DFT Energy (No VdW correction)    -514.0690580167 
# -----------------------------------------------------------
$ VdW_Correction
   description: The Van der Waals Correction
   geom. index: 25
   prop. index: 1
        Van der Waals Correction:       -0.0062810781
# -----------------------------------------------------------
$ SCF_Electric_Properties
   description: The SCF Calculated Electric Properties
   geom. index: 25
   prop. index: 1
       Filename                          : mol.scfp 
       Do Dipole Moment Calculation      : true 
       Do Quadrupole Moment Calculation  : false 
       Do Polarizability Calculation     : false 
** Dipole moment part of electric properties **
        Magnitude of dipole moment (Debye) :        4.8984694615
        Electronic Contribution:
                  0    
      0       8.689730
      1       4.073816
      2       0.668665
        Nuclear Contribution:
                  0    
      0     -10.262707
      1      -5.181146
      2      -0.785006
        Total Dipole moment:
                  0    
      0      -1.572978
      1      -1.107330
      2      -0.116341
# -----------------------------------------------------------
$ PAL_Flags
   description: The PAL Flags
   geom. index: 26
   prop. index: 1
        Diskflag:     2
# -----------------------------------------------------------
$ SCF_Energy
   description: The SCF energy
   geom. index: 26
   prop. index: 1
        SCF Energy:     -514.0690580097
# -----------------------------------------------------------
$ DFT_Energy
   description: The DFT energy
   geom. index: 26
   prop. index: 1
   Number of Alpha Electrons                 38.9999998972 
   Number of Beta  Electrons                 38.9999998972 
   Total number of  Electrons                77.9999997944 
   Exchange energy                          -67.2958878944 
   Correlation energy                        -2.5604761274 
   Correlation energy NL                      0.0000000000 
   Exchange-Correlation energy              -69.8563640217 
   Embedding correction                       0.0000000000 
   Total DFT Energy (No VdW correction)    -514.0690580097 
# -----------------------------------------------------------
$ VdW_Correction
   description: The Van der Waals Correction
   geom. index: 26
   prop. index: 1
        Van der Waals Correction:       -0.0062810781
# -----------------------------------------------------------
$ THERMOCHEMISTRY_Energies
   description: The Thermochemistry energies
   geom. index: 26
   prop. index: 1
        Temperature (Kelvin)           :        298.1500000000
        Pressure (atm)                 :          1.0000000000
        Total Mass (AMU)               :        149.0476784692
        Spin Degeneracy                :          1.0000000000
        Electronic Energy (Hartree)    :       -514.0664290393
        Translational Energy (Hartree) :          0.0014162714
        Rotational Energy (Hartree)    :          0.0014162714
        Vibrational Energy (Hartree)   :          0.0070996440
        Number of frequencies          :     54      
        Scaling Factor for frequencies :          1.0000000000
        Vibrational frequencies        :     
                  0    
      0       0.000000
      1       0.000000
      2       0.000000
      3       0.000000
      4       0.000000
      5       0.000000
      6      30.755728
      7      70.283018
      8      98.250481
      9     189.046061
     10     243.011112
     11     261.649813
     12     309.038857
     13     348.185466
     14     407.817070
     15     440.509167
     16     454.159781
     17     489.944747
     18     538.396601
     19     548.313265
     20     590.695941
     21     714.858040
     22     722.651810
     23     753.898020
     24     818.869165
     25     847.366267
     26     935.503643
     27     969.575863
     28     1047.007286
     29     1068.305470
     30     1110.015076
     31     1158.622198
     32     1168.321350
     33     1192.094984
     34     1209.041537
     35     1279.817722
     36     1302.479720
     37     1347.346306
     38     1438.591920
     39     1464.896482
     40     1486.224295
     41     1495.159846
     42     1497.444882
     43     1526.700527
     44     1604.505148
     45     1629.252162
     46     2414.668549
     47     2991.854344
     48     3068.758189
     49     3138.558642
     50     3174.338863
     51     3186.015302
     52     3198.635692
     53     3207.107971
        Zero Point Energy (Hartree)    :          0.1348414258
        Inner Energy (Hartree)         :       -513.9216554265
        Enthalpy (Hartree)             :       -513.9207112175
        Electronic entropy             :          0.0000000000
        Rotational entropy             :          0.0144415577
        Vibrational entropy            :          0.0121693879
        Translational entropy          :          0.0144415577
        Entropy                        :          0.0460474160
        Gibbs Energy (Hartree)         :       -513.9667586335
        Is Linear                      :                 false
# -------------------------------------------------------------
----------------------- !GEOMETRIES! ------------------------
# -------------------------------------------------------------
------------------------ !GEOMETRY! -------------------------
    Number of atoms:    18 
    Geometry Index:     1 
    Coordinates:
               0 C     -0.079850000000   -0.050700000000    0.352730000000
               1 C      0.790790000000    1.025120000000    0.417570000000
               2 C      0.429680000000   -1.344550000000    0.407360000000
               3 C      2.175440000000    0.814630000000    0.536930000000
               4 C      2.666100000000   -0.501420000000    0.590590000000
               5 C      1.796390000000   -1.578170000000    0.525840000000
               6 O      0.405270000000    2.038240000000    0.376190000000
               7 C      3.064020000000    1.913010000000    0.602540000000
               8 H     -1.148310000000    0.110540000000    0.260350000000
               9 H     -0.313060000000   -2.385700000000    0.352600000000
              10 H      3.733490000000   -0.671410000000    0.683140000000
              11 H      2.174350000000   -2.593830000000    0.566760000000
              12 N      3.807010000000    2.809520000000    0.648640000000
              13 O      4.573100000000    3.736000000000    0.696380000000
              14 C     -0.516610000000    2.185830000000    0.296660000000
              15 H     -0.708460000000    3.238190000000    0.271390000000
              16 H     -1.020960000000    1.751350000000    1.134370000000
              17 H     -0.873140000000    1.736490000000   -0.606600000000
------------------------ !GEOMETRY! -------------------------
    Number of atoms:    18 
    Geometry Index:     2 
    Coordinates:
               0 C     -0.063585900942   -0.061962855795    0.354214360787
               1 C      0.810228026342    1.021186180885    0.419254162072
               2 C      0.447205087784   -1.355727892021    0.408935761834
               3 C      2.198127161561    0.800172896354    0.538953877796
               4 C      2.684658563372   -0.516277652346    0.592252194314
               5 C      1.812480123123   -1.591623887427    0.527290839964
               6 O      0.449563676416    2.071715014788    0.379684129562
               7 C      3.090016794160    1.895153578688    0.604870213186
               8 H     -1.131426112764    0.094323572742    0.261951112754
               9 H     -0.289970244649   -2.382097010011    0.354539668453
              10 H      3.751776238566   -0.688302002467    0.684780225564
              11 H      2.188856932712   -2.607878545625    0.568072617671
              12 N      3.836027398009    2.789561028164    0.651250761852
              13 O      4.605314823960    3.713787200119    0.699315863294
              14 C     -0.585947416016    2.222819536920    0.290497360698
              15 H     -0.802411595732    3.278159019855    0.263131193715
              16 H     -1.097201892109    1.782526701682    1.133512430026
              17 H     -0.948461663796    1.767605115495   -0.619066773541
------------------------ !GEOMETRY! -------------------------
    Number of atoms:    18 
    Geometry Index:     3 
    Coordinates:
               0 C     -0.048397419518   -0.087755376584    0.355715690026
               1 C      0.823226991305    1.012239580037    0.420410762421
               2 C      0.469779945322   -1.378653480107    0.411037513397
               3 C      2.218280091704    0.776935870136    0.540814483683
               4 C      2.704381842001   -0.537827322343    0.594064152571
               5 C      1.833467619901   -1.614282140928    0.529241439462
               6 O      0.469103468059    2.137890507281    0.380782906496
               7 C      3.110551908496    1.870295111682    0.606778613129
               8 H     -1.115875996507    0.053016203681    0.263648685434
               9 H     -0.248913615059   -2.370334954315    0.357961944667
              10 H      3.771981272095   -0.707759303233    0.686610505838
              11 H      2.211270964617   -2.629992493777    0.570149138555
              12 N      3.856815408326    2.764631570874    0.653215984285
              13 O      4.627152689337    3.689324356513    0.701465330905
              14 C     -0.650251138352    2.275325551178    0.284621234379
              15 H     -0.886425588138    3.332582234075    0.255599690819
              16 H     -1.170127431199    1.831190257709    1.131406275146
              17 H     -1.020771012387    1.816313828119   -0.630084351213
------------------------ !GEOMETRY! -------------------------
    Number of atoms:    18 
    Geometry Index:     4 
    Coordinates:
               0 C     -0.030315984219   -0.106302126955    0.357394485870
               1 C      0.839355831908    0.998551149321    0.421855340482
               2 C      0.488456794156   -1.396265735718    0.412769657117
               3 C      2.237039611313    0.753040048898    0.542536102045
               4 C      2.722403811411   -0.559617459395    0.595729762713
               5 C      1.850623049457   -1.635713507997    0.530870374901
               6 O      0.497361173559    2.191840165916    0.382698429320
               7 C      3.128207276416    1.846640265245    0.608388361159
               8 H     -1.098203286389    0.026336787305    0.265385963720
               9 H     -0.208407423323   -2.331051808195    0.361130247329
              10 H      3.790487702882   -0.726916399308    0.688293577290
              11 H      2.227761071846   -2.651687430326    0.571749528472
              12 N      3.872301262970    2.742283935941    0.654701737712
              13 O      4.641341126677    3.668888488127    0.703014023005
              14 C     -0.709784995615    2.315492024429    0.279248002933
              15 H     -0.964668763122    3.374488212873    0.248654665751
              16 H     -1.239281620999    1.868981423146    1.129324820221
              17 H     -1.089426638928    1.854151966692   -0.640305080041
------------------------ !GEOMETRY! -------------------------
    Number of atoms:    18 
    Geometry Index:     5 
    Coordinates:
               0 C     -0.010457323744   -0.128696442085    0.359222274980
               1 C      0.855142197398    0.975860298276    0.423287103120
               2 C      0.506971415124   -1.419607677841    0.414538363459
               3 C      2.253351233774    0.725996860793    0.544004156995
               4 C      2.740761277407   -0.583933511078    0.597428298932
               5 C      1.868986581634   -1.660691388207    0.532653965350
               6 O      0.520072104349    2.230200959997    0.384216637591
               7 C      3.140327389326    1.823105331831    0.609460641298
               8 H     -1.079251399190   -0.003623288820    0.267237735352
               9 H     -0.165466976103   -2.284663327407    0.364503323069
              10 H      3.809827342885   -0.745205112286    0.690053223433
              11 H      2.247019758645   -2.676389652068    0.573685845313
              12 N      3.878388621939    2.723245359238    0.655358637496
              13 O      4.642015151242    3.654641667790    0.703508875874
              14 C     -0.766652741334    2.359229230233    0.274057798249
              15 H     -1.021480258335    3.421918792906    0.243483069039
              16 H     -1.307101993439    1.918230300609    1.124936185694
              17 H     -1.157202381578    1.903521598121   -0.648196135242
------------------------ !GEOMETRY! -------------------------
    Number of atoms:    18 
    Geometry Index:     6 
    Coordinates:
               0 C      0.011612574897   -0.150601045653    0.361102530802
               1 C      0.873009841819    0.948729669900    0.424812200376
               2 C      0.525902405951   -1.444548416005    0.416317481733
               3 C      2.270137084293    0.704245291389    0.545332056663
               4 C      2.760675492069   -0.603700910186    0.599215222320
               5 C      1.889432313717   -1.682019996644    0.534645225219
               6 O      0.533197189529    2.249098117403    0.385017212708
               7 C      3.150613644308    1.807274173222    0.610198886233
               8 H     -1.059056986538   -0.029156145237    0.268987586373
               9 H     -0.164529420616   -2.293859642970    0.364862082518
              10 H      3.830798594307   -0.757269603779    0.691986640220
              11 H      2.270538954615   -2.696711624326    0.576145582952
              12 N      3.879421249390    2.714637777952    0.655461804918
              13 O      4.634171463500    3.653204469924    0.703294090584
              14 C     -0.817111386501    2.404806973608    0.269433155199
              15 H     -1.050259009713    3.473255894854    0.240745220771
              16 H     -1.366511408259    1.975141898062    1.120848912169
              17 H     -1.216792596770    1.960613118486   -0.654965891759
------------------------ !GEOMETRY! -------------------------
    Number of atoms:    18 
    Geometry Index:     7 
    Coordinates:
               0 C      0.023869011100   -0.167046366803    0.361993211819
               1 C      0.884783548219    0.925123557657    0.425692939572
               2 C      0.536533764114   -1.462963161313    0.417309809412
               3 C      2.280191434505    0.691984985224    0.545961608703
               4 C      2.771203977461   -0.616679493147    0.600181438019
               5 C      1.900481338009   -1.696240752007    0.535833727666
               6 O      0.531296998060    2.243731395492    0.384710813938
               7 C      3.156204124571    1.798876579033    0.610447463028
               8 H     -1.047619820712   -0.042239240844    0.269752720119
               9 H     -0.151439515159   -2.290130638592    0.366107895038
              10 H      3.841641664764   -0.766608282102    0.693119006357
              11 H      2.284523799824   -2.709934397413    0.577871837482
              12 N      3.877485778014    2.712164322106    0.655238213493
              13 O      4.624946152493    3.656248586165    0.702890579148
              14 C     -0.851416074657    2.433833415115    0.266369644675
              15 H     -1.050358641448    3.508000929330    0.240667709062
              16 H     -1.403330251951    2.014671855616    1.119543501121
              17 H     -1.253747287206    2.000346706483   -0.660252118652
------------------------ !GEOMETRY! -------------------------
    Number of atoms:    18 
    Geometry Index:     8 
    Coordinates:
               0 C      0.031479633192   -0.179946472152    0.362574182784
               1 C      0.893429358927    0.908130876679    0.426327941882
               2 C      0.544213489774   -1.476834460340    0.418079359474
               3 C      2.287914441035    0.686611032747    0.546518274909
               4 C      2.778732385313   -0.623264822164    0.600896161480
               5 C      1.909240788052   -1.704163252793    0.536732801500
               6 O      0.524556443472    2.231949643546    0.384039921230
               7 C      3.160234398740    1.795787944116    0.610616849203
               8 H     -1.039723780483   -0.049643410822    0.270280977364
               9 H     -0.155960141404   -2.314639913412    0.366055558383
              10 H      3.849407464463   -0.771609052567    0.693880998125
              11 H      2.297072937648   -2.716492573731    0.579203837382
              12 N      3.874851951656    2.714284869902    0.654931790672
              13 O      4.616044466246    3.663108392995    0.702388220255
              14 C     -0.874887130899    2.456331142193    0.264232987937
              15 H     -1.035538695478    3.536139123120    0.241784113587
              16 H     -1.427748227464    2.045833032962    1.120110461986
              17 H     -1.278069782789    2.031557899720   -0.665214438152
------------------------ !GEOMETRY! -------------------------
    Number of atoms:    18 
    Geometry Index:     9 
    Coordinates:
               0 C      0.032433640953   -0.189026093495    0.362625363040
               1 C      0.896224477368    0.897464902639    0.426468049830
               2 C      0.546206167727   -1.485419065797    0.418321294474
               3 C      2.290314978284    0.684422834401    0.546675115055
               4 C      2.780382955705   -0.626839643959    0.601102660937
               5 C      1.912140098422   -1.708549879048    0.537085464441
               6 O      0.515360486915    2.215753905493    0.383206863586
               7 C      3.160471614353    1.794328010256    0.610516159638
               8 H     -1.038122138912   -0.052279361492    0.270312908958
               9 H     -0.143805178026   -2.317427177611    0.367133999697
              10 H      3.851039143503   -0.775728955977    0.694116074511
              11 H      2.302816944384   -2.719805971127    0.579852418248
              12 N      3.870227708284    2.716632747753    0.654474611667
              13 O      4.607071796531    3.668754859236    0.701801352904
              14 C     -0.886411354979    2.467566385633    0.263190415076
              15 H     -1.012540276326    3.551219338259    0.243637227695
              16 H     -1.439137019178    2.063196146299    1.121201959245
              17 H     -1.289424045007    2.048877018538   -0.668281939003
------------------------ !GEOMETRY! -------------------------
    Number of atoms:    18 
    Geometry Index:     10 
    Coordinates:
               0 C      0.031467250261   -0.194835603311    0.362427930462
               1 C      0.896192212324    0.892968060566    0.426282298180
               2 C      0.546399689537   -1.489945328462    0.418328171874
               3 C      2.290562332046    0.684489323503    0.546582460555
               4 C      2.780339662024   -0.627620822449    0.601135424951
               5 C      1.913495159106   -1.709897110601    0.537297633895
               6 O      0.508080746760    2.201636187683    0.382515027767
               7 C      3.159217364963    1.794611170469    0.610260271353
               8 H     -1.038408138649   -0.052504168101    0.270112083648
               9 H     -0.139372903944   -2.327922616834    0.367589184330
              10 H      3.850915688300   -0.777593030096    0.694266491725
              11 H      2.306346307253   -2.720294564081    0.580387025059
              12 N      3.864696642156    2.720260186464    0.653925726936
              13 O      4.597987095849    3.675210561506    0.701160135991
              14 C     -0.889296978017    2.473205991331    0.262958015487
              15 H     -0.987056874681    3.559435368654    0.245806083158
              16 H     -1.442937799747    2.073132822747    1.122154182100
              17 H     -1.293377455541    2.058803571012   -0.669748147468
------------------------ !GEOMETRY! -------------------------
    Number of atoms:    18 
    Geometry Index:     11 
    Coordinates:
               0 C      0.030365528229   -0.197173856372    0.362199940482
               1 C      0.894619531543    0.893031827109    0.425972387406
               2 C      0.545545700284   -1.491060051544    0.418228442758
               3 C      2.289471554269    0.684637333189    0.546410507036
               4 C      2.779397282211   -0.627638881263    0.601106013592
               5 C      1.913430633104   -1.710106989466    0.537370594348
               6 O      0.505209230261    2.193271001004    0.382173315894
               7 C      3.157564285434    1.794871797090    0.610000946358
               8 H     -1.039181474816   -0.051401030789    0.269834626169
               9 H     -0.137263982290   -2.333492369188    0.367777264132
              10 H      3.849892204140   -0.778385249657    0.694339913367
              11 H      2.306930081347   -2.720214282275    0.580628748106
              12 N      3.859547493633    2.723240257330    0.653418472751
              13 O      4.590159886637    3.680411308395    0.700562982980
              14 C     -0.886469791933    2.473856985045    0.263250942551
              15 H     -0.968623962897    3.561243688083    0.247422061086
              16 H     -1.442274985073    2.076189084659    1.122203306602
              17 H     -1.293069214084    2.061859428650   -0.669460465617
------------------------ !GEOMETRY! -------------------------
    Number of atoms:    18 
    Geometry Index:     12 
    Coordinates:
               0 C      0.030691884855   -0.197208799756    0.362156974587
               1 C      0.894148150336    0.894009585226    0.425846502879
               2 C      0.545330768361   -1.490902654271    0.418199691171
               3 C      2.289183569035    0.684013101093    0.546361592328
               4 C      2.779231268678   -0.628074637326    0.601120808423
               5 C      1.913301876063   -1.710495859887    0.537400211272
               6 O      0.506236998079    2.192327760925    0.382161563125
               7 C      3.157434106319    1.794341035709    0.609940820828
               8 H     -1.038891300355   -0.050800969047    0.269737640411
               9 H     -0.137643069380   -2.333790505564    0.367733439051
              10 H      3.849719140205   -0.778780523600    0.694388561577
              11 H      2.306391549184   -2.720742972773    0.580671822202
              12 N      3.857473592037    2.724198181789    0.653221210808
              13 O      4.586664219264    3.682531750076    0.700311642659
              14 C     -0.884448742395    2.473340057306    0.263452074517
              15 H     -0.964735610410    3.560876958416    0.247768045935
              16 H     -1.441868387478    2.076324606614    1.121731959138
              17 H     -1.292970012400    2.061973885070   -0.668764560911
------------------------ !GEOMETRY! -------------------------
    Number of atoms:    18 
    Geometry Index:     13 
    Coordinates:
               0 C      0.031692337973   -0.197161840041    0.362136368836
               1 C      0.894248644638    0.894850910371    0.425727940113
               2 C      0.545398457164   -1.490956565817    0.418192696591
               3 C      2.289423021773    0.682671633262    0.546344953711
               4 C      2.779404755020   -0.629199286987    0.601175442969
               5 C      1.913282180993   -1.711493798079    0.537461516681
               6 O      0.508396483458    2.192098108240    0.382162173778
               7 C      3.158122203561    1.793009540513    0.609926212685
               8 H     -1.037961844417   -0.050278762749    0.269640296152
               9 H     -0.138522186569   -2.333235359534    0.367647150591
              10 H      3.849901691757   -0.779702941721    0.694488235616
              11 H      2.305636505779   -2.722011817866    0.580744261842
              12 N      3.854957096131    2.725296490774    0.652986094643
              13 O      4.581792114649    3.685480387317    0.699993348266
              14 C     -0.882766212829    2.473230838383    0.263631419314
              15 H     -0.962017565242    3.560861763003    0.248004504953
              16 H     -1.442081071991    2.077041282071    1.121096999194
              17 H     -1.293656611847    2.062639418860   -0.667919615934
------------------------ !GEOMETRY! -------------------------
    Number of atoms:    18 
    Geometry Index:     14 
    Coordinates:
               0 C      0.032556261597   -0.197140523370    0.362112111546
               1 C      0.894867099401    0.895008180215    0.425661809757
               2 C      0.545555811533   -1.491217700103    0.418194663604
               3 C      2.290071933387    0.681451529841    0.546360623128
               4 C      2.779693641614   -0.630395499880    0.601233817550
               5 C      1.913256628017   -1.712502941795    0.537516720848
               6 O      0.510235400987    2.192064732765    0.382128332666
               7 C      3.159321695518    1.791562774773    0.609958038698
               8 H     -1.037116001504   -0.050024308503    0.269560531864
               9 H     -0.139280925227   -2.332572215622    0.367579414488
              10 H      3.850184412406   -0.780846622860    0.694588969813
              11 H      2.305025340739   -2.723242645642    0.580818655343
              12 N      3.852953979874    2.726261331669    0.652802022487
              13 O      4.577439057988    3.688229610469    0.699729845601
              14 C     -0.882157828239    2.473621897664    0.263712048800
              15 H     -0.960765617229    3.561302202958    0.248104827467
              16 H     -1.442307336252    2.078022885811    1.120868197257
              17 H     -1.294283554608    2.063557311610   -0.667490630917
------------------------ !GEOMETRY! -------------------------
    Number of atoms:    18 
    Geometry Index:     15 
    Coordinates:
               0 C      0.033247597350   -0.196997160697    0.362055314302
               1 C      0.895873801731    0.894867260738    0.425601016937
               2 C      0.545562358170   -1.491469182002    0.418183008563
               3 C      2.291041070204    0.680187101999    0.546384879948
               4 C      2.779959895282   -0.631825696961    0.601290530403
               5 C      1.913010201367   -1.713588177460    0.537561616599
               6 O      0.512195434048    2.191972937463    0.382048329045
               7 C      3.161022161795    1.789809629936    0.610015992974
               8 H     -1.036391439364   -0.049704227925    0.269454021471
               9 H     -0.140164787065   -2.331854760867    0.367510065110
              10 H      3.850413418803   -0.782513751495    0.694698941346
              11 H      2.304159145167   -2.724565738512    0.580893874030
              12 N      3.850524375487    2.727592669536    0.652586640190
              13 O      4.571970583373    3.691824429942    0.699408244891
              14 C     -0.881578614912    2.474151848177    0.263793853246
              15 H     -0.959670821766    3.561865654134    0.248182727470
              16 H     -1.441758198859    2.078973429557    1.121047321251
              17 H     -1.294166180811    2.064413734435   -0.667276377775
------------------------ !GEOMETRY! -------------------------
    Number of atoms:    18 
    Geometry Index:     16 
    Coordinates:
               0 C      0.033785877241   -0.196592889607    0.361951895538
               1 C      0.897285813154    0.894611599489    0.425528588123
               2 C      0.545257134584   -1.491571045175    0.418142281441
               3 C      2.292344327768    0.678723483916    0.546419254032
               4 C      2.780134779376   -0.633656668078    0.601350628768
               5 C      1.912383802418   -1.714820725244    0.537591472617
               6 O      0.514634327513    2.191835052196    0.381915133184
               7 C      3.163354730731    1.787534039503    0.610100967473
               8 H     -1.035775920561   -0.049084264478    0.269291030048
               9 H     -0.141391825024   -2.331014127042    0.367415472404
              10 H      3.850494635767   -0.784989107980    0.694827995395
              11 H      2.302742947844   -2.726102375879    0.580959861113
              12 N      3.847025392262    2.729632182934    0.652281750329
              13 O      4.564210113587    3.697001309154    0.698937358956
              14 C     -0.880395882348    2.474627616909    0.263937893222
              15 H     -0.958228252521    3.562345128458    0.248281851596
              16 H     -1.439837436015    2.079679691261    1.121670417539
              17 H     -1.292774565776    2.064981099665   -0.667163851777
------------------------ !GEOMETRY! -------------------------
    Number of atoms:    18 
    Geometry Index:     17 
    Coordinates:
               0 C      0.034437147663   -0.195700837489    0.361749006977
               1 C      0.899764749351    0.894177068953    0.425399084991
               2 C      0.544340294997   -1.491506145246    0.418042397057
               3 C      2.294574732400    0.676251720374    0.546470786498
               4 C      2.780252982484   -0.636879588592    0.601436828178
               5 C      1.910969129287   -1.716835845620    0.537615081289
               6 O      0.518876158538    2.191579972486    0.381658081445
               7 C      3.167384879640    1.783576665397    0.610247064128
               8 H     -1.034955787114   -0.047651944634    0.268985219744
               9 H     -0.143658662320   -2.329735775250    0.367247783495
              10 H      3.850400507138   -0.789689678118    0.695034738274
              11 H      2.299916147894   -2.728656618041    0.581042284994
              12 N      3.840136255668    2.733613365294    0.651690220087
              13 O      4.549383633203    3.706750906495    0.698010253871
              14 C     -0.877419493534    2.475184100283    0.264267927542
              15 H     -0.955122959854    3.562884393727    0.248504550305
              16 H     -1.435092731785    2.080364086151    1.123049873738
              17 H     -1.288936983658    2.065414153829   -0.667011182613
------------------------ !GEOMETRY! -------------------------
    Number of atoms:    18 
    Geometry Index:     18 
    Coordinates:
               0 C      0.035154733556   -0.194577268488    0.361491332222
               1 C      0.902866672323    0.893574954501    0.425221465204
               2 C      0.542874422065   -1.491347064096    0.417905528786
               3 C      2.297310322581    0.673050199678    0.546506094771
               4 C      2.780285550565   -0.641066981076    0.601516206629
               5 C      1.908978922471   -1.719375130409    0.537624828003
               6 O      0.524252153107    2.191237923541    0.381306518533
               7 C      3.172298432483    1.778585137263    0.610422279157
               8 H     -1.033997826627   -0.045473738210    0.268603822990
               9 H     -0.146582710284   -2.328452147327    0.367066858262
              10 H      3.850119935434   -0.796010441394    0.695262424895
              11 H      2.296098217812   -2.731887827538    0.581128948302
              12 N      3.830311938150    2.739053279376    0.650869438482
              13 O      4.528894750861    3.719788053548    0.696714745906
              14 C     -0.872538106125    2.475788664957    0.264774406815
              15 H     -0.950075185080    3.563471928115    0.248880526470
              16 H     -1.428002470652    2.081020513193    1.124868251192
              17 H     -1.282999752641    2.065759944366   -0.666723676620
------------------------ !GEOMETRY! -------------------------
    Number of atoms:    18 
    Geometry Index:     19 
    Coordinates:
               0 C      0.036120912824   -0.193543350231    0.361211604160
               1 C      0.906509425187    0.892624963350    0.424994460402
               2 C      0.541008278825   -1.491370733496    0.417759982152
               3 C      2.300479449112    0.668990787397    0.546507691443
               4 C      2.780329931767   -0.646249931475    0.601577621563
               5 C      1.906618113329   -1.722559975411    0.537631597133
               6 O      0.530618542308    2.190768383193    0.380864789636
               7 C      3.177871105725    1.772636111116    0.610622406572
               8 H     -1.032717917818   -0.042608684371    0.268190734856
               9 H     -0.149967603221   -2.327450610132    0.366922018037
              10 H      3.849764756938   -0.803840651328    0.695488240145
              11 H      2.291549149266   -2.735893780547    0.581234770937
              12 N      3.817281573793    2.745824892095    0.649815001192
              13 O      4.502464950169    3.735846634429    0.695033517924
              14 C     -0.865607433458    2.476746996873    0.265456399940
              15 H     -0.942437380025    3.564457697582    0.249467991766
              16 H     -1.419124536303    2.082175718438    1.126814816247
              17 H     -1.275511318420    2.066585532521   -0.666153644105
------------------------ !GEOMETRY! -------------------------
    Number of atoms:    18 
    Geometry Index:     20 
    Coordinates:
               0 C      0.037593514519   -0.192973224831    0.360940141778
               1 C      0.910730604682    0.891053267778    0.424722675570
               2 C      0.539007437612   -1.491955355148    0.417638353847
               3 C      2.304140978065    0.663856720900    0.546474608464
               4 C      2.780561445687   -0.652557070836    0.601625690472
               5 C      1.904156356160   -1.726621391154    0.537657669710
               6 O      0.537951162109    2.190072386880    0.380344152812
               7 C      3.184092989929    1.765647391408    0.610859606927
               8 H     -1.030848072813   -0.039206457796    0.267783237354
               9 H     -0.153618304754   -2.326943846243    0.366852164660
              10 H      3.849534191044   -0.813114016455    0.695711501427
              11 H      2.286572659046   -2.740894379608    0.581388379710
              12 N      3.800711960724    2.753763894473    0.648513023548
              13 O      4.469547206597    3.754725993594    0.692914296253
              14 C     -0.856654837936    2.478531599773    0.266300274218
              15 H     -0.931563085781    3.566366854814    0.250333346625
              16 H     -1.409321518998    2.084633880552    1.128525868895
              17 H     -1.267344685893    2.068753751897   -0.665144992270
------------------------ !GEOMETRY! -------------------------
    Number of atoms:    18 
    Geometry Index:     21 
    Coordinates:
               0 C      0.039987157126   -0.193068195462    0.360669182415
               1 C      0.916115972358    0.888463789214    0.424418596632
               2 C      0.537039897092   -1.493473599192    0.417544972741
               3 C      2.308852652085    0.656953347210    0.546463392278
               4 C      2.781231348995   -0.660742286284    0.601717545388
               5 C      1.901642668918   -1.732185426217    0.537737437488
               6 O      0.547118667837    2.188948567451    0.379751927635
               7 C      3.191801845803    1.756763323258    0.611194430415
               8 H     -1.027919705856   -0.035154316273    0.267344040896
               9 H     -0.157744382787   -2.326854169283    0.366821595708
              10 H      3.849665489441   -0.824655095363    0.696011825349
              11 H      2.280970430438   -2.747605632366    0.581626595335
              12 N      3.778696767081    2.763303966255    0.646790067847
              13 O      4.426273483546    3.777876104008    0.690009171574
              14 C     -0.845084122003    2.481799941472    0.267365978689
              15 H     -0.916078727638    3.569908271260    0.251626067860
              16 H     -1.398634939993    2.089464788182    1.129848086392
              17 H     -1.258684502442    2.073396622131   -0.663500914644
------------------------ !GEOMETRY! -------------------------
    Number of atoms:    18 
    Geometry Index:     22 
    Coordinates:
               0 C      0.043200250213   -0.193691798363    0.360416115072
               1 C      0.922482288725    0.885064773950    0.424146416645
               2 C      0.535519113044   -1.495765224420    0.417487711629
               3 C      2.314505710304    0.648851188891    0.546531332284
               4 C      2.782439308549   -0.670159218086    0.601884359630
               5 C      1.899398059677   -1.738828705116    0.537880344919
               6 O      0.557687288186    2.187412778707    0.379201359668
               7 C      3.200781735447    1.746592825918    0.611651159698
               8 H     -1.024073025729   -0.030952814557    0.266891573695
               9 H     -0.162035175195   -2.326779260664    0.366784332521
              10 H      3.850320440044   -0.837445837928    0.696420001732
              11 H      2.275261261532   -2.755527515936    0.581941479672
              12 N      3.753011801828    2.773223119617    0.644762471297
              13 O      4.375782184423    3.802834725538    0.686444143444
              14 C     -0.832281661213    2.486419691449    0.268535798882
              15 H     -0.897719155512    3.574907367310    0.253241591275
              16 H     -1.388383118037    2.096524454410    1.130641556282
              17 H     -1.250647306287    2.080459449281   -0.661421748346
------------------------ !GEOMETRY! -------------------------
    Number of atoms:    18 
    Geometry Index:     23 
    Coordinates:
               0 C      0.044917157701   -0.194315991458    0.360351913544
               1 C      0.925693519610    0.883054161828    0.424091387149
               2 C      0.535239948224   -1.497246688853    0.417509531882
               3 C      2.317425987466    0.644809535727    0.546618081742
               4 C      2.783274775852   -0.674764252324    0.601980441961
               5 C      1.898665941099   -1.742239386230    0.537967922820
               6 O      0.562821281442    2.186395929603    0.379058155829
               7 C      3.205295009843    1.741677129457    0.611924495739
               8 H     -1.022045934108   -0.029360049802    0.266741463662
               9 H     -0.163920098735   -2.326694577607    0.366783951071
              10 H      3.850937166789   -0.843376019047    0.696615407297
              11 H      2.272902792392   -2.759538504006    0.582094218806
              12 N      3.740807318883    2.777635345837    0.643819077391
              13 O      4.351421364529    3.814241046753    0.684600583035
              14 C     -0.826528220375    2.489152946725    0.269039303010
              15 H     -0.888759466062    3.577855651994    0.254104668540
              16 H     -1.384863942194    2.100856485371    1.130509684791
              17 H     -1.248034602355    2.084997236034   -0.660370288269
------------------------ !GEOMETRY! -------------------------
    Number of atoms:    18 
    Geometry Index:     24 
    Coordinates:
               0 C      0.044595409521   -0.194682569694    0.360471612119
               1 C      0.924931781925    0.882988471264    0.424220104685
               2 C      0.535790976119   -1.497438626469    0.417578449596
               3 C      2.316812799022    0.645625250563    0.546654904729
               4 C      2.783314023078   -0.673714776755    0.601954977325
               5 C      1.899239248284   -1.741686675327    0.537955234508
               6 O      0.561377235670    2.186244611522    0.379272263047
               7 C      3.204240728933    1.742878805433    0.611897437685
               8 H     -1.022446922440   -0.030350378259    0.266910554234
               9 H     -0.163233760059   -2.326853225882    0.366831306264
              10 H      3.851101309254   -0.841625624937    0.696518356551
              11 H      2.273976749960   -2.758806203654    0.582026193926
              12 N      3.744438822885    2.776431070743    0.644154721005
              13 O      4.358184921817    3.811153330120    0.684947147999
              14 C     -0.828391139389    2.489060743094    0.268829000028
              15 H     -0.890776960503    3.577769655540    0.254021668606
              16 H     -1.387627864696    2.100872603391    1.129785010910
              17 H     -1.250277359382    2.085273539306   -0.660588943218
------------------------ !GEOMETRY! -------------------------
    Number of atoms:    18 
    Geometry Index:     25 
    Coordinates:
               0 C      0.044493070014   -0.194655004248    0.360532995223
               1 C      0.924840476663    0.883003619506    0.424305958123
               2 C      0.535919411594   -1.497396533294    0.417601284947
               3 C      2.316756581412    0.645823394316    0.546698653368
               4 C      2.783338929220   -0.673499553230    0.601957026132
               5 C      1.899339141007   -1.741546383303    0.537943621616
               6 O      0.561170637630    2.186174793853    0.379406606012
               7 C      3.204137664649    1.743032093446    0.611909945172
               8 H     -1.022571747740   -0.030581095056    0.266988691973
               9 H     -0.163141761865   -2.326755499664    0.366828758453
              10 H      3.851148350865   -0.841293949617    0.696486199984
              11 H      2.274161490417   -2.758635098828    0.581973011843
              12 N      3.745109518797    2.776079356419    0.644227311508
              13 O      4.359343307498    3.810533524601    0.684908393986
              14 C     -0.828727899486    2.489003780051    0.268774301870
              15 H     -0.891329509736    3.577704430814    0.254059541842
              16 H     -1.388178686755    2.100777305259    1.129574581601
              17 H     -1.250558974186    2.085370818976   -0.660736883654
------------------------ !GEOMETRY! -------------------------
    Number of atoms:    18 
    Geometry Index:     26 
    Coordinates:
               0 C      0.044493070014   -0.194655004248    0.360532995223
               1 C      0.924840476663    0.883003619506    0.424305958123
               2 C      0.535919411594   -1.497396533294    0.417601284947
               3 C      2.316756581412    0.645823394316    0.546698653368
               4 C      2.783338929220   -0.673499553230    0.601957026132
               5 C      1.899339141007   -1.741546383303    0.537943621616
               6 O      0.561170637630    2.186174793853    0.379406606012
               7 C      3.204137664649    1.743032093446    0.611909945172
               8 H     -1.022571747740   -0.030581095056    0.266988691973
               9 H     -0.163141761865   -2.326755499664    0.366828758453
              10 H      3.851148350865   -0.841293949617    0.696486199984
              11 H      2.274161490417   -2.758635098828    0.581973011843
              12 N      3.745109518797    2.776079356419    0.644227311508
              13 O      4.359343307498    3.810533524601    0.684908393986
              14 C     -0.828727899486    2.489003780051    0.268774301870
              15 H     -0.891329509736    3.577704430814    0.254059541842
              16 H     -1.388178686755    2.100777305259    1.129574581601
              17 H     -1.250558974186    2.085370818976   -0.660736883654
