16

C   1.77328847975308     -0.42049354610305      0.36763274847434
  C   2.85793932232138      0.37281585462150      0.03385208571805
  C   1.98354443801263     -1.76406487318395      0.65445466875876
  C   4.14080864425079     -0.18213352614985     -0.01062042426276
  C   4.33431852032015     -1.53928328859802      0.28176237086756
  C   3.25189804709781     -2.33359120763092      0.61566473657672
  H   2.72738693129190      1.42482553696666     -0.19514153144143
  C   6.39681284816226      0.52116077624247     -0.48399989995582
  H   0.76989791165188     -0.01389201866574      0.40868842880011
  N   0.83219468867347     -2.60933816752003      1.00963545125212
  H   5.33377980153029     -1.96280938572606      0.24515827995893
  H   3.37558366243450     -3.38524949524699      0.84568480055387
  N   5.19986788702632      0.65306854800564     -0.35145981507894
  O   7.55301008369081      0.53676303205822     -0.64839131604581
  O   -0.27271111695641     -2.08055953658038      1.03328069917423
  O   1.05128985073910     -3.78873870248949      1.25939871665006
