21
Coordinates from ORCA-job mol
  C   -2.41375050633211     -0.78484438126965     -0.46067199766434
  C   -1.53581017623379      0.29180046959944     -0.58632737264224
  C   -1.97452069016827     -1.98622842342516      0.10464925170305
  C   -0.21049860540037      0.14933342863309     -0.16472629945624
  C   0.24158717409137     -1.05184578639146      0.40445026908275
  C   -0.65291326380264     -2.10025136966602      0.53294587002848
  H   -1.89061961312646      1.22185846920468     -1.01647410626992
  C   0.68804135580880      1.24074300242284     -0.31647249144256
  O   -3.67546246811034     -0.55820224820392     -0.91076321605016
  H   -2.64474219188525     -2.82995706237785      0.21740850022006
  H   1.26899287282007     -1.13422245690368      0.73646157773307
  H   -0.31960288147772     -3.03515684271667      0.97292269074024
  N   0.99919517012806      2.24945963247949     -0.89340636146797
  O   1.85952281287558      3.15122944375168     -0.84343179467170
  O   2.13900080574578      1.27953739210563      1.11869821794579
  S   3.27615535638148      2.20435108321439      0.70285031320530
  O   4.28472080610822      1.57421110601365     -0.17010858459357
  C   -4.62396406649366     -1.61704427364538     -0.79245691286906
  H   -5.55618004879638     -1.22495005075066     -1.20097597200511
  H   -4.77656138082660     -1.90000458715857      0.25726822080668
  H   -4.31353046130576     -2.49635854491587     -1.37183180233255
