14
Coordinates from ORCA-job ./PhNCO E -400.034257340183
  C      -2.542622     -0.945496     -1.453397
  C      -2.047722      0.102072     -0.686959
  C      -2.694820     -2.217091     -0.902277
  C      -1.699077     -0.129579      0.647234
  C      -1.855405     -1.396774      1.209039
  C      -2.352150     -2.435898      0.429679
  H      -1.913085      1.090942     -1.116644
  C      -0.798462      2.022523      1.297495
  H      -2.809410     -0.764924     -2.490879
  H      -3.081693     -3.031043     -1.507870
  H      -1.578564     -1.556286      2.246410
  H      -2.470764     -3.422559      0.868122
  N      -1.173395      0.886111      1.452559
  O      -0.406244      3.128462      1.299660
14
Coordinates from ORCA-job ./PhNCO E -400.034527590053
  C      -2.539014     -0.947391     -1.452928
  C      -2.031445      0.095155     -0.690002
  C      -2.701622     -2.214071     -0.899592
  C      -1.682442     -0.135762      0.640694
  C      -1.846146     -1.398345      1.202994
  C      -2.354895     -2.433641      0.428807
  H      -1.903171      1.084017     -1.117095
  C      -0.807148      2.024971      1.303820
  H      -2.809983     -0.766021     -2.487405
  H      -3.097248     -3.024444     -1.501359
  H      -1.572535     -1.556589      2.239666
  H      -2.479833     -3.417047      0.868661
  N      -1.167183      0.888102      1.452691
  O      -0.430746      3.131525      1.303219
14
Coordinates from ORCA-job ./PhNCO E -400.034562701047
  C      -2.538463     -0.947284     -1.452556
  C      -2.029119      0.093959     -0.689226
  C      -2.703206     -2.212948     -0.898999
  C      -1.681903     -0.137478      0.640310
  C      -1.845453     -1.398899      1.202080
  C      -2.355994     -2.433413      0.428643
  H      -1.900857      1.082854     -1.116074
  C      -0.808098      2.025707      1.306622
  H      -2.808138     -0.766008     -2.487241
  H      -3.100128     -3.022764     -1.500566
  H      -1.570935     -1.557506      2.238399
  H      -2.481222     -3.416759      0.868245
  N      -1.162868      0.887944      1.452498
  O      -0.437029      3.133054      1.300038
14
Coordinates from ORCA-job ./PhNCO E -400.034578898520
  C      -2.538104     -0.946758     -1.452471
  C      -2.026555      0.093486     -0.688915
  C      -2.704427     -2.212041     -0.898620
  C      -1.679375     -0.139407      0.639770
  C      -1.844433     -1.399897      1.202059
  C      -2.357277     -2.433541      0.428949
  H      -1.897060      1.082166     -1.116026
  C      -0.809585      2.026371      1.309148
  H      -2.807461     -0.765342     -2.487244
  H      -3.103264     -3.021230     -1.499950
  H      -1.569324     -1.559001      2.238215
  H      -2.483957     -3.416772      0.868486
  N      -1.157181      0.886329      1.451275
  O      -0.445410      3.136098      1.297496
14
Coordinates from ORCA-job ./PhNCO E -400.034586751840
  C      -2.537854     -0.946384     -1.452559
  C      -2.024149      0.093275     -0.689296
  C      -2.705788     -2.211361     -0.898188
  C      -1.676774     -0.140635      0.639238
  C      -1.843292     -1.400713      1.202273
  C      -2.358312     -2.433613      0.429359
  H      -1.892750      1.081432     -1.117071
  C      -0.811229      2.026851      1.311019
  H      -2.807530     -0.764895     -2.487273
  H      -3.106344     -3.020053     -1.499164
  H      -1.567702     -1.560223      2.238259
  H      -2.486582     -3.416654      0.868951
  N      -1.151528      0.884329      1.449344
  O      -0.453582      3.139104      1.297279
14
Coordinates from ORCA-job ./PhNCO E -400.034591215231
  C      -2.537743     -0.946439     -1.452726
  C      -2.021783      0.092793     -0.690278
  C      -2.707288     -2.211008     -0.897721
  C      -1.673872     -0.141400      0.638339
  C      -1.842002     -1.401180      1.202136
  C      -2.359298     -2.433456      0.429736
  H      -1.888552      1.080371     -1.118804
  C      -0.812921      2.027532      1.312388
  H      -2.808056     -0.764964     -2.487303
  H      -3.109511     -3.019315     -1.498139
  H      -1.565990     -1.560848      2.237978
  H      -2.489075     -3.416184      0.869641
  N      -1.146280      0.882640      1.447049
  O      -0.461041      3.141917      1.299875
14
Coordinates from ORCA-job ./PhNCO E -400.034596462538
  C      -2.537679     -0.946962     -1.453100
  C      -2.018210      0.091657     -0.692225
  C      -2.709799     -2.210740     -0.896962
  C      -1.669432     -0.142299      0.636540
  C      -1.839964     -1.401538      1.201449
  C      -2.360789     -2.433023      0.430265
  H      -1.882395      1.078373     -1.121890
  C      -0.815462      2.028888      1.314326
  H      -2.808943     -0.765629     -2.487474
  H      -3.114639     -3.018535     -1.496311
  H      -1.563206     -1.561188      2.237084
  H      -2.492688     -3.415141      0.870945
  N      -1.138342      0.880492      1.443190
  O      -0.471866      3.146103      1.306335
14
Coordinates from ORCA-job ./PhNCO E -400.034601208353
  C      -2.537712     -0.947935     -1.453682
  C      -2.014177      0.089982     -0.694802
  C      -2.712836     -2.210652     -0.896060
  C      -1.664414     -0.143209      0.634022
  C      -1.837589     -1.401637      1.200215
  C      -2.362516     -2.432383      0.430868
  H      -1.875666      1.075764     -1.125718
  C      -0.818321      2.030744      1.316551
  H      -2.809908     -0.766883     -2.487868
  H      -3.120790     -3.017908     -1.493986
  H      -1.559820     -1.561029      2.235614
  H      -2.496652     -3.413669      0.872737
  N      -1.129271      0.878492      1.438451
  O      -0.483740      3.150780      1.315829
14
Coordinates from ORCA-job ./PhNCO E -400.034603776634
  C      -2.537770     -0.948908     -1.454267
  C      -2.011025      0.088431     -0.696973
  C      -2.715300     -2.210672     -0.895327
  C      -1.660564     -0.143968      0.631720
  C      -1.835661     -1.401563      1.198953
  C      -2.363869     -2.431838      0.431351
  H      -1.870663      1.073565     -1.128769
  C      -0.820578      2.032405      1.318295
  H      -2.810512     -0.768143     -2.488347
  H      -3.125856     -3.017496     -1.492020
  H      -1.556999     -1.560615      2.234174
  H      -2.499650     -3.412366      0.874372
  N      -1.122319      0.877293      1.434655
  O      -0.492647      3.154336      1.324354
14
Coordinates from ORCA-job ./PhNCO E -400.034604261453
  C      -2.537794     -0.949177     -1.454453
  C      -2.010349      0.088018     -0.697455
  C      -2.715857     -2.210681     -0.895153
  C      -1.659822     -0.144213      0.631088
  C      -1.835239     -1.401516      1.198586
  C      -2.364174     -2.431737      0.431473
  H      -1.869685      1.073049     -1.129375
  C      -0.821086      2.032864      1.318597
  H      -2.810520     -0.768499     -2.488541
  H      -3.127057     -3.017391     -1.491555
  H      -1.556317     -1.560470      2.233754
  H      -2.500250     -3.412060      0.874833
  N      -1.120827      0.877157      1.433849
  O      -0.494435      3.155115      1.326522
