! wB97X-D3BJ def2-TZVP TightSCF Opt Freq CPCM(THF)  # OptTS VeryTightOpt Freq SP NMR

* xyz 0 1
 C   -2.38976700  -1.19411600  -1.00236200
 C   -1.95079500   0.09769600  -0.75300100
 C   -2.41448000  -2.13251600   0.02248600
 C   -1.53323300   0.44381500   0.53183500
 C   -1.55947200  -0.49410900   1.56538300
 C   -2.00280800  -1.78124200   1.30493800
 H   -1.91313300   0.83417900  -1.54669000
 C   -1.03388800   1.76730100   0.77947800
 H   -2.70711900  -1.46749700  -2.00202500
 H   -2.75392000  -3.14308800  -0.17673600
 H   -1.21715400  -0.21825300   2.55453200
 H   -2.02015500  -2.51469900   2.10303400
 N   -0.59492900   2.80793000   0.98474200
 O   -0.10649900   3.90537900   1.20415700
 O    1.17968800   1.07945800   2.99298500
 S    2.19248400   1.96681300   2.44096500
 N    2.61799700   1.78997100   1.01093100
 C    2.15650800   0.85518700   0.05533700
 C    2.10608700   1.27956500  -1.27072600
 C    1.65692100   0.41026100  -2.25565700
 C    1.28820300  -0.88888700  -1.92365900
 C    1.36168000  -1.31817700  -0.60315500
 C    1.78427900  -0.44956700   0.39220500
 H    2.40721400   2.29323600  -1.51190800
 H    1.60325800   0.74494700  -3.28558200
 H    0.94108300  -1.56755600  -2.69419900
 H    1.07141400  -2.32876400  -0.34016600
 H    1.83053400  -0.77726800   1.42285800
*
