 28
  Energy -1160.032297703408  Dipole 8.75882  G(298) 101.90
 C   -3.67174000   0.36157800   0.71250200
 C   -2.75223600   1.35681000   0.41787400
 C   -3.45024400  -0.94358200   0.28275800
 C   -1.60489700   1.03490600  -0.31073400
 C   -1.37972300  -0.27216100  -0.74533800
 C   -2.30730600  -1.25788600  -0.44482500
 H   -2.91251500   2.37650100   0.74778300
 C   -0.63178400   2.05127300  -0.59864200
 H   -4.56271700   0.60498000   1.28026200
 H   -4.17161300  -1.71869700   0.51740900
 H   -0.47955700  -0.50789700  -1.29924900
 H   -2.13278900  -2.27589500  -0.77437300
 N    0.16958500   2.84422300  -0.81792100
 O    1.04029400   3.67547000  -1.03034100
 N    2.09885800   1.48913100   1.21144400
 S    3.02110800   2.63511200   0.90317700
 O    4.02209900   2.49780400  -0.14403600
 C    1.98596600   0.21428900   0.61751700
 C    2.39417800  -0.06019000  -0.69014400
 C    1.40188500  -0.78904700   1.39186600
 C    2.22442000  -1.33921000  -1.20448400
 C    1.25284800  -2.06681800   0.87439800
 C    1.66288000  -2.34525900  -0.42546400
 H    2.83023800   0.72138800  -1.29702900
 H    1.07345300  -0.55110600   2.39718400
 H    2.53635800  -1.54906800  -2.22173000
 H    0.80435500  -2.84410900   1.48301800
 H    1.53859500  -3.34253900  -0.83288200
