 28
  Energy -1160.033003065606  Dipole 7.59179  G(298) 102.76
 C   -2.32528800  -1.06070800  -1.13883300
 C   -1.89401000   0.21246800  -0.79773400
 C   -2.36712800  -2.06465700  -0.17832800
 C   -1.50546000   0.47396100   0.51576900
 C   -1.54663100  -0.53076500   1.48507700
 C   -1.97881500  -1.79892800   1.13134400
 H   -1.84611600   0.99970500  -1.54052700
 C   -1.03320400   1.78095000   0.87745600
 H   -2.62246100  -1.27053800  -2.16006600
 H   -2.70166200  -3.05962500  -0.45101800
 H   -1.23018700  -0.31317000   2.49825700
 H   -2.00894600  -2.58339500   1.87908400
 N   -0.63773200   2.81199100   1.19362200
 O   -0.18939100   3.89587200   1.53785900
 O    1.42653900   1.26396800   3.06251100
 S    2.30527000   2.15937500   2.32410200
 N    2.58870400   1.89079200   0.87465500
 C    2.11373100   0.86571200   0.02660600
 C    1.92142700   1.19393000  -1.31566500
 C    1.46120900   0.23208700  -2.20221000
 C    1.21889600  -1.06505600  -1.76078700
 C    1.43203200  -1.39406600  -0.42804900
 C    1.86992000  -0.43325000   0.47347500
 H    2.12743700   2.20617800  -1.64461400
 H    1.29675000   0.49422500  -3.24160100
 H    0.85952800  -1.81703000  -2.45441200
 H    1.24084400  -2.40289900  -0.07982000
 H    2.02474200  -0.68712900   1.51384400
