3
Coordinates from ORCA-job ./SO2 E -548.729592037493
  O       1.657103      1.963370      2.168818
  S       1.836594      0.588485      2.659869
  O       2.696708     -0.303918      1.867665
3
Coordinates from ORCA-job ./SO2 E -548.732555195494
  O       1.664235      1.943861      2.168936
  S       1.839344      0.590413      2.654697
  O       2.686827     -0.286337      1.872719
3
Coordinates from ORCA-job ./SO2 E -548.733249351230
  O       1.667689      1.930517      2.171144
  S       1.843380      0.593247      2.647101
  O       2.679336     -0.275827      1.878107
3
Coordinates from ORCA-job ./SO2 E -548.733261393863
  O       1.666394      1.932968      2.171725
  S       1.843640      0.593430      2.646613
  O       2.680371     -0.278461      1.878014
3
Coordinates from ORCA-job ./SO2 E -548.733261936213
  O       1.666044      1.933333      2.172046
  S       1.843918      0.593622      2.646091
  O       2.680443     -0.279018      1.878215
3
Coordinates from ORCA-job ./SO2 E -548.733261990477
  O       1.665955      1.933402      2.172142
  S       1.844007      0.593682      2.645925
  O       2.680443     -0.279147      1.878286
