 28
  Energy -1160.004139452745  Dipole 8.89242  G(298) 103.35
 C   -2.96691400   0.04645100   1.08752500
 C   -2.04659600   1.06958900   0.92558500
 C   -3.10891100  -0.92274100   0.09847700
 C   -1.27583000   1.11708400  -0.23778000
 C   -1.40928800   0.14171900  -1.22826800
 C   -2.33439100  -0.87564900  -1.05660600
 H   -1.91089700   1.82405500   1.69165500
 C   -0.27033300   2.13211700  -0.37582200
 H   -3.57060300   0.00019800   1.98645400
 H   -3.82700200  -1.72461700   0.23107800
 H   -0.78660800   0.18636500  -2.11339700
 H   -2.44617200  -1.63676800  -1.82006300
 N    0.17300600   3.11416800  -0.88618200
 O    1.23801700   3.79143600  -0.79896600
 N    1.37448500   1.60668600   0.81796800
 S    2.47832000   2.68613300   0.58603900
 O    3.61291800   2.28126300  -0.23415400
 C    1.52476700   0.22793900   0.46938500
 C    2.00858900  -0.20345400  -0.76445300
 C    1.06404000  -0.70208000   1.39882400
 C    2.03930100  -1.56266500  -1.05374300
 C    1.09529700  -2.05762600   1.10199400
 C    1.58333200  -2.49230600  -0.12616900
 H    2.34190000   0.52000100  -1.49665000
 H    0.67176400  -0.34788000   2.34532800
 H    2.41473400  -1.89344500  -2.01616700
 H    0.73080000  -2.77507000   1.82927100
 H    1.60227600  -3.55090500  -0.36116500
