 28
  Energy -1160.007342154252  Dipole 4.59789  G(298) 102.78
 C   -4.51203600  -0.80721800  -0.68560500
 C   -3.59147100   0.19484500  -0.95834600
 C   -4.12808100  -1.91884700   0.05958200
 C   -2.29917300   0.07569400  -0.45628700
 C   -1.89679800  -1.04361800   0.26701000
 C   -2.82467100  -2.04004600   0.53417800
 H   -3.86830500   1.06340800  -1.54524500
 C   -1.32677100   1.27984400  -0.56990200
 H   -5.52592100  -0.72599200  -1.06046900
 H   -4.84884000  -2.70319200   0.26384700
 H   -0.87339200  -1.12271200   0.61667600
 H   -2.52982100  -2.91428900   1.10335800
 N   -0.80923600   0.87461900  -1.66230200
 O    0.46432500   2.30092100  -1.95824700
 O   -1.21531900   2.21070700   0.23011200
 S    0.90051400   3.12326000  -0.79142600
 N    1.93089000   2.57832100   0.13800500
 C    2.56889000   1.33898700   0.30755800
 C    2.28581400   0.20682100  -0.46211100
 C    2.97011900  -0.97372700  -0.20947500
 C    3.93294300  -1.03285700   0.79279700
 C    4.21487700   0.09698300   1.55522200
 C    3.53277600   1.27939700   1.31700100
 H    1.53915500   0.24681100  -1.24186000
 H    2.74858100  -1.85351400  -0.80347700
 H    4.46373800  -1.95982100   0.98015500
 H    4.96426600   0.05521800   2.33764600
 H    3.73294600   2.16999600   1.90160500
