 28
  Energy -1160.030386461905  Dipole 13.24423  G(298) 103.13
 C    1.54342300   1.26413700  -2.52224600
 C    1.58019300   1.26966100  -1.14010800
 C    0.38676300   1.67218400  -3.18743900
 C    0.43041500   1.65885000  -0.44575000
 C   -0.72191100   2.09929800  -1.10113400
 C   -0.74049600   2.09136100  -2.48515000
 H    2.46675700   0.96907200  -0.59416400
 C    0.36364700   1.41572100   1.06204000
 H    2.41475800   0.95348900  -3.08621300
 H    0.36963900   1.67466500  -4.27191400
 H   -1.57629200   2.43140700  -0.52345600
 H   -1.62482100   2.42127300  -3.01687400
 N    0.72238500   2.59325300   1.23795000
 O    0.44789200   2.17701700   3.42700100
 N    0.05330700   0.36287100   1.76797100
 S    0.32068700   0.71096300   3.61694400
 O    1.59140400   0.04355300   3.87235200
 C   -0.30811700  -0.90382700   1.23338900
 C    0.52441300  -1.99646900   1.45411900
 C   -1.50194100  -1.04769600   0.53387800
 C    0.15203000  -3.24418100   0.97042700
 C   -1.85579300  -2.29501400   0.03603900
 C   -1.03323000  -3.39421200   0.25829000
 H    1.44856300  -1.85995600   2.00233900
 H   -2.14807000  -0.18862400   0.39314100
 H    0.79531400  -4.09976500   1.14392200
 H   -2.78317600  -2.40964100  -0.51414300
 H   -1.31774200  -4.36939000  -0.12121000
