14
Coordinates from ORCA job orca
  C       1.80551772091850     -0.43162477863830      0.36617611182576
  C       2.88616870758694      0.37280804053111      0.02928090685848
  C       1.99456132301633     -1.77749412402830      0.65703449425559
  C       4.16299818167668     -0.17598960518259     -0.01600190765574
  C       4.36195663085989     -1.52425005835763      0.27414598284404
  C       3.27486181405533     -2.31879331507584      0.60966409130147
  H       2.75251430977693      1.42353451936475     -0.19969433716676
  C       6.42514161672866      0.56535113268689     -0.49813500141201
  H       0.81051778069682     -0.00173296966395      0.40070327797681
  H       1.14869015067704     -2.40277465638367      0.91956263504155
  H       5.36195825020519     -1.94282005732887      0.23610582196696
  H       3.43122316211317     -3.36801458463798      0.83517975261754
  N       5.23630457532659      0.66445824414352     -0.36076365748504
  O       7.58118577636187      0.58794221257089     -0.66225817096865
