19

C          0.92628       -1.44068        0.11939
C          1.61112       -0.81371       -0.90770
C          0.75526       -0.76790        1.32357
C          2.11950        0.47554       -0.72193
C          1.93618        1.14146        0.49746
C          1.25150        0.51608        1.52415
H          1.76204       -1.31135       -1.85945
C          3.41750        2.08638       -1.96817
N          0.52487       -2.43999        0.00093
H          0.02816       -1.43163        2.41693
H          2.33540        2.14159        0.63394
H          1.09643        1.00912        2.47652
N          2.79587        1.06671       -1.78339
O          4.03155        3.02966       -2.28938
O          4.40827        3.79486        0.95720
S          5.62156        3.03181        0.62594
O          5.44486        1.63384        0.20302
O          0.64352       -2.92044       -0.85014
O          0.04146       -2.86761        0.74436
