19
Coordinates from ORCA-job mol
  C   0.92233655631604     -1.35843284480351      0.16547513690386
  C   1.61788495037674     -0.77236173038264     -0.88102959078340
  C   0.74123656198319     -0.73383716253680      1.39158603834517
  C   2.15506446580324      0.49760648569026     -0.68472438832026
  C   1.98812419367792      1.15430999111813      0.54098513563338
  C   1.28491427724650      0.53429013934397      1.56490674499920
  H   1.73871665588695     -1.29137481592516     -1.82365175663517
  C   3.46006790981433      2.10208288888162     -1.94023417290185
  N   0.35051113177858     -2.70820522315794     -0.04066743429902
  H   0.19009721434419     -1.23446127488648      2.17792615421362
  H   2.41551409101923      2.14214289754094      0.68495798237995
  H   1.15971567224437      1.04780902446627      2.51289450386192
  N   2.85021579890221      1.08025957206140     -1.74291201245486
  O   4.07004846414027      3.04845317174373     -2.26699781389714
  O   4.43017954646934      3.93336740043697      0.92839537197413
  S   5.62983499577220      3.19226011788093      0.50744106303825
  O   5.48257048384229      1.74498991047954      0.28595354432510
  O   0.52212704844941     -3.23461186985628     -1.13182717049392
  O   -0.25783001806706     -3.21054667809497      0.89477266411104
