!DLPNO-CCSD(T) Extrapolate(3/4,cc) cc-pVQZ/C TightPNO TightSCF 
%geom maxiter 300 end
%maxcore 4000 
%pal nprocs 36
end

*xyz 0 1
6        0.541047000      0.621901000     -0.138541000
6        1.888320000      0.793466000     -0.425837000
6        0.124675000     -0.375700000      0.740462000
6        2.828087000     -0.050289000      0.173929000
6        2.420885000     -1.047511000      1.060145000
6        1.068439000     -1.206312000      1.337375000
1        2.219595000      1.582056000     -1.095293000
6        4.905036000      0.697832000     -0.839485000
1       -0.188553000      1.278285000     -0.603650000
1       -0.930779000     -0.502050000      0.960726000
1        3.167682000     -1.687978000      1.517911000
1        0.752438000     -1.984784000      2.025372000
7        4.197796000      0.085942000     -0.078623000
16       4.428743000      3.435046000      1.167251000
8        5.705756000      1.243402000     -1.502558000
16       4.644527000      4.121936000     -0.619247000
8        3.574022000      3.774838000     -1.602974000

*
