14
Coordinates from ORCA-job mol
  C   -0.06969016980715     -0.06422147336281      0.35351338876538
  C   0.79118245146865      1.02217382556135      0.41764122562170
  C   0.42995594208083     -1.36414983037763      0.40723748157247
  C   2.17541559030998      0.80900491892348      0.53706538001959
  C   2.67714649690004     -0.50304616003579      0.59157475987941
  C   1.80203068021753     -1.57790411580492      0.52613570996444
  H   0.40813585060978      2.03667451946707      0.37647708964723
  C   3.06214409643060      1.91215002787367      0.60233517127176
  H   -1.13832195914365      0.10539126632064      0.26101746426796
  H   -0.24932344081078     -2.20979095815669      0.35658745959693
  H   3.74646217057777     -0.66291063113497      0.68430101515287
  H   2.19419868257017     -2.58969558331469      0.56825286018309
  N   3.80039852493672      2.81006381733451      0.64801015141517
  O   4.56656508365949      3.74456037670676      0.69585084264199
