 28
  Energy -1159.354751127218  Dipole 4.76788  G(298) 99.20
 C   -2.58301800  -0.98930700  -1.35845700
 C   -2.07778500   0.07650400  -0.62410500
 C   -2.65287300  -2.26471500  -0.79892900
 C   -1.63696500  -0.14019400   0.68494000
 C   -1.71115200  -1.41059200   1.25588500
 C   -2.21808700  -2.46865600   0.50866000
 H   -2.01216900   1.07004600  -1.05948300
 C   -0.79108400   2.05066500   1.27845100
 H   -2.92164600  -0.82063200  -2.37686300
 H   -3.04663300  -3.09363000  -1.37942000
 H   -1.36163700  -1.55989700   2.27283900
 H   -2.27109100  -3.45839200   0.95307100
 N   -1.09608100   0.89714000   1.45411400
 O    0.22080300   2.96956700  -2.41534500
 O   -0.45496100   3.17526600   1.25365500
 S    1.34767600   3.63951700  -1.67776800
 N    2.20685600   2.82001000  -0.67335400
 C    2.11834700   1.48612700  -0.29398200
 C    1.43680800   0.49081000  -1.02280100
 C    1.43331100  -0.81432200  -0.55402600
 C    2.07544900  -1.14299400   0.63924500
 C    2.74969500  -0.15958900   1.36401400
 C    2.78712300   1.14451000   0.89684600
 H    0.92795500   0.74331800  -1.94464500
 H    0.90978500  -1.58148300  -1.11764400
 H    2.05164600  -2.16602000   1.00332000
 H    3.25420300  -0.41484700   2.29125300
 H    3.31552700   1.92179000   1.44052700
