 28
  Energy -1159.265120316061  Dipole 9.20113  G(298) 99.80
 C   -2.91695100  -0.21682300   0.97467300
 C   -2.12808200   0.90559900   0.76860400
 C   -2.97972900  -1.21997900   0.00853000
 C   -1.39085500   1.02623300  -0.42184300
 C   -1.45709100   0.01734200  -1.39649100
 C   -2.25072900  -1.09877600  -1.17311400
 H   -2.06887800   1.68895300   1.51744300
 C   -0.56733700   2.15906200  -0.63199800
 H   -3.48449800  -0.31037900   1.89585900
 H   -3.59760000  -2.09722400   0.17688100
 H   -0.88079400   0.11590400  -2.31067000
 H   -2.29689600  -1.88092500  -1.92520000
 N    0.14111300   3.06266000  -0.80859000
 O    0.88726100   4.00581500  -0.98024900
 N    2.20515900   1.56882100   1.24829400
 S    3.16707300   2.67286200   0.72045800
 O    3.94026200   2.44653800  -0.54972400
 C    1.88462100   0.31479600   0.74299400
 C    2.32702800  -0.19452000  -0.49494500
 C    1.04101100  -0.46708600   1.55460700
 C    1.92874400  -1.46314900  -0.89009800
 C    0.65806300  -1.73451200   1.14648700
 C    1.10133100  -2.23696800  -0.07593800
 H    2.96854800   0.40378200  -1.12954000
 H    0.69985100  -0.05520700   2.49959700
 H    2.26752200  -1.85428300  -1.84529100
 H    0.00538800  -2.33021000   1.77780700
 H    0.79646500  -3.22832600  -0.39854400
