18
Coordinates from ORCA-job mol
  C   -0.13109958312356      0.03555158271054      0.35000908972871
  C   0.77271047018483      1.09677575424616      0.41641188999723
  C   0.32746510190766     -1.28360249530798      0.40036465807347
  C   2.14167279890058      0.83895711264806      0.53337493907316
  C   2.60968826090587     -0.48810024232445      0.58497334631594
  C   1.69606509606259     -1.52508958231777      0.51757128708621
  H   0.39937780356596      2.11392579771418      0.37601943611437
  C   3.05916490327588      1.91677126404347      0.60037728222903
  O   -1.43812457634921      0.39473561655847      0.23706448577577
  H   -0.35894908073102     -2.12014450479290      0.35029281688109
  H   3.67233518003999     -0.68164843162359      0.67617044771409
  H   2.04890278981982     -2.55136900624638      0.55639314428568
  N   3.82697879699958      2.79132954281504      0.64877684414317
  O   4.61904472235619      3.69720044628089      0.70067373502695
  C   -2.40774319871830     -0.64728453159859      0.15876454306489
  H   -3.37344638392847     -0.14697707604607      0.07424477031923
  H   -2.39867892122251     -1.27043282260689      1.06282384640452
  H   -2.24544417994590     -1.27763842415218     -0.72551656223349
