21
Coordinates from ORCA-job mol E -1062.539448489188
  C       0.091690      0.110630     -0.099620
  C       1.083240      1.066760     -0.233990
  C       0.410550     -1.128250      0.453100
  C       2.393590      0.787340      0.176790
  C       2.694930     -0.461350      0.728520
  C       1.703260     -1.422640      0.868950
  H       0.849430      2.037070     -0.659210
  C       3.432840      1.799020      0.032270
  O      -1.787730      0.644570     -0.666540
  H      -0.471490     -2.053210      0.567330
  H       3.707660     -0.684770      1.045230
  H       1.931490     -2.393130      1.295330
  N       3.271980      2.919130     -0.575960
  O       4.459750      3.662230     -0.499480
  O       4.657050      1.535700      0.588860
  S       5.804320      2.682250     -0.009730
  O       6.430210      2.097880     -1.198030
  C      -3.000600     -0.055670     -0.558590
  H      -3.792640      0.538140     -0.964750
  H      -3.202360     -0.262850      0.471590
  H      -2.930710     -0.975710     -1.100390
21
Coordinates from ORCA-job mol E -1062.579419805156
  C       0.065987      0.140702     -0.116871
  C       1.044773      1.093608     -0.252126
  C       0.338420     -1.099645      0.426152
  C       2.348905      0.794135      0.165468
  C       2.632827     -0.460597      0.715986
  C       1.625798     -1.410017      0.847635
  H       0.816525      2.066730     -0.677340
  C       3.399221      1.795557      0.027772
  O      -1.689751      0.689993     -0.668447
  H      -0.511656     -1.943973      0.520318
  H       3.641408     -0.696549      1.037309
  H       1.838112     -2.384776      1.272229
  N       3.253281      2.918261     -0.578444
  O       4.448245      3.647719     -0.494768
  O       4.616935      1.516656      0.589779
  S       5.779871      2.651906     -0.000759
  O       6.404756      2.063425     -1.187351
  C      -2.848487     -0.089684     -0.516816
  H      -3.680912      0.477585     -0.917091
  H      -3.031740     -0.303904      0.532169
  H      -2.756058     -1.023992     -1.063127
21
Coordinates from ORCA-job mol E -1062.614165410192
  C       0.031154      0.180836     -0.139337
  C       1.003442      1.129622     -0.273947
  C       0.255670     -1.064201      0.394501
  C       2.299993      0.806240      0.151390
  C       2.562708     -0.455184      0.699836
  C       1.539284     -1.390272      0.821629
  H       0.783800      2.104981     -0.698106
  C       3.365462      1.793440      0.022913
  O      -1.590889      0.730747     -0.667422
  H      -0.573005     -1.842076      0.470782
  H       3.566101     -0.705710      1.026064
  H       1.735682     -2.369333      1.244268
  N       3.239283      2.919743     -0.580379
  O       4.443725      3.631464     -0.487525
  O       4.575283      1.494740      0.591291
  S       5.758218      2.615014      0.011282
  O       6.381490      2.021370     -1.173470
  C      -2.683877     -0.129928     -0.470335
  H      -3.559561      0.393604     -0.857492
  H      -2.837687     -0.350156      0.591727
  H      -2.559817     -1.071802     -1.015988
21
Coordinates from ORCA-job mol E -1062.643354382591
  C      -0.010368      0.223393     -0.162671
  C       0.964653      1.166879     -0.294426
  C       0.176787     -1.027546      0.364283
  C       2.253365      0.820489      0.137310
  C       2.495268     -0.446987      0.682958
  C       1.457264     -1.367492      0.795560
  H       0.755428      2.144680     -0.716716
  C       3.334445      1.792466      0.018216
  O      -1.489568      0.752122     -0.656670
  H      -0.641269     -1.760636      0.428172
  H       3.493486     -0.711862      1.013296
  H       1.639849     -2.350358      1.216095
  N       3.228325      2.922474     -0.581692
  O       4.442385      3.615990     -0.479949
  O       4.536542      1.473788      0.592206
  S       5.739162      2.578509      0.022695
  O       6.360274      1.979882     -1.160692
  C      -2.528168     -0.169073     -0.426783
  H      -3.437538      0.314608     -0.801295
  H      -2.657010     -0.393738      0.644351
  H      -2.376853     -1.114450     -0.972569
21
Coordinates from ORCA-job mol E -1062.664775206626
  C      -0.050274      0.248769     -0.176501
  C       0.934542      1.187974     -0.304869
  C       0.123292     -1.008321      0.348383
  C       2.218255      0.828249      0.128814
  C       2.449584     -0.442089      0.672178
  C       1.403872     -1.353002      0.779689
  H       0.732404      2.167275     -0.725247
  C       3.308573      1.791099      0.014464
  O      -1.381178      0.743632     -0.630517
  H      -0.684266     -1.718750      0.408591
  H       3.445147     -0.714853      1.003696
  H       1.580897     -2.337809      1.198757
  N       3.213654      2.923292     -0.583180
  O       4.433371      3.606377     -0.477436
  O       4.506929      1.461086      0.590405
  S       5.720062      2.556706      0.026130
  O       6.339135      1.955462     -1.157142
  C      -2.415265     -0.189578     -0.400575
  H      -3.327982      0.294429     -0.774457
  H      -2.548206     -0.420514      0.672779
  H      -2.266087     -1.136293     -0.952280
21
Coordinates from ORCA-job mol E -1062.672230683500
  C      -0.082978      0.235254     -0.164082
  C       0.918762      1.173611     -0.291575
  C       0.118148     -1.028302      0.365841
  C       2.204523      0.819398      0.133841
  C       2.447720     -0.447914      0.676413
  C       1.406369     -1.359408      0.787591
  H       0.714162      2.152323     -0.710357
  C       3.290560      1.787081      0.012580
  O      -1.271991      0.695576     -0.581594
  H      -0.663750     -1.737548      0.437059
  H       3.446461     -0.715322      1.002141
  H       1.593689     -2.343045      1.206020
  N       3.187560      2.918455     -0.585579
  O       4.405135      3.607676     -0.487432
  O       4.494399      1.463800      0.582009
  S       5.698814      2.564325      0.010603
  O       6.315418      1.965142     -1.175341
  C      -2.382902     -0.170719     -0.412630
  H      -3.243439      0.389638     -0.805230
  H      -2.574108     -0.416152      0.649579
  H      -2.286093     -1.110728     -0.988174
21
Coordinates from ORCA-job mol E -1062.674146083307
  C      -0.100547      0.270564     -0.082652
  C       0.920654      1.196046     -0.228204
  C       0.117471     -1.000935      0.435209
  C       2.212989      0.828384      0.159845
  C       2.460572     -0.443187      0.690440
  C       1.413479     -1.344065      0.820963
  H       0.716957      2.179006     -0.636797
  C       3.304568      1.786809      0.013548
  O      -1.329660      0.730577     -0.498566
  H      -0.674899     -1.711547      0.532608
  H       3.464728     -0.721273      0.988911
  H       1.602901     -2.332229      1.228225
  N       3.197440      2.920562     -0.579614
  O       4.423640      3.598954     -0.510324
  O       4.519512      1.451975      0.552667
  S       5.719027      2.544101     -0.042991
  O       6.305314      1.942996     -1.243441
  C      -2.405265     -0.196187     -0.480137
  H      -3.278561      0.370382     -0.826503
  H      -2.609999     -0.581391      0.534521
  H      -2.243861     -1.046400     -1.166024
21
Coordinates from ORCA-job mol E -1062.674685677760
  C      -0.096181      0.241471     -0.180637
  C       0.939146      1.169284     -0.291427
  C       0.140889     -1.029302      0.350709
  C       2.221514      0.817928      0.132289
  C       2.472072     -0.450722      0.669320
  C       1.428797     -1.357493      0.770498
  H       0.739100      2.151204     -0.704816
  C       3.305852      1.789165      0.014377
  O      -1.324236      0.673831     -0.628043
  H      -0.657120     -1.761177      0.440630
  H       3.470571     -0.718918      0.993707
  H       1.616147     -2.344115      1.183354
  N       3.203806      2.920166     -0.585107
  O       4.420113      3.613259     -0.480788
  O       4.508998      1.470311      0.589687
  S       5.712216      2.575124      0.029006
  O       6.343581      1.979693     -1.151584
  C      -2.445105     -0.172564     -0.405789
  H      -3.298414      0.354013     -0.842116
  H      -2.634609     -0.332360      0.666436
  H      -2.330679     -1.145653     -0.908027
21
Coordinates from ORCA-job mol E -1062.674775937655
  C      -0.127716      0.284013     -0.097407
  C       0.929280      1.192218     -0.226408
  C       0.124362     -0.991456      0.430776
  C       2.216662      0.826580      0.157776
  C       2.471785     -0.447366      0.681682
  C       1.417994     -1.336588      0.811535
  H       0.729752      2.179523     -0.628474
  C       3.307296      1.787565      0.011978
  O      -1.339174      0.719801     -0.495096
  H      -0.684275     -1.719571      0.553956
  H       3.475909     -0.729108      0.974773
  H       1.602753     -2.327019      1.217090
  N       3.202693      2.920029     -0.584294
  O       4.429366      3.599817     -0.509447
  O       4.521879      1.455905      0.556231
  S       5.721821      2.546796     -0.034200
  O       6.316182      1.946155     -1.231549
  C      -2.425222     -0.201653     -0.478442
  H      -3.289362      0.353354     -0.843154
  H      -2.630678     -0.561778      0.536836
  H      -2.234850     -1.054078     -1.142480
21
Coordinates from ORCA-job mol E -1062.675123106837
  C      -0.111408      0.264328     -0.127880
  C       0.930784      1.182075     -0.251774
  C       0.131034     -1.008563      0.400730
  C       2.217377      0.822809      0.147115
  C       2.471213     -0.448916      0.677047
  C       1.422340     -1.347108      0.796977
  H       0.728637      2.166655     -0.658815
  C       3.304897      1.788404      0.011868
  O      -1.328207      0.705605     -0.546595
  H      -0.665661     -1.731616      0.507212
  H       3.473618     -0.724225      0.982267
  H       1.608457     -2.335762      1.205633
  N       3.201757      2.918827     -0.588402
  O       4.424032      3.604340     -0.501239
  O       4.514057      1.463592      0.571585
  S       5.716002      2.558396     -0.008553
  O       6.325961      1.956552     -1.197246
  C      -2.432398     -0.187995     -0.450883
  H      -3.291811      0.360628     -0.838813
  H      -2.628764     -0.476221      0.590116
  H      -2.275457     -1.088664     -1.058670
21
Coordinates from ORCA-job mol E -1062.675132549041
  C      -0.111715      0.266098     -0.130041
  C       0.930110      1.183514     -0.253165
  C       0.129574     -1.006978      0.397585
  C       2.216450      0.823803      0.145770
  C       2.469891     -0.448315      0.675288
  C       1.420444     -1.346344      0.794160
  H       0.727737      2.168343     -0.659775
  C       3.304223      1.789120      0.010920
  O      -1.328643      0.707565     -0.548775
  H      -0.670019     -1.731901      0.503299
  H       3.472179     -0.724054      0.980510
  H       1.605605     -2.335396      1.202180
  N       3.203018      2.918093     -0.592328
  O       4.425330      3.603462     -0.503424
  O       4.511909      1.465266      0.574547
  S       5.715496      2.558233     -0.004904
  O       6.328508      1.953421     -1.190539
  C      -2.429994     -0.189472     -0.447458
  H      -3.292264      0.355390     -0.835155
  H      -2.621400     -0.474884      0.595759
  H      -2.269979     -1.091823     -1.052777
21
Coordinates from ORCA-job mol E -1062.675135871977
  C      -0.112374      0.266158     -0.129768
  C       0.929733      1.183439     -0.252819
  C       0.129922     -1.007129      0.397521
  C       2.216293      0.823931      0.145204
  C       2.470397     -0.448296      0.674212
  C       1.421015     -1.346399      0.793294
  H       0.726724      2.168377     -0.658821
  C       3.303839      1.789420      0.009867
  O      -1.329111      0.707711     -0.547321
  H      -0.668812     -1.731992      0.503761
  H       3.472914     -0.723924      0.978705
  H       1.606280     -2.335599      1.200916
  N       3.203603      2.916711     -0.596625
  O       4.425594      3.602705     -0.506817
  O       4.510565      1.467466      0.576874
  S       5.714872      2.559163     -0.002795
  O       6.330699      1.951387     -1.185483
  C      -2.431159     -0.189382     -0.447066
  H      -3.293421      0.356015     -0.833368
  H      -2.620823     -0.476155      0.595910
  H      -2.270291     -1.090469     -1.053702
21
Coordinates from ORCA-job mol E -1062.675138470626
  C      -0.112956      0.265972     -0.130007
  C       0.928901      1.183506     -0.253114
  C       0.130447     -1.007696      0.396115
  C       2.215913      0.824279      0.143422
  C       2.471063     -0.448182      0.671431
  C       1.422015     -1.346728      0.790558
  H       0.724645      2.168688     -0.657923
  C       3.302996      1.790124      0.007425
  O      -1.329891      0.707963     -0.545919
  H      -0.667241     -1.732956      0.502628
  H       3.473985     -0.723538      0.974781
  H       1.607618     -2.336265      1.197216
  N       3.205104      2.913381     -0.606770
  O       4.426100      3.601060     -0.514431
  O       4.507152      1.472841      0.582869
  S       5.713327      2.561757      0.003001
  O       6.336177      1.946979     -1.172414
  C      -2.432792     -0.189161     -0.444664
  H      -3.295297      0.357090     -0.828744
  H      -2.618974     -0.476625      0.598652
  H      -2.271831     -1.089347     -1.052432
