! r2scan-3c D4 TightSCF opt freq Mass2016
!CPCM(Benzene)
%geom maxiter 300 end
%maxcore 4000 
%pal nprocs 28
end

*xyz 0 1
C        1.805453000     -0.431827000      0.364603000
C        2.887542000      0.372917000      0.032718000
C        1.993070000     -1.778312000      0.653534000
C        4.164350000     -0.176375000     -0.009717000
C        4.362009000     -1.524995000      0.279439000
C        3.273452000     -2.319842000      0.610032000
C        6.425883000      0.567226000     -0.502754000
H        0.811025000     -0.002131000      0.396297000
H        1.146625000     -2.403381000      0.911913000
H        5.361258000     -1.943835000      0.245098000
H        3.428863000     -3.368593000      0.835099000
N        5.238950000      0.664052000     -0.350830000
O        7.580511000      0.592458000     -0.679166000
C        2.698507842      1.866490765     -0.291478695
F        3.555103965      2.637565516      0.412190332
F        2.910753554      2.119045865     -1.600918131
F        1.447550382      2.281777636      0.001958430
*