19

C   0.73955616162720     -1.41213761630891      0.06649256641516
  C   1.47019015327516     -0.81741267773459     -0.94815974957455
  C   0.71882286866919     -0.81382144261427      1.32081151166198
  C   2.17012173358263      0.36732249702575     -0.69966587278983
  C   2.14197103733567      0.95702922436723      0.57110333639350
  C   1.41232954510247      0.36267383520874      1.58524929006841
  H   1.50669620486487     -1.25823807043408     -1.93839116138227
  C   3.53625468855101      1.92717306970886     -1.95445408757475
  H   0.18701458734667     -2.32917392682321     -0.09917407955614
  N   -0.05684487144541     -1.44431404221926      2.40102089297815
  H   2.70328569285223      1.86709079661842      0.75623093373510
  H   1.37411307985449      0.79681991885514      2.57731914071382
  N   2.88620975437525      0.93086178067169     -1.75047369845557
  O   4.17431111252916      2.84795372298789     -2.29690019975080
  O   4.17109019421084      4.10347104197960      0.76199923274020
  S   5.50948298435325      3.55041554297994      0.50067503348270
  O   5.62917080042371      2.08543857073149      0.43814478180224
  O   -0.65830993701481     -2.47903771120234      2.13760871211628
  O   -0.05299579049365     -0.89531451379811      3.49666341697637
