!DLPNO-CCSD(T) Extrapolate(3/4,cc) cc-pVQZ/C TightPNO TightSCF 
!CPCM(Benzene)
%geom maxiter 300 end
%maxcore 4000 
%pal nprocs 36
end

*xyz 0 1
6       -2.405363396     -0.433133993      0.149318293
6       -1.415426967      0.510714423     -0.094593909
6       -2.057378764     -1.761557780      0.402999423
6       -0.079670700      0.099462528     -0.048990446
6        0.285758143     -1.233658115      0.166102156
6       -0.718847020     -2.161515507      0.408680512
1       -1.654368616      1.542459327     -0.308711043
6        1.026915412      1.166094652     -0.062911119
1       -3.444886515     -0.139570502      0.129290096
1       -2.833361299     -2.491404480      0.584990752
1        1.329042273     -1.515446907      0.150461730
1       -0.463304852     -3.195746944      0.588337172
7        1.094236484      1.089411731     -1.309780894
8        2.402333654      2.462584558     -1.496403918
8        1.582280512      1.779253888      0.892035457
16       3.158015041      2.643309682     -0.194966263
8        4.194026611      1.638743441      0.044142002

*
