17
Coordinates from ORCA-job orca_IRC_Full E -1271.160496173512
  C       0.229350     -0.131519     -0.565003
  C       1.210398      0.847441     -0.510324
  C       0.246212     -1.184976      0.346493
  C       2.168005      0.759249      0.487651
  C       2.278171     -0.342051      1.322547
  C       1.291810     -1.315057      1.257812
  H       1.270078      1.658704     -1.231358
  C       4.059490      1.366733     -0.186756
  H      -0.553064     -0.055748     -1.312739
  H      -0.561651     -1.906260      0.349332
  H       3.139386     -0.426537      1.980778
  H       1.339088     -2.163667      1.932178
  N       3.190570      1.796362      0.560417
  S       5.404562      3.828817      1.045969
  O       4.863884      0.923458     -0.902584
  S       6.247866      3.365686     -0.626454
  O       5.523563      3.759444     -1.870995
17
Coordinates from ORCA-job orca_IRC_Full E -1271.159843448855
  C       0.231851     -0.131384     -0.566530
  C       1.213583      0.846785     -0.512703
  C       0.248139     -1.183852      0.346141
  C       2.169423      0.759348      0.486938
  C       2.281474     -0.342781      1.320412
  C       1.294451     -1.315053      1.256503
  H       1.273809      1.658033     -1.233778
  C       4.054981      1.370249     -0.182817
  H      -0.552155     -0.053848     -1.312353
  H      -0.561480     -1.903029      0.351357
  H       3.143024     -0.427219      1.978294
  H       1.340213     -2.162098      1.932880
  N       3.187773      1.801253      0.564912
  S       5.400311      3.824186      1.045718
  O       4.856868      0.923149     -0.900347
  S       6.243056      3.358562     -0.626379
  O       5.522400      3.757780     -1.871285
17
Coordinates from ORCA-job orca_IRC_Full E -1271.159178979370
  C       0.234338     -0.131238     -0.568040
  C       1.216770      0.846093     -0.515102
  C       0.250049     -1.182741      0.345785
  C       2.170846      0.759344      0.486162
  C       2.284776     -0.343541      1.318251
  C       1.297076     -1.315040      1.255213
  H       1.277460      1.657383     -1.236181
  C       4.051205      1.373383     -0.179496
  H      -0.551317     -0.051899     -1.311894
  H      -0.561276     -1.899832      0.353337
  H       3.146613     -0.427922      1.975881
  H       1.341263     -2.160484      1.933651
  N       3.184748      1.806159      0.569531
  S       5.396074      3.819584      1.045467
  O       4.849561      0.923137     -0.897707
  S       6.238262      3.351508     -0.626320
  O       5.521275      3.756185     -1.871573
17
Coordinates from ORCA-job orca_IRC_Full E -1271.158492536984
  C       0.236832     -0.131097     -0.569565
  C       1.220028      0.845356     -0.517598
  C       0.251998     -1.181608      0.345426
  C       2.172399      0.759272      0.485265
  C       2.288170     -0.344373      1.316035
  C       1.299710     -1.315037      1.253914
  H       1.281087      1.656740     -1.238606
  C       4.046703      1.376903     -0.175523
  H      -0.550537     -0.049849     -1.311331
  H      -0.561023     -1.896610      0.355298
  H       3.150205     -0.428662      1.973496
  H       1.342244     -2.158773      1.934522
  N       3.181892      1.810944      0.573959
  S       5.391759      3.814907      1.045204
  O       4.842701      0.922934     -0.895393
  S       6.233382      3.344401     -0.626274
  O       5.520173      3.754632     -1.871865
17
Coordinates from ORCA-job orca_IRC_Full E -1271.157794122506
  C       0.239308     -0.130940     -0.571070
  C       1.223288      0.844580     -0.520103
  C       0.253926     -1.180481      0.345068
  C       2.173951      0.759088      0.484304
  C       2.291551     -0.345226      1.313788
  C       1.302329     -1.315022      1.252642
  H       1.284625      1.656126     -1.241014
  C       4.042980      1.380003     -0.172221
  H      -0.549820     -0.047759     -1.310699
  H      -0.560734     -1.893432      0.357206
  H       3.153746     -0.429423      1.971196
  H       1.343152     -2.157021      1.935450
  N       3.178806      1.815756      0.578519
  S       5.387464      3.810266      1.044942
  O       4.835515      0.923050     -0.892646
  S       6.228524      3.337368     -0.626247
  O       5.519109      3.753145     -1.872153
17
Coordinates from ORCA-job orca_IRC_Full E -1271.157071817349
  C       0.241792     -0.130791     -0.572581
  C       1.226621      0.843767     -0.522726
  C       0.255888     -1.179326      0.344715
  C       2.175662      0.758846      0.483210
  C       2.295045     -0.346165      1.311498
  C       1.304946     -1.315013      1.251357
  H       1.288130      1.655521     -1.243440
  C       4.038488      1.383514     -0.168228
  H      -0.549159     -0.045566     -1.309961
  H      -0.560380     -1.890225      0.359087
  H       3.157283     -0.430224      1.968931
  H       1.343994     -2.155171      1.936476
  N       3.175876      1.820451      0.582899
  S       5.383084      3.805545      1.044667
  O       4.828809      0.922945     -0.890264
  S       6.223573      3.330272     -0.626231
  O       5.518069      3.751698     -1.872445
17
Coordinates from ORCA-job orca_IRC_Full E -1271.156329634484
  C       0.244277     -0.130606     -0.574094
  C       1.229983      0.842888     -0.525394
  C       0.257864     -1.178141      0.344368
  C       2.177378      0.758443      0.482019
  C       2.298557     -0.347153      1.309145
  C       1.307584     -1.314991      1.250103
  H       1.291564      1.654949     -1.245876
  C       4.034459      1.386776     -0.164632
  H      -0.548541     -0.043308     -1.309129
  H      -0.559983     -1.887044      0.360922
  H       3.160801     -0.431057      1.966743
  H       1.344769     -2.153242      1.937562
  N       3.172838      1.825202      0.587358
  S       5.378674      3.800804      1.044385
  O       4.821852      0.923081     -0.887550
  S       6.218586      3.323177     -0.626227
  O       5.517058      3.750303     -1.872738
17
Coordinates from ORCA-job orca_IRC_Full E -1271.155608237805
  C       0.246611     -0.130417     -0.575485
  C       1.233135      0.842095     -0.527982
  C       0.259689     -1.177039      0.344052
  C       2.179036      0.758007      0.480828
  C       2.301922     -0.348139      1.306986
  C       1.310048     -1.314935      1.248931
  H       1.294711      1.654397     -1.248114
  C       4.029785      1.390341     -0.160437
  H      -0.548005     -0.041159     -1.308297
  H      -0.559576     -1.884092      0.362598
  H       3.164016     -0.431853      1.964723
  H       1.345444     -2.151403      1.938628
  N       3.170014      1.829588      0.591469
  S       5.374538      3.796363      1.044116
  O       4.816299      0.922714     -0.885812
  S       6.213902      3.316585     -0.626252
  O       5.516150      3.749026     -1.872989
17
Coordinates from ORCA-job orca_IRC_Full E -1271.155031578290
  C       0.248345     -0.130323     -0.576461
  C       1.235539      0.841695     -0.530076
  C       0.261020     -1.176250      0.343832
  C       2.180311      0.757703      0.479885
  C       2.304673     -0.348911      1.305543
  C       1.311808     -1.314862      1.247998
  H       1.297011      1.653898     -1.249695
  C       4.026414      1.393014     -0.157362
  H      -0.547640     -0.039526     -1.307655
  H      -0.559234     -1.881893      0.363820
  H       3.166279     -0.432450      1.963164
  H       1.345922     -2.150025      1.939472
  N       3.167000      1.833144      0.595214
  S       5.371438      3.793054      1.043925
  O       4.812938      0.922036     -0.885175
  S       6.210362      3.311706     -0.626372
  O       5.515533      3.748070     -1.873092
17
Coordinates from ORCA-job orca_IRC_Full E -1271.154358138323
  C       0.249994     -0.130429     -0.577246
  C       1.238028      0.841896     -0.532538
  C       0.262237     -1.175589      0.343656
  C       2.181673      0.757630      0.478904
  C       2.308034     -0.349708      1.304643
  C       1.313261     -1.314745      1.246881
  H       1.299198      1.653148     -1.251000
  C       4.024193      1.395258     -0.155193
  H      -0.547343     -0.037893     -1.307044
  H      -0.558819     -1.879713      0.364982
  H       3.168152     -0.433017      1.961430
  H       1.346382     -2.148717      1.940383
  N       3.161235      1.837508      0.600999
  S       5.368391      3.789845      1.043783
  O       4.811241      0.920511     -0.885943
  S       6.206787      3.307017     -0.626780
  O       5.515077      3.747078     -1.872952
17
Coordinates from ORCA-job orca_IRC_Full E -1271.151420322908
  C       0.258985     -0.128778     -0.582509
  C       1.251245      0.836138     -0.542480
  C       0.269466     -1.170073      0.343004
  C       2.190356      0.753813      0.472079
  C       2.320320     -0.354156      1.293411
  C       1.323155     -1.314214      1.243264
  H       1.309880      1.652605     -1.260620
  C       4.009004      1.406356     -0.142078
  H      -0.545645     -0.028678     -1.302120
  H      -0.555982     -1.868714      0.370347
  H       3.181129     -0.436894      1.956062
  H       1.347884     -2.140127      1.945119
  N       3.156065      1.851104      0.611257
  S       5.351534      3.771946      1.042547
  O       4.780686      0.925841     -0.869319
  S       6.187990      3.280683     -0.626296
  O       5.511649      3.743230     -1.874706
17
Coordinates from ORCA-job orca_IRC_Full E -1271.147851215160
  C       0.268128     -0.126740     -0.586166
  C       1.266438      0.832347     -0.555807
  C       0.276138     -1.163780      0.343437
  C       2.202031      0.748509      0.462045
  C       2.337144     -0.359790      1.283374
  C       1.332072     -1.312168      1.239330
  H       1.318969      1.651293     -1.269355
  C       3.992240      1.416905     -0.128685
  H      -0.543783     -0.019008     -1.295792
  H      -0.552043     -1.858385      0.374522
  H       3.192084     -0.441376      1.950960
  H       1.348655     -2.130429      1.950040
  N       3.140132      1.869927      0.630675
  S       5.333312      3.752911      1.041274
  O       4.759777      0.926822     -0.860253
  S       6.167255      3.253637     -0.627216
  O       5.509173      3.739405     -1.875418
17
Coordinates from ORCA-job orca_IRC_Full E -1271.143912880249
  C       0.275948     -0.123546     -0.588444
  C       1.282321      0.827221     -0.567607
  C       0.282263     -1.156941      0.344540
  C       2.218008      0.741899      0.448949
  C       2.352613     -0.364699      1.271517
  C       1.339745     -1.309232      1.236891
  H       1.325872      1.651218     -1.278118
  C       3.972360      1.423346     -0.116088
  H      -0.541749     -0.010412     -1.288854
  H      -0.548161     -1.850192      0.377298
  H       3.202308     -0.446208      1.948198
  H       1.348604     -2.120803      1.954071
  N       3.131522      1.887663      0.645422
  S       5.315201      3.734076      1.039738
  O       4.736771      0.932688     -0.846314
  S       6.147140      3.227545     -0.627588
  O       5.506952      3.736457     -1.876646
17
Coordinates from ORCA-job orca_IRC_Full E -1271.139426018716
  C       0.283130     -0.118687     -0.588350
  C       1.296527      0.823713     -0.579365
  C       0.285667     -1.151944      0.345664
  C       2.242005      0.734803      0.431070
  C       2.367736     -0.369604      1.261804
  C       1.346215     -1.304331      1.235978
  H       1.330600      1.650280     -1.285018
  C       3.947492      1.422284     -0.105256
  H      -0.540941     -0.003677     -1.282895
  H      -0.545034     -1.844708      0.378787
  H       3.209510     -0.450929      1.945814
  H       1.347646     -2.113258      1.957712
  N       3.123484      1.914137      0.665675
  S       5.296978      3.715428      1.037995
  O       4.723275      0.939110     -0.836700
  S       6.127831      3.203646     -0.628810
  O       5.505600      3.733814     -1.877141
17
Coordinates from ORCA-job orca_IRC_Full E -1271.134166822126
  C       0.286555     -0.114459     -0.587611
  C       1.308675      0.820682     -0.586918
  C       0.288502     -1.148077      0.346636
  C       2.270872      0.726420      0.409485
  C       2.378936     -0.372380      1.253096
  C       1.349509     -1.300703      1.236680
  H       1.333718      1.649583     -1.290763
  C       3.920911      1.414336     -0.097140
  H      -0.541171      0.000894     -1.278542
  H      -0.543549     -1.841982      0.379483
  H       3.215018     -0.455084      1.944352
  H       1.346254     -2.108400      1.960803
  N       3.127311      1.945746      0.682936
  S       5.279694      3.698130      1.036222
  O       4.710531      0.950362     -0.824080
  S       6.111510      3.183064     -0.629678
  O       5.504446      3.731947     -1.877996
17
Coordinates from ORCA-job orca_IRC_Full E -1271.127897576663
  C       0.288116     -0.110678     -0.586237
  C       1.316152      0.818478     -0.593477
  C       0.289647     -1.146056      0.347186
  C       2.300286      0.715633      0.386099
  C       2.386975     -0.376066      1.247715
  C       1.351136     -1.297677      1.238341
  H       1.336068      1.648211     -1.294646
  C       3.892328      1.405289     -0.088031
  H      -0.542068      0.003945     -1.275637
  H      -0.542728     -1.840595      0.379761
  H       3.218461     -0.458291      1.942507
  H       1.344822     -2.105479      1.963381
  N       3.139074      1.984878      0.700908
  S       5.262679      3.681823      1.034774
  O       4.705281      0.960721     -0.815959
  S       6.097834      3.165639     -0.631214
  O       5.503657      3.730306     -1.878506
17
Coordinates from ORCA-job orca_IRC_Full E -1271.120866967946
  C       0.287974     -0.107841     -0.584686
  C       1.321524      0.816287     -0.597784
  C       0.290455     -1.144766      0.347586
  C       2.325967      0.700827      0.362224
  C       2.392208     -0.378990      1.243277
  C       1.351146     -1.295596      1.240300
  H       1.337901      1.646958     -1.297702
  C       3.867214      1.395602     -0.080779
  H      -0.543085      0.006002     -1.273652
  H      -0.542433     -1.840016      0.379853
  H       3.221089     -0.460863      1.940924
  H       1.343554     -2.103708      1.965442
  N       3.160686      2.027395      0.715962
  S       5.245495      3.666101      1.033665
  O       4.698631      0.973342     -0.805546
  S       6.086489      3.150397     -0.633045
  O       5.502907      3.728950     -1.879075
17
Coordinates from ORCA-job orca_IRC_Full E -1271.113610305984
  C       0.287178     -0.105436     -0.583001
  C       1.324325      0.814214     -0.602056
  C       0.290589     -1.144172      0.347829
  C       2.348317      0.684014      0.338982
  C       2.395939     -0.382880      1.240534
  C       1.350604     -1.293879      1.242442
  H       1.339525      1.645415     -1.299755
  C       3.842495      1.387731     -0.072309
  H      -0.543806      0.007479     -1.272088
  H      -0.542275     -1.839697      0.379875
  H       3.222727     -0.462816      1.939041
  H       1.342523     -2.102314      1.966900
  N       3.186658      2.073867      0.731548
  S       5.226873      3.650294      1.033393
  O       4.696838      0.984400     -0.798819
  S       6.077012      3.136235     -0.636160
  O       5.502198      3.727623     -1.879391
17
Coordinates from ORCA-job orca_IRC_Full E -1271.107250078921
  C       0.286238     -0.103428     -0.581163
  C       1.327560      0.812204     -0.604355
  C       0.290683     -1.143706      0.348122
  C       2.365592      0.664561      0.316753
  C       2.398669     -0.384908      1.237109
  C       1.349566     -1.292259      1.244221
  H       1.340710      1.643967     -1.301349
  C       3.821252      1.382007     -0.064099
  H      -0.544510      0.008416     -1.271110
  H      -0.542569     -1.839746      0.379930
  H       3.223978     -0.464540      1.937596
  H       1.341675     -2.101665      1.968111
  N       3.219254      2.118689      0.742848
  S       5.207764      3.633346      1.031868
  O       4.692645      0.997584     -0.789493
  S       6.067483      3.123394     -0.638525
  O       5.501732      3.726164     -1.879500
17
Coordinates from ORCA-job orca_IRC_Full E -1271.102548912535
  C       0.284811     -0.101758     -0.579214
  C       1.329994      0.809571     -0.607707
  C       0.289657     -1.143141      0.348995
  C       2.382524      0.647228      0.296484
  C       2.401341     -0.388787      1.233997
  C       1.348043     -1.291006      1.246107
  H       1.341392      1.643307     -1.302327
  C       3.798736      1.378185     -0.054228
  H      -0.544785      0.008727     -1.270718
  H      -0.542861     -1.839728      0.380062
  H       3.224639     -0.465418      1.936733
  H       1.341315     -2.101318      1.968578
  N       3.254249      2.165682      0.754869
  S       5.183334      3.614840      1.033064
  O       4.694038      1.010327     -0.783405
  S       6.060599      3.108195     -0.644551
  O       5.500694      3.725172     -1.879776
17
Coordinates from ORCA-job orca_IRC_Full E -1271.100512439413
  C       0.282599     -0.100007     -0.576055
  C       1.335374      0.803220     -0.613045
  C       0.287656     -1.142428      0.350531
  C       2.400294      0.621912      0.270397
  C       2.405403     -0.394569      1.226429
  C       1.345110     -1.289214      1.248292
  H       1.350041      1.632056     -1.313287
  C       3.777376      1.381297     -0.039086
  H      -0.549917      0.015435     -1.263286
  H      -0.545810     -1.837793      0.382736
  H       3.232098     -0.476472      1.924540
  H       1.335661     -2.095307      1.975499
  N       3.303139      2.224232      0.768366
  S       5.166645      3.602792      1.034518
  O       4.693232      1.027105     -0.774300
  S       6.057474      3.098499     -0.650019
  O       5.499223      3.723774     -1.879526
17
Coordinates from ORCA-job orca_IRC_Full E -1271.102315175473
  C       0.280386     -0.098257     -0.572896
  C       1.340755      0.796869     -0.618383
  C       0.285655     -1.141715      0.352068
  C       2.418063      0.596595      0.244310
  C       2.409466     -0.400351      1.218862
  C       1.342176     -1.287423      1.250478
  H       1.358690      1.620804     -1.324248
  C       3.756016      1.384410     -0.023945
  H      -0.555049      0.022142     -1.255853
  H      -0.548758     -1.835857      0.385409
  H       3.239556     -0.487525      1.912348
  H       1.330006     -2.089296      1.982420
  N       3.352029      2.282781      0.781863
  S       5.149956      3.590743      1.035971
  O       4.692427      1.043884     -0.765196
  S       6.054350      3.088804     -0.655487
  O       5.497752      3.722376     -1.879276
17
Coordinates from ORCA-job orca_IRC_Full E -1271.106565706346
  C       0.279210     -0.097794     -0.570577
  C       1.345898      0.791774     -0.622810
  C       0.284196     -1.141124      0.353210
  C       2.427505      0.584029      0.230846
  C       2.413098     -0.404369      1.212341
  C       1.340239     -1.286340      1.251287
  H       1.359100      1.619556     -1.324604
  C       3.748440      1.392002     -0.013441
  H      -0.555324      0.022560     -1.255143
  H      -0.549194     -1.835916      0.385543
  H       3.239620     -0.488284      1.911184
  H       1.329407     -2.088771      1.982907
  N       3.390450      2.326965      0.792365
  S       5.115342      3.564182      1.037202
  O       4.691213      1.060966     -0.756760
  S       6.048330      3.068472     -0.665213
  O       5.495947      3.721072     -1.879895
17
Coordinates from ORCA-job orca_IRC_Full E -1271.112041298950
  C       0.278986     -0.097222     -0.569307
  C       1.349614      0.787869     -0.624971
  C       0.283440     -1.141128      0.353773
  C       2.437256      0.573940      0.218696
  C       2.415320     -0.406850      1.207566
  C       1.339301     -1.285509      1.251630
  H       1.360074      1.617743     -1.325768
  C       3.733626      1.399936      0.000564
  H      -0.555625      0.023308     -1.253976
  H      -0.549915     -1.836182      0.385723
  H       3.240032     -0.489697      1.909265
  H       1.328660     -2.087782      1.983576
  N       3.425585      2.363499      0.799753
  S       5.087008      3.540079      1.035663
  O       4.694589      1.075859     -0.752442
  S       6.040309      3.052643     -0.671473
  O       5.495216      3.718473     -1.879827
17
Coordinates from ORCA-job orca_IRC_Full E -1271.119034702904
  C       0.278682     -0.096910     -0.567675
  C       1.354483      0.783164     -0.628290
  C       0.282630     -1.141225      0.354297
  C       2.446949      0.564818      0.207046
  C       2.418581     -0.410039      1.201588
  C       1.338032     -1.284589      1.251762
  H       1.361391      1.615234     -1.327217
  C       3.725080      1.410321      0.012952
  H      -0.555956      0.024450     -1.252383
  H      -0.550546     -1.836426      0.385859
  H       3.240589     -0.491568      1.906741
  H       1.327763     -2.086334      1.984515
  N       3.462458      2.402345      0.808548
  S       5.053369      3.512578      1.035380
  O       4.693936      1.095867     -0.744124
  S       6.032215      3.032019     -0.680191
  O       5.493821      3.715276     -1.880365
17
Coordinates from ORCA-job orca_IRC_Full E -1271.126044211199
  C       0.278841     -0.096675     -0.566239
  C       1.359180      0.778536     -0.632178
  C       0.281720     -1.141240      0.354760
  C       2.456735      0.557876      0.197358
  C       2.421684     -0.413420      1.195401
  C       1.337472     -1.283555      1.251683
  H       1.362832      1.612458     -1.328775
  C       3.713841      1.425426      0.029788
  H      -0.556271      0.025757     -1.250665
  H      -0.551167     -1.836633      0.386014
  H       3.241336     -0.493615      1.904119
  H       1.326849     -2.084728      1.985538
  N       3.496322      2.434135      0.814350
  S       5.021791      3.486273      1.035395
  O       4.695926      1.115941     -0.738118
  S       6.024206      3.010830     -0.688433
  O       5.492180      3.711615     -1.881555
17
Coordinates from ORCA-job orca_IRC_Full E -1271.132515866934
  C       0.279364     -0.096559     -0.564965
  C       1.364814      0.773142     -0.636661
  C       0.280808     -1.141023      0.355230
  C       2.466766      0.552309      0.188013
  C       2.425577     -0.417034      1.188290
  C       1.337217     -1.282673      1.251384
  H       1.364545      1.609258     -1.330792
  C       3.704926      1.439533      0.044528
  H      -0.556573      0.027384     -1.248587
  H      -0.551891     -1.836803      0.386253
  H       3.242301     -0.496106      1.901076
  H       1.325859     -2.082662      1.986676
  N       3.527894      2.466914      0.822804
  S       4.990202      3.460049      1.036246
  O       4.696616      1.140747     -0.729806
  S       6.014460      2.985592     -0.698565
  O       5.490591      3.706912     -1.882680
17
Coordinates from ORCA-job orca_IRC_Full E -1271.137560016260
  C       0.280862     -0.096301     -0.564662
  C       1.371560      0.766495     -0.642591
  C       0.280186     -1.140694      0.356182
  C       2.477846      0.550019      0.179132
  C       2.430870     -0.421789      1.180363
  C       1.337906     -1.281686      1.250070
  H       1.366885      1.605093     -1.333755
  C       3.691899      1.458345      0.063795
  H      -0.556716      0.029684     -1.245727
  H      -0.552814     -1.836668      0.386757
  H       3.243673     -0.499450      1.896954
  H       1.324811     -2.079759      1.988162
  N       3.549497      2.489217      0.830104
  S       4.967401      3.441268      1.040611
  O       4.699735      1.172922     -0.721134
  S       6.000856      2.951974     -0.711453
  O       5.489021      3.700311     -1.884364
17
Coordinates from ORCA-job orca_IRC_Full E -1271.142380889541
  C       0.283701     -0.097009     -0.565509
  C       1.378449      0.759942     -0.649572
  C       0.280051     -1.139759      0.356696
  C       2.485402      0.548269      0.171490
  C       2.436935     -0.425743      1.171569
  C       1.340411     -1.281162      1.247602
  H       1.369958      1.600152     -1.338086
  C       3.681505      1.474564      0.076998
  H      -0.556637      0.032740     -1.242422
  H      -0.553697     -1.835533      0.387931
  H       3.246235     -0.503642      1.892124
  H       1.324124     -2.075805      1.989675
  N       3.551877      2.501115      0.845708
  S       4.962423      3.440045      1.047449
  O       4.705772      1.211377     -0.711155
  S       5.977459      2.906710     -0.727521
  O       5.489508      3.692720     -1.884533
17
Coordinates from ORCA-job orca_IRC_Full E -1271.147308671288
  C       0.286266     -0.098527     -0.567361
  C       1.383271      0.754853     -0.656323
  C       0.280747     -1.138731      0.356534
  C       2.491653      0.547881      0.164603
  C       2.442322     -0.428550      1.164177
  C       1.343444     -1.281409      1.244855
  H       1.373091      1.595655     -1.343120
  C       3.670796      1.489557      0.088585
  H      -0.556529      0.035708     -1.239663
  H      -0.554333     -1.833494      0.389667
  H       3.249430     -0.507441      1.887214
  H       1.324150     -2.071708      1.990753
  N       3.551526      2.507115      0.866729
  S       4.961334      3.446303      1.051210
  O       4.715796      1.246783     -0.703529
  S       5.948831      2.858998     -0.742896
  O       5.491682      3.685985     -1.882992
17
Coordinates from ORCA-job orca_IRC_Full E -1271.151854371616
  C       0.289162     -0.099353     -0.570355
  C       1.387658      0.750174     -0.662232
  C       0.282038     -1.138779      0.356704
  C       2.496139      0.548272      0.157703
  C       2.447206     -0.430898      1.157672
  C       1.347076     -1.280579      1.240858
  H       1.376017      1.591682     -1.348984
  C       3.661172      1.507002      0.102189
  H      -0.556723      0.038390     -1.237535
  H      -0.554762     -1.830727      0.391822
  H       3.252942     -0.510743      1.881938
  H       1.324760     -2.068149      1.991961
  N       3.554204      2.507114      0.888363
  S       4.958500      3.454905      1.052653
  O       4.724671      1.280610     -0.695665
  S       5.919234      2.811214     -0.758294
  O       5.494184      3.678847     -1.880354
17
Coordinates from ORCA-job orca_IRC_Full E -1271.155353693189
  C       0.291769     -0.101384     -0.573465
  C       1.391480      0.747214     -0.669171
  C       0.283952     -1.137416      0.355081
  C       2.501085      0.549818      0.153206
  C       2.452211     -0.431770      1.150790
  C       1.351022     -1.281403      1.237860
  H       1.378810      1.587701     -1.355587
  C       3.649854      1.517081      0.113324
  H      -0.556788      0.040841     -1.235965
  H      -0.555253     -1.827512      0.394657
  H       3.256990     -0.513485      1.876065
  H       1.326291     -2.063707      1.992021
  N       3.559234      2.510625      0.916421
  S       4.954205      3.464806      1.052827
  O       4.729263      1.309841     -0.689651
  S       5.894272      2.769108     -0.772214
  O       5.495079      3.668622     -1.877756
17
Coordinates from ORCA-job orca_IRC_Full E -1271.157962137273
  C       0.296055     -0.103143     -0.578127
  C       1.396379      0.743918     -0.676984
  C       0.286698     -1.136597      0.353463
  C       2.503485      0.552235      0.149342
  C       2.457579     -0.433174      1.143367
  C       1.356239     -1.281007      1.232420
  H       1.382212      1.583225     -1.364685
  C       3.637943      1.532835      0.130503
  H      -0.556819      0.043450     -1.234891
  H      -0.555360     -1.822537      0.398554
  H       3.262581     -0.516178      1.868285
  H       1.329043     -2.059042      1.992158
  N       3.567089      2.509480      0.947239
  S       4.950135      3.476876      1.053486
  O       4.724546      1.336473     -0.683863
  S       5.872432      2.729403     -0.784357
  O       5.493242      3.652763     -1.877466
17
Coordinates from ORCA-job orca_IRC_Full E -1271.159823225711
  C       0.301020     -0.105274     -0.585798
  C       1.401239      0.741182     -0.686404
  C       0.291069     -1.134752      0.350632
  C       2.504268      0.558270      0.149108
  C       2.463523     -0.434176      1.135645
  C       1.362872     -1.282423      1.226446
  H       1.386959      1.577924     -1.377421
  C       3.623460      1.545951      0.152380
  H      -0.555513      0.045887     -1.234615
  H      -0.555520     -1.815277      0.404080
  H       3.270501     -0.518695      1.857605
  H       1.333907     -2.053275      1.990760
  N       3.576093      2.510399      0.984935
  S       4.949616      3.490464      1.056178
  O       4.704613      1.352360     -0.680879
  S       5.858127      2.701844     -0.791469
  O       5.487244      3.628570     -1.882738
17
Coordinates from ORCA-job orca_IRC_Full E -1271.161157844616
  C       0.307622     -0.107915     -0.593688
  C       1.406068      0.741370     -0.694248
  C       0.295469     -1.132995      0.347096
  C       2.498350      0.567537      0.155614
  C       2.467787     -0.433908      1.130576
  C       1.369507     -1.283869      1.219298
  H       1.393414      1.572217     -1.392325
  C       3.614937      1.556322      0.173897
  H      -0.553233      0.046818     -1.238102
  H      -0.555250     -1.805510      0.410416
  H       3.280333     -0.520528      1.845548
  H       1.340806     -2.050445      1.988167
  N       3.584212      2.511447      1.019429
  S       4.954845      3.498449      1.060884
  O       4.674682      1.361657     -0.675812
  S       5.844533      2.687524     -0.792685
  O       5.479394      3.600810     -1.895622
17
Coordinates from ORCA-job orca_IRC_Full E -1271.161460418907
  C       0.309443     -0.108351     -0.595834
  C       1.406995      0.742520     -0.695425
  C       0.296749     -1.131910      0.346016
  C       2.496382      0.570478      0.158256
  C       2.468735     -0.432463      1.130290
  C       1.371186     -1.284622      1.217985
  H       1.396085      1.570372     -1.396829
  C       3.609815      1.558464      0.180634
  H      -0.551319      0.046026     -1.240543
  H      -0.555580     -1.802509      0.412089
  H       3.283213     -0.521053      1.842023
  H       1.343312     -2.051014      1.986231
  N       3.585927      2.513855      1.030855
  S       4.957072      3.498839      1.062869
  O       4.668919      1.364756     -0.675356
  S       5.840400      2.683502     -0.794835
  O       5.476143      3.592090     -1.899981
17
Coordinates from ORCA-job orca_IRC_Full E -1271.161553225276
  C       0.309730     -0.108211     -0.596499
  C       1.406942      0.742516     -0.695671
  C       0.297219     -1.131788      0.346080
  C       2.496242      0.571449      0.158872
  C       2.468386     -0.432610      1.130265
  C       1.371648     -1.284407      1.217495
  H       1.396702      1.570055     -1.397812
  C       3.609172      1.560165      0.182842
  H      -0.550767      0.045780     -1.241090
  H      -0.555681     -1.801879      0.412390
  H       3.283968     -0.521126      1.841411
  H       1.343861     -2.051312      1.985846
  N       3.586271      2.513029      1.032090
  S       4.957789      3.499040      1.063355
  O       4.667144      1.365395     -0.674899
  S       5.839727      2.682154     -0.794646
  O       5.475123      3.590733     -1.901585
17
Coordinates from ORCA-job orca_IRC_Full E -1271.161777321777
  C       0.310923     -0.108229     -0.598252
  C       1.407400      0.743030     -0.696526
  C       0.298304     -1.131100      0.345750
  C       2.495059      0.574412      0.161163
  C       2.468330     -0.432171      1.130153
  C       1.372897     -1.284420      1.216295
  H       1.398840      1.568822     -1.401139
  C       3.606721      1.563413      0.188362
  H      -0.549019      0.044905     -1.243257
  H      -0.555864     -1.799606      0.413448
  H       3.286252     -0.521418      1.839120
  H       1.345818     -2.052198      1.984226
  N       3.587783      2.513009      1.038673
  S       4.960101      3.499495      1.065081
  O       4.661179      1.367623     -0.673400
  S       5.836787      2.678579     -0.795448
  O       5.471967      3.584835     -1.905805
17
Coordinates from ORCA-job orca_IRC_Full E -1271.162001105097
  C       0.312560     -0.108335     -0.599875
  C       1.408283      0.743931     -0.697314
  C       0.299007     -1.130246      0.345189
  C       2.492905      0.577291      0.163837
  C       2.468827     -0.431150      1.130243
  C       1.374192     -1.284610      1.215205
  H       1.401266      1.567397     -1.404667
  C       3.603951      1.566526      0.194144
  H      -0.547042      0.043747     -1.246067
  H      -0.555927     -1.797058      0.414502
  H       3.288454     -0.521725      1.836621
  H       1.348047     -2.053354      1.982124
  N       3.589675      2.514108      1.046575
  S       4.962839      3.499678      1.066953
  O       4.654900      1.369769     -0.672100
  S       5.833161      2.675352     -0.797163
  O       5.468377      3.577659     -1.909762
17
Coordinates from ORCA-job orca_IRC_Full E -1271.162204187782
  C       0.313822     -0.108417     -0.601652
  C       1.408837      0.744771     -0.697998
  C       0.300066     -1.129156      0.344785
  C       2.491432      0.580800      0.166882
  C       2.468794     -0.430262      1.130484
  C       1.375250     -1.284840      1.214183
  H       1.403805      1.566111     -1.408076
  C       3.601237      1.569454      0.199690
  H      -0.544645      0.042352     -1.249080
  H      -0.556085     -1.794672      0.415373
  H       3.290644     -0.521951      1.834484
  H       1.350330     -2.054734      1.979739
  N       3.591631      2.515121      1.054063
  S       4.966080      3.499810      1.068820
  O       4.648392      1.371919     -0.670476
  S       5.829680      2.671773     -0.798690
  O       5.464207      3.570902     -1.914087
17
Coordinates from ORCA-job orca_IRC_Full E -1271.162386821207
  C       0.315503     -0.108403     -0.603153
  C       1.409705      0.745925     -0.698423
  C       0.300640     -1.128241      0.344306
  C       2.489109      0.583843      0.169995
  C       2.468947     -0.429052      1.131045
  C       1.376400     -1.284788      1.213158
  H       1.406368      1.564816     -1.411176
  C       3.598632      1.572517      0.205263
  H      -0.542238      0.040763     -1.252536
  H      -0.556099     -1.792347      0.416018
  H       3.292444     -0.522124      1.832589
  H       1.352580     -2.056487      1.977234
  N       3.593808      2.516647      1.061492
  S       4.969563      3.499572      1.070536
  O       4.642338      1.373716     -0.669174
  S       5.826097      2.668464     -0.800589
  O       5.459679      3.564159     -1.918140
