17
Coordinates from ORCA-job orca
  C   0.58652219858070     -0.36430317772846     -0.83583540071264
  C   1.72023361141090      0.43760002599313     -0.89874222805007
  C   0.28569881515962     -1.06572604227202      0.32805088571072
  C   2.56361506084022      0.53977828749799      0.21465512460298
  C   2.26003523079337     -0.16938218964254      1.38614751753582
  C   1.12554909924503     -0.96444553144806      1.43758715975157
  H   1.94869372724669      0.98731341658829     -1.80498735558103
  C   3.76283130769179      1.37732575067682      0.17057996658602
  H   -0.06516553973823     -0.43873428584540     -1.70126263343452
  H   -0.60135457799826     -1.69088294704109      0.37304756830597
  H   2.91818168624810     -0.08934072101303      2.24504953681731
  H   0.89413959513346     -1.51082373949454      2.34713665671211
  N   4.50696749192484      1.62423561387787      1.18333134757351
  S   5.85187020537520      2.59089159055813      0.88422619177887
  O   4.07209178229291      1.88276003878070     -1.07951109566633
  S   5.17435740556648      3.20301963359839     -1.14956412483590
  O   4.39920890022715      4.45969427691383     -1.03146411709438
