17
Coordinates from ORCA-job orca
  C   -2.50312340643454     -0.89517031876385     -0.46310187351887
  C   -1.73506495533909      0.24403116247823     -0.64386197683760
  C   -1.95613668845964     -2.02356509096190      0.14711093069202
  C   -0.39724263271504      0.24630454728120     -0.20572368493317
  C   0.15816175397565     -0.88993896876804      0.41049191760663
  C   -0.63117008362238     -2.01687377364673      0.58043953879793
  H   -2.14965515092886      1.12797072924678     -1.11721299478907
  C   0.39269125780409      1.39562784654005     -0.38825116193594
  H   -3.53527726460794     -0.90297925289700     -0.79961718898758
  H   -2.56583005388010     -2.91145973706719      0.28523430926977
  H   1.18964869676462     -0.86333683712422      0.74376352363008
  H   -0.20854534661054     -2.89681520869572      1.05552258299774
  N   0.97898007080487      2.38067643025066     -0.59948729520781
  O   2.72036484704527      1.11578541227488      1.27656218312091
  S   3.77761035118687      2.01220731539880      0.72979339157643
  O   4.59647354408682      1.42154421358978     -0.35454312145148
  S   1.97497906092993      3.64637353086424     -0.74479808002997
