17
Coordinates from ORCA-job orca
  C   0.28259868381961     -0.10000748011467     -0.57605496002996
  C   1.33537439726363      0.80321977103070     -0.61304482835745
  C   0.28765587835696     -1.14242815946660      0.35053130804744
  C   2.40029389117787      0.62191150431476      0.27039707145634
  C   2.40540340664970     -0.39456909808405      1.22642922299223
  C   1.34510990197402     -1.28921439629274      1.24829240951313
  H   1.35004109154727      1.63205555510986     -1.31328731369076
  C   3.77737591769670      1.38129741038292     -0.03908626527773
  H   -0.54991652423407      0.01543454048429     -1.26328598391598
  H   -0.54580988250122     -1.83779276186619      0.38273590215986
  H   3.23209772979159     -0.47647175903299      1.92454028385857
  H   1.33566078652139     -2.09530713519416      1.97549905845306
  N   3.30313890806739      2.22423151050700      0.76836617196203
  S   5.16664487604838      3.60279182850468      1.03451755923610
  O   4.69323236233693      1.02710544550251     -0.77430039728095
  S   6.05747426484596      3.09849929218138     -0.65001945579629
  O   5.49922297063780      3.72377404103328     -1.87952595032965
