17
Coordinates from ORCA-job mol
  C   -2.42879295412202     -0.70358018134539     -0.25766749586570
  C   -1.54562721269734      0.35195159058544     -0.42617836101753
  C   -1.96463971203977     -1.94731828075817      0.16803919322159
  C   -0.17579770305845      0.14629961067719     -0.18776754555500
  C   0.29336991331935     -1.10389232370104      0.24315039449925
  C   -0.60792321202301     -2.14263830774842      0.42135289810840
  H   -1.89501617357559      1.32808381448566     -0.74666272152065
  C   0.73845056248488      1.21569347304186     -0.37375830719228
  H   -3.48662000311513     -0.55240128638924     -0.44987062122395
  H   -2.66411844770188     -2.76642613298831      0.30623914405767
  H   1.35204005450718     -1.23862053367978      0.43679080220328
  H   -0.25009478306801     -3.11129837199142      0.75626555973187
  N   1.10175922538758      2.17702095391372     -1.00150610408973
  O   1.96753558828374      3.08156184132012     -0.91340488226526
  O   2.05393946546060      1.36844657179327      1.16844848478270
  S   3.20922763319157      2.28897955030460      0.79182375147230
  O   4.30230775876631      1.60813801247994      0.06470581065305
