-------------------------------------------------------------
----------------------- !PROPERTIES! ------------------------
-------------------------------------------------------------
# -----------------------------------------------------------
$ PAL_Flags
   description: The PAL Flags
   geom. index: 1
   prop. index: 1
        Diskflag:     2
# -----------------------------------------------------------
$ SCF_Energy
   description: The SCF energy
   geom. index: 1
   prop. index: 1
        SCF Energy:    -1062.6939643658
# -----------------------------------------------------------
$ DFT_Energy
   description: The DFT energy
   geom. index: 1
   prop. index: 1
   Number of Alpha Electrons                 54.9999705732 
   Number of Beta  Electrons                 54.9999705732 
   Total number of  Electrons               109.9999411463 
   Exchange energy                         -108.9089719696 
   Correlation energy                        -3.7612608980 
   Correlation energy NL                      0.0000000000 
   Exchange-Correlation energy             -112.6702328676 
   Embedding correction                       0.0000000000 
   Total DFT Energy (No VdW correction)   -1062.6939643658 
# -----------------------------------------------------------
$ Solvation_Details
   description: Details concerning solvation
   geom. index: 1
   prop. index: 1
     Epsilon:                2.2800000000
     Refrac:                 1.5010000000
     RSolv:                  1.3000000000
     Surface Type:                      2
     Number of Points:               1157
     Surface Area:         799.9092382716
     Dielectric Energy:     -0.0080254886
# -----------------------------------------------------------
$ VdW_Correction
   description: The Van der Waals Correction
   geom. index: 1
   prop. index: 1
        Van der Waals Correction:       -0.0086492786
# -----------------------------------------------------------
$ PAL_Flags
   description: The PAL Flags
   geom. index: 2
   prop. index: 1
        Diskflag:     2
# -----------------------------------------------------------
$ SCF_Energy
   description: The SCF energy
   geom. index: 2
   prop. index: 1
        SCF Energy:    -1062.6940212775
# -----------------------------------------------------------
$ DFT_Energy
   description: The DFT energy
   geom. index: 2
   prop. index: 1
   Number of Alpha Electrons                 54.9999697087 
   Number of Beta  Electrons                 54.9999697087 
   Total number of  Electrons               109.9999394174 
   Exchange energy                         -108.9041592459 
   Correlation energy                        -3.7608948755 
   Correlation energy NL                      0.0000000000 
   Exchange-Correlation energy             -112.6650541215 
   Embedding correction                       0.0000000000 
   Total DFT Energy (No VdW correction)   -1062.6940212775 
# -----------------------------------------------------------
$ Solvation_Details
   description: Details concerning solvation
   geom. index: 2
   prop. index: 1
     Epsilon:                2.2800000000
     Refrac:                 1.5010000000
     RSolv:                  1.3000000000
     Surface Type:                      2
     Number of Points:               1160
     Surface Area:         800.5345874677
     Dielectric Energy:     -0.0081226690
# -----------------------------------------------------------
$ VdW_Correction
   description: The Van der Waals Correction
   geom. index: 2
   prop. index: 1
        Van der Waals Correction:       -0.0086443922
# -----------------------------------------------------------
$ PAL_Flags
   description: The PAL Flags
   geom. index: 3
   prop. index: 1
        Diskflag:     2
# -----------------------------------------------------------
$ SCF_Energy
   description: The SCF energy
   geom. index: 3
   prop. index: 1
        SCF Energy:    -1062.6940366780
# -----------------------------------------------------------
$ DFT_Energy
   description: The DFT energy
   geom. index: 3
   prop. index: 1
   Number of Alpha Electrons                 54.9999697176 
   Number of Beta  Electrons                 54.9999697176 
   Total number of  Electrons               109.9999394351 
   Exchange energy                         -108.9025461736 
   Correlation energy                        -3.7607756060 
   Correlation energy NL                      0.0000000000 
   Exchange-Correlation energy             -112.6633217796 
   Embedding correction                       0.0000000000 
   Total DFT Energy (No VdW correction)   -1062.6940366780 
# -----------------------------------------------------------
$ Solvation_Details
   description: Details concerning solvation
   geom. index: 3
   prop. index: 1
     Epsilon:                2.2800000000
     Refrac:                 1.5010000000
     RSolv:                  1.3000000000
     Surface Type:                      2
     Number of Points:               1159
     Surface Area:         800.7279704194
     Dielectric Energy:     -0.0081663364
# -----------------------------------------------------------
$ VdW_Correction
   description: The Van der Waals Correction
   geom. index: 3
   prop. index: 1
        Van der Waals Correction:       -0.0086444189
# -----------------------------------------------------------
$ PAL_Flags
   description: The PAL Flags
   geom. index: 4
   prop. index: 1
        Diskflag:     2
# -----------------------------------------------------------
$ SCF_Energy
   description: The SCF energy
   geom. index: 4
   prop. index: 1
        SCF Energy:    -1062.6940431912
# -----------------------------------------------------------
$ DFT_Energy
   description: The DFT energy
   geom. index: 4
   prop. index: 1
   Number of Alpha Electrons                 54.9999692644 
   Number of Beta  Electrons                 54.9999692644 
   Total number of  Electrons               109.9999385288 
   Exchange energy                         -108.9026904894 
   Correlation energy                        -3.7607914416 
   Correlation energy NL                      0.0000000000 
   Exchange-Correlation energy             -112.6634819311 
   Embedding correction                       0.0000000000 
   Total DFT Energy (No VdW correction)   -1062.6940431912 
# -----------------------------------------------------------
$ Solvation_Details
   description: Details concerning solvation
   geom. index: 4
   prop. index: 1
     Epsilon:                2.2800000000
     Refrac:                 1.5010000000
     RSolv:                  1.3000000000
     Surface Type:                      2
     Number of Points:               1159
     Surface Area:         800.6939930408
     Dielectric Energy:     -0.0081771564
# -----------------------------------------------------------
$ VdW_Correction
   description: The Van der Waals Correction
   geom. index: 4
   prop. index: 1
        Van der Waals Correction:       -0.0086455998
# -----------------------------------------------------------
$ PAL_Flags
   description: The PAL Flags
   geom. index: 5
   prop. index: 1
        Diskflag:     2
# -----------------------------------------------------------
$ SCF_Energy
   description: The SCF energy
   geom. index: 5
   prop. index: 1
        SCF Energy:    -1062.6940455997
# -----------------------------------------------------------
$ DFT_Energy
   description: The DFT energy
   geom. index: 5
   prop. index: 1
   Number of Alpha Electrons                 54.9999690674 
   Number of Beta  Electrons                 54.9999690674 
   Total number of  Electrons               109.9999381348 
   Exchange energy                         -108.9029424623 
   Correlation energy                        -3.7608070448 
   Correlation energy NL                      0.0000000000 
   Exchange-Correlation energy             -112.6637495070 
   Embedding correction                       0.0000000000 
   Total DFT Energy (No VdW correction)   -1062.6940455997 
# -----------------------------------------------------------
$ Solvation_Details
   description: Details concerning solvation
   geom. index: 5
   prop. index: 1
     Epsilon:                2.2800000000
     Refrac:                 1.5010000000
     RSolv:                  1.3000000000
     Surface Type:                      2
     Number of Points:               1159
     Surface Area:         800.6895339750
     Dielectric Energy:     -0.0081777817
# -----------------------------------------------------------
$ VdW_Correction
   description: The Van der Waals Correction
   geom. index: 5
   prop. index: 1
        Van der Waals Correction:       -0.0086460901
# -----------------------------------------------------------
$ SCF_Electric_Properties
   description: The SCF Calculated Electric Properties
   geom. index: 5
   prop. index: 1
       Filename                          : mol.scfp 
       Do Dipole Moment Calculation      : true 
       Do Quadrupole Moment Calculation  : false 
       Do Polarizability Calculation     : false 
** Dipole moment part of electric properties **
        Magnitude of dipole moment (Debye) :        5.2512912035
        Electronic Contribution:
                  0    
      0      15.968123
      1       6.038614
      2       1.086309
        Nuclear Contribution:
                  0    
      0     -17.744165
      1      -6.764970
      2      -0.320583
        Total Dipole moment:
                  0    
      0      -1.776042
      1      -0.726355
      2       0.765726
# -----------------------------------------------------------
$ PAL_Flags
   description: The PAL Flags
   geom. index: 6
   prop. index: 1
        Diskflag:     2
# -----------------------------------------------------------
$ SCF_Energy
   description: The SCF energy
   geom. index: 6
   prop. index: 1
        SCF Energy:    -1062.6940455994
# -----------------------------------------------------------
$ DFT_Energy
   description: The DFT energy
   geom. index: 6
   prop. index: 1
   Number of Alpha Electrons                 54.9999690674 
   Number of Beta  Electrons                 54.9999690674 
   Total number of  Electrons               109.9999381347 
   Exchange energy                         -108.9029420534 
   Correlation energy                        -3.7608067831 
   Correlation energy NL                      0.0000000000 
   Exchange-Correlation energy             -112.6637488365 
   Embedding correction                       0.0000000000 
   Total DFT Energy (No VdW correction)   -1062.6940455994 
# -----------------------------------------------------------
$ Solvation_Details
   description: Details concerning solvation
   geom. index: 6
   prop. index: 1
     Epsilon:                2.2800000000
     Refrac:                 1.5010000000
     RSolv:                  1.3000000000
     Surface Type:                      2
     Number of Points:               1159
     Surface Area:         800.6895339750
     Dielectric Energy:     -0.0081780630
# -----------------------------------------------------------
$ VdW_Correction
   description: The Van der Waals Correction
   geom. index: 6
   prop. index: 1
        Van der Waals Correction:       -0.0086460901
# -----------------------------------------------------------
$ THERMOCHEMISTRY_Energies
   description: The Thermochemistry energies
   geom. index: 6
   prop. index: 1
        Temperature (Kelvin)           :        298.1500000000
        Pressure (atm)                 :          1.0000000000
        Total Mass (AMU)               :        213.0095788828
        Spin Degeneracy                :          1.0000000000
        Electronic Energy (Hartree)    :      -1062.6790919617
        Translational Energy (Hartree) :          0.0014162714
        Rotational Energy (Hartree)    :          0.0014162714
        Vibrational Energy (Hartree)   :          0.0095055251
        Number of frequencies          :     63      
        Scaling Factor for frequencies :          1.0000000000
        Vibrational frequencies        :     
                  0    
      0       0.000000
      1       0.000000
      2       0.000000
      3       0.000000
      4       0.000000
      5       0.000000
      6      24.784620
      7      71.835515
      8      97.547992
      9     122.790566
     10     137.523043
     11     208.127513
     12     230.135298
     13     270.526833
     14     293.275074
     15     317.374377
     16     329.841060
     17     351.862541
     18     436.059570
     19     448.610753
     20     471.150155
     21     529.636576
     22     538.439744
     23     588.487706
     24     638.317798
     25     658.143667
     26     688.913845
     27     694.463710
     28     735.659667
     29     759.176001
     30     817.183722
     31     851.406796
     32     874.736620
     33     919.409584
     34     950.262979
     35     980.239750
     36     1032.660263
     37     1040.370753
     38     1078.217172
     39     1158.841942
     40     1163.042342
     41     1188.304207
     42     1205.136263
     43     1210.182163
     44     1285.867871
     45     1297.708306
     46     1312.380546
     47     1366.566504
     48     1455.589378
     49     1477.211902
     50     1478.757711
     51     1489.043960
     52     1522.091063
     53     1590.353614
     54     1619.766056
     55     1631.545964
     56     3000.264645
     57     3082.365802
     58     3145.149358
     59     3174.758318
     60     3192.672246
     61     3208.770803
     62     3213.735139
        Zero Point Energy (Hartree)    :          0.1450219487
        Inner Energy (Hartree)         :      -1062.5217319450
        Enthalpy (Hartree)             :      -1062.5207877360
        Electronic entropy             :          0.0000000000
        Rotational entropy             :          0.0152242700
        Vibrational entropy            :          0.0164691468
        Translational entropy          :          0.0152242700
        Entropy                        :          0.0516355966
        Gibbs Energy (Hartree)         :      -1062.5724233326
        Is Linear                      :                 false
# -------------------------------------------------------------
----------------------- !GEOMETRIES! ------------------------
# -------------------------------------------------------------
------------------------ !GEOMETRY! -------------------------
    Number of atoms:    21 
    Geometry Index:     1 
    Coordinates:
               0 C      0.048307405715    0.064634706802   -0.078991316927
               1 C      0.997160307045    1.074106680770   -0.255826457812
               2 C      0.418832154940   -1.160088156760    0.465179472990
               3 C      2.341775349083    0.841256189107    0.123680226354
               4 C      2.682818810522   -0.400889852801    0.672068057509
               5 C      1.734707623152   -1.398467062678    0.842577056753
               6 O      0.712929112874    2.286725023500   -0.770941437442
               7 C      3.379205630617    1.854276013111   -0.022161175836
               8 H     -0.983468190592    0.229023096533   -0.364194054983
               9 H     -0.335137235003   -1.931473088829    0.591540289783
              10 H      3.713045786742   -0.577940698680    0.958342244461
              11 H      2.024658360374   -2.354597274750    1.264773613200
              12 N      3.307088628846    2.948446264330   -0.696151234698
              13 O      4.522046115283    3.648028291185   -0.570769832038
              14 O      4.564614225420    1.591565410979    0.635752397342
              15 S      5.786244758984    2.647203716669    0.056211691767
              16 O      6.465856759594    1.976259226320   -1.057262078887
              17 C     -0.630893476642    2.565559021960   -1.159650330686
              18 H     -0.614916703297    3.588049567582   -1.538654638873
              19 H     -1.314734773238    2.501810172559   -0.303353696757
              20 H     -0.963930650418    1.885642753089   -1.954148795218
------------------------ !GEOMETRY! -------------------------
    Number of atoms:    21 
    Geometry Index:     2 
    Coordinates:
               0 C      0.048082849783    0.066759449813   -0.079316592376
               1 C      0.997037391736    1.076048578272   -0.258423464946
               2 C      0.419474106896   -1.157625132224    0.465373350913
               3 C      2.342933347314    0.842527110246    0.120417282841
               4 C      2.684909087990   -0.400099113995    0.669586286294
               5 C      1.736502463438   -1.396932734392    0.841636631919
               6 O      0.709701582029    2.287330689957   -0.774768898912
               7 C      3.381601660383    1.854243442455   -0.024267907491
               8 H     -0.984135585815    0.231301597691   -0.363432253369
               9 H     -0.334809258543   -1.928751193394    0.593418988968
              10 H      3.715326373084   -0.578410800122    0.955303409940
              11 H      2.026428351881   -2.353071811355    1.264304852496
              12 N      3.315004931908    2.949325808963   -0.698576208027
              13 O      4.531953717757    3.648310739183   -0.566008014684
              14 O      4.565000290770    1.590999168062    0.636032170826
              15 S      5.791833108164    2.644220487932    0.064163972435
              16 O      6.466740765447    1.971774281229   -1.052681782159
              17 C     -0.638900495510    2.563984670800   -1.160282617118
              18 H     -0.627150428928    3.585693097900   -1.541512617518
              19 H     -1.318585178431    2.500034098578   -0.301593313180
              20 H     -0.972739081352    1.881467564399   -1.951353276852
------------------------ !GEOMETRY! -------------------------
    Number of atoms:    21 
    Geometry Index:     3 
    Coordinates:
               0 C      0.047876443230    0.067166651313   -0.078287447793
               1 C      0.997593365200    1.075855517291   -0.259438113375
               2 C      0.419254918979   -1.156984423819    0.466698847805
               3 C      2.343461683505    0.841119056369    0.118613795259
               4 C      2.685997020088   -0.401903653157    0.667909368425
               5 C      1.736990092435   -1.397697563067    0.841471992127
               6 O      0.711167179075    2.286596661809   -0.777103134510
               7 C      3.381543352077    1.852539560079   -0.026494385983
               8 H     -0.984462078785    0.232277476755   -0.361274548239
               9 H     -0.335505929071   -1.927474378891    0.596260512418
              10 H      3.716396230705   -0.581711359873    0.952567721546
              11 H      2.026447472229   -2.353999752035    1.264114734913
              12 N      3.314928929910    2.947838068282   -0.701477606453
              13 O      4.531727002313    3.649121186056   -0.566789519502
              14 O      4.563860670551    1.591143985762    0.635428127052
              15 S      5.789848436845    2.646478259270    0.068467447787
              16 O      6.467268566185    1.974527895065   -1.048312722590
              17 C     -0.639747197985    2.564855714686   -1.160880396075
              18 H     -0.627248602999    3.586091664717   -1.542886821580
              19 H     -1.316593123457    2.501884212687   -0.300309820074
              20 H     -0.974594431030    1.881405220700   -1.950258031159
------------------------ !GEOMETRY! -------------------------
    Number of atoms:    21 
    Geometry Index:     4 
    Coordinates:
               0 C      0.047985264186    0.067296317899   -0.078452877317
               1 C      0.997793653253    1.076063812208   -0.260173370793
               2 C      0.419481542783   -1.156562309627    0.466648485877
               3 C      2.343481981131    0.841296327906    0.118130801325
               4 C      2.686279909124   -0.401674261817    0.667543688820
               5 C      1.737318614399   -1.397367066984    0.841248590756
               6 O      0.711712328721    2.286433917770   -0.778277437917
               7 C      3.381314630681    1.852845162120   -0.026510300859
               8 H     -0.984410585559    0.232340977982   -0.361265862712
               9 H     -0.335202925973   -1.927046098634    0.596570870812
              10 H      3.716588495132   -0.581769797079    0.952246260501
              11 H      2.026643768926   -2.353689113086    1.263858830239
              12 N      3.315011486066    2.947655662007   -0.702517707547
              13 O      4.531923230009    3.649203408598   -0.566375590444
              14 O      4.563057166158    1.591880535691    0.636409234902
              15 S      5.788997018484    2.645966608133    0.069252481686
              16 O      6.465676606205    1.973129642998   -1.047893760230
              17 C     -0.640123083755    2.564750885118   -1.160853181649
              18 H     -0.627180112695    3.585997987755   -1.542597831810
              19 H     -1.315323186055    2.501448818093   -0.299065921469
              20 H     -0.974815801220    1.880928582949   -1.949905402172
------------------------ !GEOMETRY! -------------------------
    Number of atoms:    21 
    Geometry Index:     5 
    Coordinates:
               0 C      0.048014727172    0.067087133985   -0.078680232563
               1 C      0.997746742612    1.076022134367   -0.260700792180
               2 C      0.419642729745   -1.156546678353    0.466559246825
               3 C      2.343389417194    0.841348228135    0.117666384876
               4 C      2.686317319068   -0.401451143013    0.667279733300
               5 C      1.737484241455   -1.397196642921    0.841120177183
               6 O      0.711851622676    2.286180217780   -0.779112243584
               7 C      3.381176480679    1.853024353751   -0.026971850115
               8 H     -0.984423016980    0.231935375343   -0.361445768464
               9 H     -0.334898035805   -1.927124166925    0.596706146014
              10 H      3.716597133465   -0.581544215979    0.952046204916
              11 H      2.026779264353   -2.353508232722    1.263759999153
              12 N      3.315086303165    2.947179384333   -0.704000198640
              13 O      4.532077732162    3.648895417153   -0.567424399633
              14 O      4.562389126849    1.592961164045    0.637364228326
              15 S      5.788263815729    2.646079187722    0.069782264335
              16 O      6.465827790657    1.972024299193   -1.046211968315
              17 C     -0.640422852511    2.564905331849   -1.160520537283
              18 H     -0.626921734643    3.586313277245   -1.541769008229
              19 H     -1.314438221792    2.501323268344   -0.297839944003
              20 H     -0.975330585251    1.881222306669   -1.949587441919
------------------------ !GEOMETRY! -------------------------
    Number of atoms:    21 
    Geometry Index:     6 
    Coordinates:
               0 C      0.048014727172    0.067087133985   -0.078680232563
               1 C      0.997746742612    1.076022134367   -0.260700792180
               2 C      0.419642729745   -1.156546678353    0.466559246825
               3 C      2.343389417194    0.841348228135    0.117666384876
               4 C      2.686317319068   -0.401451143013    0.667279733300
               5 C      1.737484241455   -1.397196642921    0.841120177183
               6 O      0.711851622676    2.286180217780   -0.779112243584
               7 C      3.381176480679    1.853024353751   -0.026971850115
               8 H     -0.984423016980    0.231935375343   -0.361445768464
               9 H     -0.334898035805   -1.927124166925    0.596706146014
              10 H      3.716597133465   -0.581544215979    0.952046204916
              11 H      2.026779264353   -2.353508232722    1.263759999153
              12 N      3.315086303165    2.947179384333   -0.704000198640
              13 O      4.532077732162    3.648895417153   -0.567424399633
              14 O      4.562389126849    1.592961164045    0.637364228326
              15 S      5.788263815729    2.646079187722    0.069782264335
              16 O      6.465827790657    1.972024299193   -1.046211968315
              17 C     -0.640422852511    2.564905331849   -1.160520537283
              18 H     -0.626921734643    3.586313277245   -1.541769008229
              19 H     -1.314438221792    2.501323268344   -0.297839944003
              20 H     -0.975330585251    1.881222306669   -1.949587441919
