21
Coordinates from ORCA-job mol E -1062.679026729354
  C       0.048307      0.064635     -0.078991
  C       0.997160      1.074107     -0.255826
  C       0.418832     -1.160088      0.465179
  C       2.341775      0.841256      0.123680
  C       2.682819     -0.400890      0.672068
  C       1.734708     -1.398467      0.842577
  O       0.712929      2.286725     -0.770941
  C       3.379206      1.854276     -0.022161
  H      -0.983468      0.229023     -0.364194
  H      -0.335137     -1.931473      0.591540
  H       3.713046     -0.577941      0.958342
  H       2.024658     -2.354597      1.264774
  N       3.307089      2.948446     -0.696151
  O       4.522046      3.648028     -0.570770
  O       4.564614      1.591565      0.635752
  S       5.786245      2.647204      0.056212
  O       6.465857      1.976259     -1.057262
  C      -0.630893      2.565559     -1.159650
  H      -0.614917      3.588050     -1.538655
  H      -1.314735      2.501810     -0.303354
  H      -0.963931      1.885643     -1.954149
21
Coordinates from ORCA-job mol E -1062.679078766724
  C       0.048083      0.066759     -0.079317
  C       0.997037      1.076049     -0.258423
  C       0.419474     -1.157625      0.465373
  C       2.342933      0.842527      0.120417
  C       2.684909     -0.400099      0.669586
  C       1.736502     -1.396933      0.841637
  O       0.709702      2.287331     -0.774769
  C       3.381602      1.854243     -0.024268
  H      -0.984136      0.231302     -0.363432
  H      -0.334809     -1.928751      0.593419
  H       3.715326     -0.578411      0.955303
  H       2.026428     -2.353072      1.264305
  N       3.315005      2.949326     -0.698576
  O       4.531954      3.648311     -0.566008
  O       4.565000      1.590999      0.636032
  S       5.791833      2.644220      0.064164
  O       6.466741      1.971774     -1.052682
  C      -0.638900      2.563985     -1.160283
  H      -0.627150      3.585693     -1.541513
  H      -1.318585      2.500034     -0.301593
  H      -0.972739      1.881468     -1.951353
21
Coordinates from ORCA-job mol E -1062.679089455852
  C       0.047876      0.067167     -0.078287
  C       0.997593      1.075856     -0.259438
  C       0.419255     -1.156984      0.466699
  C       2.343462      0.841119      0.118614
  C       2.685997     -0.401904      0.667909
  C       1.736990     -1.397698      0.841472
  O       0.711167      2.286597     -0.777103
  C       3.381543      1.852540     -0.026494
  H      -0.984462      0.232277     -0.361275
  H      -0.335506     -1.927474      0.596261
  H       3.716396     -0.581711      0.952568
  H       2.026447     -2.354000      1.264115
  N       3.314929      2.947838     -0.701478
  O       4.531727      3.649121     -0.566790
  O       4.563861      1.591144      0.635428
  S       5.789848      2.646478      0.068467
  O       6.467269      1.974528     -1.048313
  C      -0.639747      2.564856     -1.160880
  H      -0.627249      3.586092     -1.542887
  H      -1.316593      2.501884     -0.300310
  H      -0.974594      1.881405     -1.950258
21
Coordinates from ORCA-job mol E -1062.679091411809
  C       0.047985      0.067296     -0.078453
  C       0.997794      1.076064     -0.260173
  C       0.419482     -1.156562      0.466648
  C       2.343482      0.841296      0.118131
  C       2.686280     -0.401674      0.667544
  C       1.737319     -1.397367      0.841249
  O       0.711712      2.286434     -0.778277
  C       3.381315      1.852845     -0.026510
  H      -0.984411      0.232341     -0.361266
  H      -0.335203     -1.927046      0.596571
  H       3.716588     -0.581770      0.952246
  H       2.026644     -2.353689      1.263859
  N       3.315011      2.947656     -0.702518
  O       4.531923      3.649203     -0.566376
  O       4.563057      1.591881      0.636409
  S       5.788997      2.645967      0.069252
  O       6.465677      1.973130     -1.047894
  C      -0.640123      2.564751     -1.160853
  H      -0.627180      3.585998     -1.542598
  H      -1.315323      2.501449     -0.299066
  H      -0.974816      1.880929     -1.949905
21
Coordinates from ORCA-job mol E -1062.679091961976
  C       0.048015      0.067087     -0.078680
  C       0.997747      1.076022     -0.260701
  C       0.419643     -1.156547      0.466559
  C       2.343389      0.841348      0.117666
  C       2.686317     -0.401451      0.667280
  C       1.737484     -1.397197      0.841120
  O       0.711852      2.286180     -0.779112
  C       3.381176      1.853024     -0.026972
  H      -0.984423      0.231935     -0.361446
  H      -0.334898     -1.927124      0.596706
  H       3.716597     -0.581544      0.952046
  H       2.026779     -2.353508      1.263760
  N       3.315086      2.947179     -0.704000
  O       4.532078      3.648895     -0.567424
  O       4.562389      1.592961      0.637364
  S       5.788264      2.646079      0.069782
  O       6.465828      1.972024     -1.046212
  C      -0.640423      2.564905     -1.160521
  H      -0.626922      3.586313     -1.541769
  H      -1.314438      2.501323     -0.297840
  H      -0.975331      1.881222     -1.949587
