!DLPNO-CCSD(T) Extrapolate(3/4,cc) cc-pVQZ/C TightPNO TightSCF 
%geom maxiter 300 end
%maxcore 4000 
%pal nprocs 36
end

*xyz 0 1
6        0.624474332     -1.403385583      0.032301855
6        1.380293212     -0.795386647     -0.965021847
6        0.620430952     -0.884922869      1.325630827
6        2.134255693      0.337352671     -0.661176597
6        2.138736969      0.865954215      0.632198040
6        1.378159049      0.247630573      1.619615934
1        1.396510968     -1.183433594     -1.973347191
6        3.634676848      1.837904383     -1.898725491
1        0.040164907     -2.281999521     -0.203060618
1        0.032418940     -1.359470530      2.098370601
1        2.730869702      1.743895697      0.852662308
1        1.380471215      0.654506331      2.621349481
7        2.881672022      0.921578532     -1.686145041
8        4.381279354      2.690526364     -2.242445855
8        4.191281655      3.726902654      0.790929733
16       5.490124604      4.016416685      0.177229494
8        6.559682547      3.030830522      0.332535428

*
