14
Coordinates from ORCA-job mol E -399.649494499355
  C       1.806997     -0.419592      0.362265
  C       2.922676      0.352003      0.030274
  C       1.949608     -1.779650      0.662171
  C       4.193171     -0.242406     -0.001790
  C       4.343102     -1.607584      0.298593
  C       3.219814     -2.368147      0.628522
  H       2.828883      1.405482     -0.204694
  C       6.472869      0.673489     -0.531235
  H       0.825828      0.042593      0.386512
  H       1.080461     -2.375178      0.919770
  H       5.329927     -2.057214      0.271485
  H       3.338470     -3.421525      0.859683
  N       5.292558      0.545181     -0.335681
  O       7.629234      0.923148     -0.754876
14
Coordinates from ORCA-job mol E -399.651485418855
  C       1.816360     -0.420750      0.361237
  C       2.923713      0.351705      0.029968
  C       1.962406     -1.774236      0.659353
  C       4.189786     -0.238222     -0.002986
  C       4.345001     -1.597117      0.295450
  C       3.228734     -2.356568      0.624793
  H       2.825601      1.406399     -0.204359
  C       6.454900      0.656562     -0.524571
  H       0.833306      0.039003      0.386507
  H       1.094623     -2.372644      0.917531
  H       5.334159     -2.043616      0.266938
  H       3.350598     -3.410412      0.855807
  N       5.280116      0.549712     -0.335488
  O       7.594297      0.880784     -0.739179
14
Coordinates from ORCA-job mol E -399.651765894955
  C       1.816994     -0.422656      0.361620
  C       2.919411      0.353770      0.030087
  C       1.967804     -1.773692      0.658574
  C       4.186855     -0.230265     -0.004484
  C       4.346629     -1.587576      0.292925
  C       3.234699     -2.350056      0.622501
  H       2.815829      1.408328     -0.203368
  C       6.451262      0.644777     -0.521301
  H       0.831883      0.033583      0.387949
  H       1.102341     -2.375709      0.917207
  H       5.337719     -2.030432      0.263055
  H       3.360756     -3.403929      0.852983
  N       5.272656      0.561802     -0.337629
  O       7.588764      0.842656     -0.729117
14
Coordinates from ORCA-job mol E -399.652077440304
  C       1.815130     -0.425570      0.362666
  C       2.910541      0.358648      0.030096
  C       1.974844     -1.774508      0.657956
  C       4.181900     -0.215165     -0.007593
  C       4.350046     -1.571340      0.288425
  C       3.244798     -2.340992      0.619019
  H       2.797601      1.412704     -0.201894
  C       6.446234      0.624180     -0.515665
  H       0.826813      0.024291      0.390981
  H       1.113927     -2.382887      0.917499
  H       5.344362     -2.007512      0.256253
  H       3.378736     -3.394441      0.848396
  N       5.260975      0.586392     -0.342467
  O       7.587692      0.776800     -0.712672
14
Coordinates from ORCA-job mol E -399.652595188419
  C       1.809552     -0.431685      0.365298
  C       2.888287      0.372852      0.029187
  C       1.993205     -1.777053      0.656768
  C       4.170051     -0.175072     -0.016751
  C       4.361075     -1.528998      0.275802
  C       3.272711     -2.318809      0.609918
  H       2.752090      1.425106     -0.199219
  C       6.426812      0.566676     -0.498742
  H       0.813602      0.001437      0.399198
  H       1.144786     -2.401696      0.919163
  H       5.363359     -1.947635      0.237613
  H       3.427621     -3.370367      0.836238
  N       5.232756      0.653874     -0.356900
  O       7.577692      0.601971     -0.666572
14
Coordinates from ORCA-job mol E -399.652763679902
  C       1.806671     -0.432226      0.365937
  C       2.883897      0.375917      0.028960
  C       1.995145     -1.778331      0.656957
  C       4.167657     -0.168215     -0.018215
  C       4.363467     -1.522177      0.273659
  C       3.277466     -2.316622      0.608721
  H       2.744744      1.427752     -0.199138
  C       6.423970      0.556516     -0.495791
  H       0.809717     -0.002125      0.400831
  H       1.149135     -2.405715      0.919879
  H       5.366835     -1.938223      0.234569
  H       3.436158     -3.367507      0.834285
  N       5.229114      0.668681     -0.360410
  O       7.579624      0.572875     -0.659243
14
Coordinates from ORCA-job mol E -399.652828197037
  C       1.804348     -0.431350      0.366062
  C       2.883767      0.376194      0.028933
  C       1.993173     -1.779101      0.657368
  C       4.166999     -0.170048     -0.017612
  C       4.363740     -1.524137      0.274127
  C       3.276447     -2.319295      0.609453
  H       2.747138      1.428078     -0.199693
  C       6.425814      0.557614     -0.496295
  H       0.807903     -0.001034      0.400865
  H       1.147009     -2.405967      0.920260
  H       5.366376     -1.941518      0.235569
  H       3.434577     -3.369888      0.834905
  N       5.230625      0.670283     -0.360869
  O       7.585682      0.580768     -0.662072
14
Coordinates from ORCA-job mol E -399.652831654278
  C       1.804229     -0.431259      0.366063
  C       2.883373      0.376671      0.028852
  C       1.993931     -1.778932      0.657237
  C       4.166473     -0.169449     -0.017725
  C       4.364375     -1.523124      0.273770
  C       3.277328     -2.318769      0.609198
  H       2.746832      1.428546     -0.199780
  C       6.424573      0.555174     -0.495542
  H       0.807549     -0.001547      0.401070
  H       1.148065     -2.406199      0.920216
  H       5.367005     -1.940429      0.235211
  H       3.435816     -3.369308      0.834591
  N       5.229640      0.672088     -0.361193
  O       7.584412      0.577137     -0.660967
14
Coordinates from ORCA-job mol E -399.652833440140
  C       1.804307     -0.430997      0.365968
  C       2.883733      0.376553      0.028854
  C       1.993978     -1.778632      0.657128
  C       4.166358     -0.170423     -0.017426
  C       4.364509     -1.523764      0.273949
  C       3.276998     -2.319024      0.609305
  H       2.748264      1.428509     -0.199929
  C       6.424563      0.554896     -0.495541
  H       0.807599     -0.001360      0.400973
  H       1.147901     -2.405696      0.920055
  H       5.366773     -1.941851      0.235671
  H       3.434938     -3.369630      0.834782
  N       5.229669      0.671285     -0.360887
  O       7.584009      0.580734     -0.661902
14
Coordinates from ORCA-job mol E -399.652833624622
  C       1.804373     -0.430949      0.365941
  C       2.883883      0.376435      0.028869
  C       1.993875     -1.778577      0.657117
  C       4.166461     -0.170760     -0.017344
  C       4.364439     -1.524100      0.274057
  C       3.276740     -2.319150      0.609373
  H       2.748757      1.428425     -0.199958
  C       6.424809      0.555112     -0.495671
  H       0.807664     -0.001294      0.400931
  H       1.147685     -2.405516      0.920014
  H       5.366571     -1.942506      0.235882
  H       3.434435     -3.369793      0.834893
  N       5.229817      0.670830     -0.360749
  O       7.584090      0.582442     -0.662355
