-------------------------------------------------------------
----------------------- !PROPERTIES! ------------------------
-------------------------------------------------------------
# -----------------------------------------------------------
$ PAL_Flags
   description: The PAL Flags
   geom. index: 1
   prop. index: 1
        Diskflag:     2
# -----------------------------------------------------------
$ SCF_Energy
   description: The SCF energy
   geom. index: 1
   prop. index: 1
        SCF Energy:    -1154.3852143866
# -----------------------------------------------------------
$ Solvation_Details
   description: Details concerning solvation
   geom. index: 1
   prop. index: 1
     Epsilon:                7.2500000000
     Refrac:                 1.4070000000
     RSolv:                  1.3000000000
     Surface Type:                      2
     Number of Points:               1532
     Surface Area:        1001.3935973292
     Dielectric Energy:     -0.0136120708
# -----------------------------------------------------------
$ Mayer_Pop
   description: The Mayer population analysis
   geom. index: 1
   prop. index: 1
     Number of atoms                     : 28
     Threshold for printing              : 0.1000000
     Number of bond orders printed       : 30
  NA   - Mulliken gross atomic population
  ZA   - Total nuclear charge
  QA   - Mulliken gross atomic charge
  VA   - Mayer's total valence
  BVA  - Mayer's bonded valence
  FA   - Mayer's free valence
  ATOM       NA         ZA         QA         VA         BVA        FA
  0   0     6.1651     6.0000    -0.1651     3.7658     3.7658    -0.0000
  1   0     6.1621     6.0000    -0.1621     3.8188     3.8188    -0.0000
  2   0     6.1592     6.0000    -0.1592     3.7886     3.7886    -0.0000
  3   0     5.9357     6.0000     0.0643     3.7148     3.7148    -0.0000
  4   0     6.1718     6.0000    -0.1718     3.8281     3.8281     0.0000
  5   0     6.1656     6.0000    -0.1656     3.7646     3.7646    -0.0000
  6   0     0.8189     1.0000     0.1811     0.9888     0.9888    -0.0000
  7   0     5.7128     6.0000     0.2872     4.0778     4.0778    -0.0000
  8   0     0.8173     1.0000     0.1827     0.9665     0.9665     0.0000
  9   0     0.8152     1.0000     0.1848     0.9668     0.9668    -0.0000
 10   0     0.8137     1.0000     0.1863     0.9836     0.9836    -0.0000
 11   0     0.8177     1.0000     0.1823     0.9670     0.9670    -0.0000
 12   0     7.1558     7.0000    -0.1558     2.8383     2.8383     0.0000
 13   0     8.3999     8.0000    -0.3999     1.8575     1.8575     0.0000
 14   0     8.4472     8.0000    -0.4472     2.0131     2.0131    -0.0000
 15   0    15.2117    16.0000     0.7883     3.6970     3.6970     0.0000
 16   0     7.4127     7.0000    -0.4127     3.0272     3.0272     0.0000
 17   0     5.7847     6.0000     0.2153     3.7884     3.7884    -0.0000
 18   0     6.1781     6.0000    -0.1781     3.7958     3.7958     0.0000
 19   0     6.1610     6.0000    -0.1610     3.7781     3.7781     0.0000
 20   0     6.1843     6.0000    -0.1843     3.7917     3.7917    -0.0000
 21   0     6.1711     6.0000    -0.1711     3.7959     3.7959    -0.0000
 22   0     6.2465     6.0000    -0.2465     3.7758     3.7758    -0.0000
 23   0     0.8245     1.0000     0.1755     0.9864     0.9864     0.0000
 24   0     0.8186     1.0000     0.1814     0.9659     0.9659     0.0000
 25   0     0.8198     1.0000     0.1802     0.9679     0.9679    -0.0000
 26   0     0.8172     1.0000     0.1828     0.9677     0.9677     0.0000
 27   0     0.8115     1.0000     0.1885     0.9772     0.9772    -0.0000
      Bond orders larger than 0.1000000
           Atom A     A.N. of A          Atom B    A.N. of B              Bond order
                0             6               1            6                1.395916
                0             6               2            6                1.345356
                0             6               8            1                0.970110
                1             6               3            6                1.312260
                1             6               6            1                0.960892
                2             6               5            6                1.374255
                2             6               9            1                0.968817
                3             6               4            6                1.344000
                3             6               7            6                1.062389
                4             6               5            6                1.365858
                4             6              10            1                0.958694
                5             6              11            1                0.970306
                7             6              12            7                1.830880
                7             6              14            8                1.150665
               12             7              13            8                0.871821
               13             8              15           16                0.878264
               14             8              15           16                0.761770
               15            16              16            7                1.904780
               16             7              17            6                1.030295
               17             6              18            6                1.332370
               17             6              22            6                1.328666
               18             6              19            6                1.388853
               18             6              23            1                0.963971
               19             6              20            6                1.362293
               19             6              24            1                0.967820
               20             6              21            6                1.371256
               20             6              25            1                0.970332
               21             6              22            6                1.377393
               21             6              26            1                0.968127
               22             6              27            1                0.951067
# -----------------------------------------------------------
$ MDCI_Energies
   description: The MDCI energies
   geom. index: 1
   prop. index: 1
        Total number of Electrons                                                    134
        Number of correlated Electrons                                                90
        Number of alpha correlated Electrons                                          45
        Number of beta correlated Electrons                                           45
        Reference Energy:                                               -1154.3852143409
        Total Correlation Energy:                                          -3.2929892962
        Alpha-Alpha Pairs Correlation Energy (No (T))                       0.0000000000
        Beta-Beta Pairs Correlation Energy (No (T))                         0.0000000000
        Alpha-Beta Pairs Correlation Energy (No (T))                        0.0000000000
        Singlet pairs energy of double amplitudes (No (T))                  0.0000000000
        Triplet pairs energy of double amplitudes (No (T))                  0.0000000000
        Singlet pairs energy of quadratic single amplitudes (No (T))        0.0000000000
        Triplet pairs energy of quadratic single amplitudes (No (T))        0.0000000000
        Triples Correction Energy:                                         -0.1670777918
        Total MDCI Energy:                                              -1157.6782036371
# -----------------------------------------------------------
$ PAL_Flags
   description: The PAL Flags
   geom. index: 2
   prop. index: 1
        Diskflag:     2
# -----------------------------------------------------------
$ SCF_Energy
   description: The SCF energy
   geom. index: 2
   prop. index: 1
        SCF Energy:    -1154.4422791835
# -----------------------------------------------------------
$ Solvation_Details
   description: Details concerning solvation
   geom. index: 2
   prop. index: 1
     Epsilon:                7.2500000000
     Refrac:                 1.4070000000
     RSolv:                  1.3000000000
     Surface Type:                      2
     Number of Points:               1532
     Surface Area:        1001.3935973292
     Dielectric Energy:     -0.0134958637
# -----------------------------------------------------------
$ Mayer_Pop
   description: The Mayer population analysis
   geom. index: 2
   prop. index: 1
     Number of atoms                     : 28
     Threshold for printing              : 0.1000000
     Number of bond orders printed       : 30
  NA   - Mulliken gross atomic population
  ZA   - Total nuclear charge
  QA   - Mulliken gross atomic charge
  VA   - Mayer's total valence
  BVA  - Mayer's bonded valence
  FA   - Mayer's free valence
  ATOM       NA         ZA         QA         VA         BVA        FA
  0   0     6.1475     6.0000    -0.1475     3.7821     3.7821    -0.0000
  1   0     6.1453     6.0000    -0.1453     3.7820     3.7820    -0.0000
  2   0     6.1618     6.0000    -0.1618     3.8106     3.8106    -0.0000
  3   0     6.0593     6.0000    -0.0593     3.7460     3.7460    -0.0000
  4   0     6.1503     6.0000    -0.1503     3.7908     3.7908    -0.0000
  5   0     6.1485     6.0000    -0.1485     3.7848     3.7848    -0.0000
  6   0     0.8130     1.0000     0.1870     0.9961     0.9961    -0.0000
  7   0     5.5940     6.0000     0.4060     4.0798     4.0798    -0.0000
  8   0     0.8112     1.0000     0.1888     0.9679     0.9679     0.0000
  9   0     0.8056     1.0000     0.1944     0.9685     0.9685    -0.0000
 10   0     0.8128     1.0000     0.1872     0.9953     0.9953    -0.0000
 11   0     0.8117     1.0000     0.1883     0.9687     0.9687     0.0000
 12   0     7.1997     7.0000    -0.1997     2.8744     2.8744    -0.0000
 13   0     8.4255     8.0000    -0.4255     1.8457     1.8457    -0.0000
 14   0     8.4902     8.0000    -0.4902     1.9736     1.9736    -0.0000
 15   0    15.0758    16.0000     0.9242     3.6960     3.6960    -0.0000
 16   0     7.5941     7.0000    -0.5941     2.9126     2.9126     0.0000
 17   0     5.7960     6.0000     0.2040     3.7793     3.7793    -0.0000
 18   0     6.1594     6.0000    -0.1594     3.8158     3.8158    -0.0000
 19   0     6.1590     6.0000    -0.1590     3.8216     3.8216    -0.0000
 20   0     6.1646     6.0000    -0.1646     3.8010     3.8010     0.0000
 21   0     6.1831     6.0000    -0.1831     3.7950     3.7950     0.0000
 22   0     6.2113     6.0000    -0.2113     3.7621     3.7621    -0.0000
 23   0     0.8153     1.0000     0.1847     0.9923     0.9923    -0.0000
 24   0     0.8066     1.0000     0.1934     0.9639     0.9639    -0.0000
 25   0     0.8131     1.0000     0.1869     0.9718     0.9718     0.0000
 26   0     0.8105     1.0000     0.1895     0.9693     0.9693     0.0000
 27   0     0.8345     1.0000     0.1655     0.9970     0.9970    -0.0000
      Bond orders larger than 0.1000000
           Atom A     A.N. of A          Atom B    A.N. of B              Bond order
                0             6               1            6                1.418828
                0             6               2            6                1.371575
                0             6               8            1                0.971351
                1             6               3            6                1.285172
                1             6               6            1                0.967001
                2             6               5            6                1.400607
                2             6               9            1                0.972731
                3             6               4            6                1.306339
                3             6               7            6                1.142891
                4             6               5            6                1.389395
                4             6              10            1                0.967915
                5             6              11            1                0.971737
                7             6              12            7                1.840973
                7             6              14            8                1.110945
               12             7              13            8                0.877801
               13             8              15           16                0.891084
               14             8              15           16                0.766329
               15            16              16            7                1.888981
               16             7              17            6                0.998292
               17             6              18            6                1.348525
               17             6              22            6                1.333828
               18             6              19            6                1.416136
               18             6              23            1                0.967969
               19             6              20            6                1.394794
               19             6              24            1                0.964891
               20             6              21            6                1.392914
               20             6              25            1                0.975860
               21             6              22            6                1.377435
               21             6              26            1                0.966882
               22             6              27            1                0.972925
# -----------------------------------------------------------
$ MDCI_Energies
   description: The MDCI energies
   geom. index: 2
   prop. index: 1
        Total number of Electrons                                                    134
        Number of correlated Electrons                                                90
        Number of alpha correlated Electrons                                          45
        Number of beta correlated Electrons                                           45
        Reference Energy:                                               -1154.4422792239
        Total Correlation Energy:                                          -3.4802029291
        Alpha-Alpha Pairs Correlation Energy (No (T))                       0.0000000000
        Beta-Beta Pairs Correlation Energy (No (T))                         0.0000000000
        Alpha-Beta Pairs Correlation Energy (No (T))                        0.0000000000
        Singlet pairs energy of double amplitudes (No (T))                  0.0000000000
        Triplet pairs energy of double amplitudes (No (T))                  0.0000000000
        Singlet pairs energy of quadratic single amplitudes (No (T))        0.0000000000
        Triplet pairs energy of quadratic single amplitudes (No (T))        0.0000000000
        Triples Correction Energy:                                         -0.1813418872
        Total MDCI Energy:                                              -1157.9224821530
# -----------------------------------------------------------
$ Energy_Extrapolation
   description: The Extrapolation of the energies
   geom. index: 2
   prop. index: 1
       Do EP1                            : 1 
       Do EP2                            : 0 
       Do EP3                            : 0 
       Number of energies                : 2 
       SCF energy with basis  cc-pVTZ :  -1154.3852143409 
       SCF energy with basis  cc-pVQZ :  -1154.4422792239 
       CBS SCF Energy                    :  -1154.4594730970 
       Correlation energy with basis  cc-pVTZ :  -1154.3852143409 
       Correlation energy with basis  cc-pVQZ :  -1154.4422792239 
       CBS Correlation Energy            :     -3.6134783455 
       CBS Total Energy                  :  -1158.0729514426 
# -----------------------------------------------------------
$ Calculation_Info
   description: Details of the calculation
   geom. index: 2
   prop. index: 1
     Multiplicity:                          1
     Charge:                                0
     number of atoms:                       28
     number of electrons:                   134
     number of frozen core electrons:       1
     number of correlated electrons:        0
     number of basis functions:             684
     number of aux C basis functions:       2952
     number of aux J basis functions:       0
     number of aux JK basis functions:      0
     number of aux CABS basis functions:    0
     Total Energy                           0.000000
# -----------------------------------------------------------
$ SCF_Electric_Properties
   description: The SCF Calculated Electric Properties
   geom. index: 2
   prop. index: 1
       Filename                          : /scratch/obeletsan/orcajob__14456-FdvJ/int_thf.scfp 
       Do Dipole Moment Calculation      : true 
       Do Quadrupole Moment Calculation  : false 
       Do Polarizability Calculation     : false 
** Dipole moment part of electric properties **
        Magnitude of dipole moment (Debye) :        3.9520127909
        Electronic Contribution:
                  0    
      0       1.944603
      1      10.614257
      2       7.110234
        Nuclear Contribution:
                  0    
      0      -2.048440
      1     -12.158539
      2      -6.962437
        Total Dipole moment:
                  0    
      0      -0.103837
      1      -1.544282
      2       0.147797
# -------------------------------------------------------------
----------------------- !GEOMETRIES! ------------------------
# -------------------------------------------------------------
------------------------ !GEOMETRY! -------------------------
    Number of atoms:    28 
    Geometry Index:     1 
    Coordinates:
               0 C     -4.021821000000   -1.164323000000    0.385275000000
               1 C     -3.193325000000   -0.051818000000    0.403027000000
               2 C     -3.653061000000   -2.329034000000    1.059841000000
               3 C     -1.976779000000   -0.100572000000    1.097990000000
               4 C     -1.608481000000   -1.266841000000    1.777650000000
               5 C     -2.447755000000   -2.375759000000    1.754479000000
               6 H     -3.484066000000    0.856346000000   -0.115095000000
               7 C     -1.088870000000    1.065205000000    1.113138000000
               8 H     -4.964058000000   -1.122360000000   -0.153261000000
               9 H     -4.307272000000   -3.196000000000    1.044890000000
              10 H     -0.667270000000   -1.306141000000    2.315802000000
              11 H     -2.156279000000   -3.279259000000    2.281908000000
              12 N     -1.257786000000    2.082134000000    0.333817000000
              13 O     -0.259076000000    3.027699000000    0.557176000000
              14 O     -0.039667000000    1.047351000000    1.953670000000
              15 S      1.096544000000    2.439142000000    1.585357000000
              16 N      2.330866000000    1.987842000000    0.812825000000
              17 C      2.527680000000    1.217356000000   -0.341553000000
              18 C      3.864832000000    0.977982000000   -0.689779000000
              19 C      4.164537000000    0.220319000000   -1.813336000000
              20 C      3.139851000000   -0.304746000000   -2.599087000000
              21 C      1.811103000000   -0.063115000000   -2.254738000000
              22 C      1.495976000000    0.693902000000   -1.133214000000
              23 H      4.652928000000    1.391736000000   -0.068032000000
              24 H      5.202529000000    0.038094000000   -2.075831000000
              25 H      3.375288000000   -0.898685000000   -3.477168000000
              26 H      1.008037000000   -0.466441000000   -2.864855000000
              27 H      0.455392000000    0.879987000000   -0.890898000000
------------------------ !GEOMETRY! -------------------------
    Number of atoms:    28 
    Geometry Index:     2 
    Coordinates:
               0 C     -4.021821000000   -1.164323000000    0.385275000000
               1 C     -3.193325000000   -0.051818000000    0.403027000000
               2 C     -3.653061000000   -2.329034000000    1.059841000000
               3 C     -1.976779000000   -0.100572000000    1.097990000000
               4 C     -1.608481000000   -1.266841000000    1.777650000000
               5 C     -2.447755000000   -2.375759000000    1.754479000000
               6 H     -3.484066000000    0.856346000000   -0.115095000000
               7 C     -1.088870000000    1.065205000000    1.113138000000
               8 H     -4.964058000000   -1.122360000000   -0.153261000000
               9 H     -4.307272000000   -3.196000000000    1.044890000000
              10 H     -0.667270000000   -1.306141000000    2.315802000000
              11 H     -2.156279000000   -3.279259000000    2.281908000000
              12 N     -1.257786000000    2.082134000000    0.333817000000
              13 O     -0.259076000000    3.027699000000    0.557176000000
              14 O     -0.039667000000    1.047351000000    1.953670000000
              15 S      1.096544000000    2.439142000000    1.585357000000
              16 N      2.330866000000    1.987842000000    0.812825000000
              17 C      2.527680000000    1.217356000000   -0.341553000000
              18 C      3.864832000000    0.977982000000   -0.689779000000
              19 C      4.164537000000    0.220319000000   -1.813336000000
              20 C      3.139851000000   -0.304746000000   -2.599087000000
              21 C      1.811103000000   -0.063115000000   -2.254738000000
              22 C      1.495976000000    0.693902000000   -1.133214000000
              23 H      4.652928000000    1.391736000000   -0.068032000000
              24 H      5.202529000000    0.038094000000   -2.075831000000
              25 H      3.375288000000   -0.898685000000   -3.477168000000
              26 H      1.008037000000   -0.466441000000   -2.864855000000
              27 H      0.455392000000    0.879987000000   -0.890898000000
