!DLPNO-CCSD(T) Extrapolate(3/4,cc) cc-pVQZ/C TightPNO TightSCF 
!CPCM(THF)
%geom maxiter 300 end
%maxcore 4000 
%pal nprocs 36
end

*xyz 0 1
6       -4.021821000     -1.164323000      0.385275000
6       -3.193325000     -0.051818000      0.403027000
6       -3.653061000     -2.329034000      1.059841000
6       -1.976779000     -0.100572000      1.097990000
6       -1.608481000     -1.266841000      1.777650000
6       -2.447755000     -2.375759000      1.754479000
1       -3.484066000      0.856346000     -0.115095000
6       -1.088870000      1.065205000      1.113138000
1       -4.964058000     -1.122360000     -0.153261000
1       -4.307272000     -3.196000000      1.044890000
1       -0.667270000     -1.306141000      2.315802000
1       -2.156279000     -3.279259000      2.281908000
7       -1.257786000      2.082134000      0.333817000
8       -0.259076000      3.027699000      0.557176000
8       -0.039667000      1.047351000      1.953670000
16       1.096544000      2.439142000      1.585357000
7        2.330866000      1.987842000      0.812825000
6        2.527680000      1.217356000     -0.341553000
6        3.864832000      0.977982000     -0.689779000
6        4.164537000      0.220319000     -1.813336000
6        3.139851000     -0.304746000     -2.599087000
6        1.811103000     -0.063115000     -2.254738000
6        1.495976000      0.693902000     -1.133214000
1        4.652928000      1.391736000     -0.068032000
1        5.202529000      0.038094000     -2.075831000
1        3.375288000     -0.898685000     -3.477168000
1        1.008037000     -0.466441000     -2.864855000
1        0.455392000      0.879987000     -0.890898000

*
