16
Coordinates from ORCA-job mol
  C   -0.06864651741533     -0.21621741159723      0.35543893142865
  C   0.75727881501900      0.89958698827534      0.41575694829544
  C   0.48842603977482     -1.48446181496388      0.41460807008437
  C   2.15565709438745      0.77803342114956      0.53504602241484
  C   2.69500560801022     -0.52140936482316      0.59202630550821
  C   1.87059578446349     -1.63253629476101      0.53282340803272
  N   0.13276523213233      2.22486724172225      0.35144051957976
  C   3.03508840194469      1.87806520649426      0.59683754526897
  H   -1.13885854243126     -0.07586570933194      0.26353611139830
  H   -0.15506171063383     -2.35681247468851      0.36855361636383
  H   3.76999941155767     -0.63349587733282      0.68315620590359
  H   2.31023713542217     -2.62417574914902      0.57906461605533
  N   3.99531943950590      2.53643337569645      0.66340642547025
  O   4.93248562589341      3.28885018027545      0.73127316934344
  O   -1.08587521909380      2.27732403105266      0.22727192605049
  O   0.86317340146305      3.20834425198159      0.42537017880180
