14
Coordinates from ORCA-job inp
  C   -0.04818122274739     -0.03879432128547      0.35563999205334
  C   0.85058603537598      1.02475846682877      0.41893016252817
  C   0.41139233694080     -1.36026996367962      0.40860078034764
  C   2.23544281864378      0.77026779025993      0.53746037173260
  C   2.69410326562286     -0.56341436460974      0.59030102220954
  C   1.78237507878914     -1.61637122786985      0.52583563329886
  H   0.49752518911295      2.05809033786271      0.37827026617588
  C   3.16001777398663      1.85161556087350      0.60298899454765
  H   -1.11863105926642      0.16644274582110      0.26404020526671
  H   -0.29917819460096     -2.18997481139828      0.35840472127133
  H   3.76558236989921     -0.75663370103652      0.68206574044238
  H   2.14610180542358     -2.64696391425600      0.56750492079551
  N   3.73702757910942      2.87778861406311      0.64466433849482
  O   4.38213622371040      3.89175878842633      0.69129285083556
