17
Coordinates from ORCA-job orca E -948.107545223918
  C      -0.097061     -0.015883     -0.033737
  C       0.792906      1.033485     -0.257655
  C       0.359954     -1.226644      0.503825
  C       2.158779      0.864524      0.059671
  C       2.621426     -0.352166      0.598465
  C       1.714844     -1.389686      0.817618
  H       0.447197      1.973496     -0.673008
  C       3.078819      1.929674     -0.168391
  H      -1.146168      0.110771     -0.277289
  H      -0.338272     -2.038533      0.676989
  H       3.672993     -0.452178      0.833571
  H       2.067550     -2.326854      1.233728
  N       3.472306      2.986648     -0.547707
  O       4.397893      3.859767     -0.669818
  O       5.042288      1.417287      0.786848
  S       6.197509      2.473943      0.262882
  O       6.931436      1.949350     -1.075294
17
Coordinates from ORCA-job orca E -948.126348577641
  C      -0.073702     -0.001365     -0.034943
  C       0.822052      1.040016     -0.254963
  C       0.371663     -1.214671      0.501099
  C       2.183311      0.858221      0.064908
  C       2.634848     -0.359417      0.601587
  C       1.721938     -1.388516      0.817259
  H       0.485813      1.984266     -0.669422
  C       3.112840      1.912399     -0.157322
  H      -1.121608      0.134537     -0.281065
  H      -0.333998     -2.021254      0.671438
  H       3.686442     -0.465747      0.838484
  H       2.066606     -2.329264      1.233151
  N       3.447542      2.983131     -0.562042
  O       4.386070      3.826448     -0.665972
  O       5.015348      1.433865      0.758039
  S       6.131414      2.452877      0.247123
  O       6.837820      1.951474     -1.036659
17
Coordinates from ORCA-job orca E -948.135169079791
  C      -0.049973      0.013092     -0.036444
  C       0.853179      1.045375     -0.251005
  C       0.380867     -1.203471      0.497783
  C       2.209762      0.849862      0.072051
  C       2.647074     -0.371143      0.607553
  C       1.725588     -1.390184      0.818069
  H       0.527582      1.994164     -0.664442
  C       3.146442      1.896123     -0.146610
  H      -1.096141      0.159606     -0.286299
  H      -0.333317     -2.003973      0.663825
  H       3.696882     -0.488572      0.848215
  H       2.060423     -2.335144      1.233624
  N       3.424260      2.979640     -0.576587
  O       4.376394      3.795012     -0.661571
  O       4.986835      1.460174      0.729753
  S       6.066693      2.436047      0.229110
  O       6.751848      1.960390     -1.006328
17
Coordinates from ORCA-job orca E -948.136099469021
  C      -0.047590      0.022013     -0.025765
  C       0.864698      1.041820     -0.248117
  C       0.370802     -1.197917      0.505223
  C       2.221253      0.829270      0.058754
  C       2.646165     -0.397311      0.589439
  C       1.713989     -1.401475      0.811461
  H       0.546643      1.995795     -0.655937
  C       3.160335      1.871006     -0.164313
  H      -1.094589      0.183111     -0.264142
  H      -0.352517     -1.988253      0.681588
  H       3.694390     -0.540886      0.821726
  H       2.041387     -2.350013      1.225888
  N       3.444139      2.947185     -0.606681
  O       4.385981      3.762679     -0.670512
  O       4.991700      1.527767      0.756965
  S       6.048668      2.479246      0.241792
  O       6.738944      2.012967     -0.986672
17
Coordinates from ORCA-job orca E -948.135827191884
  C      -0.051771      0.033616     -0.000766
  C       0.867412      1.042027     -0.246328
  C       0.364436     -1.189654      0.525330
  C       2.229125      0.809887      0.021272
  C       2.652300     -0.421017      0.538104
  C       1.713127     -1.410298      0.794137
  H       0.551362      2.000691     -0.644643
  C       3.174903      1.840258     -0.211820
  H      -1.102636      0.208448     -0.210878
  H      -0.364610     -1.967995      0.729481
  H       3.704320     -0.584913      0.741777
  H       2.039832     -2.360051      1.206366
  N       3.469813      2.904523     -0.674506
  O       4.397704      3.740584     -0.701075
  O       4.965960      1.571310      0.834373
  S       6.038611      2.525494      0.290472
  O       6.724510      2.054090     -0.920596
17
Coordinates from ORCA-job orca E -948.135122831840
  C      -0.044272      0.048225      0.021784
  C       0.880230      1.046936     -0.241449
  C       0.369679     -1.178752      0.541068
  C       2.245178      0.796239     -0.009921
  C       2.666693     -0.440814      0.493445
  C       1.721695     -1.416572      0.777904
  H       0.567128      2.010049     -0.631329
  C       3.196752      1.818005     -0.253822
  H      -1.097475      0.234584     -0.165729
  H      -0.364326     -1.946586      0.766399
  H       3.722201     -0.613635      0.672081
  H       2.045215     -2.368481      1.187581
  N       3.479470      2.876611     -0.743374
  O       4.391662      3.732856     -0.720750
  O       4.920689      1.622568      0.895730
  S       5.981865      2.540870      0.352166
  O       6.692013      2.034896     -0.871086
17
Coordinates from ORCA-job orca E -948.135155496610
  C      -0.038352      0.064144      0.048061
  C       0.894983      1.049354     -0.234253
  C       0.369160     -1.168689      0.558034
  C       2.261674      0.776396     -0.040364
  C       2.675713     -0.469253      0.450064
  C       1.722722     -1.428496      0.761387
  H       0.587718      2.018021     -0.615006
  C       3.219864      1.789723     -0.298271
  H      -1.092676      0.265850     -0.115598
  H      -0.371237     -1.924243      0.803147
  H       3.732084     -0.657081      0.606260
  H       2.039964     -2.384320      1.166800
  N       3.498036      2.841742     -0.810379
  O       4.383287      3.726989     -0.750058
  O       4.867585      1.664318      0.944801
  S       5.959479      2.581409      0.382724
  O       6.664395      2.051137     -0.786653
17
Coordinates from ORCA-job orca E -948.134868985711
  C      -0.030899      0.078375      0.071831
  C       0.909311      1.051831     -0.226672
  C       0.371706     -1.160539      0.570319
  C       2.276535      0.761117     -0.064055
  C       2.684589     -0.491799      0.414768
  C       1.725797     -1.438848      0.744872
  H       0.607118      2.025647     -0.598308
  C       3.237041      1.769089     -0.335021
  H      -1.085711      0.293274     -0.070442
  H      -0.373079     -1.907339      0.828770
  H       3.740587     -0.695031      0.553436
  H       2.038015     -2.399359      1.142996
  N       3.505440      2.816293     -0.865453
  O       4.361757      3.727733     -0.772797
  O       4.822484      1.733150      0.980186
  S       5.919573      2.616039      0.422964
  O       6.664138      2.017368     -0.726696
17
Coordinates from ORCA-job orca E -948.136045980085
  C      -0.037690      0.069739      0.068134
  C       0.895195      1.056958     -0.208022
  C       0.372664     -1.172382      0.551441
  C       2.262837      0.781717     -0.025920
  C       2.678997     -0.470835      0.447886
  C       1.727146     -1.436161      0.743610
  H       0.586315      2.031373     -0.572399
  C       3.217529      1.795392     -0.301512
  H      -1.093026      0.274954     -0.084088
  H      -0.366194     -1.934060      0.781850
  H       3.735714     -0.663762      0.594785
  H       2.045751     -2.401175      1.125512
  N       3.489798      2.830496     -0.853190
  O       4.381662      3.710458     -0.824204
  O       4.835054      1.727033      0.952242
  S       5.937971      2.609985      0.390212
  O       6.704676      1.987272     -0.715638
17
Coordinates from ORCA-job orca E -948.136477739385
  C      -0.046440      0.063355      0.075031
  C       0.876589      1.064131     -0.185719
  C       0.376210     -1.182299      0.537830
  C       2.246204      0.801443     -0.001641
  C       2.674522     -0.451560      0.461206
  C       1.732646     -1.433431      0.733235
  H       0.558123      2.040305     -0.536848
  C       3.194264      1.820275     -0.281942
  H      -1.103656      0.259834     -0.075388
  H      -0.354579     -1.957242      0.749000
  H       3.733072     -0.633299      0.608641
  H       2.060672     -2.402224      1.097276
  N       3.485507      2.830721     -0.867242
  O       4.406552      3.679799     -0.893862
  O       4.833570      1.734260      0.940814
  S       5.946374      2.609707      0.380408
  O       6.754770      1.953226     -0.670100
17
Coordinates from ORCA-job orca E -948.136544365313
  C      -0.049620      0.065257      0.089102
  C       0.870349      1.069192     -0.170779
  C       0.378345     -1.183861      0.537390
  C       2.241450      0.806105     -0.000683
  C       2.675016     -0.449610      0.450091
  C       1.736612     -1.435137      0.720365
  H       0.548237      2.048140     -0.510768
  C       3.187721      1.825572     -0.284827
  H      -1.108341      0.261953     -0.050227
  H      -0.349839     -1.961605      0.747389
  H       3.735146     -0.630373      0.587411
  H       2.068484     -2.406797      1.073052
  N       3.491425      2.814799     -0.899635
  O       4.422417      3.653069     -0.942969
  O       4.812931      1.752460      0.945788
  S       5.934854      2.623346      0.393092
  O       6.779214      1.944492     -0.613093
17
Coordinates from ORCA-job orca E -948.136575128863
  C      -0.051548      0.070774      0.109582
  C       0.867827      1.073451     -0.157713
  C       0.379445     -1.182299      0.543617
  C       2.240285      0.804254     -0.011582
  C       2.676810     -0.455257      0.425565
  C       1.739636     -1.439337      0.704455
  H       0.544070      2.055867     -0.485964
  C       3.186876      1.820952     -0.303411
  H      -1.111685      0.271531     -0.011916
  H      -0.347951     -1.958979      0.760252
  H       3.738546     -0.639555      0.546033
  H       2.073382     -2.414148      1.046503
  N       3.505967      2.788622     -0.944239
  O       4.438090      3.626060     -0.988352
  O       4.784150      1.781943      0.962227
  S       5.915593      2.646419      0.418297
  O       6.794907      1.946704     -0.542656
17
Coordinates from ORCA-job orca E -948.136594878902
  C      -0.051496      0.077745      0.130793
  C       0.868803      1.076905     -0.146847
  C       0.380348     -1.179400      0.551922
  C       2.241808      0.799367     -0.025712
  C       2.679083     -0.464327      0.398459
  C       1.741767     -1.444690      0.688881
  H       0.545162      2.062810     -0.464614
  C       3.190307      1.811465     -0.326197
  H      -1.112485      0.284365      0.028094
  H      -0.347406     -1.953227      0.777463
  H       3.741891     -0.654532      0.500531
  H       2.075705     -2.422790      1.021189
  N       3.521567      2.761545     -0.987324
  O       4.451728      3.602226     -1.026526
  O       4.751841      1.816517      0.980408
  S       5.893273      2.672291      0.443144
  O       6.802505      1.950730     -0.472965
17
Coordinates from ORCA-job orca E -948.136602836683
  C      -0.050420      0.082027      0.141949
  C       0.871237      1.078219     -0.141976
  C       0.380514     -1.177550      0.556561
  C       2.244130      0.795292     -0.033604
  C       2.680381     -0.470981      0.384394
  C       1.742099     -1.448465      0.680976
  H       0.548634      2.066058     -0.454751
  C       3.194126      1.804518     -0.339173
  H      -1.111520      0.292742      0.049266
  H      -0.348128     -1.949138      0.786891
  H       3.743307     -0.665665      0.476847
  H       2.075096     -2.428605      1.008164
  N       3.529190      2.747920     -1.008290
  O       4.456585      3.592260     -1.044399
  O       4.734588      1.838314      0.990831
  S       5.881235      2.687736      0.454572
  O       6.803346      1.952317     -0.437559
17
Coordinates from ORCA-job orca E -948.136604649524
  C      -0.049748      0.083484      0.145272
  C       0.872472      1.078471     -0.141088
  C       0.380653     -1.176807      0.558240
  C       2.245254      0.793710     -0.036445
  C       2.680931     -0.473310      0.380102
  C       1.742206     -1.449679      0.678839
  H       0.550364      2.066837     -0.452699
  C       3.195964      1.801690     -0.343985
  H      -1.110827      0.295638      0.055700
  H      -0.348402     -1.947501      0.790267
  H       3.743850     -0.669453      0.469606
  H       2.074727     -2.430436      1.004659
  N       3.531117      2.744547     -1.013978
  O       4.457117      3.590652     -1.048354
  O       4.728916      1.845070      0.994011
  S       5.877379      2.692104      0.457916
  O       6.802426      1.951985     -0.427367
17
Coordinates from ORCA-job orca E -948.136605346803
  C      -0.049597      0.083098      0.143627
  C       0.872665      1.077947     -0.143066
  C       0.380602     -1.176710      0.558306
  C       2.245400      0.793629     -0.036505
  C       2.680882     -0.472881      0.381797
  C       1.742073     -1.449181      0.680515
  H       0.550626      2.065881     -0.456105
  C       3.196408      1.801326     -0.344011
  H      -1.110630      0.294984      0.052863
  H      -0.348547     -1.947297      0.790382
  H       3.743773     -0.668516      0.472638
  H       2.074497     -2.429554      1.007591
  N       3.529175      2.747877     -1.009932
  O       4.454388      3.594799     -1.042893
  O       4.731384      1.840607      0.991743
  S       5.878968      2.689278      0.456475
  O       6.802332      1.951714     -0.432727
