-------------------------------------------------------------
----------------------- !PROPERTIES! ------------------------
-------------------------------------------------------------
# -----------------------------------------------------------
$ PAL_Flags
   description: The PAL Flags
   geom. index: 1
   prop. index: 1
        Diskflag:     2
# -----------------------------------------------------------
$ SCF_Energy
   description: The SCF energy
   geom. index: 1
   prop. index: 1
        SCF Energy:    -1407.7633307649
# -----------------------------------------------------------
$ DFT_Energy
   description: The DFT energy
   geom. index: 1
   prop. index: 1
   Number of Alpha Electrons                 54.9999808399 
   Number of Beta  Electrons                 54.9999808399 
   Total number of  Electrons               109.9999616799 
   Exchange energy                         -121.7460214408 
   Correlation energy                        -3.8354570276 
   Correlation energy NL                      0.0000000000 
   Exchange-Correlation energy             -125.5814784684 
   Embedding correction                       0.0000000000 
   Total DFT Energy (No VdW correction)   -1407.7633307649 
# -----------------------------------------------------------
$ VdW_Correction
   description: The Van der Waals Correction
   geom. index: 1
   prop. index: 1
        Van der Waals Correction:       -0.0069571641
# -----------------------------------------------------------
$ PAL_Flags
   description: The PAL Flags
   geom. index: 2
   prop. index: 1
        Diskflag:     2
# -----------------------------------------------------------
$ SCF_Energy
   description: The SCF energy
   geom. index: 2
   prop. index: 1
        SCF Energy:    -1407.7942246597
# -----------------------------------------------------------
$ DFT_Energy
   description: The DFT energy
   geom. index: 2
   prop. index: 1
   Number of Alpha Electrons                 54.9999839547 
   Number of Beta  Electrons                 54.9999839547 
   Total number of  Electrons               109.9999679094 
   Exchange energy                         -121.8120652507 
   Correlation energy                        -3.8396083142 
   Correlation energy NL                      0.0000000000 
   Exchange-Correlation energy             -125.6516735649 
   Embedding correction                       0.0000000000 
   Total DFT Energy (No VdW correction)   -1407.7942246597 
# -----------------------------------------------------------
$ VdW_Correction
   description: The Van der Waals Correction
   geom. index: 2
   prop. index: 1
        Van der Waals Correction:       -0.0069681765
# -----------------------------------------------------------
$ PAL_Flags
   description: The PAL Flags
   geom. index: 3
   prop. index: 1
        Diskflag:     2
# -----------------------------------------------------------
$ SCF_Energy
   description: The SCF energy
   geom. index: 3
   prop. index: 1
        SCF Energy:    -1407.8135218985
# -----------------------------------------------------------
$ DFT_Energy
   description: The DFT energy
   geom. index: 3
   prop. index: 1
   Number of Alpha Electrons                 54.9999860819 
   Number of Beta  Electrons                 54.9999860819 
   Total number of  Electrons               109.9999721639 
   Exchange energy                         -121.8785615665 
   Correlation energy                        -3.8435733400 
   Correlation energy NL                      0.0000000000 
   Exchange-Correlation energy             -125.7221349066 
   Embedding correction                       0.0000000000 
   Total DFT Energy (No VdW correction)   -1407.8135218985 
# -----------------------------------------------------------
$ VdW_Correction
   description: The Van der Waals Correction
   geom. index: 3
   prop. index: 1
        Van der Waals Correction:       -0.0070059644
# -----------------------------------------------------------
$ PAL_Flags
   description: The PAL Flags
   geom. index: 4
   prop. index: 1
        Diskflag:     2
# -----------------------------------------------------------
$ SCF_Energy
   description: The SCF energy
   geom. index: 4
   prop. index: 1
        SCF Energy:    -1407.8166454123
# -----------------------------------------------------------
$ DFT_Energy
   description: The DFT energy
   geom. index: 4
   prop. index: 1
   Number of Alpha Electrons                 54.9999881289 
   Number of Beta  Electrons                 54.9999881289 
   Total number of  Electrons               109.9999762578 
   Exchange energy                         -121.9294712891 
   Correlation energy                        -3.8474688977 
   Correlation energy NL                      0.0000000000 
   Exchange-Correlation energy             -125.7769401868 
   Embedding correction                       0.0000000000 
   Total DFT Energy (No VdW correction)   -1407.8166454123 
# -----------------------------------------------------------
$ VdW_Correction
   description: The Van der Waals Correction
   geom. index: 4
   prop. index: 1
        Van der Waals Correction:       -0.0070392488
# -----------------------------------------------------------
$ PAL_Flags
   description: The PAL Flags
   geom. index: 5
   prop. index: 1
        Diskflag:     2
# -----------------------------------------------------------
$ SCF_Energy
   description: The SCF energy
   geom. index: 5
   prop. index: 1
        SCF Energy:    -1407.8173313411
# -----------------------------------------------------------
$ DFT_Energy
   description: The DFT energy
   geom. index: 5
   prop. index: 1
   Number of Alpha Electrons                 54.9999861247 
   Number of Beta  Electrons                 54.9999861247 
   Total number of  Electrons               109.9999722494 
   Exchange energy                         -121.9081172239 
   Correlation energy                        -3.8459736506 
   Correlation energy NL                      0.0000000000 
   Exchange-Correlation energy             -125.7540908746 
   Embedding correction                       0.0000000000 
   Total DFT Energy (No VdW correction)   -1407.8173313411 
# -----------------------------------------------------------
$ VdW_Correction
   description: The Van der Waals Correction
   geom. index: 5
   prop. index: 1
        Van der Waals Correction:       -0.0070243816
# -----------------------------------------------------------
$ PAL_Flags
   description: The PAL Flags
   geom. index: 6
   prop. index: 1
        Diskflag:     2
# -----------------------------------------------------------
$ SCF_Energy
   description: The SCF energy
   geom. index: 6
   prop. index: 1
        SCF Energy:    -1407.8173870522
# -----------------------------------------------------------
$ DFT_Energy
   description: The DFT energy
   geom. index: 6
   prop. index: 1
   Number of Alpha Electrons                 54.9999847388 
   Number of Beta  Electrons                 54.9999847388 
   Total number of  Electrons               109.9999694777 
   Exchange energy                         -121.9085096603 
   Correlation energy                        -3.8460090391 
   Correlation energy NL                      0.0000000000 
   Exchange-Correlation energy             -125.7545186994 
   Embedding correction                       0.0000000000 
   Total DFT Energy (No VdW correction)   -1407.8173870522 
# -----------------------------------------------------------
$ VdW_Correction
   description: The Van der Waals Correction
   geom. index: 6
   prop. index: 1
        Van der Waals Correction:       -0.0070228519
# -----------------------------------------------------------
$ PAL_Flags
   description: The PAL Flags
   geom. index: 7
   prop. index: 1
        Diskflag:     2
# -----------------------------------------------------------
$ SCF_Energy
   description: The SCF energy
   geom. index: 7
   prop. index: 1
        SCF Energy:    -1407.8173981385
# -----------------------------------------------------------
$ DFT_Energy
   description: The DFT energy
   geom. index: 7
   prop. index: 1
   Number of Alpha Electrons                 54.9999838205 
   Number of Beta  Electrons                 54.9999838205 
   Total number of  Electrons               109.9999676410 
   Exchange energy                         -121.9089489410 
   Correlation energy                        -3.8460467702 
   Correlation energy NL                      0.0000000000 
   Exchange-Correlation energy             -125.7549957112 
   Embedding correction                       0.0000000000 
   Total DFT Energy (No VdW correction)   -1407.8173981385 
# -----------------------------------------------------------
$ VdW_Correction
   description: The Van der Waals Correction
   geom. index: 7
   prop. index: 1
        Van der Waals Correction:       -0.0070216363
# -----------------------------------------------------------
$ PAL_Flags
   description: The PAL Flags
   geom. index: 8
   prop. index: 1
        Diskflag:     2
# -----------------------------------------------------------
$ SCF_Energy
   description: The SCF energy
   geom. index: 8
   prop. index: 1
        SCF Energy:    -1407.8173986946
# -----------------------------------------------------------
$ DFT_Energy
   description: The DFT energy
   geom. index: 8
   prop. index: 1
   Number of Alpha Electrons                 54.9999837668 
   Number of Beta  Electrons                 54.9999837668 
   Total number of  Electrons               109.9999675336 
   Exchange energy                         -121.9089889217 
   Correlation energy                        -3.8460400204 
   Correlation energy NL                      0.0000000000 
   Exchange-Correlation energy             -125.7550289422 
   Embedding correction                       0.0000000000 
   Total DFT Energy (No VdW correction)   -1407.8173986946 
# -----------------------------------------------------------
$ VdW_Correction
   description: The Van der Waals Correction
   geom. index: 8
   prop. index: 1
        Van der Waals Correction:       -0.0070210931
# -----------------------------------------------------------
$ SCF_Electric_Properties
   description: The SCF Calculated Electric Properties
   geom. index: 8
   prop. index: 1
       Filename                          : mol.scfp 
       Do Dipole Moment Calculation      : true 
       Do Quadrupole Moment Calculation  : false 
       Do Polarizability Calculation     : false 
** Dipole moment part of electric properties **
        Magnitude of dipole moment (Debye) :        1.7556078612
        Electronic Contribution:
                  0    
      0       2.196253
      1       0.606875
      2      -3.805665
        Nuclear Contribution:
                  0    
      0      -2.198605
      1      -0.016406
      2       4.163994
        Total Dipole moment:
                  0    
      0      -0.002352
      1       0.590470
      2       0.358330
# -----------------------------------------------------------
$ PAL_Flags
   description: The PAL Flags
   geom. index: 9
   prop. index: 1
        Diskflag:     2
# -----------------------------------------------------------
$ SCF_Energy
   description: The SCF energy
   geom. index: 9
   prop. index: 1
        SCF Energy:    -1407.8173987024
# -----------------------------------------------------------
$ DFT_Energy
   description: The DFT energy
   geom. index: 9
   prop. index: 1
   Number of Alpha Electrons                 54.9999837668 
   Number of Beta  Electrons                 54.9999837668 
   Total number of  Electrons               109.9999675336 
   Exchange energy                         -121.9089844408 
   Correlation energy                        -3.8460401125 
   Correlation energy NL                      0.0000000000 
   Exchange-Correlation energy             -125.7550245533 
   Embedding correction                       0.0000000000 
   Total DFT Energy (No VdW correction)   -1407.8173987024 
# -----------------------------------------------------------
$ VdW_Correction
   description: The Van der Waals Correction
   geom. index: 9
   prop. index: 1
        Van der Waals Correction:       -0.0070210931
# -----------------------------------------------------------
$ THERMOCHEMISTRY_Energies
   description: The Thermochemistry energies
   geom. index: 9
   prop. index: 1
        Temperature (Kelvin)           :        298.1500000000
        Pressure (atm)                 :          1.0000000000
        Total Mass (AMU)               :        216.9600418485
        Spin Degeneracy                :          1.0000000000
        Electronic Energy (Hartree)    :      -1407.8121297004
        Translational Energy (Hartree) :          0.0014162714
        Rotational Energy (Hartree)    :          0.0014162714
        Vibrational Energy (Hartree)   :          0.0106908751
        Number of frequencies          :     51      
        Scaling Factor for frequencies :          1.0000000000
        Vibrational frequencies        :     
                  0    
      0       0.000000
      1       0.000000
      2       0.000000
      3       0.000000
      4       0.000000
      5       0.000000
      6      10.799691
      7      20.191992
      8      39.331313
      9      52.270653
     10      57.600832
     11      68.303893
     12      97.191591
     13     123.196528
     14     186.515220
     15     235.589525
     16     237.608219
     17     399.110554
     18     442.734581
     19     445.880786
     20     476.882639
     21     501.105342
     22     552.863104
     23     574.102495
     24     646.641009
     25     680.519857
     26     703.003044
     27     783.649033
     28     840.239393
     29     879.294350
     30     899.760722
     31     974.104661
     32     1021.293986
     33     1095.979739
     34     1114.766227
     35     1123.368745
     36     1160.995544
     37     1197.032223
     38     1291.045949
     39     1298.954900
     40     1351.349419
     41     1441.950872
     42     1479.788496
     43     1536.827103
     44     1602.620112
     45     1625.717223
     46     2355.725427
     47     3179.108482
     48     3193.421717
     49     3207.722507
     50     3212.181103
        Zero Point Energy (Hartree)    :          0.1011924262
        Inner Energy (Hartree)         :      -1407.6974138562
        Enthalpy (Hartree)             :      -1407.6964696472
        Electronic entropy             :          0.0000000000
        Rotational entropy             :          0.0155704155
        Vibrational entropy            :          0.0205132610
        Translational entropy          :          0.0155704155
        Entropy                        :          0.0560518817
        Gibbs Energy (Hartree)         :      -1407.7525215289
        Is Linear                      :                 false
# -------------------------------------------------------------
----------------------- !GEOMETRIES! ------------------------
# -------------------------------------------------------------
------------------------ !GEOMETRY! -------------------------
    Number of atoms:    17 
    Geometry Index:     1 
    Coordinates:
               0 C      0.628130000000   -1.409130000000    0.023040000000
               1 C      1.379150000000   -0.807520000000   -0.977600000000
               2 C      0.642610000000   -0.868320000000    1.303240000000
               3 C      2.137690000000    0.328360000000   -0.694600000000
               4 C      2.145990000000    0.864310000000    0.596750000000
               5 C      1.396040000000    0.263360000000    1.597220000000
               6 H      1.381630000000   -1.214280000000   -1.983260000000
               7 C      3.610080000000    1.837070000000   -1.917230000000
               8 Cl    -0.256390000000   -3.108960000000   -0.513420000000
               9 H     -0.185650000000   -1.391010000000    2.278550000000
              10 H      2.738230000000    1.747850000000    0.815190000000
              11 H      1.397400000000    0.672490000000    2.601690000000
              12 N      2.878400000000    0.901110000000   -1.729920000000
              13 O      4.332230000000    2.706270000000   -2.241720000000
              14 O      4.179260000000    3.818300000000    0.800100000000
              15 S      5.522170000000    4.003460000000    0.223730000000
              16 O      6.486120000000    2.908050000000    0.390960000000
------------------------ !GEOMETRY! -------------------------
    Number of atoms:    17 
    Geometry Index:     2 
    Coordinates:
               0 C      0.632879858339   -1.402649397300    0.029201139443
               1 C      1.376740932376   -0.814178706280   -0.979224427758
               2 C      0.634554565135   -0.878830172915    1.305531842631
               3 C      2.132937675385    0.322383785903   -0.692559416310
               4 C      2.139771032935    0.857315609574    0.599732307221
               5 C      1.386591117959    0.252214336187    1.597543378824
               6 H      1.377344978504   -1.224204875926   -1.983347062934
               7 C      3.603595854921    1.830177648367   -1.914062149073
               8 Cl    -0.236249881249   -3.033319755526   -0.453512701489
               9 H     -0.113705643086   -1.362702012410    2.180173929443
              10 H      2.731429763780    1.741038249995    0.819275427486
              11 H      1.385218771906    0.659362955054    2.602313665514
              12 N      2.872302947897    0.893846615347   -1.727160206811
              13 O      4.325035191516    2.699329666566   -2.237846113173
              14 O      4.171536787618    3.811848309036    0.803968523024
              15 S      5.514471013704    3.997456136117    0.227665659924
              16 O      6.478635032359    2.902321608211    0.395026204038
------------------------ !GEOMETRY! -------------------------
    Number of atoms:    17 
    Geometry Index:     3 
    Coordinates:
               0 C      0.635150200767   -1.402746444846    0.030896754120
               1 C      1.375160847051   -0.821852005820   -0.984703341746
               2 C      0.623371336423   -0.892549552186    1.311051597724
               3 C      2.128527511678    0.315890525209   -0.692134244426
               4 C      2.134038506237    0.849874067605    0.601067019282
               5 C      1.378437339203    0.241121880123    1.595366711731
               6 H      1.375660017875   -1.232463232260   -1.987687928716
               7 C      3.598713638327    1.825806857150   -1.911080829234
               8 Cl    -0.223075190862   -2.960263471668   -0.386017741332
               9 H     -0.044893320998   -1.335351972866    2.090409337414
              10 H      2.725010786241    1.733851017444    0.821496177189
              11 H      1.376760091377    0.649239072142    2.600097238753
              12 N      2.867888300134    0.888486201057   -1.725717639279
              13 O      4.319572054940    2.695672439271   -2.233461954904
              14 O      4.163888082368    3.805777117755    0.808955617809
              15 S      5.507056944922    3.992790582147    0.233646264944
              16 O      6.471822854318    2.898126919745    0.400536960671
------------------------ !GEOMETRY! -------------------------
    Number of atoms:    17 
    Geometry Index:     4 
    Coordinates:
               0 C      0.646451196505   -1.415620348706    0.028038165924
               1 C      1.385052885976   -0.834911352992   -0.991287076072
               2 C      0.614725478931   -0.907179322334    1.313801642670
               3 C      2.129341386530    0.307807249535   -0.693804090608
               4 C      2.130403438996    0.843099127900    0.598639985724
               5 C      1.369319753240    0.233062643710    1.586579765903
               6 H      1.388641261650   -1.245148694211   -1.993718033689
               7 C      3.597460536786    1.823154393870   -1.909625755582
               8 Cl    -0.242900049209   -2.851350999972   -0.333640216272
               9 H      0.002833402106   -1.354103764062    2.061677799382
              10 H      2.719183584105    1.728194363914    0.819489920113
              11 H      1.364813525839    0.645940215868    2.590222419723
              12 N      2.868989202001    0.883502219059   -1.726180999323
              13 O      4.316347626444    2.695186610793   -2.230799584000
              14 O      4.156301631368    3.804771745509    0.810888796568
              15 S      5.499916980597    3.994139369638    0.237514918259
              16 O      6.466208158137    2.900866542483    0.404922341281
------------------------ !GEOMETRY! -------------------------
    Number of atoms:    17 
    Geometry Index:     5 
    Coordinates:
               0 C      0.645792852058   -1.419778049597    0.026408804874
               1 C      1.389305386893   -0.835664432016   -0.989349006648
               2 C      0.617286889037   -0.904619107512    1.312729993916
               3 C      2.133179240807    0.307206182175   -0.692282861694
               4 C      2.132308407716    0.845067778692    0.598691270753
               5 C      1.370624514255    0.235534888989    1.585744181133
               6 H      1.395557457820   -1.246045235292   -1.991886629747
               7 C      3.600835264076    1.822910352491   -1.909102452226
               8 Cl    -0.283226501114   -2.861858433590   -0.350570251330
               9 H      0.008557502693   -1.370493535459    2.081236508726
              10 H      2.719961694119    1.730968858889    0.818721413982
              11 H      1.364804881232    0.649910894166    2.588962449775
              12 N      2.873347453608    0.882721505958   -1.724940666258
              13 O      4.319066402393    2.695295369115   -2.231284080989
              14 O      4.157018240930    3.811402834016    0.808415934278
              15 S      5.500857622842    4.000575742818    0.235580749269
              16 O      6.467812690635    2.908274386158    0.405644642189
------------------------ !GEOMETRY! -------------------------
    Number of atoms:    17 
    Geometry Index:     6 
    Coordinates:
               0 C      0.641342343784   -1.420142565084    0.023508232687
               1 C      1.388623333370   -0.835542402415   -0.989698034963
               2 C      0.616780792034   -0.905100179349    1.312216529012
               3 C      2.134460529980    0.305425085059   -0.691456060431
               4 C      2.132364087651    0.845016215793    0.598535918592
               5 C      1.371835761674    0.233540879234    1.584847952863
               6 H      1.397019734715   -1.246540625133   -1.992091639549
               7 C      3.603664244645    1.819921341650   -1.908476162801
               8 Cl    -0.298500776445   -2.852826193691   -0.349117955219
               9 H      0.019635240017   -1.379131445884    2.083122237400
              10 H      2.718943399611    1.731682158550    0.817823762996
              11 H      1.366277118749    0.648189506180    2.588161800906
              12 N      2.876369082050    0.879704564345   -1.724047366303
              13 O      4.322117848772    2.692062313728   -2.231091050284
              14 O      4.155137230883    3.816193850245    0.806190273212
              15 S      5.499729988811    4.005055630456    0.235097837555
              16 O      6.467290039700    2.913901866317    0.409193724327
------------------------ !GEOMETRY! -------------------------
    Number of atoms:    17 
    Geometry Index:     7 
    Coordinates:
               0 C      0.638446557554   -1.420321097132    0.021629011747
               1 C      1.386739709004   -0.834381708233   -0.989836858775
               2 C      0.617108335784   -0.905542280337    1.311870904140
               3 C      2.133857553681    0.305309840427   -0.691056813756
               4 C      2.131864376314    0.845603644119    0.598466309367
               5 C      1.372580430526    0.232047827689    1.584537989512
               6 H      1.396094087479   -1.245589976908   -1.992295532372
               7 C      3.605637043537    1.817419669296   -1.908071623522
               8 Cl    -0.304238205243   -2.849544032446   -0.348173410761
               9 H      0.025393873025   -1.384203295212    2.083865615000
              10 H      2.718095144777    1.732571787789    0.817162495288
              11 H      1.367244051555    0.646517401925    2.588016310486
              12 N      2.877805375832    0.877684180784   -1.723585643875
              13 O      4.324946716574    2.688878805467   -2.230739375497
              14 O      4.154504538537    3.820061628076    0.804340015726
              15 S      5.499790424593    4.007825251688    0.234587608314
              16 O      6.467219986472    2.917072353008    0.412002998979
------------------------ !GEOMETRY! -------------------------
    Number of atoms:    17 
    Geometry Index:     8 
    Coordinates:
               0 C      0.638186964776   -1.420701083509    0.021412085672
               1 C      1.386392829262   -0.834208486017   -0.989635556183
               2 C      0.617269473304   -0.905663102619    1.311809183657
               3 C      2.133695342849    0.305328858823   -0.690819788250
               4 C      2.131810479349    0.845717650142    0.598612995209
               5 C      1.372495823988    0.231725998210    1.584614570813
               6 H      1.395644100533   -1.245194080403   -1.992225974006
               7 C      3.605721874622    1.817069761224   -1.907856074959
               8 Cl    -0.304433760617   -2.850094188504   -0.348277565683
               9 H      0.025385862208   -1.384313246935    2.083298561728
              10 H      2.718070288386    1.732685970132    0.817165452512
              11 H      1.367030813322    0.646167880681    2.588110412145
              12 N      2.877881829246    0.877306315641   -1.723492325542
              13 O      4.325087781053    2.688552338331   -2.230321302003
              14 O      4.155029727389    3.821144881299    0.804170037363
              15 S      5.500307454146    4.008401311373    0.234259798972
              16 O      6.467513116186    2.917483222131    0.411895488554
------------------------ !GEOMETRY! -------------------------
    Number of atoms:    17 
    Geometry Index:     9 
    Coordinates:
               0 C      0.638186964776   -1.420701083509    0.021412085672
               1 C      1.386392829262   -0.834208486017   -0.989635556183
               2 C      0.617269473304   -0.905663102619    1.311809183657
               3 C      2.133695342849    0.305328858823   -0.690819788250
               4 C      2.131810479349    0.845717650142    0.598612995209
               5 C      1.372495823988    0.231725998210    1.584614570813
               6 H      1.395644100533   -1.245194080403   -1.992225974006
               7 C      3.605721874622    1.817069761224   -1.907856074959
               8 Cl    -0.304433760617   -2.850094188504   -0.348277565683
               9 H      0.025385862208   -1.384313246935    2.083298561728
              10 H      2.718070288386    1.732685970132    0.817165452512
              11 H      1.367030813322    0.646167880681    2.588110412145
              12 N      2.877881829246    0.877306315641   -1.723492325542
              13 O      4.325087781053    2.688552338331   -2.230321302003
              14 O      4.155029727389    3.821144881299    0.804170037363
              15 S      5.500307454146    4.008401311373    0.234259798972
              16 O      6.467513116186    2.917483222131    0.411895488554
