19
Coordinates from ORCA-job mol E -1152.625375834112
  C      -2.069031     -0.946878      0.230258
  C      -1.182494      0.057597     -0.118164
  C      -1.611664     -2.256931      0.313553
  C       0.173941     -0.208039     -0.359525
  C       0.621187     -1.532291     -0.236448
  C      -0.270710     -2.547825      0.075180
  N      -1.710729      1.429335     -0.266062
  C       1.118265      0.822028     -0.621687
  H      -3.105431     -0.692259      0.419281
  H      -2.305514     -3.050880      0.570390
  H       1.675050     -1.740991     -0.386331
  H       0.087522     -3.569655      0.150283
  N       2.060375      1.186536     -1.278490
  O       2.937700      2.072397     -1.228831
  O       1.216997      2.153140      0.870964
  S       2.579951      2.839176      0.895212
  O       3.621376      2.100787      1.633993
  O      -2.740176      1.696263      0.336687
  O      -1.096614      2.188490     -1.000263
19
Coordinates from ORCA-job mol E -1152.623409392255
  C      -2.096558     -0.956310      0.206815
  C      -1.210004      0.050828     -0.133854
  C      -1.633907     -2.264087      0.299564
  C       0.150678     -0.209920     -0.358751
  C       0.602676     -1.531537     -0.226873
  C      -0.288940     -2.549918      0.077418
  N      -1.741151      1.419354     -0.292518
  C       1.094109      0.822364     -0.614750
  H      -3.137212     -0.707595      0.379742
  H      -2.327494     -3.060451      0.549499
  H       1.658942     -1.736504     -0.365131
  H       0.072536     -3.570127      0.158534
  N       2.038655      1.189683     -1.266419
  O       2.919551      2.074678     -1.215951
  O       1.385094      1.933624      1.025693
  S       2.591571      2.859805      0.907173
  O       3.809017      2.360487      1.575998
  O      -2.771991      1.691540      0.306022
  O      -1.115571      2.184086     -1.012211
19
Coordinates from ORCA-job mol E -1152.625183538495
  C      -2.085974     -0.958805      0.213874
  C      -1.211416      0.055584     -0.136233
  C      -1.608020     -2.260282      0.317650
  C       0.152817     -0.190957     -0.357215
  C       0.619818     -1.506377     -0.216148
  C      -0.260055     -2.532485      0.096502
  N      -1.760400      1.414535     -0.314653
  C       1.085938      0.849838     -0.616617
  H      -3.129732     -0.721276      0.383784
  H      -2.292304     -3.062535      0.574289
  H       1.678534     -1.700197     -0.352008
  H       0.113210     -3.547745      0.185810
  N       2.020651      1.227930     -1.276816
  O       2.900437      2.115057     -1.227774
  O       1.303966      2.113220      0.962849
  S       2.663505      2.804212      0.934397
  O       3.743488      2.036987      1.586019
  O      -2.785513      1.688229      0.293173
  O      -1.148950      2.175066     -1.050883
19
Coordinates from ORCA-job mol E -1152.618783569629
  C      -2.049271     -0.914369      0.257490
  C      -1.219127      0.112613     -0.154237
  C      -1.526538     -2.196127      0.396555
  C       0.153929     -0.092775     -0.376857
  C       0.665814     -1.387981     -0.198523
  C      -0.176024     -2.432881      0.154156
  N      -1.832540      1.427986     -0.413647
  C       1.065584      0.963204     -0.635518
  H      -3.093002     -0.701279      0.459589
  H      -2.177121     -3.008727      0.703475
  H       1.731512     -1.547811     -0.323647
  H       0.232808     -3.431143      0.273216
  N       1.974383      1.391918     -1.306558
  O       2.846077      2.270486     -1.161052
  O       1.296443      1.796862      0.866622
  S       2.641678      2.461676      1.067716
  O       3.668043      1.498238      1.514142
  O      -2.904243      1.656316      0.131818
  O      -1.298404      2.133796     -1.254741
19
Coordinates from ORCA-job mol E -1152.625155953003
  C      -2.071985     -0.952166      0.232662
  C      -1.185975      0.052851     -0.114782
  C      -1.612464     -2.262378      0.311236
  C       0.170720     -0.211477     -0.358775
  C       0.620745     -1.534573     -0.237835
  C      -0.271612     -2.551904      0.069631
  N      -1.710942      1.423490     -0.259451
  C       1.115642      0.819414     -0.615319
  H      -3.108664     -0.701424      0.425925
  H      -2.305295     -3.057354      0.567615
  H       1.675061     -1.741993     -0.387001
  H       0.087004     -3.573925      0.139761
  N       2.051351      1.193657     -1.275452
  O       2.933504      2.078019     -1.220902
  O       1.232980      2.216244      0.902437
  S       2.616489      2.857821      0.895949
  O       3.639987      2.087433      1.631869
  O      -2.759453      1.684289      0.313612
  O      -1.117095      2.173976     -1.021179
19
Coordinates from ORCA-job mol E -1152.624590014073
  C      -2.071843     -0.955025      0.233376
  C      -1.201236      0.053187     -0.142025
  C      -1.595804     -2.258289      0.330792
  C       0.159824     -0.197239     -0.378341
  C       0.627220     -1.512057     -0.234035
  C      -0.253118     -2.535972      0.086197
  N      -1.747489      1.409166     -0.334394
  C       1.096537      0.843766     -0.621338
  H      -3.107247     -0.712251      0.442157
  H      -2.276411     -3.056108      0.610046
  H       1.685939     -1.706788     -0.368257
  H       0.118295     -3.552179      0.172387
  N       2.018114      1.244385     -1.286259
  O       2.902525      2.126133     -1.215216
  O       1.234248      2.205507      0.909529
  S       2.640566      2.791327      0.930095
  O       3.633009      1.932379      1.609222
  O      -2.768522      1.695365      0.275447
  O      -1.094609      2.184693     -1.019386
19
Coordinates from ORCA-job mol E -1152.625360376820
  C      -2.079253     -0.956872      0.227967
  C      -1.207198      0.053832     -0.137483
  C      -1.601991     -2.259494      0.328020
  C       0.155096     -0.195878     -0.370519
  C       0.622416     -1.510885     -0.227720
  C      -0.257854     -2.535555      0.090329
  N      -1.753952      1.411229     -0.319180
  C       1.092549      0.843576     -0.617166
  H      -3.118007     -0.717250      0.423499
  H      -2.284066     -3.058943      0.598945
  H       1.680905     -1.705674     -0.363666
  H       0.113598     -3.551909      0.174697
  N       2.010505      1.245271     -1.285750
  O       2.897107      2.126346     -1.220158
  O       1.284408      2.181215      0.969843
  S       2.674959      2.802640      0.936883
  O       3.712157      1.978875      1.592765
  O      -2.814909      1.668756      0.232885
  O      -1.126471      2.180722     -1.034192
19
Coordinates from ORCA-job mol E -1152.625219903064
  C      -2.075847     -0.955160      0.232781
  C      -1.207307      0.055635     -0.140594
  C      -1.595830     -2.256726      0.335793
  C       0.155271     -0.192403     -0.375511
  C       0.625344     -1.505984     -0.228914
  C      -0.252467     -2.531613      0.093321
  N      -1.757493      1.410282     -0.329348
  C       1.093345      0.847759     -0.616677
  H      -3.113001     -0.716344      0.437278
  H      -2.275070     -3.055871      0.614665
  H       1.684410     -1.698726     -0.363344
  H       0.120852     -3.547173      0.179068
  N       2.002145      1.262876     -1.289481
  O       2.889244      2.143323     -1.217189
  O       1.278035      2.197444      0.967793
  S       2.683925      2.781424      0.944760
  O       3.696843      1.916122      1.585737
  O      -2.831318      1.660428      0.200894
  O      -1.121081      2.184707     -1.031031
19
Coordinates from ORCA-job mol E -1152.625399684441
  C      -2.069275     -0.951656      0.235947
  C      -1.178188      0.049372     -0.109575
  C      -1.617107     -2.265092      0.303637
  C       0.176181     -0.221095     -0.358937
  C       0.619444     -1.547365     -0.247346
  C      -0.278579     -2.560886      0.056298
  N      -1.694701      1.423042     -0.248454
  C       1.123423      0.807566     -0.614330
  H      -3.103907     -0.696377      0.434009
  H      -2.313935     -3.057832      0.556055
  H       1.672054     -1.760290     -0.400458
  H       0.074092     -3.585458      0.119213
  N       2.072616      1.168990     -1.262765
  O       2.958617      2.049204     -1.208877
  O       1.201439      2.236788      0.848849
  S       2.580320      2.886884      0.871823
  O       3.585037      2.143161      1.659663
  O      -2.698945      1.712618      0.387076
  O      -1.108587      2.168426     -1.021830
19
Coordinates from ORCA-job mol E -1152.625429575451
  C      -2.079220     -0.956946      0.223846
  C      -1.197035      0.050256     -0.126109
  C      -1.612706     -2.264364      0.309285
  C       0.162388     -0.207846     -0.363309
  C       0.619515     -1.527958     -0.234467
  C      -0.269360     -2.547842      0.074534
  N      -1.729572      1.414930     -0.284888
  C       1.100483      0.826925     -0.624811
  H      -3.118747     -0.712174      0.409476
  H      -2.302546     -3.062177      0.564877
  H       1.675292     -1.731179     -0.378580
  H       0.094154     -3.567678      0.151064
  N       2.047034      1.194221     -1.272094
  O       2.933139      2.074377     -1.216830
  O       1.253705      2.198009      0.930574
  S       2.628475      2.855095      0.907275
  O       3.670047      2.099042      1.633465
  O      -2.725913      1.707545      0.361453
  O      -1.149133      2.157764     -1.064760
19
Coordinates from ORCA-job mol E -1152.625157351901
  C      -2.070194     -0.950397      0.248210
  C      -1.200324      0.057414     -0.130571
  C      -1.597864     -2.255669      0.335677
  C       0.159567     -0.196550     -0.376328
  C       0.621440     -1.514958     -0.248768
  C      -0.259325     -2.537331      0.075137
  N      -1.750090      1.413097     -0.318798
  C       1.104608      0.838459     -0.616452
  H      -3.103612     -0.706048      0.464523
  H      -2.279161     -3.052609      0.615776
  H       1.677840     -1.713402     -0.395483
  H       0.109045     -3.555389      0.152104
  N       2.030312      1.231210     -1.280302
  O       2.917712      2.110852     -1.201544
  O       1.259008      2.191533      0.944788
  S       2.653444      2.807266      0.930489
  O       3.671181      1.985510      1.618967
  O      -2.814540      1.669657      0.227112
  O      -1.129048      2.177356     -1.044538
19
Coordinates from ORCA-job mol E -1152.625411387288
  C      -2.073573     -0.954459      0.233490
  C      -1.188453      0.048698     -0.120273
  C      -1.614221     -2.265206      0.307837
  C       0.167882     -0.215589     -0.366705
  C       0.618613     -1.538741     -0.246979
  C      -0.274335     -2.555297      0.061670
  N      -1.713717      1.416315     -0.274670
  C       1.109919      0.816825     -0.623302
  H      -3.109110     -0.704041      0.433413
  H      -2.306467     -3.060062      0.566146
  H       1.672899     -1.746635     -0.395278
  H       0.084054     -3.577402      0.131883
  N       2.060161      1.184589     -1.265081
  O       2.948200      2.062498     -1.206648
  O       1.227838      2.240302      0.900163
  S       2.612561      2.874456      0.899008
  O       3.624925      2.108827      1.656061
  O      -2.694862      1.719015      0.389940
  O      -1.152313      2.145905     -1.080674
19
Coordinates from ORCA-job mol E -1152.625177317680
  C      -2.066627     -0.951126      0.244540
  C      -1.176916      0.045163     -0.115617
  C      -1.617796     -2.266447      0.303629
  C       0.174573     -0.227898     -0.375580
  C       0.616668     -1.554920     -0.265868
  C      -0.282638     -2.565954      0.042707
  N      -1.691608      1.416194     -0.266251
  C       1.118452      0.802478     -0.631076
  H      -3.096586     -0.692464      0.462944
  H      -2.313813     -3.057173      0.564450
  H       1.668706     -1.769918     -0.419823
  H       0.068151     -3.591195      0.105039
  N       2.082991      1.164515     -1.253371
  O       2.972405      2.038628     -1.190705
  O       1.193082      2.299905      0.875513
  S       2.587755      2.907014      0.895724
  O       3.564429      2.140997      1.698013
  O      -2.605928      1.755389      0.471694
  O      -1.195299      2.106810     -1.145961
19
Coordinates from ORCA-job mol E -1152.625376278511
  C      -2.071593     -0.952403      0.238344
  C      -1.191271      0.052901     -0.121895
  C      -1.607940     -2.261406      0.316866
  C       0.166208     -0.207967     -0.367589
  C       0.620748     -1.529475     -0.245483
  C      -0.268172     -2.548364      0.067395
  N      -1.723678      1.417060     -0.286283
  C       1.109581      0.824707     -0.620469
  H      -3.107085     -0.704742      0.441173
  H      -2.296842     -3.057178      0.581237
  H       1.675766     -1.734063     -0.393272
  H       0.093748     -3.569047      0.140175
  N       2.050435      1.199285     -1.272776
  O       2.936987      2.079531     -1.206401
  O       1.232829      2.217455      0.906705
  S       2.620499      2.847391      0.906351
  O       3.634326      2.062668      1.641960
  O      -2.738304      1.702905      0.334277
  O      -1.136242      2.160742     -1.060316
19
Coordinates from ORCA-job mol E -1152.625220872538
  C      -2.066073     -0.946202      0.251768
  C      -1.199374      0.065488     -0.125135
  C      -1.589612     -2.249776      0.342507
  C       0.161564     -0.184635     -0.367543
  C       0.626866     -1.501519     -0.240916
  C      -0.250215     -2.527333      0.083430
  N      -1.753455      1.418834     -0.317947
  C       1.108889      0.850144     -0.607371
  H      -3.101813     -0.706500      0.461134
  H      -2.268849     -3.048419      0.622780
  H       1.683870     -1.696398     -0.388035
  H       0.121813     -3.543968      0.161748
  N       2.025635      1.240123     -1.289474
  O       2.909429      2.126480     -1.195678
  O       1.247771      2.141349      0.908793
  S       2.640776      2.769371      0.923472
  O       3.656404      1.934304      1.599593
  O      -2.845672      1.657615      0.179439
  O      -1.107951      2.201041     -1.002565
19
Coordinates from ORCA-job mol E -1152.626288049982
  C      -2.044616     -0.926592      0.282707
  C      -1.192968      0.088070     -0.121253
  C      -1.558639     -2.226250      0.378850
  C       0.168710     -0.154070     -0.369831
  C       0.641174     -1.468019     -0.247608
  C      -0.224144     -2.498825      0.093733
  N      -1.769134      1.429004     -0.346036
  C       1.123964      0.882017     -0.593886
  H      -3.076276     -0.690464      0.514156
  H      -2.227050     -3.025212      0.683250
  H       1.698614     -1.655664     -0.401607
  H       0.155664     -3.512567      0.172283
  N       2.019454      1.276198     -1.310833
  O       2.894123      2.171631     -1.159481
  O       1.203404      2.027099      0.838231
  S       2.601947      2.656857      0.934222
  O       3.589911      1.760230      1.572473
  O      -2.913727      1.625715      0.040586
  O      -1.090413      2.240843     -0.959959
19
Coordinates from ORCA-job mol E -1152.624787285465
  C      -2.075077     -0.947737      0.218469
  C      -1.201773      0.068598     -0.129766
  C      -1.593495     -2.247285      0.335672
  C       0.163776     -0.180168     -0.349531
  C       0.632709     -1.494033     -0.202279
  C      -0.245780     -2.520101      0.116355
  N      -1.747879      1.427966     -0.299189
  C       1.105703      0.850999     -0.606885
  H      -3.121263     -0.716465      0.379301
  H      -2.277385     -3.048198      0.597516
  H       1.690746     -1.688198     -0.342156
  H       0.127643     -3.535331      0.205347
  N       2.008216      1.249079     -1.297841
  O       2.875771      2.154387     -1.230134
  O       1.263388      1.996935      0.881055
  S       2.600319      2.736639      0.894537
  O       3.701109      1.986752      1.535454
  O      -2.880834      1.637063      0.112198
  O      -1.025894      2.269098     -0.818124
19
Coordinates from ORCA-job mol E -1152.625579116097
  C      -2.077499     -0.951119      0.228478
  C      -1.210884      0.069535     -0.124897
  C      -1.591048     -2.249372      0.337313
  C       0.156024     -0.171361     -0.344850
  C       0.628594     -1.484383     -0.209528
  C      -0.244260     -2.515973      0.108249
  N      -1.771657      1.421765     -0.307763
  C       1.101327      0.864882     -0.597619
  H      -3.122610     -0.723443      0.401301
  H      -2.269771     -3.053199      0.603686
  H       1.687614     -1.673003     -0.350243
  H       0.134755     -3.529225      0.196333
  N       2.003466      1.248054     -1.305781
  O       2.884665      2.141726     -1.212476
  O       1.291662      2.063134      0.923456
  S       2.665518      2.743760      0.911834
  O       3.728676      1.933258      1.543565
  O      -2.909583      1.619649      0.096125
  O      -1.084988      2.245315     -0.897184
19
Coordinates from ORCA-job mol E -1152.625088641886
  C      -2.063314     -0.946440      0.233685
  C      -1.186746      0.066680     -0.114922
  C      -1.589833     -2.251140      0.326191
  C       0.175156     -0.186632     -0.346429
  C       0.636948     -1.505016     -0.220315
  C      -0.245668     -2.529279      0.092837
  N      -1.727509      1.429056     -0.278611
  C       1.118923      0.843480     -0.612004
  H      -3.104961     -0.709234      0.414825
  H      -2.276001     -3.050742      0.586162
  H       1.693350     -1.703396     -0.366818
  H       0.123662     -3.546618      0.174572
  N       2.029333      1.226363     -1.304031
  O       2.917830      2.105883     -1.223944
  O       1.195351      2.177831      0.849317
  S       2.603206      2.767439      0.892399
  O       3.583712      1.920054      1.604095
  O      -2.796447      1.680648      0.261016
  O      -1.086992      2.211063     -0.968025
19
Coordinates from ORCA-job mol E -1152.624624367996
  C      -2.068119     -0.949676      0.243208
  C      -1.197890      0.059718     -0.128608
  C      -1.594557     -2.255388      0.324732
  C       0.162668     -0.190311     -0.366970
  C       0.627066     -1.507954     -0.242209
  C      -0.253662     -2.533517      0.073277
  N      -1.745014      1.415647     -0.312241
  C       1.105431      0.847709     -0.603593
  H      -3.102602     -0.708648      0.459461
  H      -2.276344     -3.054331      0.597951
  H       1.685061     -1.703246     -0.381173
  H       0.117381     -3.550289      0.154359
  N       2.042898      1.232697     -1.262129
  O       2.939459      2.108611     -1.169607
  O       1.237904      2.193618      0.848294
  S       2.635494      2.797857      0.915885
  O       3.605431      1.940166      1.629694
  O      -2.731440      1.716964      0.345633
  O      -1.189164      2.140374     -1.125964
19
Coordinates from ORCA-job mol E -1152.624100837818
  C      -2.022414     -0.914051      0.298860
  C      -1.146671      0.070487     -0.120362
  C      -1.579725     -2.232597      0.346862
  C       0.196080     -0.209150     -0.412252
  C       0.635317     -1.537422     -0.309146
  C      -0.259394     -2.543229      0.030093
  N      -1.667364      1.435068     -0.306084
  C       1.147305      0.818993     -0.646279
  H      -3.031563     -0.643305      0.588614
  H      -2.266635     -3.015215      0.652531
  H       1.684971     -1.755131     -0.475425
  H       0.089073     -3.569305      0.090807
  N       2.107222      1.192209     -1.270367
  O       2.969461      2.086316     -1.127276
  O       1.067123      2.154103      0.796023
  S       2.450731      2.786750      0.916203
  O       3.389600      1.987906      1.732370
  O      -2.544032      1.809487      0.459917
  O      -1.219085      2.078085     -1.245088
19
Coordinates from ORCA-job mol E -1152.623124454813
  C      -2.022307     -0.921394      0.316948
  C      -1.132639      0.053034     -0.094558
  C      -1.604388     -2.249042      0.325610
  C       0.201698     -0.243083     -0.406032
  C       0.616672     -1.581194     -0.341729
  C      -0.295984     -2.577355     -0.021385
  N      -1.633438      1.425565     -0.270163
  C       1.160957      0.784934     -0.614609
  H      -3.019164     -0.636204      0.635253
  H      -2.302301     -3.026134      0.620185
  H       1.660787     -1.815119     -0.520670
  H       0.030350     -3.612206      0.002221
  N       2.165077      1.135261     -1.193729
  O       3.028148      2.042597     -1.058393
  O       1.079404      2.237669      0.674326
  S       2.429884      2.925772      0.869165
  O       3.325287      2.189181      1.785737
  O      -2.407365      1.852972      0.574013
  O      -1.280678      2.014747     -1.282190
19
Coordinates from ORCA-job mol E -1152.622446760124
  C      -1.984508     -0.890941      0.347340
  C      -1.080329      0.066321     -0.071419
  C      -1.593203     -2.226909      0.338250
  C       0.240922     -0.255827     -0.412668
  C       0.627937     -1.603216     -0.373893
  C      -0.300951     -2.580516     -0.043639
  N      -1.559705      1.446555     -0.245528
  C       1.203068      0.761294     -0.646241
  H      -2.970053     -0.587242      0.684277
  H      -2.302407     -2.992450      0.636134
  H       1.661091     -1.859890     -0.582742
  H      -0.001149     -3.623578     -0.047407
  N       2.229022      1.086405     -1.190736
  O       3.040497      2.024901     -1.031978
  O       0.927743      2.178439      0.626608
  S       2.261446      2.902973      0.837400
  O       3.132953      2.245205      1.832983
  O      -2.212102      1.933643      0.665214
  O      -1.320272      1.974833     -1.321956
19
Coordinates from ORCA-job mol E -1152.622157227599
  C      -2.015962     -0.917100      0.322250
  C      -1.109337      0.057215     -0.049287
  C      -1.608802     -2.248098      0.309407
  C       0.224579     -0.245931     -0.364192
  C       0.619743     -1.591328     -0.346362
  C      -0.305311     -2.582144     -0.047599
  N      -1.616131      1.427498     -0.229982
  C       1.179901      0.779629     -0.611534
  H      -3.018761     -0.630683      0.621602
  H      -2.318279     -3.025920      0.572908
  H       1.656153     -1.837728     -0.551417
  H       0.002297     -3.622708     -0.070235
  N       2.240849      1.055275     -1.133529
  O       3.085633      1.980249     -1.012190
  O       1.038673      2.256967      0.591492
  S       2.379508      2.971175      0.806747
  O       3.231429      2.316355      1.820304
  O      -2.201102      1.939239      0.711138
  O      -1.465079      1.918038     -1.339522
19
Coordinates from ORCA-job mol E -1152.623499369762
  C      -2.018878     -0.916892      0.318676
  C      -1.122474      0.060756     -0.069652
  C      -1.600769     -2.244493      0.323036
  C       0.214143     -0.235348     -0.378764
  C       0.622608     -1.576198     -0.337089
  C      -0.293224     -2.571976     -0.025947
  N      -1.633844      1.428744     -0.254690
  C       1.169067      0.792344     -0.616213
  H      -3.022587     -0.634949      0.618356
  H      -2.302859     -3.024200      0.600360
  H       1.663067     -1.814259     -0.531237
  H       0.026377     -3.609176     -0.025726
  N       2.199826      1.098509     -1.176554
  O       3.047970      2.018690     -1.047642
  O       1.055253      2.221061      0.650148
  S       2.404791      2.922059      0.843164
  O       3.292102      2.221543      1.794514
  O      -2.333213      1.892372      0.632791
  O      -1.367354      1.971412     -1.317529
19
Coordinates from ORCA-job mol E -1152.624746675414
  C      -2.023621     -0.918296      0.304471
  C      -1.128189      0.061970     -0.080737
  C      -1.598684     -2.243450      0.326371
  C       0.210534     -0.231403     -0.380331
  C       0.627743     -1.568431     -0.316069
  C      -0.284021     -2.566622      0.000059
  N      -1.633943      1.433189     -0.253926
  C       1.161698      0.796417     -0.625269
  H      -3.034668     -0.640227      0.581527
  H      -2.299769     -3.024169      0.603349
  H       1.670923     -1.801665     -0.501154
  H       0.043365     -3.601200      0.020317
  N       2.160329      1.129024     -1.220447
  O       3.004594      2.050212     -1.095989
  O       1.059706      2.187427      0.700104
  S       2.413326      2.887022      0.858116
  O       3.341050      2.167188      1.755392
  O      -2.444084      1.840614      0.565492
  O      -1.246289      2.042401     -1.241277
19
Coordinates from ORCA-job mol E -1152.625258465581
  C      -2.039950     -0.928585      0.280651
  C      -1.149933      0.058115     -0.102577
  C      -1.601438     -2.248408      0.326816
  C       0.194539     -0.226500     -0.387454
  C       0.626281     -1.556813     -0.292254
  C      -0.277564     -2.560763      0.028905
  N      -1.658960      1.429708     -0.262069
  C       1.142663      0.804768     -0.629903
  H      -3.060498     -0.659854      0.529491
  H      -2.298751     -3.033251      0.601627
  H       1.673882     -1.780861     -0.462980
  H       0.062189     -3.590640      0.072726
  N       2.116371      1.161918     -1.249989
  O       2.968736      2.077928     -1.136717
  O       1.116505      2.153446      0.772193
  S       2.466133      2.867957      0.878194
  O       3.451307      2.144009      1.708865
  O      -2.568482      1.780117      0.476214
  O      -1.163029      2.107708     -1.151738
19
Coordinates from ORCA-job mol E -1152.625452417705
  C      -2.059789     -0.942253      0.242244
  C      -1.172397      0.057278     -0.114895
  C      -1.603317     -2.254260      0.319288
  C       0.182427     -0.213532     -0.367810
  C       0.629220     -1.537167     -0.249263
  C      -0.266121     -2.549695      0.067820
  N      -1.692032      1.427221     -0.261351
  C       1.123847      0.818585     -0.629309
  H      -3.096231     -0.690721      0.435525
  H      -2.298119     -3.046929      0.577509
  H       1.681057     -1.750275     -0.407175
  H       0.087700     -3.573637      0.134353
  N       2.066638      1.192747     -1.280654
  O       2.931063      2.096830     -1.192178
  O       1.178385      2.140561      0.850274
  S       2.538206      2.838069      0.887831
  O       3.569366      2.097151      1.644683
  O      -2.680018      1.725029      0.395583
  O      -1.119886      2.164997     -1.052475
19
Coordinates from ORCA-job mol E -1152.625486452104
  C      -2.079722     -0.957593      0.211083
  C      -1.196623      0.051842     -0.130660
  C      -1.610799     -2.263550      0.308086
  C       0.164947     -0.207341     -0.360674
  C       0.623682     -1.525063     -0.221023
  C      -0.264777     -2.545154      0.090353
  N      -1.724439      1.420357     -0.267185
  C       1.104888      0.825972     -0.622226
  H      -3.123531     -0.718195      0.376973
  H      -2.301800     -3.061618      0.559815
  H       1.679904     -1.727955     -0.362039
  H       0.100635     -3.563435      0.177935
  N       2.028052      1.217040     -1.290437
  O       2.905920      2.111036     -1.224286
  O       1.258536      2.124254      0.915871
  S       2.609518      2.834665      0.895518
  O       3.687964      2.100902      1.590997
  O      -2.772829      1.677038      0.308985
  O      -1.089524      2.206799     -0.957085
19
Coordinates from ORCA-job mol E -1152.625506698069
  C      -2.081655     -0.959615      0.207943
  C      -1.199255      0.053167     -0.125827
  C      -1.609810     -2.264398      0.306312
  C       0.164078     -0.202206     -0.349040
  C       0.624662     -1.519943     -0.213347
  C      -0.262174     -2.542618      0.093529
  N      -1.730845      1.420018     -0.267091
  C       1.103426      0.829992     -0.616608
  H      -3.127055     -0.723488      0.368486
  H      -2.300226     -3.064456      0.553260
  H       1.681433     -1.720485     -0.353759
  H       0.105245     -3.560269      0.179914
  N       2.021992      1.219227     -1.290939
  O       2.901407      2.110602     -1.231835
  O       1.265563      2.131905      0.921132
  S       2.623052      2.828154      0.891756
  O       3.698466      2.083195      1.579999
  O      -2.791260      1.670385      0.289532
  O      -1.087047      2.210834     -0.943418
19
Coordinates from ORCA-job mol E -1152.625507088118
  C      -2.082257     -0.960458      0.210420
  C      -1.202267      0.054120     -0.124543
  C      -1.608420     -2.264553      0.307398
  C       0.161726     -0.198391     -0.346649
  C       0.624248     -1.515746     -0.212398
  C      -0.260656     -2.540590      0.092535
  N      -1.738525      1.418987     -0.271419
  C       1.102584      0.833249     -0.612172
  H      -3.127236     -0.725762      0.375686
  H      -2.297312     -3.065567      0.555508
  H       1.681657     -1.713894     -0.351438
  H       0.108588     -3.557693      0.177478
  N       2.020825      1.220514     -1.288632
  O       2.901742      2.110911     -1.231335
  O       1.272968      2.134741      0.921578
  S       2.634150      2.823430      0.890933
  O       3.705525      2.069348      1.575640
  O      -2.811286      1.662121      0.264261
  O      -1.086053      2.215232     -0.932851
19
Coordinates from ORCA-job mol E -1152.625508752890
  C      -2.080002     -0.958523      0.212848
  C      -1.198639      0.054174     -0.123871
  C      -1.608311     -2.263576      0.308189
  C       0.164282     -0.200811     -0.349326
  C       0.624814     -1.518916     -0.216461
  C      -0.261557     -2.542041      0.090206
  N      -1.732065      1.420076     -0.269308
  C       1.104768      0.831088     -0.614862
  H      -3.124292     -0.721834      0.379747
  H      -2.298123     -3.063521      0.557188
  H       1.681547     -1.719096     -0.357704
  H       0.105806     -3.559942      0.173786
  N       2.025624      1.217318     -1.288436
  O       2.904849      2.109124     -1.227434
  O       1.261691      2.134507      0.914383
  S       2.621846      2.826259      0.890933
  O       3.690567      2.076059      1.583944
  O      -2.793561      1.670697      0.284961
  O      -1.089244      2.208961     -0.948785
19
Coordinates from ORCA-job mol E -1152.625508750838
  C      -2.077840     -0.956853      0.216814
  C      -1.196287      0.054719     -0.122615
  C      -1.607512     -2.262603      0.309556
  C       0.165749     -0.201500     -0.351354
  C       0.625139     -1.520204     -0.220484
  C      -0.261819     -2.542587      0.087028
  N      -1.729118      1.420751     -0.269131
  C       1.106775      0.830292     -0.615683
  H      -3.121119     -0.718725      0.388067
  H      -2.297541     -3.061856      0.560165
  H       1.681470     -1.721343     -0.363369
  H       0.104430     -3.561072      0.168312
  N       2.030621      1.213975     -1.286963
  O       2.908845      2.106745     -1.222745
  O       1.253296      2.135632      0.906756
  S       2.614034      2.827138      0.890318
  O       3.677936      2.077196      1.590971
  O      -2.784537      1.675704      0.294568
  O      -1.092521      2.204589     -0.960212
19
Coordinates from ORCA-job mol E -1152.625508934394
  C      -2.075867     -0.955393      0.220535
  C      -1.194202      0.055235     -0.121259
  C      -1.606766     -2.261771      0.310697
  C       0.166957     -0.201972     -0.353102
  C       0.625377     -1.521247     -0.224226
  C      -0.262038     -2.543053      0.083896
  N      -1.726562      1.421372     -0.268731
  C       1.108545      0.829641     -0.616381
  H      -3.118187     -0.716014      0.395936
  H      -2.296974     -3.060438      0.562677
  H       1.681356     -1.723153     -0.368611
  H       0.103234     -3.562073      0.162819
  N       2.035630      1.210199     -1.285325
  O       2.913160      2.103638     -1.218301
  O       1.245483      2.137492      0.899151
  S       2.606981      2.828209      0.889341
  O       3.665910      2.078493      1.597706
  O      -2.776260      1.680365      0.303598
  O      -1.095776      2.200470     -0.970423
19
Coordinates from ORCA-job mol E -1152.625509014370
  C      -2.075987     -0.955520      0.220415
  C      -1.194384      0.055227     -0.121206
  C      -1.606777     -2.261853      0.310557
  C       0.166794     -0.201811     -0.352960
  C       0.625340     -1.521068     -0.224095
  C      -0.261981     -2.542983      0.083896
  N      -1.726849      1.421347     -0.268556
  C       1.108376      0.829772     -0.616358
  H      -3.118355     -0.716266      0.395708
  H      -2.296949     -3.060593      0.562402
  H       1.681352     -1.722845     -0.368421
  H       0.103397     -3.561968      0.162785
  N       2.035740      1.209819     -1.285213
  O       2.913557      2.102976     -1.218443
  O       1.245741      2.138112      0.899029
  S       2.607444      2.828340      0.889099
  O       3.666134      2.078519      1.597702
  O      -2.776728      1.680143      0.303506
  O      -1.095864      2.200651     -0.969848
