19
Coordinates from ORCA-job mol
  C   0.07110321938591      0.01417280393459      0.11429416444692
  C   1.02927915646846      0.99363599261323     -0.08394353508883
  C   0.47422857196337     -1.27335297864756      0.45599883241844
  C   2.39072622105191      0.70237043247367      0.05834098981473
  C   2.78538922605334     -0.60325174028783      0.35398189524347
  C   1.82734622793852     -1.58271757882857      0.57476322994722
  N   0.57247071545149      2.35831867562079     -0.41968822530738
  C   3.50056416677363      1.80026268055674      0.05585889569935
  H   -0.97561471313890      0.27193725272340     -0.00033374594635
  H   -0.27586971786866     -2.04137229267551      0.61610641577289
  H   3.84578318614845     -0.82857602408491      0.40498793582387
  H   2.13770075180298     -2.59321574704723      0.82038529660912
  N   3.65522877581926      1.59018626632063     -1.17917877799280
  O   5.09401804090179      3.03274779502029     -1.36621263375347
  O   3.95745670198985      2.41637127905301      1.03262312317792
  S   5.79052293318491      3.25844566067973     -0.04350315342640
  O   6.77194273335661      2.23522967706333      0.34152918287141
  O   -0.54199206729387      2.46306700248676     -0.91046955201960
  O   1.33340387001087      3.27864384302540     -0.16639433829051
