!DLPNO-CCSD(T) Extrapolate(3/4,cc) cc-pVQZ/C TightPNO TightSCF 
!CPCM(Benzene)
%geom maxiter 300 end
%maxcore 4000 
%pal nprocs 36
end

*xyz 0 1
6       -2.365424899     -0.747956260     -0.451892003
6       -1.495679274      0.332776061     -0.513498879
6       -1.937835281     -1.968714083      0.071666989
6       -0.181301903      0.178570739     -0.045854014
6        0.255956540     -1.042478784      0.481875693
6       -0.631458176     -2.111650634      0.535930643
1       -1.815140287      1.283766831     -0.915564624
6        0.721297701      1.284035462     -0.110477448
1       -3.378138558     -0.635910537     -0.811193253
1       -2.621443519     -2.803952540      0.117506748
1        1.271132711     -1.137064619      0.835917487
1       -0.300244733     -3.056833315      0.940684225
7        0.913248835      2.395351888     -0.561838541
8        1.842695475      3.251909975     -0.469996952
8        2.260207251      1.082913625      0.969491500
16       3.329820777      2.079750291      0.533704407
8        4.132307341      1.615487900     -0.606459980

*
