 $CONTRL SCFTYP=rhf RUNTYP=sadpoint d5=.t.
! dfttyp=pbe0
 mplevl=2
 maxit=100 icut=20 inttyp=hondo itol=30 gencon=.f. wide=1                                
 mult=1 icharg=0 exetyp=run fstint=.t. nzvar=0 $END                            
 $SYSTEM TIMLIM=100000 mwords=360 nojac=1  $END                                  
 $PCM SOLVNT=BENZENE $END
 $system mxbcst=-1 $end                                                         
 $p2p p2p=.t. dlb=.t. $end                                                      
 $smp                                                                           
  mkl64=21 smppar=1 mklnp=18 np=36 httnp=1 dianp=1                              
  pts=0x101                                                                     
 $end                                                                           
 $mpi mxgsum=0x40000 mnpdot=1d9 $end                                            
 $MOORTH nostf=1 nozero=1 syms=1 symden=1 symvec=1 tole=0 tolz=0 $end           
 $BASIS GBASIS=apvtzs extfil=.t. $END                                          
 $GUESS GUESS=huckel                                                            
 $END                                                                           
! $RIMP2 AUXBAS=cc-pvdz/C VERBOSE=.T. $END
 $MP2 method=1 $END
 $MP2GRD dblbf=0 fused=0 asysnc=1 tol1=1d-12 tol2=1d-12 $END
 $FORCE NVIB=2 VIBSIZ=0.005 $END
 $trans mptran=2 dirtrf=.t. mode=112 cuttrf=1d-20 $end
 $DATA
 C7NH5SO3
C1
CARBON      6.0  -2.4085355398  -0.4393242276   0.1460522300
CARBON      6.0  -1.4218261235   0.5086527892  -0.0967364506
CARBON      6.0  -2.0557578899  -1.7655938541   0.4013082995
CARBON      6.0  -0.0848204000   0.1064214609  -0.0523921904
CARBON      6.0   0.2839886340  -1.2235770857   0.1670611659
CARBON      6.0  -0.7155366430  -2.1575734881   0.4088875823
HYDROGEN    1.0  -1.6651513298   1.5392426357  -0.3131490958
CARBON      6.0   1.0249400271   1.1836734598  -0.0505210062
HYDROGEN    1.0  -3.4497251445  -0.1501100248   0.1247737875
HYDROGEN    1.0  -2.8287571973  -2.4992126921   0.5837374691
HYDROGEN    1.0   1.3292591283  -1.4993229902   0.1526910677
HYDROGEN    1.0  -0.4541603752  -3.1905049047   0.5903203982
NITROGEN    7.0   1.0897811770   1.1001969492  -1.2985360597
OXYGEN      8.0   2.4046384140   2.4636006987  -1.4964802624
OXYGEN      8.0   1.5648696450   1.7821791245   0.9135760686
SULFUR     16.0   3.1862871038   2.6320412889  -0.2116957597
OXYGEN      8.0   4.2005065139   1.6092108614   0.0311027571
 $END
 $HESS
ENERGY IS     -946.8065053477 E(NUC) IS      756.1209814783
 1  1  7.49215168865347000D-01 -1.84841400037577500D-02 -2.17187195998613800D-02 -2.44473633124339700D-01 -1.39239074261482400D-01
 1  2  3.76949334673165600D-02 -1.37305277036226000D-01  7.96507028243909100D-02 -1.29192429250829500D-02 -4.43993729204394900D-02
 1  3 -1.27935954083641100D-02  6.20521937792772900D-03 -1.24522754672007400D-03 -9.89227303182238500D-03  1.53359689595289300D-03
 1  4 -7.75787011655926200D-04  3.78415676888704800D-02 -7.74895377994300200D-03  9.84278005675956100D-03  8.07853604095354300D-03
 1  5 -2.38468969618252400D-03 -5.40191258799338500D-03  2.46606775085589400D-03  3.54286721803431800D-03 -3.29250600452241100D-01
 1  6  7.55563544511159100D-02 -4.95646801222642700D-03  9.12402415281510200D-03 -2.31311055045063700D-02  4.27071452156896300D-03
 1  7  4.52722818491957400D-04 -6.38628365243199000D-04  3.12765906433122600D-04 -5.69746541024124300D-03  1.48446795651402400D-03
 1  8  6.40110525948478500D-04  3.05573989617391500D-04  1.43844910091284200D-03 -4.06097225874313400D-03 -8.23161416335649300D-04
 1  9 -1.34010474817924900D-03  1.77297199022152800D-04  2.70322353659868700D-04 -1.18058822067557100D-03 -7.88497559606193800D-04
 1 10  4.79601260774953400D-04  5.81030965618456500D-05  2.56909287937867600D-04 -3.46459533473453300D-04  1.68834561858899300D-04
 1 11 -4.46884276222858600D-05
 2  1 -1.84841400037577500D-02  6.64388402228799400D-01 -1.10676458627478900D-01 -9.61258172773538100D-02 -2.30297409619584200D-01
 2  2  4.18451621399307200D-02  3.48678745324848500D-02 -3.27061892039426400D-01  5.41102069900933900D-02 -3.52043859335293700D-02
 2  3  2.71125395036597700D-02 -2.09652982307850800D-03 -9.49655814275196500D-03 -3.33336247209603500D-02  7.83731287973266100D-03
 2  4  5.57705457170397400D-02 -3.94870010478887100D-03 -2.03020332298492500D-03 -2.25370233340628000D-02 -1.22665773081759300D-02
 2  5  3.45702606992445700D-03  3.06842166949428100D-03  4.24163231421692500D-03 -3.69507820811021400D-03  7.56230009576974700D-02
 2  6 -7.77523938712707000D-02  6.09679508945821400D-03  8.57992594823775400D-03 -1.38607732839302100D-02  2.77442774789388200D-03
 2  7 -9.18358526147411400D-04 -1.25529891804865300D-03  5.75815862159483000D-04  1.35539420529490200D-03  1.58864092787980300D-03
 2  8  9.46960803767382700D-04  5.01538318274930000D-03  6.48863071936456300D-03  8.53670849199073000D-04 -2.68366464472036300D-03
 2  9 -2.32490195161694200D-03 -9.70009074707789400D-04  1.12208145208736500D-03 -1.52666016111080400D-03 -5.16742944800530100D-04
 2 10  3.39492509360273000D-04 -4.94057404643033500D-04  1.51998701670708100D-03 -3.60813149025140900D-04  3.77332615489334200D-04
 2 11 -1.91095216511838500D-05
 3  1 -2.17187195998613800D-02 -1.10676458627478900D-01  1.47715309244234000D-01  2.77716158898128100D-02  4.21026628033033300D-02
 3  2 -6.54112404051665500D-02 -3.48726911042762700D-03  5.19445210458130400D-02 -6.50943900687012100D-02  1.03441638362677900D-02
 3  3 -2.98125327036769000D-03  7.29808940614640200D-03  1.66991045453535000D-03  7.49097749133953400D-03 -5.02563324352167700D-03
 3  4 -1.15194497263201900D-02 -8.44725731780071600D-04  3.11313639416860300D-03  4.67909057403166300D-03  2.81517762340810500D-03
 3  5  2.51636710953961900D-03 -5.38734571978449800D-03 -5.25216515350202000D-03  7.42746316139963900D-03 -4.62335245228207000D-03
 3  6  5.92746293406609700D-03 -3.71847704359476800D-02 -1.95230417542047200D-03  4.31374228743730500D-03  1.88772825857469500D-03
 3  7  7.90148872470419800D-05 -2.86890802780881400D-06 -1.29912911562349300D-03  3.72928801585514800D-04  1.04713116403365400D-03
 3  8  7.56452207629210200D-03  3.92038817416118200D-03  4.37633158460459800D-03 -4.76843315742325700D-03 -3.27662751168911200D-03
 3  9 -3.04666985384838300D-03 -8.02960082496584300D-04  3.08416023974689100D-03  3.13707841582133700D-03 -3.33877895261625000D-04
 3 10  3.62065519846077600D-04 -5.46541919330123500D-04  2.49773735960801000D-03 -3.11569530619948400D-04  1.73411020787384000D-04
 3 11 -1.40914853333229400D-04
 4  1 -2.44473633124339700D-01 -9.61258172773538100D-02  2.77716158898128100D-02  6.77027277775288400D-01 -1.26334628602120500D-02
 4  2 -1.50122888677217700D-02  3.71777390643146500D-02 -3.55122744434888100D-02  5.63091438467444600D-03 -3.13325461867891600D-01
 4  3  7.41075626492226900D-02 -1.09398637045898800D-02 -3.17655599645361200D-03  4.38791441205621500D-02 -1.17264166123842700D-02
 4  4 -3.56012581701335700D-02 -8.55522395482033500D-03  4.36137720011275900D-03 -7.16698791601327900D-02  6.49167403760947400D-02
 4  5 -1.29361744634827500D-02 -2.62623071844270100D-02 -7.37906353237005600D-03  1.18072068026553500D-02 -1.55208340343465600D-02
 4  6 -2.28858019736211100D-02  5.00145523038113300D-03  8.43464633643042900D-04  2.25045113888544500D-03  1.40634883169510300D-05
 4  7  1.79410682617509000D-03  6.91085014237202700D-04 -8.28118111177896000D-04 -1.62145581825284800D-03 -4.51719727628807600D-04
 4  8  6.50061732926365800D-04 -1.20397766695978800D-02 -1.01465043536586000D-02 -5.54571424443151000D-03  4.37749440074797200D-03
 4  9  3.50020805310324900D-03  9.85911784540105500D-04  2.81993855653084300D-03  4.56231862222544700D-03  1.63590970565508100D-03
 4 10 -9.18081968814821200D-04  2.58996983298898100D-04 -9.88866493517592800D-04  6.12731793003806800D-04 -5.47006135342975600D-04
 4 11  1.30872379547342100D-04
 5  1 -1.39239074261482400D-01 -2.30297409619584200D-01  4.21026628033033300D-02 -1.26334628602120500D-02  7.30119492074565700D-01
 5  2 -1.28583516333202800D-01 -1.43763353525339100D-02 -4.13772464664730100D-02  9.71248163942894900D-03  9.56579938640955700D-02
 5  3 -1.25646379393540300D-01  1.36194504243458700D-02  3.40167447113570700D-02 -5.98223526382946100D-03  2.27697067459176100D-04
 5  4 -8.27177019638580800D-03 -8.06652858514889100D-04 -2.40517856493760500D-04  6.31671754009906100D-02 -3.23864472984933300D-01
 5  5  6.06878907429733700D-02 -2.42894360897860700D-02  6.53440052905685000D-04  8.28642644101207400D-03  9.09816366400639800D-03
 5  6  9.03661922612708500D-03 -1.85068182311024000D-03  2.47923186575405000D-03 -4.84251919853351300D-03  2.59789754583350500D-03
 5  7  7.95688043481179700D-04 -5.40073280881348000D-03  2.26430145129925100D-03 -6.89407424776800100D-04  6.93021436931617900D-04
 5  8 -2.33924480751157600D-04 -1.70259188830290700D-03  2.13998723968544800D-03 -8.39194108079865900D-03 -3.95913773123535200D-03
 5  9 -3.70721525483619400D-03 -6.21774435394240000D-04 -1.26220695776946300D-03 -2.42317626603094600D-04 -1.21837807336988600D-03
 5 10  2.34419960278287000D-03 -1.65189092793949200D-03  1.84406260784197900D-03 -1.09963962914294600D-03  1.18518574598325300D-03
 5 11 -1.93441482632117400D-04
 6  1  3.76949334673165600D-02  4.18451621399307200D-02 -6.54112404051665500D-02 -1.50122888677217700D-02 -1.28583516333202800D-01
 6  2  1.55211992142390000D-01  1.17617783068069100D-03  1.08028312745922500D-02  1.86648718980553200D-05 -1.38361702801098600D-02
 6  3  1.38854247554498500D-02 -5.89425702592544200D-02 -6.85254541412383400D-03 -3.03875647764684200D-03  6.81035879943614500D-03
 6  4  4.43420650602377500D-03 -4.49822076986627900D-04 -3.44121513551620700D-03 -1.31821730318633500D-02  6.05875169848446600D-02
 6  5 -4.74535038074271100D-02  3.60722434150639900D-04  3.14492137044597400D-03 -6.30321788582521900D-03 -1.25242481917031700D-03
 6  6 -7.10191522038106100D-04  2.09467272587384600D-03 -2.20273813261728800D-04  2.52405775178765600D-03  7.47694074610394400D-03
 6  7  2.64037974362363300D-04  2.11337689496882100D-03  5.39814427512261300D-03  2.22592351499517600D-04 -3.08882247304631500D-04
 6  8 -1.18754539880361300D-03  3.36450507019692100D-03 -4.63630326754116400D-03  3.90168486301689700D-03  3.46622840220745000D-03
 6  9  3.63581393909295800D-03  1.12029333781127300D-03 -2.89503727454731900D-04 -1.07808472323833700D-03  2.53996901244391000D-03
 6 10 -1.03829602079164000D-03  8.27171697642681300D-04 -1.95203224239992600D-03  6.99291298644766400D-04 -5.71076541575066300D-04
 6 11  1.00410065473344200D-04
 7  1 -1.37305277036226000D-01  3.48678745324848500D-02 -3.48726911042762700D-03  3.71777390643146500D-02 -1.43763353525339100D-02
 7  2  1.17617783068069100D-03  7.13080788175080000D-01  2.53664714989887400D-02 -3.36727370872536000D-02 -1.78036302360573600D-02
 7  3  1.89745534071084100D-02 -3.28927870467399200D-03 -4.46937137487002400D-02 -3.26397319970306300D-02  9.27961949463707000D-03
 7  4 -3.32836049511987800D-01  8.62003884822493100D-02 -2.79518981761567300D-03 -3.20913129842909800D-03 -3.24049786392388600D-03
 7  5  7.66736999498890400D-04 -1.56345350466602400D-03  2.16131814994580100D-03 -1.17630875814400700D-03 -2.51473133510704500D-03
 7  6  2.95972001609412500D-02 -5.92254884680173300D-03 -2.06940915539005600D-01 -1.40881197234293800D-01  3.60302045647770100D-02
 7  7 -1.38711827757931300D-03 -3.41734803747384400D-03  1.58216039383637900D-03 -2.06246616061694900D-03 -2.20541067614821200D-03
 7  8  4.12782508667219900D-04 -6.43356682439311100D-04  9.09351135125469100D-04  6.03067367505039100D-04 -4.10573502845901200D-04
 7  9 -3.46723984384622600D-04 -4.34285172801196500D-04  1.20032581883422500D-03 -8.34526391141343600D-04  4.19948628194166700D-04
 7 10  3.92030653495467600D-05 -3.07285278644542400D-04  4.92414896707815700D-04 -1.39429136375435200D-04  1.96425411716494300D-04
 7 11  6.36099551837299200D-05
 8  1  7.96507028243909100D-02 -3.27061892039426400D-01  5.19445210458130400D-02 -3.55122744434888100D-02 -4.13772464664730100D-02
 8  2  1.08028312745922500D-02  2.53664714989887400D-02  6.90335715204559700D-01 -1.14430053227582200D-01  1.87198544236100200D-02
 8  3 -1.89876933858634800D-02  1.46554981089175300D-03 -1.17143474107850300D-02  3.73419214137360500D-02 -6.55889714940294200D-03
 8  4  4.14044690751701200D-02 -1.38364318963718500D-01  1.43659526754463800D-02 -3.45298341833718400D-03 -7.25309615381974900D-04
 8  5  2.32313169973505400D-03  2.46569219056747000D-03 -1.46092523870544600D-03 -7.50476933186750000D-04 -2.15781971159845200D-03
 8  6 -2.80317636140170500D-03  7.99915046014419700D-04 -1.40901235834750600D-01 -1.91399236897338300D-01  3.74019109624743100D-02
 8  7 -3.14718580969319800D-03 -2.67250779670547000D-03  1.88571958996252400D-03  2.96334808053078100D-02 -3.26330593237167400D-03
 8  8 -6.14005652735394300D-04  9.11711089257583000D-04 -3.98573823701120500D-04  1.13263488156212200D-03 -7.30365572776392500D-04
 8  9 -1.09534759223928200D-04 -4.71278681746234400D-04 -8.34446812336686600D-04  1.23783665779697600D-03  1.30737945536196800D-04
 8 10  2.57551587723448000D-04 -4.08097024084952400D-04  5.41434043888067200D-04  7.90964183039477600D-06  9.48868724037765800D-05
 8 11 -5.26305711984198500D-05
 9  1 -1.29192429250829500D-02  5.41102069900933900D-02 -6.50943900687012100D-02  5.63091438467444600D-03  9.71248163942894900D-03
 9  2  1.86648718980553200D-05 -3.36727370872536000D-02 -1.14430053227582200D-01  1.52122800429233000D-01 -3.97357071521553500D-03
 9  3  1.03437181940280200D-03 -5.15999941239075900D-03  4.94371268226490000D-03 -5.27076319070118900D-03  3.08551119933275800D-03
 9  4  6.22213890130451900D-03  1.16523875316576500D-02 -5.72882331945537300D-02  1.10378878833130800D-03  2.18622439208393500D-03
 9  5  7.47114200703516400D-03  6.87873199872735000D-04  1.08244478521091200D-03 -7.83753799526998300D-04  5.95977767875455200D-04
 9  6 -1.62801142303270500D-04  1.87551316968240900D-03  3.60357838076419400D-02  3.74065569352710600D-02 -4.58644206028216400D-02
 9  7  1.34795430261069900D-03  2.18879095331969700D-03  7.63281892460603000D-03 -5.41531315585985800D-03  1.06516738620499000D-03
 9  8  1.91710585127485800D-03 -8.24977402458237900D-04 -4.85203629668751200D-04  4.95767195535235000D-04  7.33356051618727600D-04
 9  9  4.86142337874362300D-04  2.09028505537833800D-04 -4.51288122316206900D-04 -6.98881418081942500D-04 -1.53729469332120100D-04
 9 10 -8.17420748866482000D-05  1.61986952879056300D-04 -5.19103057011749400D-04  4.21655352411676200D-05 -4.51725525874024900D-05
 9 11  3.60567109530807200D-05
10  1 -4.43993729204394900D-02 -3.52043859335293700D-02  1.03441638362677900D-02 -3.13325461867891600D-01  9.56579938640955700D-02
10  2 -1.38361702801098600D-02 -1.78036302360573600D-02  1.87198544236100200D-02 -3.97357071521553500D-03  5.96267323791921400D-01
10  3 -9.99631489109531500D-02  1.05644763917695000D-02 -1.23256898890866700D-01  6.95912324725545000D-02 -6.88654772854346800D-03
10  4  2.57367084476427300D-02 -1.52726662471458500D-02  2.53973502687826500D-03 -4.67579867385698900D-03 -2.19129366342274400D-03
10  5 -2.09224481176328900D-04 -7.43922181501210900D-02 -2.60987120783817700D-02 -2.90310772272373000D-02 -8.19776619495615800D-04
10  6 -2.61941249644487300D-03  2.02197597778727000D-03 -2.98624435607353100D-04  1.59457136685858800D-03 -5.47203660167250300D-04
10  7 -3.81303642249530800D-03  2.89424867717325000D-02 -4.54850964116872800D-03 -2.17713280658143900D-03 -3.19373372620335200D-03
10  8  8.60448245304512600D-04 -2.19503691561151500D-02 -2.76558271599114400D-03  3.96241088716775500D-02 -7.32734326880368800D-05
10  9 -4.55409001289264200D-03 -2.12623380013710100D-05 -1.99666012629551300D-02 -2.22525754663194200D-02 -5.34868861811199600D-03
10 10  3.72101499681587500D-03 -1.03046176846977000D-04 -2.51997919553659200D-03  1.13127467091800300D-03 -2.46855594984718400D-04
10 11  1.00672171890747700D-03
11  1 -1.27935954083641100D-02  2.71125395036597700D-02 -2.98125327036769000D-03  7.41075626492226900D-02 -1.25646379393540300D-01
11  2  1.38854247554498500D-02  1.89745534071084100D-02 -1.89876933858634800D-02  1.03437181940280200D-03 -9.99631489109531500D-02
11  3  5.83867624109246600D-01 -7.76841653189641600D-02  9.05038555418624700D-02 -3.08984686418833900D-01  3.92777171021485600D-02
11  4 -3.79647721623334300D-02 -4.06656421388096300D-02  1.21259284029076600D-02  2.87686791604240200D-02 -4.55777054596817600D-03
11  5  7.61080319389151300D-04 -1.80702725448012000D-02 -7.18558274188430000D-02 -2.47064092439131000D-02 -3.26697814769239000D-03
11  6 -1.64069801490557300D-03  1.86665084803260700D-03  1.63349610107221800D-03 -4.85500893976365000D-04 -4.53100402401929200D-04
11  7 -1.77469790312856400D-03 -5.58331203237283400D-03  2.88106956863876100D-04 -2.71877400491588000D-03 -1.63657201457390000D-04
11  8  2.89035314768731900D-03 -1.28348394682675800D-02 -1.93897037824963800D-02  4.33855785247239100D-02  1.13276753643809500D-03
11  9  3.77750116092867600D-03  1.05619110085664000D-03 -2.67543712013651500D-02 -1.97103421996747100D-02 -4.94650097446758300D-03
11 10 -8.73228992559482700D-05  3.51557605660080000D-03 -5.19148628363996800D-03  1.15335746387890100D-03 -6.92350896924764900D-04
11 11 -6.22042147471746400D-04
12  1  6.20521937792772900D-03 -2.09652982307850800D-03  7.29808940614640200D-03 -1.09398637045898800D-02  1.36194504243458700D-02
12  2 -5.89425702592544200D-02 -3.28927870467399200D-03  1.46554981089175300D-03 -5.15999941239075900D-03  1.05644763917695000D-02
12  3 -7.76841653189641600D-02  1.21218849555804200D-01 -1.02698567051973100D-02  3.89108116066655400D-02 -6.34975057434622500D-02
12  4  6.45808974266415300D-03  1.14495223252159000D-02  4.62146005783398200D-03 -5.72434906485263700D-03  1.31770968651578900D-03
12  5  4.86441892044720000D-06  3.96066764596719700D-02  4.25297262865831400D-02 -2.04409075335004700D-02  1.03456935895973600D-03
12  6  2.35657744435263700D-03  7.92231595302030800D-03 -4.11058213742321300D-04 -3.42104851638880300D-04 -1.59188372384211400D-03
12  7  8.32735353037406000D-04 -4.24633313142464000D-04  4.54420140343948800D-04  1.30104057565055800D-03  1.85668299724078800D-03
12  8  7.89789157856907200D-03 -4.00945394568169600D-02 -3.57349658661916500D-02  1.44251026723815600D-02  4.04607921220212500D-02
12  9  3.02980576220496200D-02  1.19002918660654500D-02 -3.67040276837704600D-02 -3.17203061038939800D-02  6.82211468996940500D-04
12 10 -1.86107742264074400D-03  6.17892948084342000D-03 -2.84059088324989400D-02  2.84075792972016100D-03 -1.94100185624823700D-03
12 11  1.59675868784958700D-03
13  1 -1.24522754672007400D-03 -9.49655814275196500D-03  1.66991045453535000D-03 -3.17655599645361200D-03  3.40167447113570700D-02
13  2 -6.85254541412383400D-03 -4.46937137487002400D-02 -1.17143474107850300D-02  4.94371268226490000D-03 -1.23256898890866700D-01
13  3  9.05038555418624700D-02 -1.02698567051973100D-02  7.54934707586629700D-01 -1.59388743397825800D-02 -3.50204652439289900D-02
13  4 -2.46167570911159900D-01 -1.39901283468063500D-01  3.77173250619256000D-02 -5.76244522219942700D-03  1.13337597878182500D-03
13  5  3.88286887810507200D-04 -2.64241056220360100D-03 -2.44423919871450400D-02  1.29688477973177700D-02  6.92008192709758800D-04
13  6 -7.55941147451144600D-04  1.73267884587789700D-04 -5.20739590704200100D-03  2.71842288282475600D-03  2.65324929726862300D-04
13  7 -3.31842061745413200D-01  7.27016828922039100D-02  4.90887365019315700D-03  8.80880580079457200D-03  8.25167039357754800D-03
13  8 -2.01539807448414300D-03  4.04607139466994800D-03 -3.28438829864663400D-03 -8.60220192370753100D-03 -5.34370183035148800D-03
13  9 -3.39633637308489600D-03 -1.10005222440645600D-03  3.73642686340991400D-04 -7.75324886215234000D-04 -1.23309009003591500D-03
13 10  2.17704691496400900D-03 -1.51110636289475400D-03  2.64574382946025600D-03 -1.65539745969334200D-03  1.88543548746977800D-03
13 11 -6.00079853033119700D-04
14  1 -9.89227303182238500D-03 -3.33336247209603500D-02  7.49097749133953400D-03  4.38791441205621500D-02 -5.98223526382946100D-03
14  2 -3.03875647764684200D-03 -3.26397319970306300D-02  3.73419214137360500D-02 -5.27076319070118900D-03  6.95912324725545000D-02
14  3 -3.08984686418833900D-01  3.89108116066655400D-02 -1.59388743397825800D-02  6.59119273410879700D-01 -9.69265426969373500D-02
14  4 -9.63138651303811800D-02 -2.29894814111431000D-01  3.92530266502211200D-02  1.09634257611426100D-03  1.74875029884114000D-03
14  5 -9.16928817512596700D-05 -1.01022338090228600D-02 -2.48992320131813400D-02  1.29657996038368100D-02 -5.99787421109998500D-04
14  6 -1.48467799450102700D-03  6.14550198746628700D-04  2.40740602568956200D-03  9.30385686770396300D-04  1.41818066641541400D-03
14  7  7.41779216144267100D-02 -7.54631300177277500D-02  3.04131248387087800D-03 -2.37130927469769700D-02 -1.45085272395484300D-02
14  8  4.05833475093375600D-03 -1.04961327655528300D-02 -1.19539848522143300D-02 -4.89614491957501800D-03  4.91756105245322300D-03
14  9  4.26370656689822900D-03  1.29130238133434700D-03  4.88276036473833700D-03  2.72854156087021200D-03  2.50752861190584000D-03
14 10 -1.81645024008303400D-03  9.79652745247694400D-04 -1.41889119704141600D-03  4.90559526972189600D-04 -5.32313420084640200D-04
14 11  1.29320643921238000D-04
15  1  1.53359689595289300D-03  7.83731287973266100D-03 -5.02563324352167700D-03 -1.17264166123842700D-02  2.27697067459176100D-04
15  2  6.81035879943614500D-03  9.27961949463707000D-03 -6.55889714940294200D-03  3.08551119933275800D-03 -6.88654772854346800D-03
15  3  3.92777171021485600D-02 -6.34975057434622500D-02 -3.50204652439289900D-02 -9.69265426969373500D-02  1.47176005025484400D-01
15  4  3.08739010173968200D-02  4.24678559172109200D-02 -6.48639919987904800D-02  2.44119829195203100D-04  1.00539049768810800D-03
15  5  5.74253518329515000D-03  5.31308642943151300D-03  1.38047249687023300D-05 -5.92201714471607400D-03  6.82516761968399200D-05
15  6  1.49702836538256900D-04 -1.36578743955145800D-03  1.93734670886347400D-04  1.20558450855123800D-03  7.65603010880744300D-03
15  7  4.75756452146258700D-03  2.32144102700893000D-03 -3.57301737196627500D-02  4.01386520522684100D-03  2.63994967602959600D-03
15  8  1.30061893778565800D-03 -3.81211769477779500D-03  4.64250547273781200D-03  2.99635350574645200D-03  3.26810208192140900D-03
15  9  1.72367975515425000D-03  1.02774796841009800D-03 -2.12749879011792100D-03 -3.99902532383089600D-04  2.21450195398709100D-03
15 10 -3.27087309090479100D-04  9.15637762133325600D-04 -1.95963064485993300D-03  3.63939253111844600D-04 -5.54361485244347900D-04
15 11  3.17907318261867500D-04
16  1 -7.75787011655926200D-04  5.57705457170397400D-02 -1.15194497263201900D-02 -3.56012581701335700D-02 -8.27177019638580800D-03
16  2  4.43420650602377500D-03 -3.32836049511987800D-01  4.14044690751701200D-02  6.22213890130451900D-03  2.57367084476427300D-02
16  3 -3.79647721623334300D-02  6.45808974266415300D-03 -2.46167570911159900D-01 -9.63138651303811800D-02  3.08739010173968200D-02
16  4  6.84508757485782800D-01 -1.67676506378763900D-02 -2.68662871476976800D-02 -1.39616335162106800D-03 -7.77636878346310600D-04
16  5  6.65353167441512500D-04  6.14489278242119600D-03  3.05344446093341900D-03 -4.53904943328448100D-03  1.47890159439417700D-03
16  6  1.08459679999048400D-03 -1.34449245242467000D-04 -1.49109054939582100D-02  9.33221194218333800D-03 -1.16438099200186200D-03
16  7 -1.31121735197248200D-02 -2.19924468984979100D-02  4.50497472010919300D-03 -7.47868296946174700D-02  6.79196857015333700D-02
16  8 -1.04980865800609300D-02  5.76583535148583700D-03  4.87568769367979800D-03  2.05107812605714900D-03 -2.51522724514508000D-03
16  9 -1.74279934404553100D-03 -7.88415163852085300D-04 -1.88766317562108500D-03  8.10866642959179300D-04 -7.88566617394848000D-04
16 10  3.73953515005881500D-04 -4.87449560918062900D-04  1.10112459233424600D-03  3.27247055675883300D-05 -1.20162727927641800D-05
16 11 -6.02907398124241700D-05
17  1  3.78415676888704800D-02 -3.94870010478887100D-03 -8.44725731780071600D-04 -8.55522395482033500D-03 -8.06652858514889100D-04
17  2 -4.49822076986627900D-04  8.62003884822493100D-02 -1.38364318963718500D-01  1.16523875316576500D-02 -1.52726662471458500D-02
17  3 -4.06656421388096300D-02  1.14495223252159000D-02 -1.39901283468063500D-01 -2.29894814111431000D-01  4.24678559172109200D-02
17  4 -1.67676506378763900D-02  7.28817630559919200D-01 -1.15992771080329600D-01 -6.22682372433854000D-04  5.02135447932872100D-04
17  5 -6.47757659157088800D-05  7.84932061903553800D-04 -5.70156335580884700D-03  5.71088310017398000D-03  1.19903986673108900D-03
17  6 -5.25187785370001500D-03  2.83908556181367700D-03 -2.23414548263634000D-02  9.35172027570208000D-03 -3.12746189855273000D-04
17  7  8.83687258612653200D-03  1.00505080831675400D-02 -2.25137442990816200D-03  6.78841609360547600D-02 -3.24298081173246500D-01
17  8  5.06671401969527300D-02  2.94172872181142100D-03  5.70443709574375300D-04 -4.42424438557576000D-03 -2.07627417988520700D-03
17  9 -1.34034652030379200D-03 -1.65468430757265100D-04 -4.23073715044575100D-04  7.76047638234578200D-04 -9.67219595077173400D-04
17 10  6.98770033313866900D-04 -2.01070156324867400D-04  9.14863080880845600D-04 -4.00746708462129700D-04  3.76402235674477800D-04
17 11 -2.62245490806334300D-04
18  1 -7.74895377994300200D-03 -2.03020332298492500D-03  3.11313639416860300D-03  4.36137720011275900D-03 -2.40517856493760500D-04
18  2 -3.44121513551620700D-03 -2.79518981761567300D-03  1.43659526754463800D-02 -5.72882331945537300D-02  2.53973502687826500D-03
18  3  1.21259284029076600D-02  4.62146005783398200D-03  3.77173250619256000D-02  3.92530266502211200D-02 -6.48639919987904800D-02
18  4 -2.68662871476976800D-02 -1.15992771080329600D-01  1.47988523776752800D-01  8.68472618818436100D-05 -3.19222340472435900D-04
18  5 -1.17901174432819000D-03 -5.90509082331047700D-03 -2.78737833472458800D-03  5.49605998316216000D-03 -5.35622941444380300D-05
18  6  2.56085310026826800D-03  7.24044704444263400D-03  5.21907815726058200D-03 -1.71741646181194900D-03  2.74254822024561100D-03
18  7 -9.05287951766253800D-04  1.34451381388067700D-04  3.34509403849625800D-03 -1.06524546357563600D-02  5.10328365975046300D-02
18  8 -4.52855704762354600D-02  5.65079736546715600D-03  4.16862903510374600D-03 -3.76215631289894500D-03 -4.04837805434848900D-03
18  9 -2.58191818728326100D-03 -1.03154265299193500D-03  3.49240088470884100D-03  2.38082587253885000D-03 -1.99971983753932700D-04
18 10  2.54317016436245200D-04 -5.93714030915071200D-04  2.60359506220608800D-03 -3.54503277985585000D-04  2.28910413346827800D-04
18 11 -1.10886353582584400D-04
19  1  9.84278005675956100D-03 -2.25370233340628000D-02  4.67909057403166300D-03 -7.16698791601327900D-02  6.31671754009906100D-02
19  2 -1.31821730318633500D-02 -3.20913129842909800D-03 -3.45298341833718400D-03  1.10378878833130800D-03 -4.67579867385698900D-03
19  3  2.87686791604240200D-02 -5.72434906485263700D-03 -5.76244522219942700D-03  1.09634257611426100D-03  2.44119829195203100D-04
19  4 -1.39616335162106800D-03 -6.22682372433854000D-04  8.68472618818436100D-05  7.32655837891090200D-02 -6.82282980775766300D-02
19  5  1.40658860680723800D-02  1.15278948384419500D-03  1.47990468919037900D-03 -1.11029352228321500D-03  9.17967199103465100D-04
19  6  5.44117039557451300D-04 -2.71130382670757600D-04  4.05878865955729100D-04 -1.22417122344819700D-03  1.87992889786031000D-04
19  7 -4.67699731019309600D-05  1.50900187736160600D-03 -1.75880208766986100D-04  1.35264862428496200D-04  3.96145561889528500D-05
19  8 -3.60539429778220000D-05  1.56134784864737900D-03  2.99214013498375100D-05  1.74326012201096700D-04 -2.20758195055344900D-04
19  9 -2.23229580859855100D-04  8.33564083131330100D-06 -5.65824360961551800D-05 -2.15244102599616200D-04 -1.34534347504856900D-04
19 10 -3.47830666815908400D-04 -5.22624531272379600D-05  5.99542698969529600D-05  9.59940907071035700D-05 -6.58417283979674500D-05
19 11  1.55003313859550200D-05
20  1  8.07853604095354300D-03 -1.22665773081759300D-02  2.81517762340810500D-03  6.49167403760947400D-02 -3.23864472984933300D-01
20  2  6.05875169848446600D-02 -3.24049786392388600D-03 -7.25309615381974900D-04  2.18622439208393500D-03 -2.19129366342274400D-03
20  3 -4.55777054596817600D-03  1.31770968651578900D-03  1.13337597878182500D-03  1.74875029884114000D-03  1.00539049768810800D-03
20  4 -7.77636878346310600D-04  5.02135447932872100D-04 -3.19222340472435900D-04 -6.82282980775766300D-02  3.38169326823778400D-01
20  5 -6.59062022839086700D-02  6.90271248909857200D-05  1.13384181147646600D-03 -4.79117361060210600D-04 -6.89997555064492100D-05
20  6  6.98584026698201300D-04 -1.04784791108494800D-03  4.69956516269132200D-04 -7.00911139195348200D-04  1.02722305246605300D-04
20  7 -7.78309006743693700D-05 -6.38730176916180200D-05  1.54890865356437100D-04  3.73648682869265300D-05 -9.11738685521745800D-05
20  8 -2.30418729159354000D-04 -6.95913839443562700D-04 -2.12781793662575300D-04  2.96261514154405600D-05  5.69518057436102500D-04
20  9  3.63576109152496900D-04  1.09176124632459600D-04 -2.25326626288047100D-05 -2.40654918692850800D-04  6.03135200949456200D-06
20 10 -1.48014534240292800D-05  1.18503088541999100D-04 -3.50807332671898600D-04  7.49337711158926100D-05 -5.49250534359613200D-05
20 11  2.98954849681232200D-05
21  1 -2.38468969618252400D-03  3.45702606992445700D-03  2.51636710953961900D-03 -1.29361744634827500D-02  6.06878907429733700D-02
21  2 -4.74535038074271100D-02  7.66736999498890400D-04  2.32313169973505400D-03  7.47114200703516400D-03 -2.09224481176328900D-04
21  3  7.61080319389151300D-04  4.86441892044720000D-06  3.88286887810507200D-04 -9.16928817512596700D-05  5.74253518329515000D-03
21  4  6.65353167441512500D-04 -6.47757659157088800D-05 -1.17901174432819000D-03  1.40658860680723800D-02 -6.59062022839086700D-02
21  5  3.82092599448824500D-02  2.73521009872476600D-03  2.26518389059918200D-03 -2.33064799879598200D-03 -1.37073881308763500D-04
21  6 -9.90847314868287300D-04 -3.72580751394451000D-03 -1.35226735119981000D-04  1.87845915455842100D-04 -1.70509559839493500D-04
21  7  2.33458209979164900D-05  2.04409981129777300D-04  8.62029192199784100D-04 -5.79677976002279700D-05 -1.68303974229511200D-04
21  8 -1.02131735350494100D-03 -2.80222096730176100D-03 -2.76061369990504600D-03  2.11445619775901800D-03  1.56874698700043600D-03
21  9  1.46706566335891300D-03  2.58623124679141500D-04 -1.51593629760873900D-03 -1.43344159055508500D-03 -3.22115433279424000D-04
21 10 -2.16753114461870600D-04  1.69060414635657800D-04 -9.68331947013428800D-04  1.80151691760166400D-04 -9.38180808679467400D-05
21 11  1.33927314731330200D-05
22  1 -5.40191258799338500D-03  3.06842166949428100D-03 -5.38734571978449800D-03 -2.62623071844270100D-02 -2.42894360897860700D-02
22  2  3.60722434150639900D-04 -1.56345350466602400D-03  2.46569219056747000D-03  6.87873199872735000D-04 -7.43922181501210900D-02
22  3 -1.80702725448012000D-02  3.96066764596719700D-02 -2.64241056220360100D-03 -1.01022338090228600D-02  5.31308642943151300D-03
22  4  6.14489278242119600D-03  7.84932061903553800D-04 -5.90509082331047700D-03  1.15278948384419500D-03  6.90271248909857200D-05
22  5  2.73521009872476600D-03  2.96463124834867000D-01  1.28000185324828000D-01  1.14667556786241000D-01 -6.86207951416939500D-04
22  6 -1.24217934092119000D-03  2.98785441247249900D-04 -4.76070480204260300D-05  1.09473981713126300D-04  8.47476257165302700D-04
22  7  6.52839214632106000D-04  2.15032493179612100D-03  2.56625662567438300D-03 -1.99035256701063400D-04  4.82183958927517900D-05
22  8 -7.87506856299302600D-04  1.05134454354671700D-02  6.16511823643028900D-02 -5.06789169951588100D-02 -5.91860249823605900D-02
22  9 -4.89147633478348400D-02 -8.94684523879973900D-03 -1.10632439150271100D-01 -6.16411547034068100D-02 -1.41157019797599800D-01
22 10 -3.02129399668782400D-02 -4.09627270703039100D-02  4.91938150432802400D-02 -3.70527477860926900D-03  6.90122995431474700D-03
22 11 -3.37961898957961400D-03
23  1  2.46606775085589400D-03  4.24163231421692500D-03 -5.25216515350202000D-03 -7.37906353237005600D-03  6.53440052905685000D-04
23  2  3.14492137044597400D-03  2.16131814994580100D-03 -1.46092523870544600D-03  1.08244478521091200D-03 -2.60987120783817700D-02
23  3 -7.18558274188430000D-02  4.25297262865831400D-02 -2.44423919871450400D-02 -2.48992320131813400D-02  1.38047249687023300D-05
23  4  3.05344446093341900D-03 -5.70156335580884700D-03 -2.78737833472458800D-03  1.47990468919037900D-03  1.13384181147646600D-03
23  5  2.26518389059918200D-03  1.28000185324828000D-01  3.03580484776366800D-01  1.97891704356456500D-01  3.08636665261041700D-04
23  6 -1.00394992701147200D-04 -6.70859373550630700D-04  6.53610957579431300D-06  9.38386307214322800D-05  6.10381427487705100D-04
23  7 -4.84258967531348000D-04  1.18528675414064600D-03  1.99087020361348600D-03 -1.17496653870286000D-03 -5.38733233679256100D-04
23  8  3.38599150238871900D-04  7.23400394525786100D-02 -1.35444821895980300D-03 -1.16036870723740200D-01 -6.17450321662382800D-02
23  9 -4.44143674770081100D-02 -1.13093514902851100D-02 -5.44285948203771000D-02 -1.36523322879089600D-01 -1.61666447662856000D-01
23 10 -3.13615093375130300D-02 -3.01429671959785300D-02  5.22582766366630500D-02 -2.65611680303479100D-03  6.09461232302654900D-03
23 11 -4.36830735723314800D-03
24  1  3.54286721803431800D-03 -3.69507820811021400D-03  7.42746316139963900D-03  1.18072068026553500D-02  8.28642644101207400D-03
24  2 -6.30321788582521900D-03 -1.17630875814400700D-03 -7.50476933186750000D-04 -7.83753799526998300D-04 -2.90310772272373000D-02
24  3 -2.47064092439131000D-02 -2.04409075335004700D-02  1.29688477973177700D-02  1.29657996038368100D-02 -5.92201714471607400D-03
24  4 -4.53904943328448100D-03  5.71088310017398000D-03  5.49605998316216000D-03 -1.11029352228321500D-03 -4.79117361060210600D-04
24  5 -2.33064799879598200D-03  1.14667556786241000D-01  1.97891704356456500D-01  1.01341073051293100D+00  7.93965209186509000D-04
24  6  1.13943344001860000D-03  7.44832559222696800D-04  1.03418217761719300D-04 -7.89955895807992200D-05 -1.35054580944205000D-03
24  7 -7.53396053931876300D-05 -1.15835514903905900D-03 -1.96867795599579100D-03  1.22433362525625800D-03  1.02213680671092700D-03
24  8  6.35438480768579800D-04  4.04718318811836400D-02 -2.98541050290646000D-02 -6.50318887288736700D-01 -6.13456757184160900D-03
24  9  4.01640654651425100D-04 -3.19811746630760400D-02 -1.26587081093976200D-01 -1.51156256420792400D-01 -3.57603643874848700D-01
24 10 -2.10844671218346500D-02 -1.67989913831379000D-02  5.79259489100980600D-02  4.19860522857806700D-03  1.38646289299104700D-03
24 11 -6.59501467658030200D-03
25  1 -3.29250600452241100D-01  7.56230009576974700D-02 -4.62335245228207000D-03 -1.55208340343465600D-02  9.09816366400639800D-03
25  2 -1.25242481917031700D-03 -2.51473133510704500D-03 -2.15781971159845200D-03  5.95977767875455200D-04 -8.19776619495615800D-04
25  3 -3.26697814769239000D-03  1.03456935895973600D-03  6.92008192709758800D-04 -5.99787421109998500D-04  6.82516761968399200D-05
25  4  1.47890159439417700D-03  1.19903986673108900D-03 -5.35622941444380300D-05  9.17967199103465100D-04 -6.89997555064492100D-05
25  5 -1.37073881308763500D-04 -6.86207951416939500D-04  3.08636665261041700D-04  7.93965209186509000D-04  3.45379649711974300D-01
25  6 -8.00221832651396000D-02  4.58478050194260200D-03  7.43326021387935600D-04  1.87499373388577700D-04 -1.97787036762542300D-04
25  7 -5.42123722829801500D-05  4.38300292948667900D-05 -3.27412002074437000D-05 -1.87263504844437100D-04 -1.55769687365525700D-04
25  8  5.70087332799063000D-05  2.67371763174040200D-04  3.96907155744696800D-04 -7.77074432903313000D-04 -5.28139726868603900D-04
25  9 -4.48516553533395700D-04 -1.28498417079070400D-04 -1.00829989779782600D-04 -1.10453797572129800D-04 -1.93998181441390500D-04
25 10  2.75898523288686800D-04 -1.15789884919115200D-04  2.50754531605501500D-04 -1.31751311222005900D-04  1.10086469340409100D-04
25 11 -1.89802022043661400D-05
26  1  7.55563544511159100D-02 -7.77523938712707000D-02  5.92746293406609700D-03 -2.28858019736211100D-02  9.03661922612708500D-03
26  2 -7.10191522038106100D-04  2.95972001609412500D-02 -2.80317636140170500D-03 -1.62801142303270500D-04 -2.61941249644487300D-03
26  3 -1.64069801490557300D-03  2.35657744435263700D-03 -7.55941147451144600D-04 -1.48467799450102700D-03  1.49702836538256900D-04
26  4  1.08459679999048400D-03 -5.25187785370001500D-03  2.56085310026826800D-03  5.44117039557451300D-04  6.98584026698201300D-04
26  5 -9.90847314868287300D-04 -1.24217934092119000D-03 -1.00394992701147200D-04  1.13943344001860000D-03 -8.00221832651396000D-02
26  6  7.85751297036174600D-02 -7.99864053409211900D-03 -4.52716369869765600D-04  9.59674423554879300D-04 -8.89969948589253200D-04
26  7  3.42163453306842900D-05  9.75015769955067700D-05 -2.25815766855506900D-04  1.51264164781478300D-03 -2.22268782806844800D-04
26  8 -6.13545144384497500D-05 -1.22315788289584200D-04  2.80525554646748900D-04 -9.81833102162155100D-04 -3.30400254458518300D-04
26  9 -3.58216073034767200D-04 -3.11148649068115900D-05  3.63525094443373200D-05 -4.95122208787890400D-05 -1.99951577632695400D-04
26 10  2.00059974764244000D-04 -8.87793931356184500D-05  1.53534812684375000D-04 -1.20860347990747700D-04  9.70509114434081600D-05
26 11 -1.67511204740566900D-05
27  1 -4.95646801222642700D-03  6.09679508945821400D-03 -3.71847704359476800D-02  5.00145523038113300D-03 -1.85068182311024000D-03
27  2  2.09467272587384600D-03 -5.92254884680173300D-03  7.99915046014419700D-04  1.87551316968240900D-03  2.02197597778727000D-03
27  3  1.86665084803260700D-03  7.92231595302030800D-03  1.73267884587789700D-04  6.14550198746628700D-04 -1.36578743955145800D-03
27  4 -1.34449245242467000D-04  2.83908556181367700D-03  7.24044704444263400D-03 -2.71130382670757600D-04 -1.04784791108494800D-03
27  5 -3.72580751394451000D-03  2.98785441247249900D-04 -6.70859373550630700D-04  7.44832559222696800D-04  4.58478050194260200D-03
27  6 -7.99864053409211900D-03  2.73094110231346400D-02 -9.26235187428611800D-05 -9.48870771715244800D-04 -3.47160213491314000D-03
27  7 -8.80507959698587100D-05 -2.01499471184050900D-04 -1.01662959588536000D-03 -3.45345110160967500D-04  9.79134862650471400D-05
27  8  1.11350964918620300D-04 -1.05408229089144800D-04  4.51993785864461500D-04 -4.02958995267266300D-04 -2.42443713673219700D-04
27  9 -2.45637838164510000D-04 -8.86165052609022600D-05  1.14101430188050200D-04  1.89733549535442400D-04 -1.89971743819704300D-04
27 10  9.39287748413786300D-06  3.93348843427676600D-07  1.77467313547917400D-04 -4.61612502729302800D-05  2.02655173689100800D-05
27 11 -8.60757435553610700D-06
28  1  9.12402415281510200D-03  8.57992594823775400D-03 -1.95230417542047200D-03  8.43464633643042900D-04  2.47923186575405000D-03
28  2 -2.20273813261728800D-04 -2.06940915539005600D-01 -1.40901235834750600D-01  3.60357838076419400D-02 -2.98624435607353100D-04
28  3  1.63349610107221800D-03 -4.11058213742321300D-04 -5.20739590704200100D-03  2.40740602568956200D-03  1.93734670886347400D-04
28  4 -1.49109054939582100D-02 -2.23414548263634000D-02  5.21907815726058200D-03  4.05878865955729100D-04  4.69956516269132200D-04
28  5 -1.35226735119981000D-04 -4.76070480204260300D-05  6.53610957579431300D-06  1.03418217761719300D-04  7.43326021387935600D-04
28  6 -4.52716369869765600D-04 -9.26235187428611800D-05  2.15911146541047900D-01  1.49289148366821300D-01 -3.86969722374758100D-02
28  7 -7.37898594338481900D-04 -1.18405838832325000D-03  2.85057361300473900D-04  1.12499817633005000D-03  1.66530110162765900D-04
28  8 -2.81332055493410700D-04 -7.73362290928947300D-05 -1.59734905169628400D-04 -3.88397698281028900D-05  3.72883996180295400D-05
28  9  3.34247839517409800D-05  1.84209415499125800D-05  2.03701512713205800D-05 -4.01687433704278600D-05  9.98793991957569500D-06
28 10  1.52516957563353400D-05  4.57323141356269500D-05 -4.03954833028130600D-05 -1.38277482297777300D-05 -2.11865972821190200D-05
28 11  5.62490530819914600D-06
29  1 -2.31311055045063700D-02 -1.38607732839302100D-02  4.31374228743730500D-03  2.25045113888544500D-03 -4.84251919853351300D-03
29  2  2.52405775178765600D-03 -1.40881197234293800D-01 -1.91399236897338300D-01  3.74065569352710600D-02  1.59457136685858800D-03
29  3 -4.85500893976365000D-04 -3.42104851638880300D-04  2.71842288282475600D-03  9.30385686770396300D-04  1.20558450855123800D-03
29  4  9.33221194218333800D-03  9.35172027570208000D-03 -1.71741646181194900D-03 -1.22417122344819700D-03 -7.00911139195348200D-04
29  5  1.87845915455842100D-04  1.09473981713126300D-04  9.38386307214322800D-05 -7.89955895807992200D-05  1.87499373388577700D-04
29  6  9.59674423554879300D-04 -9.48870771715244800D-04  1.49289148366821300D-01  1.99070522344579900D-01 -4.16234254460037800D-02
29  7  5.05208084439212600D-04  4.01392491738983300D-04 -1.57155043517716300D-04 -4.67071494213156000D-04  5.99674480172840400D-04
29  8 -7.95799862074453300D-04 -3.01340553965356900D-04 -2.12031641189103200D-04  9.78550543262457500D-05  1.23691381076485000D-04
29  9  1.17294407686596700D-04  2.16201469283028300D-05 -1.33422053877341200D-04 -4.47678849324617500D-05  6.75979395237114000D-06
29 10  5.04443029791801200D-05  1.09410241644347600D-05 -8.25014623395681200D-05 -4.43169573816071200D-06  4.90425942079042400D-06
29 11  3.22118909046320600D-06
30  1  4.27071452156896300D-03  2.77442774789388200D-03  1.88772825857469500D-03  1.40634883169510300D-05  2.59789754583350500D-03
30  2  7.47694074610394400D-03  3.60302045647770100D-02  3.74019109624743100D-02 -4.58644206028216400D-02 -5.47203660167250300D-04
30  3 -4.53100402401929200D-04 -1.59188372384211400D-03  2.65324929726862300D-04  1.41818066641541400D-03  7.65603010880744300D-03
30  4 -1.16438099200186200D-03 -3.12746189855273000D-04  2.74254822024561100D-03  1.87992889786031000D-04  1.02722305246605300D-04
30  5 -1.70509559839493500D-04  8.47476257165302700D-04  6.10381427487705100D-04 -1.35054580944205000D-03 -1.97787036762542300D-04
30  6 -8.89969948589253200D-04 -3.47160213491314000D-03 -3.86969722374758100D-02 -4.16234254460037800D-02  3.54731991028395300D-02
30  7 -6.05664200306610400D-05 -8.53502854350485200D-05 -1.33769003821809800D-04 -1.17593537660165600D-04 -8.07050774900841500D-04
30  8 -3.46533894685224800D-03 -1.01606053883596100D-03 -9.31424053539353600D-04  9.79010529222890100D-04  7.12100210122079700D-04
30  9  5.57486636255932800D-04  1.38297637833351100D-04 -5.01105058914319600D-04 -4.00716416285029600D-04  1.09333389407273400D-04
30 10 -1.16369046987419000D-04  1.14868841891158100D-04 -4.17337295405273400D-04  9.00498429629026400D-05 -6.43962348556570400D-05
30 11  1.95459686852528200D-05
31  1  4.52722818491957400D-04 -9.18358526147411400D-04  7.90148872470419800D-05  1.79410682617509000D-03  7.95688043481179700D-04
31  2  2.64037974362363300D-04 -1.38711827757931300D-03 -3.14718580969319800D-03  1.34795430261069900D-03 -3.81303642249530800D-03
31  3 -1.77469790312856400D-03  8.32735353037406000D-04 -3.31842061745413200D-01  7.41779216144267100D-02  4.75756452146258700D-03
31  4 -1.31121735197248200D-02  8.83687258612653200D-03 -9.05287951766253800D-04 -4.67699731019309600D-05 -7.78309006743693700D-05
31  5  2.33458209979164900D-05  6.52839214632106000D-04 -4.84258967531348000D-04 -7.53396053931876300D-05 -5.42123722829801500D-05
31  6  3.42163453306842900D-05 -8.80507959698587100D-05 -7.37898594338481900D-04  5.05208084439212600D-04 -6.05664200306610400D-05
31  7  3.46529171637932600D-01 -7.84094961603559700D-02 -5.58398879968134700D-03  9.22792441837572100D-04 -8.32782947157717500D-05
31  8 -3.16007265131756900D-04  3.24757507835782300D-04 -1.03055946920616000D-04 -2.77044581986629600D-04  6.20892465608147100D-05
31  9  1.92134511839414700D-04 -4.83650275939773200D-06 -3.24122454986586200D-06  2.95416747403409700D-04  1.09677830190113600D-04
31 10  2.71643402877108600D-04 -7.97673903651929800D-05 -9.82969942553424400D-05 -5.14387400618598900D-05  2.75413408468150300D-04
31 11 -2.51916699722798400D-06
32  1 -6.38628365243199000D-04 -1.25529891804865300D-03 -2.86890802780881400D-06  6.91085014237202700D-04 -5.40073280881348000D-03
32  2  2.11337689496882100D-03 -3.41734803747384400D-03 -2.67250779670547000D-03  2.18879095331969700D-03  2.89424867717325000D-02
32  3 -5.58331203237283400D-03 -4.24633313142464000D-04  7.27016828922039100D-02 -7.54631300177277500D-02  2.32144102700893000D-03
32  4 -2.19924468984979100D-02  1.00505080831675400D-02  1.34451381388067700D-04  1.50900187736160600D-03 -6.38730176916180200D-05
32  5  2.04409981129777300D-04  2.15032493179612100D-03  1.18528675414064600D-03 -1.15835514903905900D-03  4.38300292948667900D-05
32  6  9.75015769955067700D-05 -2.01499471184050900D-04 -1.18405838832325000D-03  4.01392491738983300D-04 -8.53502854350485200D-05
32  7 -7.84094961603559700D-02  7.72747404532925200D-02 -4.11086746617168900D-03  5.15814107994450000D-04  7.53090736292649800D-04
32  8 -8.94650462925084000D-04 -3.97440526149484000D-04  1.15707462114422700D-03  2.19958587564794700D-04  1.15305621800621000D-05
32  9 -6.42496884278864800D-05 -3.20065128123214700D-05 -5.34679512902147500D-04 -2.70098982141364600D-04 -2.69178800937908100D-04
32 10 -7.81411077233062900D-05 -3.41141235313258100D-04  1.90516452502897900D-05  1.02704479962301100D-04  1.87779780827512800D-04
32 11 -1.49576168950726900D-05
33  1  3.12765906433122600D-04  5.75815862159483000D-04 -1.29912911562349300D-03 -8.28118111177896000D-04  2.26430145129925100D-03
33  2  5.39814427512261300D-03  1.58216039383637900D-03  1.88571958996252400D-03  7.63281892460603000D-03 -4.54850964116872800D-03
33  3  2.88106956863876100D-04  4.54420140343948800D-04  4.90887365019315700D-03  3.04131248387087800D-03 -3.57301737196627500D-02
33  4  4.50497472010919300D-03 -2.25137442990816200D-03  3.34509403849625800D-03 -1.75880208766986100D-04  1.54890865356437100D-04
33  5  8.62029192199784100D-04  2.56625662567438300D-03  1.99087020361348600D-03 -1.96867795599579100D-03 -3.27412002074437000D-05
33  6 -2.25815766855506900D-04 -1.01662959588536000D-03  2.85057361300473900D-04 -1.57155043517716300D-04 -1.33769003821809800D-04
33  7 -5.58398879968134700D-03 -4.11086746617168900D-03  2.53813444810735400D-02 -3.78179561821671800D-04 -8.57114294153943400D-04
33  8 -3.79432987879513300D-03 -2.87908547914692700D-03 -2.90090935354814200D-03  1.93079652734649800D-03  1.89116783447396800D-03
33  9  1.25168888571777100D-03  2.86782993530205300D-04 -1.61235275533671400D-03 -1.15356490690554600D-03 -3.05491319176239000D-04
33 10 -1.67154110154547900D-04  3.30852378305039600D-04 -1.00451790666835500D-03  1.55013706318318800D-04 -1.14169130202047800D-04
33 11 -1.66671790480243900D-05
34  1 -5.69746541024124300D-03  1.35539420529490200D-03  3.72928801585514800D-04 -1.62145581825284800D-03 -6.89407424776800100D-04
34  2  2.22592351499517600D-04 -2.06246616061694900D-03  2.96334808053078100D-02 -5.41531315585985800D-03 -2.17713280658143900D-03
34  3 -2.71877400491588000D-03  1.30104057565055800D-03  8.80880580079457200D-03 -2.37130927469769700D-02  4.01386520522684100D-03
34  4 -7.47868296946174700D-02  6.78841609360547600D-02 -1.06524546357563600D-02  1.35264862428496200D-04  3.73648682869265300D-05
34  5 -5.79677976002279700D-05 -1.99035256701063400D-04 -1.17496653870286000D-03  1.22433362525625800D-03 -1.87263504844437100D-04
34  6  1.51264164781478300D-03 -3.45345110160967500D-04  1.12499817633005000D-03 -4.67071494213156000D-04 -1.17593537660165600D-04
34  7  9.22792441837572100D-04  5.15814107994450000D-04 -3.78179561821671800D-04  7.57472932485348000D-02 -7.18114568948713400D-02
34  8  1.08270915175526200D-02  3.84011293144692600D-04 -1.85391965043524300D-04 -8.88265109678931800D-04 -4.34791520177724200D-04
34  9 -2.54451057017657200D-04 -7.04494877087902300D-05 -5.39047023864758200D-05  3.30377351961952400D-05 -1.81931580198191300D-04
34 10  2.51796377570556700D-04 -1.10457460630875000D-04  1.96179555005116000D-04 -1.64028529224535800D-04  1.58921432895364800D-04
34 11 -5.52892335886623300D-05
35  1  1.48446795651402400D-03  1.58864092787980300D-03  1.04713116403365400D-03 -4.51719727628807600D-04  6.93021436931617900D-04
35  2 -3.08882247304631500D-04 -2.20541067614821200D-03 -3.26330593237167400D-03  1.06516738620499000D-03 -3.19373372620335200D-03
35  3 -1.63657201457390000D-04  1.85668299724078800D-03  8.25167039357754800D-03 -1.45085272395484300D-02  2.63994967602959600D-03
35  4  6.79196857015333700D-02 -3.24298081173246500D-01  5.10328365975046300D-02  3.96145561889528500D-05 -9.11738685521745800D-05
35  5 -1.68303974229511200D-04  4.82183958927517900D-05 -5.38733233679256100D-04  1.02213680671092700D-03 -1.55769687365525700D-04
35  6 -2.22268782806844800D-04  9.79134862650471400D-05  1.66530110162765900D-04  5.99674480172840400D-04 -8.07050774900841500D-04
35  7 -8.32782947157717500D-05  7.53090736292649800D-04 -8.57114294153943400D-04 -7.18114568948713400D-02  3.39754513902867900D-01
35  8 -5.56613819470849800D-02  6.00669901240635800D-04  1.63609828618405100D-04 -8.04996375530775400D-04 -6.66422507533681600D-04
35  9 -4.20144205615091700D-04 -1.88402265099973900D-04 -7.31903624984209200D-05 -6.66360550571898400D-05 -2.27729713636604100D-04
35 10  3.13939510149241500D-04 -1.57144552515031700D-04  3.45251764038989600D-04 -1.57467011802081600D-04  1.64233061922258700D-04
35 11 -5.30710133506140400D-05
36  1  6.40110525948478500D-04  9.46960803767382700D-04  7.56452207629210200D-03  6.50061732926365800D-04 -2.33924480751157600D-04
36  2 -1.18754539880361300D-03  4.12782508667219900D-04 -6.14005652735394300D-04  1.91710585127485800D-03  8.60448245304512600D-04
36  3  2.89035314768731900D-03  7.89789157856907200D-03 -2.01539807448414300D-03  4.05833475093375600D-03  1.30061893778565800D-03
36  4 -1.04980865800609300D-02  5.06671401969527300D-02 -4.52855704762354600D-02 -3.60539429778220000D-05 -2.30418729159354000D-04
36  5 -1.02131735350494100D-03 -7.87506856299302600D-04  3.38599150238871900D-04  6.35438480768579800D-04  5.70087332799063000D-05
36  6 -6.13545144384497500D-05  1.11350964918620300D-04 -2.81332055493410700D-04 -7.95799862074453300D-04 -3.46533894685224800D-03
36  7 -3.16007265131756900D-04 -8.94650462925084000D-04 -3.79432987879513300D-03  1.08270915175526200D-02 -5.56613819470849800D-02
36  8  3.58355406926524900D-02  5.39993794319848500D-04 -2.02435776923415300D-04 -3.57544541021437300D-04 -2.72274999016386400D-04
36  9 -1.81294247734997700D-04 -8.05995792690916700D-05  2.09965579446580500D-04  5.85283771614708600D-05 -2.24660200230653000D-04
36 10 -5.14223359449061900D-06 -9.38384967896777100D-05  2.19176228363759900D-04  1.39293157383479900D-05  1.79892091889399800D-05
36 11 -4.74586772936103100D-05
37  1  3.05573989617391500D-04  5.01538318274930000D-03  3.92038817416118200D-03 -1.20397766695978800D-02 -1.70259188830290700D-03
37  2  3.36450507019692100D-03 -6.43356682439311100D-04  9.11711089257583000D-04 -8.24977402458237900D-04 -2.19503691561151500D-02
37  3 -1.28348394682675800D-02 -4.00945394568169600D-02  4.04607139466994800D-03 -1.04961327655528300D-02 -3.81211769477779500D-03
37  4  5.76583535148583700D-03  2.94172872181142100D-03  5.65079736546715600D-03  1.56134784864737900D-03 -6.95913839443562700D-04
37  5 -2.80222096730176100D-03  1.05134454354671700D-02  7.23400394525786100D-02  4.04718318811836400D-02  2.67371763174040200D-04
37  6 -1.22315788289584200D-04 -1.05408229089144800D-04 -7.73362290928947300D-05 -3.01340553965356900D-04 -1.01606053883596100D-03
37  7  3.24757507835782300D-04 -3.97440526149484000D-04 -2.87908547914692700D-03  3.84011293144692600D-04  6.00669901240635800D-04
37  8  5.39993794319848500D-04 -1.42793016702835700D-02 -5.85813131869339400D-02  5.33796066869984800D-02  5.62999017441612200D-02
37  9  4.78989070501645300D-02  2.71472796802840800D-02 -2.16059321778483400D-02 -4.71052484085077200D-02 -1.81473449362007400D-02
37 10 -1.73412727681010500D-02  7.66732836223749100D-03 -6.81798017360901700D-02  8.56269182348823300D-03 -5.07862907838940700D-03
37 11  3.34340958321743800D-03
38  1  1.43844910091284200D-03  6.48863071936456300D-03  4.37633158460459800D-03 -1.01465043536586000D-02  2.13998723968544800D-03
38  2 -4.63630326754116400D-03  9.09351135125469100D-04 -3.98573823701120500D-04 -4.85203629668751200D-04 -2.76558271599114400D-03
38  3 -1.93897037824963800D-02 -3.57349658661916500D-02 -3.28438829864663400D-03 -1.19539848522143300D-02  4.64250547273781200D-03
38  4  4.87568769367979800D-03  5.70443709574375300D-04  4.16862903510374600D-03  2.99214013498375100D-05 -2.12781793662575300D-04
38  5 -2.76061369990504600D-03  6.16511823643028900D-02 -1.35444821895980300D-03 -2.98541050290646000D-02  3.96907155744696800D-04
38  6  2.80525554646748900D-04  4.51993785864461500D-04 -1.59734905169628400D-04 -2.12031641189103200D-04 -9.31424053539353600D-04
38  7 -1.03055946920616000D-04  1.15707462114422700D-03 -2.90090935354814200D-03 -1.85391965043524300D-04  1.63609828618405100D-04
38  8 -2.02435776923415300D-04 -5.85813131869339400D-02  6.71157216343143400D-03  1.24304404978081700D-01  6.23250862344049100D-02
38  9  2.77663201145361700D-02  2.81186971801739000D-02 -5.01445612658912900D-02 -1.48236726087658300D-02 -2.64222568140848300D-02
38 10 -1.24464809965141300D-02  7.12672968056216000D-03 -6.83954942161668600D-02  6.18296167121945600D-03 -3.96031838418298100D-03
38 11  6.22155024841697400D-03
39  1 -4.06097225874313400D-03  8.53670849199073000D-04 -4.76843315742325700D-03 -5.54571424443151000D-03 -8.39194108079865900D-03
39  2  3.90168486301689700D-03  6.03067367505039100D-04  1.13263488156212200D-03  4.95767195535235000D-04  3.96241088716775500D-02
39  3  4.33855785247239100D-02  1.44251026723815600D-02 -8.60220192370753100D-03 -4.89614491957501800D-03  2.99635350574645200D-03
39  4  2.05107812605714900D-03 -4.42424438557576000D-03 -3.76215631289894500D-03  1.74326012201096700D-04  2.96261514154405600D-05
39  5  2.11445619775901800D-03 -5.06789169951588100D-02 -1.16036870723740200D-01 -6.50318887288736700D-01 -7.77074432903313000D-04
39  6 -9.81833102162155100D-04 -4.02958995267266300D-04 -3.88397698281028900D-05  9.78550543262457500D-05  9.79010529222890100D-04
39  7 -2.77044581986629600D-04  2.19958587564794700D-04  1.93079652734649800D-03 -8.88265109678931800D-04 -8.04996375530775400D-04
39  8 -3.57544541021437300D-04  5.33796066869984800D-02  1.24304404978081700D-01  7.26207788241461900D-01 -2.84620147172121000D-02
39  9 -1.67048454969065400D-02 -2.49230208073270000D-02 -1.18115090281811800D-03 -1.44856068131249400D-02 -7.10926372177705900D-02
39 10  8.95207068950520900D-03 -6.06966167122635600D-03 -1.89434521902232000D-05 -4.35994546096885000D-03  2.68512628615602500D-03
39 11  2.60494547126011200D-03
40  1 -8.23161416335649300D-04 -2.68366464472036300D-03 -3.27662751168911200D-03  4.37749440074797200D-03 -3.95913773123535200D-03
40  2  3.46622840220745000D-03 -4.10573502845901200D-04 -7.30365572776392500D-04  7.33356051618727600D-04 -7.32734326880368800D-05
40  3  1.13276753643809500D-03  4.04607921220212500D-02 -5.34370183035148800D-03  4.91756105245322300D-03  3.26810208192140900D-03
40  4 -2.51522724514508000D-03 -2.07627417988520700D-03 -4.04837805434848900D-03 -2.20758195055344900D-04  5.69518057436102500D-04
40  5  1.56874698700043600D-03 -5.91860249823605900D-02 -6.17450321662382800D-02 -6.13456757184160900D-03 -5.28139726868603900D-04
40  6 -3.30400254458518300D-04 -2.42443713673219700D-04  3.72883996180295400D-05  1.23691381076485000D-04  7.12100210122079700D-04
40  7  6.20892465608147100D-05  1.15305621800621000D-05  1.89116783447396800D-03 -4.34791520177724200D-04 -6.66422507533681600D-04
40  8 -2.72274999016386400D-04  5.62999017441612200D-02  6.23250862344049100D-02 -2.84620147172121000D-02  1.32459197648904200D-01
40  9  1.59764232430526000D-03  1.44425744229970100D-01  3.38907545725408700D-02  2.24459327078263500D-02  3.02416963681162400D-03
40 10 -1.42777731140386600D-01 -2.29328467119982400D-02 -1.32171454841389900D-01 -1.48239197491184500D-02  1.95496561168906300D-03
40 11 -2.49231780148906300D-02
41  1 -1.34010474817924900D-03 -2.32490195161694200D-03 -3.04666985384838300D-03  3.50020805310324900D-03 -3.70721525483619400D-03
41  2  3.63581393909295800D-03 -3.46723984384622600D-04 -1.09534759223928200D-04  4.86142337874362300D-04 -4.55409001289264200D-03
41  3  3.77750116092867600D-03  3.02980576220496200D-02 -3.39633637308489600D-03  4.26370656689822900D-03  1.72367975515425000D-03
41  4 -1.74279934404553100D-03 -1.34034652030379200D-03 -2.58191818728326100D-03 -2.23229580859855100D-04  3.63576109152496900D-04
41  5  1.46706566335891300D-03 -4.89147633478348400D-02 -4.44143674770081100D-02  4.01640654651425100D-04 -4.48516553533395700D-04
41  6 -3.58216073034767200D-04 -2.45637838164510000D-04  3.34247839517409800D-05  1.17294407686596700D-04  5.57486636255932800D-04
41  7  1.92134511839414700D-04 -6.42496884278864800D-05  1.25168888571777100D-03 -2.54451057017657200D-04 -4.20144205615091700D-04
41  8 -1.81294247734997700D-04  4.78989070501645300D-02  2.77663201145361700D-02 -1.67048454969065400D-02  1.59764232430526000D-03
41  9  5.37832008241423400D-02 -2.84912205282539200D-03  2.15333629863312400D-02  1.99410714799147500D-02 -2.93455193431657600D-03
41 10 -2.99646041758611100D-02 -7.62921790597614900D-02 -3.91863251481272500D-02  1.63701228544532700D-02  1.89812699270264200D-02
41 11  2.78951681932093600D-02
42  1  1.77297199022152800D-04 -9.70009074707789400D-04 -8.02960082496584300D-04  9.85911784540105500D-04 -6.21774435394240000D-04
42  2  1.12029333781127300D-03 -4.34285172801196500D-04 -4.71278681746234400D-04  2.09028505537833800D-04 -2.12623380013710100D-05
42  3  1.05619110085664000D-03  1.19002918660654500D-02 -1.10005222440645600D-03  1.29130238133434700D-03  1.02774796841009800D-03
42  4 -7.88415163852085300D-04 -1.65468430757265100D-04 -1.03154265299193500D-03  8.33564083131330100D-06  1.09176124632459600D-04
42  5  2.58623124679141500D-04 -8.94684523879973900D-03 -1.13093514902851100D-02 -3.19811746630760400D-02 -1.28498417079070400D-04
42  6 -3.11148649068115900D-05 -8.86165052609022600D-05  1.84209415499125800D-05  2.16201469283028300D-05  1.38297637833351100D-04
42  7 -4.83650275939773200D-06 -3.20065128123214700D-05  2.86782993530205300D-04 -7.04494877087902300D-05 -1.88402265099973900D-04
42  8 -8.05995792690916700D-05  2.71472796802840800D-02  2.81186971801739000D-02 -2.49230208073270000D-02  1.44425744229970100D-01
42  9 -2.84912205282539200D-03  3.40974000814409100D-01  2.57754944097854400D-02  2.21391717914576300D-02  1.05861774966631300D-03
42 10 -1.79259433284562100D-01 -4.09406281252522300D-02 -2.95912922689611800D-01 -7.77580642942199400D-03  4.84399058566231700D-03
42 11 -2.15786681970475700D-03
43  1  2.70322353659868700D-04  1.12208145208736500D-03  3.08416023974689100D-03  2.81993855653084300D-03 -1.26220695776946300D-03
43  2 -2.89503727454731900D-04  1.20032581883422500D-03 -8.34446812336686600D-04 -4.51288122316206900D-04 -1.99666012629551300D-02
43  3 -2.67543712013651500D-02 -3.67040276837704600D-02  3.73642686340991400D-04  4.88276036473833700D-03 -2.12749879011792100D-03
43  4 -1.88766317562108500D-03 -4.23073715044575100D-04  3.49240088470884100D-03 -5.65824360961551800D-05 -2.25326626288047100D-05
43  5 -1.51593629760873900D-03 -1.10632439150271100D-01 -5.44285948203771000D-02 -1.26587081093976200D-01 -1.00829989779782600D-04
43  6  3.63525094443373200D-05  1.14101430188050200D-04  2.03701512713205800D-05 -1.33422053877341200D-04 -5.01105058914319600D-04
43  7 -3.24122454986586200D-06 -5.34679512902147500D-04 -1.61235275533671400D-03 -5.39047023864758200D-05 -7.31903624984209200D-05
43  8  2.09965579446580500D-04 -2.16059321778483400D-02 -5.01445612658912900D-02 -1.18115090281811800D-03  3.38907545725408700D-02
43  9  2.15333629863312400D-02  2.57754944097854400D-02  1.33071395027650800D-01  9.46058923275594500D-02  1.64735866195042700D-01
43 10 -1.50490815027160000D-02  2.22677684809102800D-02 -3.49057026869936700D-02 -2.23482687016218800D-03 -9.87394919708117800D-03
43 11  8.45803419035617800D-03
44  1 -1.18058822067557100D-03 -1.52666016111080400D-03  3.13707841582133700D-03  4.56231862222544700D-03 -2.42317626603094600D-04
44  2 -1.07808472323833700D-03 -8.34526391141343600D-04  1.23783665779697600D-03 -6.98881418081942500D-04 -2.22525754663194200D-02
44  3 -1.97103421996747100D-02 -3.17203061038939800D-02 -7.75324886215234000D-04  2.72854156087021200D-03 -3.99902532383089600D-04
44  4  8.10866642959179300D-04  7.76047638234578200D-04  2.38082587253885000D-03 -2.15244102599616200D-04 -2.40654918692850800D-04
44  5 -1.43344159055508500D-03 -6.16411547034068100D-02 -1.36523322879089600D-01 -1.51156256420792400D-01 -1.10453797572129800D-04
44  6 -4.95122208787890400D-05  1.89733549535442400D-04 -4.01687433704278600D-05 -4.47678849324617500D-05 -4.00716416285029600D-04
44  7  2.95416747403409700D-04 -2.70098982141364600D-04 -1.15356490690554600D-03  3.30377351961952400D-05 -6.66360550571898400D-05
44  8  5.85283771614708600D-05 -4.71052484085077200D-02 -1.48236726087658300D-02 -1.44856068131249400D-02  2.24459327078263500D-02
44  9  1.99410714799147500D-02  2.21391717914576300D-02  9.46058923275594500D-02  1.55701100278671200D-01  1.97111070187894200D-01
44 10  2.42819775120306500D-03 -9.79495157418242000D-03 -2.30810293562422300D-02  8.95658935391452400D-03  2.92097364700816300D-03
44 11  5.80368705552225500D-04
45  1 -7.88497559606193800D-04 -5.16742944800530100D-04 -3.33877895261625000D-04  1.63590970565508100D-03 -1.21837807336988600D-03
45  2  2.53996901244391000D-03  4.19948628194166700D-04  1.30737945536196800D-04 -1.53729469332120100D-04 -5.34868861811199600D-03
45  3 -4.94650097446758300D-03  6.82211468996940500D-04 -1.23309009003591500D-03  2.50752861190584000D-03  2.21450195398709100D-03
45  4 -7.88566617394848000D-04 -9.67219595077173400D-04 -1.99971983753932700D-04 -1.34534347504856900D-04  6.03135200949456200D-06
45  5 -3.22115433279424000D-04 -1.41157019797599800D-01 -1.61666447662856000D-01 -3.57603643874848700D-01 -1.93998181441390500D-04
45  6 -1.99951577632695400D-04 -1.89971743819704300D-04  9.98793991957569500D-06  6.75979395237114000D-06  1.09333389407273400D-04
45  7  1.09677830190113600D-04 -2.69178800937908100D-04 -3.05491319176239000D-04 -1.81931580198191300D-04 -2.27729713636604100D-04
45  8 -2.24660200230653000D-04 -1.81473449362007400D-02 -2.64222568140848300D-02 -7.10926372177705900D-02  3.02416963681162400D-03
45  9 -2.93455193431657600D-03  1.05861774966631300D-03  1.64735866195042700D-01  1.97111070187894200D-01  4.53017894225726800D-01
45 10  1.38799250891663600D-03 -5.49062681945988700D-03 -3.21884652387804900D-02 -3.32236448914446900D-03  5.02926883341192600D-03
45 11  2.94393812905191500D-03
46  1  4.79601260774953400D-04  3.39492509360273000D-04  3.62065519846077600D-04 -9.18081968814821200D-04  2.34419960278287000D-03
46  2 -1.03829602079164000D-03  3.92030653495467600D-05  2.57551587723448000D-04 -8.17420748866482000D-05  3.72101499681587500D-03
46  3 -8.73228992559482700D-05 -1.86107742264074400D-03  2.17704691496400900D-03 -1.81645024008303400D-03 -3.27087309090479100D-04
46  4  3.73953515005881500D-04  6.98770033313866900D-04  2.54317016436245200D-04 -3.47830666815908400D-04 -1.48014534240292800D-05
46  5 -2.16753114461870600D-04 -3.02129399668782400D-02 -3.13615093375130300D-02 -2.10844671218346500D-02  2.75898523288686800D-04
46  6  2.00059974764244000D-04  9.39287748413786300D-06  1.52516957563353400D-05  5.04443029791801200D-05 -1.16369046987419000D-04
46  7  2.71643402877108600D-04 -7.81411077233062900D-05 -1.67154110154547900D-04  2.51796377570556700D-04  3.13939510149241500D-04
46  8 -5.14223359449061900D-06 -1.73412727681010500D-02 -1.24464809965141300D-02  8.95207068950520900D-03 -1.42777731140386600D-01
46  9 -2.99646041758611100D-02 -1.79259433284562100D-01 -1.50490815027160000D-02  2.42819775120306500D-03  1.38799250891663600D-03
46 10  4.96915036755929400D-01 -2.16839977838945200D-01  2.57875730362677700D-01 -2.97869690970764500D-01  2.85867163616454500D-01
46 11 -6.47148431318883600D-02
47  1  5.81030965618456500D-05 -4.94057404643033500D-04 -5.46541919330123500D-04  2.58996983298898100D-04 -1.65189092793949200D-03
47  2  8.27171697642681300D-04 -3.07285278644542400D-04 -4.08097024084952400D-04  1.61986952879056300D-04 -1.03046176846977000D-04
47  3  3.51557605660080000D-03  6.17892948084342000D-03 -1.51110636289475400D-03  9.79652745247694400D-04  9.15637762133325600D-04
47  4 -4.87449560918062900D-04 -2.01070156324867400D-04 -5.93714030915071200D-04 -5.22624531272379600D-05  1.18503088541999100D-04
47  5  1.69060414635657800D-04 -4.09627270703039100D-02 -3.01429671959785300D-02 -1.67989913831379000D-02 -1.15789884919115200D-04
47  6 -8.87793931356184500D-05  3.93348843427676600D-07  4.57323141356269500D-05  1.09410241644347600D-05  1.14868841891158100D-04
47  7 -7.97673903651929800D-05 -3.41141235313258100D-04  3.30852378305039600D-04 -1.10457460630875000D-04 -1.57144552515031700D-04
47  8 -9.38384967896777100D-05  7.66732836223749100D-03  7.12672968056216000D-03 -6.06966167122635600D-03 -2.29328467119982400D-02
47  9 -7.62921790597614900D-02 -4.09406281252522300D-02  2.22677684809102800D-02 -9.79495157418242000D-03 -5.49062681945988700D-03
47 10 -2.16839977838945200D-01  4.45262825633507800D-01  2.84016402234410500D-02  2.53198881218685800D-01 -3.37418354275442800D-01
47 11  3.34571279492851300D-02
48  1  2.56909287937867600D-04  1.51998701670708100D-03  2.49773735960801000D-03 -9.88866493517592800D-04  1.84406260784197900D-03
48  2 -1.95203224239992600D-03  4.92414896707815700D-04  5.41434043888067200D-04 -5.19103057011749400D-04 -2.51997919553659200D-03
48  3 -5.19148628363996800D-03 -2.84059088324989400D-02  2.64574382946025600D-03 -1.41889119704141600D-03 -1.95963064485993300D-03
48  4  1.10112459233424600D-03  9.14863080880845600D-04  2.60359506220608800D-03  5.99542698969529600D-05 -3.50807332671898600D-04
48  5 -9.68331947013428800D-04  4.91938150432802400D-02  5.22582766366630500D-02  5.79259489100980600D-02  2.50754531605501500D-04
48  6  1.53534812684375000D-04  1.77467313547917400D-04 -4.03954833028130600D-05 -8.25014623395681200D-05 -4.17337295405273400D-04
48  7 -9.82969942553424400D-05  1.90516452502897900D-05 -1.00451790666835500D-03  1.96179555005116000D-04  3.45251764038989600D-04
48  8  2.19176228363759900D-04 -6.81798017360901700D-02 -6.83954942161668600D-02 -1.89434521902232000D-05 -1.32171454841389900D-01
48  9 -3.91863251481272500D-02 -2.95912922689611800D-01 -3.49057026869936700D-02 -2.30810293562422300D-02 -3.21884652387804900D-02
48 10  2.57875730362677700D-01  2.84016402234410500D-02  3.54467375293054900D-01 -7.31847427890897100D-02  5.17072768805915100D-02
48 11 -5.44824229782719900D-02
49  1 -3.46459533473453300D-04 -3.60813149025140900D-04 -3.11569530619948400D-04  6.12731793003806800D-04 -1.09963962914294600D-03
49  2  6.99291298644766400D-04 -1.39429136375435200D-04  7.90964183039477600D-06  4.21655352411676200D-05  1.13127467091800300D-03
49  3  1.15335746387890100D-03  2.84075792972016100D-03 -1.65539745969334200D-03  4.90559526972189600D-04  3.63939253111844600D-04
49  4  3.27247055675883300D-05 -4.00746708462129700D-04 -3.54503277985585000D-04  9.59940907071035700D-05  7.49337711158926100D-05
49  5  1.80151691760166400D-04 -3.70527477860926900D-03 -2.65611680303479100D-03  4.19860522857806700D-03 -1.31751311222005900D-04
49  6 -1.20860347990747700D-04 -4.61612502729302800D-05 -1.38277482297777300D-05 -4.43169573816071200D-06  9.00498429629026400D-05
49  7 -5.14387400618598900D-05  1.02704479962301100D-04  1.55013706318318800D-04 -1.64028529224535800D-04 -1.57467011802081600D-04
49  8  1.39293157383479900D-05  8.56269182348823300D-03  6.18296167121945600D-03 -4.35994546096885000D-03 -1.48239197491184500D-02
49  9  1.63701228544532700D-02 -7.77580642942199400D-03 -2.23482687016218800D-03  8.95658935391452400D-03 -3.32236448914446900D-03
49 10 -2.97869690970764500D-01  2.53198881218685800D-01 -7.31847427890897100D-02  3.10667601179259700D-01 -2.81671651224307800D-01
49 11  8.07836896491970200D-02
50  1  1.68834561858899300D-04  3.77332615489334200D-04  1.73411020787384000D-04 -5.47006135342975600D-04  1.18518574598325300D-03
50  2 -5.71076541575066300D-04  1.96425411716494300D-04  9.48868724037765800D-05 -4.51725525874024900D-05 -2.46855594984718400D-04
50  3 -6.92350896924764900D-04 -1.94100185624823700D-03  1.88543548746977800D-03 -5.32313420084640200D-04 -5.54361485244347900D-04
50  4 -1.20162727927641800D-05  3.76402235674477800D-04  2.28910413346827800D-04 -6.58417283979674500D-05 -5.49250534359613200D-05
50  5 -9.38180808679467400D-05  6.90122995431474700D-03  6.09461232302654900D-03  1.38646289299104700D-03  1.10086469340409100D-04
50  6  9.70509114434081600D-05  2.02655173689100800D-05 -2.11865972821190200D-05  4.90425942079042400D-06 -6.43962348556570400D-05
50  7  2.75413408468150300D-04  1.87779780827512800D-04 -1.14169130202047800D-04  1.58921432895364800D-04  1.64233061922258700D-04
50  8  1.79892091889399800D-05 -5.07862907838940700D-03 -3.96031838418298100D-03  2.68512628615602500D-03  1.95496561168906300D-03
50  9  1.89812699270264200D-02  4.84399058566231700D-03 -9.87394919708117800D-03  2.92097364700816300D-03  5.02926883341192600D-03
50 10  2.85867163616454500D-01 -3.37418354275442800D-01  5.17072768805915100D-02 -2.81671651224307800D-01  3.12141147585687200D-01
50 11 -6.27200134659861000D-02
51  1 -4.46884276222858600D-05 -1.91095216511838500D-05 -1.40914853333229400D-04  1.30872379547342100D-04 -1.93441482632117400D-04
51  2  1.00410065473344200D-04  6.36099551837299200D-05 -5.26305711984198500D-05  3.60567109530807200D-05  1.00672171890747700D-03
51  3 -6.22042147471746400D-04  1.59675868784958700D-03 -6.00079853033119700D-04  1.29320643921238000D-04  3.17907318261867500D-04
51  4 -6.02907398124241700D-05 -2.62245490806334300D-04 -1.10886353582584400D-04  1.55003313859550200D-05  2.98954849681232200D-05
51  5  1.33927314731330200D-05 -3.37961898957961400D-03 -4.36830735723314800D-03 -6.59501467658030200D-03 -1.89802022043661400D-05
51  6 -1.67511204740566900D-05 -8.60757435553610700D-06  5.62490530819914600D-06  3.22118909046320600D-06  1.95459686852528200D-05
51  7 -2.51916699722798400D-06 -1.49576168950726900D-05 -1.66671790480243900D-05 -5.52892335886623300D-05 -5.30710133506140400D-05
51  8 -4.74586772936103100D-05  3.34340958321743800D-03  6.22155024841697400D-03  2.60494547126011200D-03 -2.49231780148906300D-02
51  9  2.78951681932093600D-02 -2.15786681970475700D-03  8.45803419035617800D-03  5.80368705552225500D-04  2.94393812905191500D-03
51 10 -6.47148431318883600D-02  3.34571279492851300D-02 -5.44824229782719900D-02  8.07836896491970200D-02 -6.27200134659861000D-02
51 11  5.58895907630474500D-02
 $END
