!DLPNO-CCSD(T) Extrapolate(3/4,cc) cc-pVQZ/C TightPNO TightSCF 
!CPCM(THF)
%geom maxiter 300 end
%maxcore 4000 
%pal nprocs 36
end

*xyz 0 1
6       -3.543351000      0.604592000      0.680821000
6       -2.371549000      1.333176000      0.833910000
6       -3.626503000     -0.384151000     -0.293206000
6       -1.280395000      1.070579000      0.008289000
6       -1.363554000      0.081938000     -0.971121000
6       -2.537428000     -0.642703000     -1.119325000
1       -2.293514000      2.099301000      1.596412000
6       -0.046646000      1.865682000      0.169277000
1       -4.390076000      0.806142000      1.327361000
1       -4.540941000     -0.955962000     -0.408101000
1       -0.517830000     -0.116395000     -1.618959000
1       -2.602282000     -1.410539000     -1.882059000
7       -0.090574000      3.135118000      0.361989000
8        1.253546000      3.587692000      0.524114000
7        1.216625000      1.320410000      0.095785000
16       2.381745000      2.542094000     -0.035925000
8        2.618661000      2.801369000     -1.443614000
6        1.571884000     -0.062443000      0.139859000
6        2.396013000     -0.591918000     -0.845271000
6        1.097805000     -0.856241000      1.178118000
6        2.752738000     -1.934222000     -0.783908000
6        1.437450000     -2.201175000      1.215237000
6        2.269177000     -2.740984000      0.238588000
1        2.742783000      0.036385000     -1.657375000
1        0.465345000     -0.421058000      1.943434000
1        3.398834000     -2.350639000     -1.548596000
1        1.061485000     -2.825868000      2.017852000
1        2.540551000     -3.790181000      0.276415000

*
