!DLPNO-CCSD(T) Extrapolate(3/4,cc) aug-cc-pVQZ/C TightPNO TightSCF 
!CPCM(Benzene)
%maxcore 4000 
%pal nprocs 28
end

*xyz 0 1
C        1.803887000     -0.429972000      0.365559000
C        2.885572000      0.376270000      0.029182000
C        1.991774000     -1.778532000      0.656905000
C        4.166973000     -0.174601000     -0.015655000
C        4.364734000     -1.528186000      0.275871000
C        3.274615000     -2.321533000      0.610396000
H        2.750503000      1.428595000     -0.199560000
C        6.426998000      0.559017000     -0.497533000
H        0.807741000      0.001398000      0.399657000
H        1.144299000     -2.404447000      0.919050000
H        5.366178000     -1.948342000      0.238437000
H        3.430633000     -3.372559000      0.836012000
N        5.233036000      0.665626000     -0.359073000
O        7.586657000      0.597866000     -0.668250000
*