14
Coordinates from ORCA-job mol
  C   1.80669078161879     -0.41850089303233      0.36268098177929
  C   2.89178439932508      0.37961598991455      0.02702317894985
  C   2.01178809375816     -1.76257813077118      0.65084809935139
  C   4.17539695749232     -0.16546876998458     -0.01983312472016
  C   4.36796907768740     -1.51935134883195      0.27239376632771
  C   3.28565175028123     -2.31966467864458      0.60818788897482
  H   2.75192494066795      1.43092537747322     -0.20097988417858
  C   6.43217069066566      0.55821068464319     -0.49732773631671
  H   0.80717082741767      0.00053805649020      0.40052280336992
  Cl  0.64538751363715     -2.77224700252051      1.07494077322594
  H   5.36689968611832     -1.94474426567294      0.23630985156240
  H   3.42944800832656     -3.37035451072498      0.83565310261801
  N   5.23658665810565      0.67518033184445     -0.36266090225876
  O   7.59077061489806      0.58427915981744     -0.66344879868514
