19
Coordinates from ORCA-job mol E -1152.734086974842
  C       0.922337     -1.358433      0.165475
  C       1.617885     -0.772362     -0.881030
  C       0.741237     -0.733837      1.391586
  C       2.155064      0.497606     -0.684724
  C       1.988124      1.154310      0.540985
  C       1.284914      0.534290      1.564907
  H       1.738717     -1.291375     -1.823652
  C       3.460068      2.102083     -1.940234
  N       0.350511     -2.708205     -0.040667
  H       0.190097     -1.234461      2.177926
  H       2.415514      2.142143      0.684958
  H       1.159716      1.047809      2.512895
  N       2.850216      1.080260     -1.742912
  O       4.070048      3.048453     -2.266998
  O       4.430180      3.933367      0.928395
  S       5.629835      3.192260      0.507441
  O       5.482570      1.744990      0.285954
  O       0.522127     -3.234612     -1.131827
  O      -0.257830     -3.210547      0.894773
19
Coordinates from ORCA-job mol E -1152.734141734708
  C       0.922184     -1.359427      0.165929
  C       1.616874     -0.772398     -0.881415
  C       0.739503     -0.735184      1.392681
  C       2.151304      0.498421     -0.684700
  C       1.982091      1.155292      0.540947
  C       1.280309      0.534147      1.565515
  H       1.739602     -1.290073     -1.824708
  C       3.456936      2.102238     -1.942401
  N       0.353362     -2.708984     -0.040509
  H       0.189494     -1.235028      2.180336
  H       2.404134      2.145439      0.683937
  H       1.153304      1.048042      2.513058
  N       2.846196      1.081471     -1.743315
  O       4.067762      3.047308     -2.272212
  O       4.445159      3.936107      0.931332
  S       5.643767      3.194080      0.508014
  O       5.491255      1.746269      0.289589
  O       0.524033     -3.237825     -1.131385
  O      -0.255937     -3.216155      0.892555
19
Coordinates from ORCA-job mol E -1152.734154585137
  C       0.920125     -1.360137      0.165264
  C       1.613929     -0.772695     -0.882985
  C       0.736544     -0.736483      1.392514
  C       2.145782      0.499040     -0.685914
  C       1.975258      1.156035      0.539499
  C       1.275100      0.533908      1.564811
  H       1.738332     -1.288668     -1.826948
  C       3.452118      2.102420     -1.944980
  N       0.353916     -2.707904     -0.040822
  H       0.188189     -1.235103      2.182075
  H       2.394035      2.147677      0.682014
  H       1.147703      1.047708      2.512309
  N       2.840389      1.082787     -1.744345
  O       4.063846      3.045880     -2.277957
  O       4.463954      3.940480      0.936042
  S       5.660471      3.195397      0.511333
  O       5.499986      1.747316      0.296487
  O       0.530541     -3.242212     -1.129084
  O      -0.248886     -3.221707      0.893937
19
Coordinates from ORCA-job mol E -1152.734033185423
  C       0.923754     -1.366527      0.166899
  C       1.614619     -0.778096     -0.883695
  C       0.736527     -0.742499      1.393910
  C       2.138759      0.496850     -0.687498
  C       1.964368      1.155276      0.536467
  C       1.268293      0.531214      1.563732
  H       1.743735     -1.291654     -1.828169
  C       3.442648      2.101283     -1.950309
  N       0.366339     -2.712397     -0.036283
  H       0.192358     -1.238649      2.187814
  H       2.375873      2.150348      0.677163
  H       1.139226      1.045618      2.510587
  N       2.831798      1.082392     -1.745748
  O       4.053596      3.042776     -2.290206
  O       4.495053      3.956062      0.942320
  S       5.689034      3.205823      0.518260
  O       5.515475      1.756871      0.312701
  O       0.519559     -3.240412     -1.133096
  O      -0.259683     -3.220539      0.888400
19
Coordinates from ORCA-job mol E -1152.734170397264
  C       0.920765     -1.362381      0.165540
  C       1.613897     -0.774509     -0.883006
  C       0.736415     -0.738211      1.392391
  C       2.144075      0.498091     -0.686392
  C       1.972840      1.155503      0.538559
  C       1.273432      0.533009      1.564105
  H       1.739428     -1.290081     -1.826938
  C       3.448946      2.102380     -1.946454
  N       0.356620     -2.710225     -0.039597
  H       0.188944     -1.236193      2.182864
  H       2.390531      2.147645      0.680701
  H       1.145522      1.047013      2.511421
  N       2.837808      1.082599     -1.744756
  O       4.060043      3.045558     -2.281194
  O       4.474405      3.947625      0.937399
  S       5.668902      3.198546      0.514049
  O       5.503791      1.750525      0.301858
  O       0.527339     -3.241995     -1.130316
  O      -0.252371     -3.221161      0.893016
19
Coordinates from ORCA-job mol E -1152.734173272124
  C       0.920468     -1.362498      0.165331
  C       1.613780     -0.774741     -0.883093
  C       0.736655     -0.738185      1.392140
  C       2.144612      0.497616     -0.686549
  C       1.974149      1.154919      0.538553
  C       1.274505      0.532669      1.564037
  H       1.738909     -1.290356     -1.827066
  C       3.449093      2.102153     -1.946331
  N       0.355536     -2.710358     -0.039841
  H       0.188957     -1.236010      2.182565
  H       2.393097      2.146530      0.680870
  H       1.147072      1.046531      2.511498
  N       2.838370      1.082099     -1.744793
  O       4.059860      3.045612     -2.280698
  O       4.474059      3.950381      0.935917
  S       5.667753      3.198905      0.514895
  O       5.501047      1.751146      0.303161
  O       0.526512     -3.241923     -1.130452
  O      -0.253105     -3.220751      0.893106
19
Coordinates from ORCA-job mol E -1152.734182594378
  C       0.919041     -1.363691      0.164430
  C       1.612793     -0.776271     -0.883758
  C       0.737384     -0.739110      1.391292
  C       2.146016      0.495121     -0.687280
  C       1.978390      1.151958      0.538488
  C       1.278092      0.530483      1.563863
  H       1.736560     -1.291484     -1.828160
  C       3.448461      2.100884     -1.946660
  N       0.351436     -2.711113     -0.040892
  H       0.189109     -1.235901      2.181998
  H       2.401271      2.141896      0.681236
  H       1.152352      1.043720      2.511894
  N       2.839720      1.079674     -1.745134
  O       4.057669      3.045389     -2.280377
  O       4.479460      3.967161      0.928759
  S       5.668156      3.201794      0.519920
  O       5.489559      1.755300      0.312160
  O       0.522489     -3.242132     -1.131372
  O      -0.256629     -3.219939      0.892843
19
Coordinates from ORCA-job mol E -1152.734190451471
  C       0.917760     -1.365302      0.163640
  C       1.611744     -0.778076     -0.884460
  C       0.737949     -0.740877      1.390757
  C       2.147023      0.492401     -0.687779
  C       1.981518      1.148742      0.538644
  C       1.280817      0.527747      1.563957
  H       1.734345     -1.292563     -1.829426
  C       3.447090      2.099516     -1.947381
  N       0.347947     -2.711977     -0.042031
  H       0.189303     -1.236683      2.181838
  H       2.406612      2.137717      0.681478
  H       1.156247      1.040395      2.512461
  N       2.840517      1.077073     -1.745499
  O       4.054596      3.045112     -2.280848
  O       4.490679      3.987985      0.919912
  S       5.672497      3.204849      0.525716
  O       5.476780      1.760046      0.323083
  O       0.518357     -3.242571     -1.132675
  O      -0.260453     -3.219796      0.891864
19
Coordinates from ORCA-job mol E -1152.734197021866
  C       0.917214     -1.366779      0.163222
  C       1.611310     -0.779671     -0.884903
  C       0.738247     -0.742858      1.390679
  C       2.147726      0.490220     -0.687828
  C       1.982939      1.146189      0.539006
  C       1.282067      0.525329      1.564271
  H       1.733165     -1.293527     -1.830311
  C       3.445338      2.098674     -1.947934
  N       0.346088     -2.712660     -0.042971
  H       0.189367     -1.238199      2.181888
  H       2.407978      2.135177      0.681583
  H       1.157789      1.037657      2.512982
  N       2.840768      1.075016     -1.745832
  O       4.051223      3.045444     -2.281004
  O       4.505072      4.007568      0.910898
  S       5.679162      3.206067      0.530775
  O       5.463854      1.763388      0.332266
  O       0.515626     -3.243139     -1.133902
  O      -0.263603     -3.220156      0.890364
19
Coordinates from ORCA-job mol E -1152.734200662181
  C       0.917854     -1.367104      0.163399
  C       1.611887     -0.780037     -0.884857
  C       0.738151     -0.743539      1.390976
  C       2.147767      0.490029     -0.687593
  C       1.981960      1.146043      0.539124
  C       1.281209      0.524991      1.564396
  H       1.733853     -1.293992     -1.830182
  C       3.444180      2.099193     -1.947636
  N       0.347143     -2.712817     -0.043023
  H       0.189258     -1.239316      2.181887
  H       2.405182      2.135838      0.681369
  H       1.156271      1.037529      2.512902
  N       2.840355      1.074882     -1.746121
  O       4.049379      3.046738     -2.279756
  O       4.513887      4.014052      0.907074
  S       5.683526      3.203358      0.532278
  O       5.456707      1.762231      0.333460
  O       0.516559     -3.243675     -1.133991
  O      -0.263799     -3.220665      0.889543
19
Coordinates from ORCA-job mol E -1152.734203171588
  C       0.919224     -1.366619      0.163850
  C       1.612902     -0.779510     -0.884674
  C       0.737969     -0.743031      1.391274
  C       2.147119      0.491302     -0.687647
  C       1.979514      1.147717      0.538585
  C       1.279200      0.526346      1.564015
  H       1.735552     -1.294198     -1.829494
  C       3.443272      2.100870     -1.946591
  N       0.350216     -2.712860     -0.042265
  H       0.189336     -1.239753      2.181753
  H       2.400387      2.138576      0.680462
  H       1.153199      1.039480      2.512062
  N       2.839353      1.076175     -1.746697
  O       4.048429      3.049053     -2.276884
  O       4.518972      4.011866      0.907035
  S       5.685780      3.196861      0.532225
  O       5.451858      1.757186      0.329363
  O       0.520369     -3.244448     -1.132936
  O      -0.261322     -3.221274      0.889815
19
Coordinates from ORCA-job mol E -1152.734205302815
  C       0.921046     -1.365740      0.164400
  C       1.614127     -0.778512     -0.884494
  C       0.737778     -0.741592      1.391339
  C       2.145826      0.493501     -0.688245
  C       1.976060      1.150672      0.537204
  C       1.276443      0.528985      1.562961
  H       1.737937     -1.294364     -1.828510
  C       3.442012      2.103598     -1.945016
  N       0.354732     -2.713142     -0.040788
  H       0.189639     -1.239360      2.181485
  H       2.394513      2.142640      0.678595
  H       1.149109      1.043038      2.510339
  N       2.837640      1.078504     -1.747767
  O       4.047383      3.052530     -2.272593
  O       4.522972      4.004677      0.909763
  S       5.687088      3.186958      0.532125
  O       5.447245      1.749128      0.322022
  O       0.526435     -3.245735     -1.130817
  O      -0.256656     -3.222045      0.891245
19
Coordinates from ORCA-job mol E -1152.734207689012
  C       0.923475     -1.364644      0.165068
  C       1.615624     -0.777170     -0.884336
  C       0.737499     -0.739195      1.391033
  C       2.143593      0.496653     -0.689625
  C       1.971062      1.155112      0.534641
  C       1.272491      0.533110      1.560953
  H       1.741329     -1.294606     -1.827224
  C       3.439596      2.107770     -1.942967
  N       0.361233     -2.713987     -0.038366
  H       0.190163     -1.237935      2.181113
  H       2.386724      2.148398      0.675227
  H       1.143294      1.048510      2.507353
  N       2.834663      1.082042     -1.749683
  O       4.045186      3.057783     -2.266684
  O       4.528751      3.993407      0.915499
  S       5.688961      3.172318      0.533028
  O       5.441468      1.737422      0.311470
  O       0.535473     -3.247974     -1.127327
  O      -0.249256     -3.223273      0.894077
19
Coordinates from ORCA-job mol E -1152.734210217334
  C       0.926221     -1.363626      0.165767
  C       1.617135     -0.775772     -0.884257
  C       0.737109     -0.736174      1.390287
  C       2.140460      0.500303     -0.691795
  C       1.964827      1.160546      0.530997
  C       1.267591      0.538265      1.558063
  H       1.745408     -1.294885     -1.825879
  C       3.435708      2.112935     -1.941097
  N       0.369123     -2.715503     -0.035160
  H       0.190868     -1.235432      2.180801
  H       2.377523      2.155290      0.670375
  H       1.136086      1.055272      2.503269
  N       2.830377      1.086328     -1.752475
  O       4.041300      3.064262     -2.260496
  O       4.537140      3.979844      0.924312
  S       5.692274      3.154540      0.535768
  O       5.435478      1.723682      0.299400
  O       0.546500     -3.251127     -1.122761
  O      -0.239797     -3.225009      0.898130
19
Coordinates from ORCA-job mol E -1152.734213164632
  C       0.929084     -1.362842      0.166467
  C       1.618486     -0.774514     -0.884292
  C       0.736641     -0.732860      1.389159
  C       2.136571      0.504075     -0.694668
  C       1.957699      1.166517      0.526473
  C       1.262045      0.544002      1.554464
  H       1.749847     -1.295166     -1.824653
  C       3.430228      2.118586     -1.940094
  N       0.377853     -2.717623     -0.031373
  H       0.191762     -1.231989      2.180709
  H       2.367292      2.162840      0.664175
  H       1.127891      1.062712      2.498360
  N       2.824924      1.090846     -1.756140
  O       4.035393      3.071382     -2.255395
  O       4.548524      3.965541      0.936096
  S       5.697607      3.135089      0.541096
  O       5.429952      1.709358      0.287255
  O       0.558533     -3.254989     -1.117482
  O      -0.229000     -3.227224      0.903094
19
Coordinates from ORCA-job mol E -1152.734216424148
  C       0.932378     -1.362155      0.167274
  C       1.619843     -0.773314     -0.884462
  C       0.736199     -0.729109      1.387695
  C       2.131840      0.508162     -0.698399
  C       1.949326      1.173339      0.520827
  C       1.255632      0.550629      1.549984
  H       1.754910     -1.295465     -1.823488
  C       3.422680      2.124935     -1.940404
  N       0.388034     -2.720322     -0.026763
  H       0.193053     -1.227499      2.180922
  H       2.355194      2.171580      0.656136
  H       1.118278      1.071207      2.492378
  N       2.818111      1.095621     -1.761051
  O       4.026711      3.079520     -2.251828
  O       4.563987      3.949964      0.951761
  S       5.705493      3.112513      0.550294
  O       5.423868      1.693767      0.274430
  O       0.572099     -3.259658     -1.111230
  O      -0.216306     -3.229975      0.909173
19
Coordinates from ORCA-job mol E -1152.734219061139
  C       0.932866     -1.362240      0.167457
  C       1.619931     -0.773382     -0.884504
  C       0.736256     -0.728504      1.387327
  C       2.130974      0.508566     -0.699348
  C       1.947987      1.174422      0.519539
  C       1.254714      0.551781      1.548976
  H       1.755743     -1.295462     -1.823476
  C       3.420206      2.125687     -1.942580
  N       0.389579     -2.720998     -0.025787
  H       0.193508     -1.226035      2.181375
  H       2.353230      2.172989      0.653959
  H       1.116702      1.072542      2.491166
  N       2.816644      1.095779     -1.762561
  O       4.023229      3.080565     -2.254951
  O       4.567605      3.947482      0.957820
  S       5.708149      3.109259      0.555628
  O       5.424518      1.692387      0.272810
  O       0.573619     -3.260510     -1.110143
  O      -0.214131     -3.230591      0.910544
19
Coordinates from ORCA-job mol E -1152.734223160785
  C       0.932953     -1.362199      0.167635
  C       1.620035     -0.773754     -0.884492
  C       0.737040     -0.728525      1.387485
  C       2.131911      0.507892     -0.699552
  C       1.949392      1.173994      0.519401
  C       1.256118      0.551652      1.548953
  H       1.755523     -1.295357     -1.823782
  C       3.418960      2.124489     -1.946981
  N       0.388652     -2.720629     -0.025693
  H       0.194331     -1.224990      2.182228
  H       2.354577      2.172649      0.652943
  H       1.118155      1.072112      2.491310
  N       2.817427      1.093973     -1.763466
  O       4.020213      3.079304     -2.262947
  O       4.565632      3.946998      0.964001
  S       5.708133      3.110856      0.563245
  O       5.426407      1.695197      0.272800
  O       0.570908     -3.259774     -1.110558
  O      -0.215037     -3.230149      0.910719
19
Coordinates from ORCA-job mol E -1152.734226930105
  C       0.934073     -1.361307      0.168042
  C       1.620942     -0.773522     -0.884556
  C       0.738408     -0.727488      1.387799
  C       2.133125      0.508135     -0.700120
  C       1.950597      1.174777      0.518592
  C       1.257528      0.552850      1.548489
  H       1.756123     -1.295411     -1.823720
  C       3.417918      2.124290     -1.950937
  N       0.389355     -2.719686     -0.024893
  H       0.195902     -1.223507      2.182941
  H       2.355107      2.173847      0.651099
  H       1.119463      1.073488      2.490738
  N       2.818622      1.092953     -1.764712
  O       4.017259      3.079415     -2.269525
  O       4.561304      3.941544      0.971827
  S       5.705585      3.107237      0.572116
  O       5.423850      1.694321      0.268254
  O       0.570258     -3.259009     -1.109953
  O      -0.214090     -3.229186      0.911768
19
Coordinates from ORCA-job mol E -1152.734230662368
  C       0.934933     -1.359978      0.168359
  C       1.622092     -0.773180     -0.884577
  C       0.740422     -0.726509      1.388535
  C       2.136035      0.507877     -0.699983
  C       1.954456      1.174495      0.518817
  C       1.261096      0.553244      1.548919
  H       1.755901     -1.295503     -1.823672
  C       3.419169      2.123170     -1.954989
  N       0.388144     -2.717529     -0.024805
  H       0.197670     -1.222588      2.183440
  H       2.359539      2.173311      0.651021
  H       1.123920      1.073936      2.491285
  N       2.822258      1.091251     -1.764720
  O       4.016667      3.078245     -2.277327
  O       4.549389      3.935947      0.977497
  S       5.698008      3.105990      0.580557
  O       5.419766      1.695221      0.263111
  O       0.567208     -3.256817     -1.110242
  O      -0.215345     -3.226841      0.912026
19
Coordinates from ORCA-job mol E -1152.734232528805
  C       0.935897     -1.358930      0.168591
  C       1.623184     -0.772577     -0.884525
  C       0.741508     -0.725247      1.388810
  C       2.137444      0.508446     -0.700087
  C       1.956046      1.175192      0.518572
  C       1.262518      0.554336      1.548844
  H       1.756548     -1.295614     -1.823272
  C       3.419870      2.123731     -1.956231
  N       0.388762     -2.716340     -0.024283
  H       0.198589     -1.221774      2.183310
  H       2.361460      2.173868      0.650897
  H       1.125663      1.075497      2.491010
  N       2.824043      1.091537     -1.764530
  O       4.016595      3.078836     -2.279919
  O       4.542474      3.929936      0.980558
  S       5.692755      3.101387      0.585037
  O       5.414702      1.692882      0.257215
  O       0.567862     -3.256002     -1.109534
  O      -0.214589     -3.225424      0.912785
19
Coordinates from ORCA-job mol E -1152.734233440725
  C       0.935716     -1.358742      0.168517
  C       1.623473     -0.772352     -0.884297
  C       0.741648     -0.725250      1.389003
  C       2.138441      0.508324     -0.699360
  C       1.957534      1.174603      0.519557
  C       1.263504      0.553815      1.549601
  H       1.756398     -1.295461     -1.823066
  C       3.421385      2.123601     -1.955978
  N       0.387827     -2.715700     -0.024795
  H       0.198254     -1.222238      2.182897
  H       2.363929      2.172746      0.652754
  H       1.127187      1.075009      2.491832
  N       2.825459      1.091789     -1.763085
  O       4.018386      3.078163     -2.280892
  O       4.538107      3.929880      0.977943
  S       5.689658      3.101995      0.584550
  O       5.413036      1.693428      0.255977
  O       0.567300     -3.255269     -1.110013
  O      -0.215912     -3.224601      0.912103
19
Coordinates from ORCA-job mol E -1152.734233938301
  C       0.935984     -1.358726      0.168584
  C       1.623788     -0.771928     -0.884004
  C       0.741185     -0.725003      1.388897
  C       2.137928      0.509049     -0.699091
  C       1.956417      1.175309      0.519752
  C       1.262321      0.554264      1.549656
  H       1.757316     -1.295153     -1.822630
  C       3.421259      2.124702     -1.955074
  N       0.389077     -2.715992     -0.024625
  H       0.197694     -1.222349      2.182516
  H       2.362527      2.173544      0.653362
  H       1.125593      1.075714      2.491681
  N       2.824801      1.093259     -1.762338
  O       4.018796      3.078897     -2.280057
  O       4.539701      3.928592      0.976394
  S       5.690278      3.099039      0.583751
  O       5.411711      1.691217      0.253885
  O       0.569830     -3.255781     -1.109512
  O      -0.214875     -3.224912      0.912103
