3
Coordinates from ORCA-job opt E -548.517191102156
  S       0.699746      0.534351      0.000000
  O       2.369746      0.534351      0.000000
  O       0.142288      2.108562      0.000000
3
Coordinates from ORCA-job opt E -548.544243061084
  S       0.724084      0.568789      0.000000
  O       2.330257      0.536440      0.000000
  O       0.157439      2.072036      0.000000
3
Coordinates from ORCA-job opt E -548.564661991350
  S       0.751205      0.607165      0.000000
  O       2.292484      0.534363      0.000000
  O       0.168089      2.035737      0.000000
3
Coordinates from ORCA-job opt E -548.573962453148
  S       0.779255      0.646854      0.000000
  O       2.254257      0.531623      0.000000
  O       0.178268      1.998787      0.000000
3
Coordinates from ORCA-job opt E -548.574189954358
  S       0.777948      0.645029      0.000000
  O       2.243374      0.540694      0.000000
  O       0.190457      1.991542      0.000000
3
Coordinates from ORCA-job opt E -548.574201785534
  S       0.776345      0.642617      0.000000
  O       2.243748      0.542171      0.000000
  O       0.191686      1.992476      0.000000
3
Coordinates from ORCA-job opt E -548.574201543284
  S       0.776006      0.642691      0.000000
  O       2.243888      0.542274      0.000000
  O       0.191885      1.992300      0.000000
3
Coordinates from ORCA-job opt E -548.574201815808
  S       0.776222      0.642556      0.000000
  O       2.243732      0.542281      0.000000
  O       0.191826      1.992427      0.000000
3
Coordinates from ORCA-job opt E -548.574201815351
  S       0.776227      0.642566      0.000000
  O       2.243739      0.542270      0.000000
  O       0.191813      1.992429      0.000000
