21
Coordinates from ORCA-job mol E -1062.681609778681
  C      -0.112956      0.265972     -0.130007
  C       0.928901      1.183506     -0.253114
  C       0.130447     -1.007696      0.396115
  C       2.215913      0.824279      0.143422
  C       2.471063     -0.448182      0.671431
  C       1.422015     -1.346728      0.790558
  H       0.724645      2.168688     -0.657923
  C       3.302996      1.790124      0.007425
  O      -1.329891      0.707963     -0.545919
  H      -0.667241     -1.732956      0.502628
  H       3.473985     -0.723538      0.974781
  H       1.607618     -2.336265      1.197216
  N       3.205104      2.913381     -0.606770
  O       4.426100      3.601060     -0.514431
  O       4.507152      1.472841      0.582869
  S       5.713327      2.561757      0.003001
  O       6.336177      1.946979     -1.172414
  C      -2.432792     -0.189161     -0.444664
  H      -3.295297      0.357090     -0.828744
  H      -2.618974     -0.476625      0.598652
  H      -2.271831     -1.089347     -1.052432
21
Coordinates from ORCA-job mol E -1062.681651479128
  C      -0.113923      0.267716     -0.129521
  C       0.927723      1.186378     -0.252446
  C       0.130191     -1.006604      0.395468
  C       2.215711      0.826655      0.142852
  C       2.471687     -0.446383      0.670062
  C       1.422381     -1.345402      0.789277
  H       0.722029      2.172399     -0.655325
  C       3.303454      1.791896      0.006219
  O      -1.331535      0.708275     -0.544370
  H      -0.667455     -1.732370      0.501761
  H       3.474778     -0.722597      0.973070
  H       1.608349     -2.335189      1.195396
  N       3.209826      2.913557     -0.612423
  O       4.432782      3.600759     -0.516044
  O       4.505980      1.475893      0.584602
  S       5.716807      2.560592      0.007611
  O       6.334113      1.940298     -1.169119
  C      -2.435250     -0.192599     -0.444015
  H      -3.298926      0.352903     -0.826660
  H      -2.619684     -0.482091      0.598483
  H      -2.272578     -1.090946     -1.053197
21
Coordinates from ORCA-job mol E -1062.681662710388
  C      -0.114585      0.268620     -0.129817
  C       0.926840      1.187902     -0.253055
  C       0.130339     -1.006188      0.394222
  C       2.215421      0.827609      0.140672
  C       2.472455     -0.445752      0.666834
  C       1.423071     -1.344988      0.786616
  H       0.719904      2.174508     -0.654008
  C       3.303203      1.792422      0.003173
  O      -1.332691      0.708849     -0.542597
  H      -0.667122     -1.732084      0.500910
  H       3.475579     -0.722884      0.968884
  H       1.609487     -2.334958      1.192134
  N       3.212541      2.911352     -0.621860
  O       4.435916      3.599836     -0.522687
  O       4.502586      1.479464      0.588377
  S       5.715726      2.562070      0.015166
  O       6.337990      1.935655     -1.156872
  C      -2.437071     -0.194289     -0.441377
  H      -3.301007      0.351508     -0.822650
  H      -2.618862     -0.484114      0.601147
  H      -2.273258     -1.091399     -1.051535
21
Coordinates from ORCA-job mol E -1062.681666291310
  C      -0.114911      0.268852     -0.129906
  C       0.926286      1.188463     -0.253308
  C       0.130853     -1.006300      0.393127
  C       2.215155      0.828039      0.139213
  C       2.473078     -0.445497      0.664349
  C       1.423934     -1.345044      0.784247
  H       0.718558      2.175388     -0.652958
  C       3.302665      1.792984      0.001248
  O      -1.333304      0.709240     -0.541150
  H      -0.666320     -1.732415      0.500052
  H       3.476302     -0.723118      0.965451
  H       1.610882     -2.335247      1.188946
  N       3.213865      2.908423     -0.630375
  O       4.436551      3.598575     -0.528228
  O       4.499401      1.483994      0.593626
  S       5.713925      2.563668      0.020053
  O       6.340455      1.931261     -1.146982
  C      -2.437871     -0.194625     -0.439288
  H      -3.301629      0.351911     -0.819683
  H      -2.617893     -0.484410      0.603475
  H      -2.273523     -1.091002     -1.050230
21
Coordinates from ORCA-job mol E -1062.681670608566
  C      -0.115741      0.268946     -0.130084
  C       0.925013      1.189127     -0.253905
  C       0.131805     -1.006911      0.390561
  C       2.214555      0.828531      0.135683
  C       2.474213     -0.445433      0.658568
  C       1.425667     -1.345638      0.778764
  H       0.715822      2.176770     -0.650889
  C       3.301464      1.793990     -0.003337
  O      -1.334901      0.709918     -0.537755
  H      -0.664820     -1.733504      0.498115
  H       3.477878     -0.723773      0.957385
  H       1.613804     -2.336409      1.181510
  N       3.216776      2.901077     -0.649915
  O       4.437388      3.595289     -0.542455
  O       4.492511      1.494702      0.605288
  S       5.709916      2.568919      0.030938
  O       6.349398      1.923248     -1.122205
  C      -2.439586     -0.194633     -0.434276
  H      -3.303364      0.353399     -0.812235
  H      -2.616019     -0.484774      0.608941
  H      -2.275321     -1.089699     -1.047017
21
Coordinates from ORCA-job mol E -1062.681673065460
  C      -0.116461      0.269014     -0.130018
  C       0.923898      1.189696     -0.253982
  C       0.132433     -1.007412      0.388521
  C       2.214022      0.828993      0.133105
  C       2.474949     -0.445430      0.654070
  C       1.426941     -1.346188      0.774433
  H       0.713750      2.177973     -0.648873
  C       3.300517      1.794831     -0.006817
  O      -1.336314      0.710352     -0.535010
  H      -0.663767     -1.734424      0.496429
  H       3.479142     -0.723945      0.950986
  H       1.616030     -2.337461      1.175490
  N       3.219440      2.894911     -0.665428
  O       4.438148      3.592281     -0.554128
  O       4.487166      1.503445      0.614465
  S       5.707240      2.573438      0.038982
  O       6.357223      1.917289     -1.102274
  C      -2.440740     -0.194419     -0.430426
  H      -3.305022      0.354276     -0.806234
  H      -2.614894     -0.485412      0.612949
  H      -2.277243     -1.088668     -1.044562
21
Coordinates from ORCA-job mol E -1062.681675127110
  C      -0.117075      0.269144     -0.129713
  C       0.922883      1.190344     -0.253523
  C       0.132824     -1.007766      0.386923
  C       2.213536      0.829495      0.131325
  C       2.475422     -0.445462      0.650536
  C       1.427894     -1.346673      0.771014
  H       0.712158      2.179243     -0.646618
  C       3.299778      1.795521     -0.009480
  O      -1.337578      0.710628     -0.532737
  H      -0.663054     -1.735144      0.494971
  H       3.480228     -0.723691      0.945791
  H       1.617731     -2.338391      1.170608
  N       3.221945      2.889743     -0.677915
  O       4.438947      3.589558     -0.563927
  O       4.482948      1.510506      0.621755
  S       5.705620      2.577271      0.044943
  O       6.363989      1.912723     -1.086230
  C      -2.441450     -0.194100     -0.427544
  H      -3.306653      0.354512     -0.801469
  H      -2.614443     -0.486414      0.615712
  H      -2.279190     -1.087907     -1.042742
21
Coordinates from ORCA-job mol E -1062.681675936611
  C      -0.117254      0.269226     -0.129611
  C       0.922516      1.190665     -0.253302
  C       0.132865     -1.007844      0.386361
  C       2.213376      0.829688      0.130763
  C       2.475516     -0.445544      0.649358
  C       1.428148     -1.346879      0.769897
  H       0.711750      2.179863     -0.645688
  C       3.299601      1.795647     -0.010406
  O      -1.338064      0.710654     -0.532033
  H      -0.662953     -1.735307      0.494428
  H       3.480651     -0.723336      0.944007
  H       1.618162     -2.338743      1.169046
  N       3.222981      2.888024     -0.682004
  O       4.439350      3.588577     -0.567413
  O       4.481582      1.512572      0.623970
  S       5.705462      2.578755      0.046950
  O       6.366715      1.911580     -1.080729
  C      -2.441587     -0.193888     -0.426607
  H      -3.307488      0.354213     -0.799789
  H      -2.614600     -0.486986      0.616468
  H      -2.280269     -1.087796     -1.041986
