16
Coordinates from ORCA-job mol
  C   -0.02024619899603     -0.12713182793050      0.35787254706443
  C   0.81675981023120      0.97349034716523      0.41911826352540
  C   0.44744730116409     -1.43393445544013      0.40969740564071
  C   2.19758719128137      0.75625285674528      0.53842515210062
  C   2.69070366814511     -0.56092834040533      0.59281830803841
  C   1.81810214057387     -1.63749134970896      0.52831157502468
  H   0.40643889763765      1.97460900274664      0.37518825776107
  C   3.08650311343450      1.85441388620615      0.60404213258047
  N   -1.47943981536336      0.10385154316032      0.23166155628335
  H   -0.25239065413291     -2.25845495364447      0.35764756767945
  H   3.75946362688112     -0.72266972908070      0.68547357280745
  H   2.20969731558489     -2.64870891562381      0.57073368195748
  N   3.83455205180241      2.74660574964986      0.65163381443231
  O   4.60259655612032      3.66720325793099      0.70255336588461
  O   -2.20094923502372     -0.88230557073258      0.17918609600397
  O   -1.86561576934053      1.26339849896201      0.18830670321557
