17
Coordinates from ORCA-job inp
  C   0.07146110738853      0.08597445941896     -0.08623355924294
  C   1.06314765617978      1.05316355347046     -0.23025479518234
  C   0.37531585260004     -1.16192094455632      0.47464547760329
  C   2.37840452863596      0.77231310454178      0.18707053084826
  C   2.68418295527651     -0.47805657239763      0.75016764777670
  C   1.68056292063651     -1.43897539029688      0.89122317021804
  H   0.83587573777137      2.02900630372754     -0.66591932667320
  C   3.42366908751355      1.78565860010337      0.03510867328542
  H   -0.94865518977511      0.30606888294617     -0.41311205955121
  H   -0.40780582844486     -1.91743023449920      0.58577113945598
  H   3.70590592147477     -0.69206808757926      1.07096557438833
  H   1.92215792265871     -2.41156874875681      1.32880734639880
  N   3.24919171338629      2.92702814351879     -0.54597789785761
  O   4.42576705336313      3.66314927817549     -0.51161009096200
  O   4.66509016361239      1.49454113851151      0.54117571613716
  S   5.81836325890039      2.66594675369346     -0.05906182982135
  O   6.43176513882199      2.11416975997856     -1.28206571682134
