3
Coordinates from ORCA-job /scratch/obeletsan/orcajob__14285-qCLZ/so2
  S   0.00000000000000     -0.00000022616504      0.38402956419881
  O   0.00000000000000      1.25958008536118     -0.37359884052906
  O   0.00000000000000     -1.25957985919614     -0.37359872466976
