3
Coordinates from ORCA-job /scratch/obeletsan/orcajob__14285-qCLZ/so2 E -548.538947018874
  S       0.000000     -0.000000      0.464422
  O       0.000000      1.351922     -0.413795
  O       0.000000     -1.351922     -0.413795
3
Coordinates from ORCA-job /scratch/obeletsan/orcajob__14285-qCLZ/so2 E -548.563187551258
  S       0.000000      0.000000      0.427955
  O       0.000000      1.295197     -0.395561
  O       0.000000     -1.295197     -0.395561
3
Coordinates from ORCA-job /scratch/obeletsan/orcajob__14285-qCLZ/so2 E -548.568504762912
  S       0.000000     -0.000000      0.373251
  O       0.000000      1.229660     -0.368210
  O       0.000000     -1.229660     -0.368210
3
Coordinates from ORCA-job /scratch/obeletsan/orcajob__14285-qCLZ/so2 E -548.571093466606
  S       0.000000      0.000000      0.389127
  O       0.000000      1.263100     -0.376148
  O       0.000000     -1.263100     -0.376148
3
Coordinates from ORCA-job /scratch/obeletsan/orcajob__14285-qCLZ/so2 E -548.571197529505
  S       0.000000      0.000003      0.384869
  O       0.000000      1.259728     -0.374017
  O       0.000000     -1.259731     -0.374019
3
Coordinates from ORCA-job /scratch/obeletsan/orcajob__14285-qCLZ/so2 E -548.571199052406
  S       0.000000     -0.000000      0.384075
  O       0.000000      1.259513     -0.373622
  O       0.000000     -1.259513     -0.373621
3
Coordinates from ORCA-job /scratch/obeletsan/orcajob__14285-qCLZ/so2 E -548.571199058890
  S       0.000000     -0.000000      0.384030
  O       0.000000      1.259580     -0.373599
  O       0.000000     -1.259580     -0.373599
