17
Coordinates from ORCA-job orca E -948.115010713824
  C      -0.083522      0.068703     -0.140480
  C       0.675208      1.225864     -0.315973
  C       0.500636     -1.081616      0.405449
  C       2.034406      1.228211      0.060630
  C       2.625463      0.070936      0.613934
  C       1.850263     -1.076393      0.780503
  H       0.230057      2.120195     -0.737311
  C       2.837489      2.390159     -0.106465
  H      -1.129118      0.064097     -0.428267
  H      -0.094856     -1.978540      0.538945
  H       3.668155      0.105474      0.906628
  H       2.300554     -1.966974      1.205049
  N       3.521914      3.326509     -0.256243
  O       4.392121      4.247197     -0.311625
  O       5.152471      1.858660      1.391347
  S       6.246697      2.999476      1.015233
  O       7.280662      2.514544     -0.123953
17
Coordinates from ORCA-job orca E -948.138911451793
  C      -0.069233      0.080255     -0.138298
  C       0.689704      1.230099     -0.312595
  C       0.508570     -1.068286      0.404814
  C       2.043665      1.223285      0.062356
  C       2.630271      0.069017      0.612259
  C       1.853267     -1.069664      0.778109
  H       0.248995      2.127634     -0.733769
  C       2.848033      2.376665     -0.103455
  H      -1.115636      0.080207     -0.426376
  H      -0.091040     -1.963496      0.538117
  H       3.675306      0.098876      0.902955
  H       2.300537     -1.963188      1.202134
  N       3.518837      3.309615     -0.257803
  O       4.360336      4.214846     -0.319420
  O       5.185770      1.873331      1.378743
  S       6.217365      2.973299      1.001303
  O       7.203851      2.524004     -0.091673
17
Coordinates from ORCA-job orca E -948.145835662808
  C      -0.062941      0.084543     -0.135595
  C       0.694466      1.232433     -0.312039
  C       0.513200     -1.062082      0.406154
  C       2.047025      1.223670      0.059341
  C       2.632114      0.071403      0.608188
  C       1.855862     -1.064623      0.776408
  H       0.254853      2.130737     -0.733248
  C       2.852895      2.373483     -0.107737
  H      -1.110423      0.085174     -0.422189
  H      -0.087408     -1.956890      0.541377
  H       3.678240      0.101223      0.897091
  H       2.303004     -1.958725      1.200962
  N       3.522209      3.306708     -0.262182
  O       4.341034      4.196807     -0.327492
  O       5.240243      1.889936      1.361800
  S       6.202763      2.924584      0.992499
  O       7.131464      2.538119     -0.045938
17
Coordinates from ORCA-job orca E -948.147962497066
  C      -0.072223      0.085312     -0.141148
  C       0.697204      1.227086     -0.312204
  C       0.490647     -1.067702      0.402913
  C       2.048616      1.207730      0.066847
  C       2.620082      0.047546      0.617085
  C       1.832191     -1.082449      0.779999
  H       0.267633      2.129311     -0.735217
  C       2.862314      2.354678     -0.097083
  H      -1.117820      0.095685     -0.433781
  H      -0.118539     -1.957190      0.533692
  H       3.664810      0.064071      0.908425
  H       2.269288     -1.981187      1.204789
  N       3.518965      3.297205     -0.257705
  O       4.328122      4.207940     -0.332750
  O       5.281161      1.907763      1.383206
  S       6.242468      2.974919      0.990748
  O       7.193681      2.605783     -0.080417
17
Coordinates from ORCA-job orca E -948.148390999432
  C      -0.079210      0.087858     -0.143199
  C       0.700154      1.223310     -0.312030
  C       0.472621     -1.070231      0.401342
  C       2.050881      1.193579      0.069804
  C       2.610909      0.027437      0.619719
  C       1.813439     -1.096238      0.780518
  H       0.278929      2.129348     -0.735305
  C       2.871108      2.336543     -0.092872
  H      -1.124046      0.107313     -0.438102
  H      -0.144184     -1.954661      0.530441
  H       3.655658      0.031441      0.910688
  H       2.242476     -1.999004      1.204930
  N       3.515706      3.286984     -0.258713
  O       4.307614      4.211521     -0.343782
  O       5.339326      1.932163      1.400156
  S       6.275335      3.007942      0.990989
  O       7.221882      2.661194     -0.087183
17
Coordinates from ORCA-job orca E -948.148688805058
  C      -0.088195      0.090619     -0.148069
  C       0.703647      1.218186     -0.312553
  C       0.449192     -1.073979      0.397466
  C       2.053327      1.175001      0.073597
  C       2.597720      0.002014      0.624109
  C       1.788483     -1.113845      0.781416
  H       0.293407      2.129194     -0.735980
  C       2.881035      2.313026     -0.084707
  H      -1.131600      0.121637     -0.447040
  H      -0.177237     -1.951931      0.523905
  H       3.641683     -0.010286      0.919050
  H       2.206709     -2.021047      1.207031
  N       3.513416      3.271633     -0.255110
  O       4.281109      4.213526     -0.354377
  O       5.418798      1.966988      1.423951
  S       6.322178      3.054706      0.989443
  O       7.254927      2.731056     -0.104732
17
Coordinates from ORCA-job orca E -948.148799789716
  C      -0.093924      0.092103     -0.152597
  C       0.705879      1.214587     -0.312987
  C       0.433650     -1.076739      0.393690
  C       2.054313      1.162954      0.077909
  C       2.587995     -0.014304      0.628895
  C       1.771356     -1.125456      0.782269
  H       0.303164      2.128712     -0.736941
  C       2.886936      2.297685     -0.077374
  H      -1.135941      0.130507     -0.455564
  H      -0.198865     -1.950765      0.516871
  H       3.630629     -0.037473      0.928057
  H       2.182403     -2.035656      1.208394
  N       3.514643      3.259441     -0.248972
  O       4.265983      4.212313     -0.358443
  O       5.473165      1.994233      1.441596
  S       6.355123      3.090085      0.986027
  O       7.272090      2.774273     -0.123429
17
Coordinates from ORCA-job orca E -948.148869670817
  C      -0.098020      0.092737     -0.156335
  C       0.706852      1.211915     -0.313374
  C       0.423024     -1.078951      0.390225
  C       2.054219      1.154868      0.081410
  C       2.580810     -0.025150      0.632432
  C       1.759381     -1.133396      0.782438
  H       0.309125      2.128122     -0.737565
  C       2.889812      2.287712     -0.071899
  H      -1.139003      0.136008     -0.462234
  H      -0.213440     -1.950502      0.510632
  H       3.622249     -0.055608      0.935125
  H       2.165735     -2.045637      1.208655
  N       3.519321      3.248619     -0.241924
  O       4.260174      4.208175     -0.358872
  O       5.511554      2.018865      1.458181
  S       6.378838      3.118120      0.982159
  O       7.277971      2.800603     -0.141653
17
Coordinates from ORCA-job orca E -948.148937867931
  C      -0.101899      0.092476     -0.160177
  C       0.706304      1.209482     -0.314197
  C       0.414579     -1.081159      0.386595
  C       2.052698      1.148795      0.083980
  C       2.574356     -0.032933      0.635187
  C       1.749666     -1.139340      0.782141
  H       0.312114      2.127105     -0.738641
  C       2.890010      2.280641     -0.068090
  H      -1.141992      0.138974     -0.468654
  H      -0.224542     -1.951121      0.504477
  H       3.614635     -0.068360      0.941270
  H       2.152796     -2.052942      1.208481
  N       3.528349      3.236538     -0.232188
  O       4.262588      4.200209     -0.354442
  O       5.544603      2.045846      1.478140
  S       6.399694      3.144030      0.977169
  O       7.274640      2.818258     -0.163654
17
Coordinates from ORCA-job orca E -948.148996623875
  C      -0.104782      0.090939     -0.162880
  C       0.703435      1.207991     -0.315767
  C       0.411331     -1.082735      0.384144
  C       2.049346      1.147338      0.083979
  C       2.570690     -0.034220      0.635561
  C       1.745846     -1.140759      0.781268
  H       0.309638      2.125634     -0.740514
  C       2.886137      2.279647     -0.068290
  H      -1.144550      0.137357     -0.472454
  H      -0.227835     -1.952818      0.500945
  H       3.610445     -0.069897      0.943304
  H       2.148808     -2.054325      1.207854
  N       3.539860      3.226429     -0.222063
  O       4.275064      4.189541     -0.344579
  O       5.562239      2.067556      1.498011
  S       6.411690      3.158915      0.972616
  O       7.261238      2.819908     -0.183736
17
Coordinates from ORCA-job orca E -948.149033497428
  C      -0.105970      0.088433     -0.162783
  C       0.698411      1.208064     -0.317554
  C       0.414954     -1.083061      0.384237
  C       2.044799      1.151708      0.080412
  C       2.571429     -0.027672      0.632109
  C       1.750189     -1.136566      0.779578
  H       0.301019      2.124170     -0.742251
  C       2.878569      2.286045     -0.073259
  H      -1.146353      0.131051     -0.470761
  H      -0.221195     -1.955156      0.502477
  H       3.611814     -0.058327      0.938225
  H       2.156727     -2.048531      1.206255
  N       3.548522      3.222615     -0.216815
  O       4.292844      4.179824     -0.334349
  O       5.557550      2.075155      1.512372
  S       6.410785      3.155952      0.971593
  O       7.244506      2.802796     -0.192085
17
Coordinates from ORCA-job orca E -948.149050085978
  C      -0.105704      0.085664     -0.161278
  C       0.692922      1.209207     -0.318642
  C       0.422288     -1.082716      0.385495
  C       2.040172      1.159184      0.076208
  C       2.574383     -0.017200      0.627809
  C       1.758719     -1.129640      0.777946
  H       0.290180      2.123064     -0.743090
  C       2.870075      2.296100     -0.078527
  H      -1.146982      0.122734     -0.466900
  H      -0.209328     -1.957797      0.505945
  H       3.615846     -0.040583      0.931107
  H       2.170419     -2.039324      1.204553
  N       3.550881      3.225298     -0.216842
  O       4.306686      4.174511     -0.328411
  O       5.541465      2.070035      1.518993
  S       6.403532      3.141104      0.973096
  O       7.233047      2.776860     -0.190064
17
Coordinates from ORCA-job orca E -948.149056065162
  C      -0.105176      0.083645     -0.160279
  C       0.689212      1.210091     -0.319225
  C       0.427793     -1.082479      0.386380
  C       2.036983      1.164812      0.073695
  C       2.576410     -0.009379      0.625439
  C       1.764989     -1.124553      0.777154
  H       0.282633      2.122323     -0.743496
  C       2.864402      2.303433     -0.081030
  H      -1.146995      0.116683     -0.464492
  H      -0.200475     -1.959771      0.508234
  H       3.618515     -0.027560      0.927145
  H       2.180296     -2.032586      1.203797
  N       3.548984      3.229863     -0.218668
  O       4.311926      4.173794     -0.326704
  O       5.530430      2.061796      1.520207
  S       6.398739      3.127971      0.974710
  O       7.229934      2.758417     -0.185468
17
Coordinates from ORCA-job orca E -948.149058193217
  C      -0.105095      0.082360     -0.160667
  C       0.687330      1.210203     -0.319887
  C       0.429842     -1.082647      0.386389
  C       2.035071      1.167344      0.073064
  C       2.576514     -0.005780      0.625378
  C       1.767126     -1.122339      0.777339
  H       0.279192      2.121603     -0.744455
  C       2.861625      2.306623     -0.081178
  H      -1.146946      0.113458     -0.464968
  H      -0.196871     -1.961016      0.508500
  H       3.618667     -0.021644      0.927178
  H       2.183847     -2.029563      1.204323
  N       3.546868      3.232616     -0.218717
  O       4.312196      4.174728     -0.325210
  O       5.529636      2.057223      1.520564
  S       6.399163      3.122199      0.974684
  O       7.230434      2.751133     -0.184936
17
Coordinates from ORCA-job orca E -948.149059368965
  C      -0.105237      0.081302     -0.162096
  C       0.686306      1.209846     -0.320883
  C       0.430166     -1.083062      0.385815
  C       2.033640      1.168405      0.073431
  C       2.575544     -0.004145      0.626689
  C       1.767118     -1.121450      0.778153
  H       0.277747      2.120731     -0.746157
  C       2.859964      2.307961     -0.080077
  H      -1.146810      0.111381     -0.467454
  H      -0.195841     -1.961991      0.507534
  H       3.617400     -0.018998      0.929587
  H       2.184162     -2.028216      1.205786
  N       3.545369      3.234009     -0.216788
  O       4.311076      4.175865     -0.322296
  O       5.534504      2.055354      1.521360
  S       6.402394      3.120434      0.973088
  O       7.231097      2.749073     -0.188290
