21
C8NH7SO4
C       -2.421072000     -0.777461000     -0.444148000
C       -1.548790000      0.305325000     -0.557065000
C       -1.969780000     -1.988706000      0.089858000
C       -0.217518000      0.158491000     -0.156553000
C        0.246698000     -1.052693000      0.380883000
C       -0.642245000     -2.107070000      0.498237000
H       -1.912494000      1.243198000     -0.962100000
C        0.676500000      1.254562000     -0.298331000
O       -3.689523000     -0.546278000     -0.871397000
H       -2.636075000     -2.836515000      0.195469000
H        1.278669000     -1.137400000      0.697926000
H       -0.300215000     -3.049795000      0.914163000
N        0.998408000      2.261555000     -0.871535000
O        1.871249000      3.152080000     -0.817839000
O        2.136238000      1.276358000      1.133610000
S        3.274400000      2.197649000      0.714471000
O        4.277097000      1.565591000     -0.163815000
C       -4.622702000     -1.623014000     -0.797390000
H       -5.550119000     -1.239180000     -1.224228000
H       -4.798273000     -1.926909000      0.242944000
H       -4.281393000     -2.486330000     -1.383152000
