19
Coordinates from ORCA-job mol
  C   0.05189756100357      0.07244744696287      0.09151911696646
  C   0.96717104126092      1.06657177916158     -0.21169062046904
  C   0.43902031114385     -1.20153696472789      0.49465861801846
  C   2.31510819238087      0.75029842845005     -0.06276884457277
  C   2.74608771277053     -0.52717369020253      0.30578337224016
  C   1.79585236897398     -1.49562640123430      0.59889585433872
  H   0.64627507472386      2.04754186244718     -0.54234115129309
  C   3.36390155796336      1.88876901631354     -0.14597517289010
  N   -1.38998445098837      0.37694068913117     -0.03776802391277
  H   -0.31541580105640     -1.94915568016211      0.71057006692375
  H   3.80818061483800     -0.74180587865916      0.36957744918292
  H   2.11022213319056     -2.48913547979232      0.90061362859831
  N   3.50640770123923      1.71183944793267     -1.38480749100583
  O   4.81199906731829      3.26800542388691     -1.58752059240549
  O   3.79201751948672      2.57775998875348      0.80705526543551
  S   5.49231480429371      3.55957400403512     -0.26383945702948
  O   6.57050747031688      2.62737612560191      0.09851735160273
  O   -1.69853165335208      1.50607263624677     -0.39160773653946
  O   -2.18026122550755     -0.52041275414495      0.22029836681100
