!DLPNO-CCSD(T) Extrapolate(3/4,cc) cc-pVQZ/C TightPNO TightSCF 
!CPCM(Benzene)
%geom maxiter 300 end
%maxcore 4000 
%pal nprocs 36
end

*xyz 0 1
34       0.000000000      0.000000000      0.472594000
8        0.000000000      1.354840000     -0.417881000
8        0.000000000     -1.354840000     -0.417881000

*
