!DLPNO-CCSD(T) Extrapolate(3/4,cc) cc-pVQZ/C TightPNO TightSCF 
%geom maxiter 300 end
%maxcore 4000 
%pal nprocs 36
end

*xyz 0 1
6       -0.020246000     -0.127132000      0.357873000
6        0.816760000      0.973490000      0.419118000
6        0.447447000     -1.433934000      0.409697000
6        2.197587000      0.756253000      0.538425000
6        2.690704000     -0.560928000      0.592818000
6        1.818102000     -1.637491000      0.528312000
1        0.406439000      1.974609000      0.375188000
6        3.086503000      1.854414000      0.604042000
7       -1.479440000      0.103852000      0.231662000
1       -0.252391000     -2.258455000      0.357648000
1        3.759464000     -0.722670000      0.685474000
1        2.209697000     -2.648709000      0.570734000
7        3.834552000      2.746606000      0.651634000
8        4.602597000      3.667203000      0.702553000
8       -2.200949000     -0.882306000      0.179186000
8       -1.865616000      1.263398000      0.188307000

*
