17
Coordinates from ORCA-job orca
  C   0.27972994250982      0.02609442293300     -0.51693686965178
  C   1.38285382377760      0.86185449476534     -0.58015709311034
  C   0.26686963790001     -1.03852541285328      0.38139115458995
  C   2.47092661791640      0.59318787780297      0.24747832999866
  C   2.45918864580749     -0.44777878938534      1.17189647821233
  C   1.34857377759396     -1.27601675606326      1.22472654127677
  H   1.41470449962399      1.70482292729478     -1.26060658548097
  C   3.77997263077112      1.38171867810984      0.02142506124391
  H   -0.57431903095683      0.20933890540381     -1.15822901878741
  H   -0.60313698501322     -1.68395946803974      0.43288405063216
  H   3.30864360693639     -0.60117526238989      1.82694193508757
  H   1.32088585669053     -2.09843251099047      1.92975988262242
  N   3.48268921872463      2.23131653230955      0.89560341653321
  O   5.25407975266833      3.22214803071943      0.66249676802543
  O   4.69263480285823      1.14340723185335     -0.79783512188100
  S   5.83503071310871      2.92333502305587     -0.65680579378819
  O   5.25507448908278      3.64566507547406     -1.75333213552272
