
                                 *****************
                                 * O   R   C   A *
                                 *****************

                                            #,                                       
                                            ###                                      
                                            ####                                     
                                            #####                                    
                                            ######                                   
                                           ########,                                 
                                     ,,################,,,,,                         
                               ,,#################################,,                 
                          ,,##########################################,,             
                       ,#########################################, ''#####,          
                    ,#############################################,,   '####,        
                  ,##################################################,,,,####,       
                ,###########''''           ''''###############################       
              ,#####''   ,,,,##########,,,,          '''####'''          '####       
            ,##' ,,,,###########################,,,                        '##       
           ' ,,###''''                  '''############,,,                           
         ,,##''                                '''############,,,,        ,,,,,,###''
      ,#''                                            '''#######################'''  
     '                                                          ''''####''''         
             ,#######,   #######,   ,#######,      ##                                
            ,#'     '#,  ##    ##  ,#'     '#,    #''#        ######   ,####,        
            ##       ##  ##   ,#'  ##            #'  '#       #        #'  '#        
            ##       ##  #######   ##           ,######,      #####,   #    #        
            '#,     ,#'  ##    ##  '#,     ,#' ,#      #,         ##   #,  ,#        
             '#######'   ##     ##  '#######'  #'      '#     #####' # '####'        



                  #######################################################
                  #                        -***-                        #
                  #          Department of theory and spectroscopy      #
                  #    Directorship and core code : Frank Neese         #
                  #        Max Planck Institute fuer Kohlenforschung    #
                  #                Kaiser Wilhelm Platz 1               #
                  #                 D-45470 Muelheim/Ruhr               #
                  #                      Germany                        #
                  #                                                     #
                  #                  All rights reserved                #
                  #                        -***-                        #
                  #######################################################


                         Program Version 5.0.4 -  RELEASE  -


 With contributions from (in alphabetic order):
   Daniel Aravena         : Magnetic Suceptibility
   Michael Atanasov       : Ab Initio Ligand Field Theory (pilot matlab implementation)
   Alexander A. Auer      : GIAO ZORA, VPT2 properties, NMR spectrum
   Ute Becker             : Parallelization
   Giovanni Bistoni       : ED, misc. LED, open-shell LED, HFLD
   Martin Brehm           : Molecular dynamics
   Dmytro Bykov           : SCF Hessian
   Vijay G. Chilkuri      : MRCI spin determinant printing, contributions to CSF-ICE
   Dipayan Datta          : RHF DLPNO-CCSD density
   Achintya Kumar Dutta   : EOM-CC, STEOM-CC
   Dmitry Ganyushin       : Spin-Orbit,Spin-Spin,Magnetic field MRCI
   Miquel Garcia          : C-PCM and meta-GGA Hessian, CC/C-PCM, Gaussian charge scheme
   Yang Guo               : DLPNO-NEVPT2, F12-NEVPT2, CIM, IAO-localization
   Andreas Hansen         : Spin unrestricted coupled pair/coupled cluster methods
   Benjamin Helmich-Paris : MC-RPA, TRAH-SCF, COSX integrals
   Lee Huntington         : MR-EOM, pCC
   Robert Izsak           : Overlap fitted RIJCOSX, COSX-SCS-MP3, EOM
   Marcus Kettner         : VPT2
   Christian Kollmar      : KDIIS, OOCD, Brueckner-CCSD(T), CCSD density, CASPT2, CASPT2-K
   Simone Kossmann        : Meta GGA functionals, TD-DFT gradient, OOMP2, MP2 Hessian
   Martin Krupicka        : Initial AUTO-CI
   Lucas Lang             : DCDCAS
   Marvin Lechner         : AUTO-CI (C++ implementation), FIC-MRCC
   Dagmar Lenk            : GEPOL surface, SMD
   Dimitrios Liakos       : Extrapolation schemes; Compound Job, initial MDCI parallelization
   Dimitrios Manganas     : Further ROCIS development; embedding schemes
   Dimitrios Pantazis     : SARC Basis sets
   Anastasios Papadopoulos: AUTO-CI, single reference methods and gradients
   Taras Petrenko         : DFT Hessian,TD-DFT gradient, ASA, ECA, R-Raman, ABS, FL, XAS/XES, NRVS
   Peter Pinski           : DLPNO-MP2, DLPNO-MP2 Gradient
   Christoph Reimann      : Effective Core Potentials
   Marius Retegan         : Local ZFS, SOC
   Christoph Riplinger    : Optimizer, TS searches, QM/MM, DLPNO-CCSD(T), (RO)-DLPNO pert. Triples
   Tobias Risthaus        : Range-separated hybrids, TD-DFT gradient, RPA, STAB
   Michael Roemelt        : Original ROCIS implementation
   Masaaki Saitow         : Open-shell DLPNO-CCSD energy and density
   Barbara Sandhoefer     : DKH picture change effects
   Avijit Sen             : IP-ROCIS
   Kantharuban Sivalingam : CASSCF convergence, NEVPT2, FIC-MRCI
   Bernardo de Souza      : ESD, SOC TD-DFT
   Georgi Stoychev        : AutoAux, RI-MP2 NMR, DLPNO-MP2 response
   Willem Van den Heuvel  : Paramagnetic NMR
   Boris Wezisla          : Elementary symmetry handling
   Frank Wennmohs         : Technical directorship


 We gratefully acknowledge several colleagues who have allowed us to
 interface, adapt or use parts of their codes:
   Stefan Grimme, W. Hujo, H. Kruse, P. Pracht,  : VdW corrections, initial TS optimization,
                  C. Bannwarth, S. Ehlert          DFT functionals, gCP, sTDA/sTD-DF
   Ed Valeev, F. Pavosevic, A. Kumar             : LibInt (2-el integral package), F12 methods
   Garnet Chan, S. Sharma, J. Yang, R. Olivares  : DMRG
   Ulf Ekstrom                                   : XCFun DFT Library
   Mihaly Kallay                                 : mrcc  (arbitrary order and MRCC methods)
   Jiri Pittner, Ondrej Demel                    : Mk-CCSD
   Frank Weinhold                                : gennbo (NPA and NBO analysis)
   Christopher J. Cramer and Donald G. Truhlar   : smd solvation model
   Lars Goerigk                                  : TD-DFT with DH, B97 family of functionals
   V. Asgeirsson, H. Jonsson                     : NEB implementation
   FAccTs GmbH                                   : IRC, NEB, NEB-TS, DLPNO-Multilevel, CI-OPT
                                                   MM, QMMM, 2- and 3-layer-ONIOM, Crystal-QMMM,
                                                   LR-CPCM, SF, NACMEs, symmetry and pop. for TD-DFT,
                                                   nearIR, NL-DFT gradient (VV10), updates on ESD,
                                                   ML-optimized integration grids
   S Lehtola, MJT Oliveira, MAL Marques          : LibXC Library
   Liviu Ungur et al                             : ANISO software


 Your calculation uses the libint2 library for the computation of 2-el integrals
 For citations please refer to: http://libint.valeyev.net

 Your ORCA version has been built with support for libXC version: 5.1.0
 For citations please refer to: https://tddft.org/programs/libxc/

 This ORCA versions uses:
   CBLAS   interface :  Fast vector & matrix operations
   LAPACKE interface :  Fast linear algebra routines
   SCALAPACK package :  Parallel linear algebra routines
   Shared memory     :  Shared parallel matrices
   BLAS/LAPACK       :  OpenBLAS 0.3.15  USE64BITINT DYNAMIC_ARCH NO_AFFINITY Zen SINGLE_THREADED
        Core in use  :  Zen
   Copyright (c) 2011-2014, The OpenBLAS Project




***************************************
The coordinates will be read from file: opt.xyz
***************************************


================================================================================

----- Orbital basis set information -----
Your calculation utilizes the basis: def2-TZVP
   F. Weigend and R. Ahlrichs, Phys. Chem. Chem. Phys. 7, 3297 (2005).

----- AuxJ basis set information -----
Your calculation utilizes the auxiliary basis: def2/J
   F. Weigend, Phys. Chem. Chem. Phys. 8, 1057 (2006).

================================================================================
                                        WARNINGS
                       Please study these warnings very carefully!
================================================================================


INFO   : the flag for use of the SHARK integral package has been found!


WARNING: TRAH does not support fractional occupations!
  ===> : Turning TRAH off
================================================================================
                                       INPUT FILE
================================================================================
NAME = FOD.inp
|  1> ! FOD
|  2> 
|  3> * xyzfile 0 1 opt.xyz
|  4> 
|  5>                          ****END OF INPUT****
================================================================================

                       ****************************
                       * Single Point Calculation *
                       ****************************

---------------------------------
CARTESIAN COORDINATES (ANGSTROEM)
---------------------------------
  C     -2.427866   -0.710026   -0.267251
  C     -1.546944    0.347817   -0.433007
  C     -1.963742   -1.949858    0.170299
  C     -0.178449    0.148502   -0.180408
  C      0.290775   -1.097758    0.261654
  C     -0.608838   -2.138605    0.437570
  H     -1.896997    1.320816   -0.762320
  C      0.732941    1.221260   -0.362603
  H     -3.484300   -0.563554   -0.470696
  H     -2.661753   -2.770496    0.306910
  H      1.347954   -1.227628    0.466121
  H     -0.250598   -3.103790    0.782084
  N      1.081461    2.195984   -0.978096
  O      1.945476    3.101644   -0.891897
  O      2.084944    1.343152    1.152922
  S      3.230640    2.272693    0.769265
  O      4.305296    1.609849   -0.000546

----------------------------
CARTESIAN COORDINATES (A.U.)
----------------------------
  NO LB      ZA    FRAG     MASS         X           Y           Z
   0 C     6.0000    0    12.011   -4.588003   -1.341755   -0.505032
   1 C     6.0000    0    12.011   -2.923300    0.657279   -0.818265
   2 C     6.0000    0    12.011   -3.710935   -3.684699    0.321819
   3 C     6.0000    0    12.011   -0.337219    0.280628   -0.340923
   4 C     6.0000    0    12.011    0.549486   -2.074462    0.494455
   5 C     6.0000    0    12.011   -1.150537   -4.041378    0.826888
   6 H     1.0000    0     1.008   -3.584805    2.495980   -1.440576
   7 C     6.0000    0    12.011    1.385059    2.307846   -0.685220
   8 H     1.0000    0     1.008   -6.584373   -1.064963   -0.889486
   9 H     1.0000    0     1.008   -5.029984   -5.235478    0.579976
  10 H     1.0000    0     1.008    2.547264   -2.319881    0.880841
  11 H     1.0000    0     1.008   -0.473562   -5.865313    1.477925
  12 N     7.0000    0    14.007    2.043665    4.149809   -1.848333
  13 O     8.0000    0    15.999    3.676417    5.861257   -1.685442
  14 O     8.0000    0    15.999    3.939973    2.538190    2.178707
  15 S    16.0000    0    32.060    6.105025    4.294768    1.453699
  16 O     8.0000    0    15.999    8.135831    3.042174   -0.001031

--------------------------------
INTERNAL COORDINATES (ANGSTROEM)
--------------------------------
 C      0   0   0     0.000000000000     0.00000000     0.00000000
 C      1   0   0     1.386554192130     0.00000000     0.00000000
 C      1   2   0     1.394290191588   120.29433327     0.00000000
 C      2   1   3     1.405813138470   119.26300437     1.24372716
 C      4   2   1     1.403123079038   120.53573603   358.67063810
 C      5   4   2     1.386943828203   119.31509185     0.52411585
 H      2   1   3     1.085224005699   121.02250556   180.68738747
 C      4   2   1     1.419378899311   119.65917216   179.25924457
 H      1   2   3     1.085769725232   119.52784086   179.36372927
 H      3   1   2     1.085968141453   119.83349464   179.40005650
 H      5   4   2     1.084573259030   119.45361972   180.95586880
 H      6   5   4     1.085637134082   119.56504890   180.16826887
 N      8   4   2     1.204319477534   149.66972113   323.33143692
 O     13   8   4     1.254660172561   138.45192904   173.78022783
 O      8   4   2     2.034596595349   112.10769010   136.70570246
 S     15   8   4     1.524420576791   110.39451314   166.55258627
 O     16  15   8     1.478802497339   113.81982027   274.84656698

---------------------------
INTERNAL COORDINATES (A.U.)
---------------------------
 C      0   0   0     0.000000000000     0.00000000     0.00000000
 C      1   0   0     2.620207692967     0.00000000     0.00000000
 C      1   2   0     2.634826613314   120.29433327     0.00000000
 C      2   1   3     2.656601827177   119.26300437     1.24372716
 C      4   2   1     2.651518351566   120.53573603   358.67063810
 C      5   4   2     2.620943998435   119.31509185     0.52411585
 H      2   1   3     2.050776164728   121.02250556   180.68738747
 C      4   2   1     2.682237399964   119.65917216   179.25924457
 H      1   2   3     2.051807425192   119.52784086   179.36372927
 H      3   1   2     2.052182377509   119.83349464   179.40005650
 H      5   4   2     2.049546431741   119.45361972   180.95586880
 H      6   5   4     2.051556864230   119.56504890   180.16826887
 N      8   4   2     2.275833990286   149.66972113   323.33143692
 O     13   8   4     2.370964117279   138.45192904   173.78022783
 O      8   4   2     3.844830358218   112.10769010   136.70570246
 S     15   8   4     2.880737403050   110.39451314   166.55258627
 O     16  15   8     2.794531726129   113.81982027   274.84656698

---------------------
BASIS SET INFORMATION
---------------------
There are 5 groups of distinct atoms

 Group   1 Type C   : 11s6p2d1f contracted to 5s3p2d1f pattern {62111/411/11/1}
 Group   2 Type H   : 5s1p contracted to 3s1p pattern {311/1}
 Group   3 Type N   : 11s6p2d1f contracted to 5s3p2d1f pattern {62111/411/11/1}
 Group   4 Type O   : 11s6p2d1f contracted to 5s3p2d1f pattern {62111/411/11/1}
 Group   5 Type S   : 14s9p3d1f contracted to 5s5p2d1f pattern {73211/51111/21/1}

Atom   0C    basis set group =>   1
Atom   1C    basis set group =>   1
Atom   2C    basis set group =>   1
Atom   3C    basis set group =>   1
Atom   4C    basis set group =>   1
Atom   5C    basis set group =>   1
Atom   6H    basis set group =>   2
Atom   7C    basis set group =>   1
Atom   8H    basis set group =>   2
Atom   9H    basis set group =>   2
Atom  10H    basis set group =>   2
Atom  11H    basis set group =>   2
Atom  12N    basis set group =>   3
Atom  13O    basis set group =>   4
Atom  14O    basis set group =>   4
Atom  15S    basis set group =>   5
Atom  16O    basis set group =>   4
---------------------------------
AUXILIARY/J BASIS SET INFORMATION
---------------------------------
There are 5 groups of distinct atoms

 Group   1 Type C   : 12s5p4d2f1g contracted to 6s4p3d1f1g pattern {711111/2111/211/2/1}
 Group   2 Type H   : 5s2p1d contracted to 3s1p1d pattern {311/2/1}
 Group   3 Type N   : 12s5p4d2f1g contracted to 6s4p3d1f1g pattern {711111/2111/211/2/1}
 Group   4 Type O   : 12s5p4d2f1g contracted to 6s4p3d1f1g pattern {711111/2111/211/2/1}
 Group   5 Type S   : 14s5p5d2f1g contracted to 8s4p3d1f1g pattern {71111111/2111/311/2/1}

Atom   0C    basis set group =>   1
Atom   1C    basis set group =>   1
Atom   2C    basis set group =>   1
Atom   3C    basis set group =>   1
Atom   4C    basis set group =>   1
Atom   5C    basis set group =>   1
Atom   6H    basis set group =>   2
Atom   7C    basis set group =>   1
Atom   8H    basis set group =>   2
Atom   9H    basis set group =>   2
Atom  10H    basis set group =>   2
Atom  11H    basis set group =>   2
Atom  12N    basis set group =>   3
Atom  13O    basis set group =>   4
Atom  14O    basis set group =>   4
Atom  15S    basis set group =>   5
Atom  16O    basis set group =>   4
------------------------------------------------------------------------------
                           ORCA GTO INTEGRAL CALCULATION
                           -- RI-GTO INTEGRALS CHOSEN --
------------------------------------------------------------------------------
------------------------------------------------------------------------------
                   ___                                                        
                  /   \      - P O W E R E D   B Y -                         
                 /     \                                                     
                 |  |  |   _    _      __       _____    __    __             
                 |  |  |  | |  | |    /  \     |  _  \  |  |  /  |          
                  \  \/   | |  | |   /    \    | | | |  |  | /  /          
                 / \  \   | |__| |  /  /\  \   | |_| |  |  |/  /          
                |  |  |   |  __  | /  /__\  \  |    /   |      \           
                |  |  |   | |  | | |   __   |  |    \   |  |\   \          
                \     /   | |  | | |  |  |  |  | |\  \  |  | \   \       
                 \___/    |_|  |_| |__|  |__|  |_| \__\ |__|  \__/        
                                                                              
                      - O R C A' S   B I G   F R I E N D -                    
                                      &                                       
                       - I N T E G R A L  F E E D E R -                       
                                                                              
 v1 FN, 2020, v2 2021                                                         
------------------------------------------------------------------------------


Reading SHARK input file FOD.SHARKINP.tmp ... ok
----------------------
SHARK INTEGRAL PACKAGE
----------------------

Number of atoms                             ...     17
Number of basis functions                   ...    408
Number of shells                            ...    154
Maximum angular momentum                    ...      3
Integral batch strategy                     ... SHARK/LIBINT Hybrid
RI-J (if used) integral strategy            ... SPLIT-RIJ (Revised 2003 algorithm where possible)
Printlevel                                  ...      1
Contraction scheme used                     ... SEGMENTED contraction
Coulomb Range Separation                    ... NOT USED
Exchange Range Separation                   ... NOT USED
Finite Nucleus Model                        ... NOT USED
Auxiliary Coulomb fitting basis             ... AVAILABLE
   # of basis functions in Aux-J            ...    645
   # of shells in Aux-J                     ...    207
   Maximum angular momentum in Aux-J        ...      4
Auxiliary J/K fitting basis                 ... NOT available
Auxiliary Correlation fitting basis         ... NOT available
Auxiliary 'external' fitting basis          ... NOT available
Integral threshold                          ...     2.500000e-11
Primitive cut-off                           ...     2.500000e-12
Primitive pair pre-selection threshold      ...     2.500000e-12

Calculating pre-screening integrals         ... done (  0.1 sec) Dimension = 154
Organizing shell pair data                  ... done (  0.1 sec)
Shell pair information
Total number of shell pairs                 ...     11935
Shell pairs after pre-screening             ...      9618
Total number of primitive shell pairs       ...     38796
Primitive shell pairs kept                  ...     21815
          la=0 lb=0:   2169 shell pairs
          la=1 lb=0:   2661 shell pairs
          la=1 lb=1:    834 shell pairs
          la=2 lb=0:   1417 shell pairs
          la=2 lb=1:    884 shell pairs
          la=2 lb=2:    249 shell pairs
          la=3 lb=0:    684 shell pairs
          la=3 lb=1:    429 shell pairs
          la=3 lb=2:    230 shell pairs
          la=3 lb=3:     61 shell pairs

Calculating one electron integrals          ... done (  0.0 sec)
Calculating RI/J V-Matrix + Cholesky decomp.... done (  0.0 sec)
Calculating Nuclear repulsion               ... done (  0.0 sec) ENN=    742.731772949776 Eh

SHARK setup successfully completed in   0.3 seconds

Maximum memory used throughout the entire GTOINT-calculation: 160.3 MB
-------------------------------------------------------------------------------
                                 ORCA SCF
-------------------------------------------------------------------------------

------------
SCF SETTINGS
------------
Hamiltonian:
 Density Functional     Method          .... DFT(GTOs)
 Exchange Functional    Exchange        .... TPSS
 Correlation Functional Correlation     .... TPSS
 LDA part of GGA corr.  LDAOpt          .... PW91-LDA
 Gradients option       PostSCFGGA      .... off
   Density functional embedding theory  .... OFF
   NL short-range parameter             ....  5.000000
 RI-approximation to the Coulomb term is turned on
   Number of AuxJ basis functions       .... 645


General Settings:
 Integral files         IntName         .... FOD
 Hartree-Fock type      HFTyp           .... RHF
 Total Charge           Charge          ....    0
 Multiplicity           Mult            ....    1
 Number of Electrons    NEL             ....   94
 Basis Dimension        Dim             ....  408
 Nuclear Repulsion      ENuc            ....    742.7317729498 Eh

Convergence Acceleration:
 DIIS                   CNVDIIS         .... on
   Start iteration      DIISMaxIt       ....    12
   Startup error        DIISStart       ....  0.200000
   # of expansion vecs  DIISMaxEq       ....     5
   Bias factor          DIISBfac        ....   1.050
   Max. coefficient     DIISMaxC        ....  10.000
 Trust-Rad. Augm. Hess. CNVTRAH         .... off
 SOSCF                  CNVSOSCF        .... on
   Start iteration      SOSCFMaxIt      ....   150
   Startup grad/error   SOSCFStart      ....  0.003300
 Level Shifting         CNVShift        .... on
   Level shift para.    LevelShift      ....    0.2500
   Turn off err/grad.   ShiftErr        ....    0.0010
 Zerner damping         CNVZerner       .... off
 Static damping         CNVDamp         .... on
   Fraction old density DampFac         ....    0.7000
   Max. Damping (<1)    DampMax         ....    0.9800
   Min. Damping (>=0)   DampMin         ....    0.0000
   Turn off err/grad.   DampErr         ....    0.1000
 Fernandez-Rico         CNVRico         .... off

SCF Procedure:
 Maximum # iterations   MaxIter         ....   125
 SCF integral mode      SCFMode         .... Direct
   Integral package                     .... SHARK and LIBINT hybrid scheme
 Reset frequency        DirectResetFreq ....    20
 Integral Threshold     Thresh          ....  2.500e-11 Eh
 Primitive CutOff       TCut            ....  2.500e-12 Eh

Convergence Tolerance:
 Convergence Check Mode ConvCheckMode   .... Total+1el-Energy
 Convergence forced     ConvForced      .... 0
 Energy Change          TolE            ....  1.000e-08 Eh
 1-El. energy change                    ....  1.000e-05 Eh
 Orbital Gradient       TolG            ....  1.000e-05
 Orbital Rotation angle TolX            ....  1.000e-05
 DIIS Error             TolErr          ....  5.000e-07


Diagonalization of the overlap matrix:
Smallest eigenvalue                        ... 9.012e-06
Time for diagonalization                   ...    0.016 sec
Threshold for overlap eigenvalues          ... 1.000e-08
Number of eigenvalues below threshold      ... 0
Time for construction of square roots      ...    0.006 sec
Total time needed                          ...    0.022 sec

Time for model grid setup =    0.215 sec

------------------------------
INITIAL GUESS: MODEL POTENTIAL
------------------------------
Loading Hartree-Fock densities                     ... done
Calculating cut-offs                               ... done
Initializing the effective Hamiltonian             ... done
Setting up the integral package (SHARK)            ... done
Starting the Coulomb interaction                   ... done (   0.3 sec)
Reading the grid                                   ... done
Mapping shells                                     ... done
Starting the XC term evaluation                    ... done (   0.4 sec)
  promolecular density results
     # of electrons  =     93.998115007
     EX              =    -93.120579631
     EC              =     -3.247177434
     EX+EC           =    -96.367757065
Transforming the Hamiltonian                       ... done (   0.0 sec)
Diagonalizing the Hamiltonian                      ... done (   0.0 sec)
Back transforming the eigenvectors                 ... done (   0.0 sec)
Now organizing SCF variables                       ... done
                      ------------------
                      INITIAL GUESS DONE (   1.0 sec)
                      ------------------
-------------------
DFT GRID GENERATION
-------------------

General Integration Accuracy     IntAcc      ... 4.388
Radial Grid Type                 RadialGrid  ... OptM3 with GC (2021)
Angular Grid (max. ang.)         AngularGrid ... 4 (Lebedev-302)
Angular grid pruning method      GridPruning ... 4 (adaptive)
Weight generation scheme         WeightScheme... Becke
Basis function cutoff            BFCut       ... 1.0000e-11
Integration weight cutoff        WCut        ... 1.0000e-14
Angular grids for H and He will be reduced by one unit
Partially contracted basis set               ... off
Rotationally invariant grid construction     ... off

Total number of grid points                  ...    89849
Total number of batches                      ...     1414
Average number of points per batch           ...       63
Average number of grid points per atom       ...     5285
Time for grid setup =    0.769 sec


Warning: Fractional occupation numbers cannot be used with CNVRico or SOSCF

--------------
SCF ITERATIONS
--------------
ITER       Energy         Delta-E        Max-DP      RMS-DP      [F,P]     Damp
               ***  Starting incremental Fock matrix formation  ***
  0   -948.2798943190   0.000000000000 0.09757730  0.00135769  0.2763707 0.7000
  1   -948.4534659226  -0.173571603622 0.07034333  0.00088838  0.0699347 0.7000
                               ***Turning on DIIS***
  2   -948.5104004779  -0.056934555239 0.07450816  0.00119250  0.0210678 0.0000
  3   -948.6045984446  -0.094197966744 0.05858337  0.00068294  0.0362627 0.0000
  4   -948.6137274222  -0.009128977561 0.01881848  0.00032660  0.0205329 0.0000
  5   -948.6140460488  -0.000318626604 0.01062653  0.00019582  0.0200598 0.0000
  6   -948.6154301910  -0.001384142207 0.00673154  0.00009783  0.0092594 0.0000
  7   -948.6156044680  -0.000174277023 0.00348790  0.00006053  0.0070890 0.0000
  8   -948.6157289214  -0.000124453412 0.00186622  0.00002712  0.0040606 0.0000
  9   -948.6157744343  -0.000045512823 0.00115903  0.00001472  0.0006063 0.0000
 10   -948.6158146156  -0.000040181365 0.00029808  0.00000458  0.0003598 0.0000
 11   -948.6158159345  -0.000001318867 0.00015205  0.00000316  0.0003743 0.0000
 12   -948.6158159612  -0.000000026716 0.00013116  0.00000221  0.0002513 0.0000
 13   -948.6158161577  -0.000000196510 0.00007814  0.00000124  0.0001594 0.0000
 14   -948.6158162271  -0.000000069370 0.00006467  0.00000079  0.0000509 0.0000
 15   -948.6158162372  -0.000000010066 0.00003931  0.00000081  0.0000164 0.0000
 16   -948.6158162298   0.000000007384 0.00008907  0.00000091  0.0000092 0.0000
 17   -948.6158162331  -0.000000003303 0.00002061  0.00000033  0.0000127 0.0000
 18   -948.6158162358  -0.000000002748 0.00003013  0.00000059  0.0000055 0.0000
                 **** Energy Check signals convergence ****
Fermi smearing:E(HOMO(Eh)) = -0.232425 MUE = -0.171264 gap=   3.386 eV

N_FOD =  0.137286

               *****************************************************
               *                     SUCCESS                       *
               *           SCF CONVERGED AFTER  19 CYCLES          *
               *****************************************************


----------------
TOTAL SCF ENERGY
----------------

Total Energy       :         -948.61581624 Eh          -25813.14868 eV

Components:
Nuclear Repulsion  :          742.73177295 Eh           20210.75904 eV
Electronic Energy  :        -1691.34758919 Eh          -46023.90771 eV
One Electron Energy:        -2773.65435468 Eh          -75474.97206 eV
Two Electron Energy:         1082.30676549 Eh           29451.06435 eV

Virial components:
Potential Energy   :        -1894.19553801 Eh          -51543.68102 eV
Kinetic Energy     :          945.57972177 Eh           25730.53234 eV
Virial Ratio       :            2.00321083


DFT components:
N(Alpha)           :       47.000003773240 electrons
N(Beta)            :       47.000003773240 electrons
N(Total)           :       94.000007546479 electrons
E(X)               :      -95.071087212926 Eh       
E(C)               :       -3.266313919280 Eh       
E(XC)              :      -98.337401132206 Eh       
DFET-embed. en.    :        0.000000000000 Eh       

---------------
SCF CONVERGENCE
---------------

  Last Energy change         ...   -7.0449e-09  Tolerance :   1.0000e-08
  Last MAX-Density change    ...    1.2327e-04  Tolerance :   1.0000e-07
  Last RMS-Density change    ...    1.3741e-06  Tolerance :   5.0000e-09
  Last DIIS Error            ...    4.0227e-06  Tolerance :   5.0000e-07

             **** THE GBW FILE WAS UPDATED (FOD.gbw) ****
             **** DENSITY FOD.scfp WAS UPDATED ****
             **** ENERGY FILE WAS UPDATED (FOD.en.tmp) ****
             **** THE GBW FILE WAS UPDATED (FOD.gbw) ****
             **** DENSITY FOD.scfp WAS UPDATED ****
----------------
ORBITAL ENERGIES
----------------

  NO   OCC          E(Eh)            E(eV) 
   0   2.0000     -88.492629     -2408.0069 
   1   2.0000     -18.953461      -515.7499 
   2   2.0000     -18.918890      -514.8092 
   3   2.0000     -18.895046      -514.1603 
   4   2.0000     -14.221758      -386.9937 
   5   2.0000     -10.086417      -274.4654 
   6   2.0000     -10.047848      -273.4158 
   7   2.0000     -10.026993      -272.8484 
   8   2.0000     -10.023103      -272.7425 
   9   2.0000     -10.020437      -272.6700 
  10   2.0000     -10.019344      -272.6402 
  11   2.0000     -10.017966      -272.6027 
  12   2.0000      -7.854230      -213.7245 
  13   2.0000      -5.834219      -158.7572 
  14   2.0000      -5.833575      -158.7397 
  15   2.0000      -5.827407      -158.5718 
  16   2.0000      -1.081897       -29.4399 
  17   2.0000      -1.011958       -27.5368 
  18   2.0000      -0.932390       -25.3716 
  19   2.0000      -0.854336       -23.2477 
  20   2.0000      -0.823547       -22.4099 
  21   2.0000      -0.737343       -20.0641 
  22   2.0000      -0.724837       -19.7238 
  23   2.0000      -0.617138       -16.7932 
  24   2.0000      -0.592133       -16.1128 
  25   2.0000      -0.579646       -15.7730 
  26   2.0000      -0.538276       -14.6472 
  27   2.0000      -0.512762       -13.9530 
  28   2.0000      -0.472162       -12.8482 
  29   2.0000      -0.464828       -12.6486 
  30   2.0000      -0.448597       -12.2069 
  31   2.0000      -0.434294       -11.8177 
  32   2.0000      -0.425830       -11.5874 
  33   2.0000      -0.415769       -11.3137 
  34   2.0000      -0.411255       -11.1908 
  35   2.0000      -0.398090       -10.8326 
  36   2.0000      -0.371617       -10.1122 
  37   2.0000      -0.370035       -10.0692 
  38   2.0000      -0.350733        -9.5439 
  39   2.0000      -0.340773        -9.2729 
  40   1.9998      -0.314378        -8.5546 
  41   1.9990      -0.291671        -7.9368 
  42   1.9980      -0.280474        -7.6321 
  43   1.9959      -0.269128        -7.3234 
  44   1.9937      -0.262311        -7.1378 
  45   1.9863      -0.250102        -6.8056 
  46   1.9588      -0.232425        -6.3246 
  47   0.0361      -0.107982        -2.9383 
  48   0.0276      -0.103685        -2.8214 
  49   0.0027      -0.066635        -1.8132 
  50   0.0022      -0.063082        -1.7165 
  51   0.0000      -0.000987        -0.0269 
  52   0.0000       0.019032         0.5179 
  53   0.0000       0.036480         0.9927 
  54   0.0000       0.039579         1.0770 
  55   0.0000       0.053201         1.4477 
  56   0.0000       0.062173         1.6918 
  57   0.0000       0.080406         2.1880 
  58   0.0000       0.090496         2.4625 
  59   0.0000       0.097476         2.6524 
  60   0.0000       0.103864         2.8263 
  61   0.0000       0.122022         3.3204 
  62   0.0000       0.132582         3.6078 
  63   0.0000       0.164605         4.4791 
  64   0.0000       0.170040         4.6270 
  65   0.0000       0.184463         5.0195 
  66   0.0000       0.193082         5.2540 
  67   0.0000       0.199368         5.4251 
  68   0.0000       0.200446         5.4544 
  69   0.0000       0.208234         5.6663 
  70   0.0000       0.213981         5.8227 
  71   0.0000       0.220961         6.0127 
  72   0.0000       0.226880         6.1737 
  73   0.0000       0.245697         6.6858 
  74   0.0000       0.261153         7.1063 
  75   0.0000       0.272284         7.4092 
  76   0.0000       0.276592         7.5265 
  77   0.0000       0.287395         7.8204 
  78   0.0000       0.288451         7.8492 
  79   0.0000       0.299223         8.1423 
  80   0.0000       0.305306         8.3078 
  81   0.0000       0.306683         8.3453 
  82   0.0000       0.317368         8.6360 
  83   0.0000       0.321472         8.7477 
  84   0.0000       0.336844         9.1660 
  85   0.0000       0.339278         9.2322 
  86   0.0000       0.350881         9.5480 
  87   0.0000       0.365530         9.9466 
  88   0.0000       0.375042        10.2054 
  89   0.0000       0.377633        10.2759 
  90   0.0000       0.386417        10.5149 
  91   0.0000       0.392120        10.6701 
  92   0.0000       0.403822        10.9886 
  93   0.0000       0.405999        11.0478 
  94   0.0000       0.417335        11.3563 
  95   0.0000       0.424657        11.5555 
  96   0.0000       0.431055        11.7296 
  97   0.0000       0.447909        12.1882 
  98   0.0000       0.449641        12.2354 
  99   0.0000       0.457304        12.4439 
 100   0.0000       0.464813        12.6482 
 101   0.0000       0.468076        12.7370 
 102   0.0000       0.493445        13.4273 
 103   0.0000       0.497207        13.5297 
 104   0.0000       0.513316        13.9680 
 105   0.0000       0.516147        14.0451 
 106   0.0000       0.539189        14.6721 
 107   0.0000       0.548495        14.9253 
 108   0.0000       0.555957        15.1284 
 109   0.0000       0.581253        15.8167 
 110   0.0000       0.595513        16.2047 
 111   0.0000       0.602395        16.3920 
 112   0.0000       0.614627        16.7248 
 113   0.0000       0.617047        16.7907 
 114   0.0000       0.619543        16.8586 
 115   0.0000       0.626637        17.0517 
 116   0.0000       0.638592        17.3770 
 117   0.0000       0.646998        17.6057 
 118   0.0000       0.655697        17.8424 
 119   0.0000       0.681821        18.5533 
 120   0.0000       0.685205        18.6454 
 121   0.0000       0.707520        19.2526 
 122   0.0000       0.711799        19.3690 
 123   0.0000       0.729005        19.8372 
 124   0.0000       0.734884        19.9972 
 125   0.0000       0.750835        20.4313 
 126   0.0000       0.772089        21.0096 
 127   0.0000       0.779973        21.2241 
 128   0.0000       0.791914        21.5491 
 129   0.0000       0.802189        21.8287 
 130   0.0000       0.827117        22.5070 
 131   0.0000       0.830939        22.6110 
 132   0.0000       0.850650        23.1474 
 133   0.0000       0.855407        23.2768 
 134   0.0000       0.873921        23.7806 
 135   0.0000       0.900204        24.4958 
 136   0.0000       0.919701        25.0263 
 137   0.0000       0.934384        25.4259 
 138   0.0000       0.953948        25.9583 
 139   0.0000       0.963461        26.2171 
 140   0.0000       0.976446        26.5705 
 141   0.0000       0.996725        27.1223 
 142   0.0000       1.010684        27.5021 
 143   0.0000       1.032821        28.1045 
 144   0.0000       1.049580        28.5605 
 145   0.0000       1.064084        28.9552 
 146   0.0000       1.104275        30.0488 
 147   0.0000       1.144285        31.1376 
 148   0.0000       1.151589        31.3363 
 149   0.0000       1.160004        31.5653 
 150   0.0000       1.164419        31.6854 
 151   0.0000       1.184706        32.2375 
 152   0.0000       1.193338        32.4724 
 153   0.0000       1.198714        32.6187 
 154   0.0000       1.225035        33.3349 
 155   0.0000       1.243281        33.8314 
 156   0.0000       1.256121        34.1808 
 157   0.0000       1.266141        34.4534 
 158   0.0000       1.284429        34.9511 
 159   0.0000       1.304467        35.4963 
 160   0.0000       1.311458        35.6866 
 161   0.0000       1.318502        35.8783 
 162   0.0000       1.328218        36.1426 
 163   0.0000       1.364180        37.1212 
 164   0.0000       1.378323        37.5061 
 165   0.0000       1.390407        37.8349 
 166   0.0000       1.396911        38.0119 
 167   0.0000       1.400728        38.1157 
 168   0.0000       1.412655        38.4403 
 169   0.0000       1.432588        38.9827 
 170   0.0000       1.435233        39.0547 
 171   0.0000       1.449085        39.4316 
 172   0.0000       1.456026        39.6205 
 173   0.0000       1.483381        40.3649 
 174   0.0000       1.492655        40.6172 
 175   0.0000       1.507418        41.0189 
 176   0.0000       1.516191        41.2576 
 177   0.0000       1.523548        41.4578 
 178   0.0000       1.545738        42.0617 
 179   0.0000       1.555216        42.3196 
 180   0.0000       1.574019        42.8312 
 181   0.0000       1.583079        43.0778 
 182   0.0000       1.585680        43.1485 
 183   0.0000       1.596889        43.4536 
 184   0.0000       1.619939        44.0808 
 185   0.0000       1.629354        44.3370 
 186   0.0000       1.638662        44.5903 
 187   0.0000       1.645245        44.7694 
 188   0.0000       1.646554        44.8050 
 189   0.0000       1.667246        45.3681 
 190   0.0000       1.671051        45.4716 
 191   0.0000       1.698317        46.2136 
 192   0.0000       1.725912        46.9645 
 193   0.0000       1.731755        47.1235 
 194   0.0000       1.756242        47.7898 
 195   0.0000       1.790890        48.7326 
 196   0.0000       1.796832        48.8943 
 197   0.0000       1.832412        49.8625 
 198   0.0000       1.853698        50.4417 
 199   0.0000       1.869493        50.8715 
 200   0.0000       1.870489        50.8986 
 201   0.0000       1.895558        51.5808 
 202   0.0000       1.933300        52.6078 
 203   0.0000       1.954025        53.1717 
 204   0.0000       1.983675        53.9785 
 205   0.0000       1.989257        54.1304 
 206   0.0000       2.003377        54.5147 
 207   0.0000       2.019998        54.9669 
 208   0.0000       2.031825        55.2888 
 209   0.0000       2.041452        55.5507 
 210   0.0000       2.061105        56.0855 
 211   0.0000       2.075752        56.4841 
 212   0.0000       2.090300        56.8800 
 213   0.0000       2.094105        56.9835 
 214   0.0000       2.124933        57.8224 
 215   0.0000       2.135689        58.1150 
 216   0.0000       2.154923        58.6384 
 217   0.0000       2.181585        59.3640 
 218   0.0000       2.192714        59.6668 
 219   0.0000       2.202641        59.9369 
 220   0.0000       2.219720        60.4017 
 221   0.0000       2.236189        60.8498 
 222   0.0000       2.260936        61.5232 
 223   0.0000       2.286751        62.2257 
 224   0.0000       2.312336        62.9219 
 225   0.0000       2.337834        63.6157 
 226   0.0000       2.351307        63.9823 
 227   0.0000       2.363102        64.3033 
 228   0.0000       2.380636        64.7804 
 229   0.0000       2.403703        65.4081 
 230   0.0000       2.419446        65.8365 
 231   0.0000       2.421735        65.8988 
 232   0.0000       2.460523        66.9542 
 233   0.0000       2.468700        67.1768 
 234   0.0000       2.530494        68.8582 
 235   0.0000       2.533226        68.9326 
 236   0.0000       2.546247        69.2869 
 237   0.0000       2.561630        69.7055 
 238   0.0000       2.578507        70.1647 
 239   0.0000       2.581371        70.2427 
 240   0.0000       2.605518        70.8997 
 241   0.0000       2.617902        71.2367 
 242   0.0000       2.634261        71.6819 
 243   0.0000       2.651810        72.1594 
 244   0.0000       2.659806        72.3770 
 245   0.0000       2.668590        72.6160 
 246   0.0000       2.697824        73.4115 
 247   0.0000       2.704779        73.6008 
 248   0.0000       2.717072        73.9353 
 249   0.0000       2.720643        74.0325 
 250   0.0000       2.729871        74.2836 
 251   0.0000       2.757502        75.0354 
 252   0.0000       2.764760        75.2329 
 253   0.0000       2.778354        75.6029 
 254   0.0000       2.792720        75.9938 
 255   0.0000       2.800054        76.1933 
 256   0.0000       2.827232        76.9329 
 257   0.0000       2.830754        77.0287 
 258   0.0000       2.849742        77.5454 
 259   0.0000       2.860355        77.8342 
 260   0.0000       2.878502        78.3280 
 261   0.0000       2.889096        78.6163 
 262   0.0000       2.895844        78.7999 
 263   0.0000       2.913198        79.2722 
 264   0.0000       2.925619        79.6101 
 265   0.0000       2.932479        79.7968 
 266   0.0000       2.957356        80.4737 
 267   0.0000       2.978993        81.0625 
 268   0.0000       2.991686        81.4079 
 269   0.0000       2.993520        81.4578 
 270   0.0000       3.023247        82.2667 
 271   0.0000       3.027731        82.3888 
 272   0.0000       3.080113        83.8141 
 273   0.0000       3.083475        83.9056 
 274   0.0000       3.100231        84.3616 
 275   0.0000       3.112756        84.7024 
 276   0.0000       3.122542        84.9687 
 277   0.0000       3.131805        85.2208 
 278   0.0000       3.139072        85.4185 
 279   0.0000       3.162175        86.0472 
 280   0.0000       3.178369        86.4878 
 281   0.0000       3.194575        86.9288 
 282   0.0000       3.218733        87.5862 
 283   0.0000       3.241689        88.2108 
 284   0.0000       3.268371        88.9369 
 285   0.0000       3.279221        89.2321 
 286   0.0000       3.299970        89.7967 
 287   0.0000       3.309872        90.0662 
 288   0.0000       3.323583        90.4393 
 289   0.0000       3.330657        90.6318 
 290   0.0000       3.348108        91.1066 
 291   0.0000       3.361593        91.4736 
 292   0.0000       3.397541        92.4518 
 293   0.0000       3.424286        93.1796 
 294   0.0000       3.443108        93.6917 
 295   0.0000       3.455263        94.0225 
 296   0.0000       3.456403        94.0535 
 297   0.0000       3.471990        94.4776 
 298   0.0000       3.494334        95.0857 
 299   0.0000       3.502621        95.3112 
 300   0.0000       3.533941        96.1634 
 301   0.0000       3.545543        96.4791 
 302   0.0000       3.586760        97.6007 
 303   0.0000       3.631819        98.8268 
 304   0.0000       3.671109        99.8960 
 305   0.0000       3.701469       100.7221 
 306   0.0000       3.711890       101.0057 
 307   0.0000       3.747808       101.9830 
 308   0.0000       3.759277       102.2951 
 309   0.0000       3.816926       103.8638 
 310   0.0000       3.829925       104.2176 
 311   0.0000       3.885667       105.7344 
 312   0.0000       3.897588       106.0588 
 313   0.0000       3.910961       106.4227 
 314   0.0000       3.920478       106.6816 
 315   0.0000       3.968976       108.0013 
 316   0.0000       4.003634       108.9444 
 317   0.0000       4.017602       109.3245 
 318   0.0000       4.033971       109.7699 
 319   0.0000       4.070820       110.7727 
 320   0.0000       4.096583       111.4737 
 321   0.0000       4.144497       112.7775 
 322   0.0000       4.166228       113.3688 
 323   0.0000       4.175206       113.6131 
 324   0.0000       4.182332       113.8070 
 325   0.0000       4.188157       113.9656 
 326   0.0000       4.232572       115.1741 
 327   0.0000       4.254365       115.7671 
 328   0.0000       4.258718       115.8856 
 329   0.0000       4.289636       116.7269 
 330   0.0000       4.345304       118.2417 
 331   0.0000       4.386206       119.3547 
 332   0.0000       4.476194       121.8034 
 333   0.0000       4.533835       123.3719 
 334   0.0000       4.609822       125.4396 
 335   0.0000       4.623211       125.8040 
 336   0.0000       4.633453       126.0827 
 337   0.0000       4.685669       127.5035 
 338   0.0000       4.691122       127.6519 
 339   0.0000       4.725084       128.5761 
 340   0.0000       4.784367       130.1892 
 341   0.0000       4.812266       130.9484 
 342   0.0000       4.858076       132.1950 
 343   0.0000       4.871168       132.5512 
 344   0.0000       4.932522       134.2207 
 345   0.0000       4.955512       134.8463 
 346   0.0000       5.077728       138.1720 
 347   0.0000       5.097756       138.7170 
 348   0.0000       5.119919       139.3201 
 349   0.0000       5.124475       139.4441 
 350   0.0000       5.131871       139.6453 
 351   0.0000       5.139401       139.8502 
 352   0.0000       5.146361       140.0396 
 353   0.0000       5.164769       140.5405 
 354   0.0000       5.170003       140.6829 
 355   0.0000       5.181575       140.9978 
 356   0.0000       5.195804       141.3850 
 357   0.0000       5.198318       141.4534 
 358   0.0000       5.226157       142.2110 
 359   0.0000       5.248941       142.8309 
 360   0.0000       5.281112       143.7064 
 361   0.0000       5.309231       144.4715 
 362   0.0000       5.355509       145.7308 
 363   0.0000       5.373927       146.2320 
 364   0.0000       5.414158       147.3267 
 365   0.0000       5.455140       148.4419 
 366   0.0000       5.464719       148.7026 
 367   0.0000       5.493136       149.4758 
 368   0.0000       5.503573       149.7598 
 369   0.0000       5.573701       151.6681 
 370   0.0000       5.593252       152.2001 
 371   0.0000       5.609087       152.6310 
 372   0.0000       5.724145       155.7619 
 373   0.0000       5.741490       156.2339 
 374   0.0000       5.856002       159.3499 
 375   0.0000       6.208825       168.9507 
 376   0.0000       6.215460       169.1313 
 377   0.0000       6.258306       170.2972 
 378   0.0000       6.290349       171.1691 
 379   0.0000       6.320500       171.9895 
 380   0.0000       6.432821       175.0460 
 381   0.0000       6.514469       177.2677 
 382   0.0000       6.559135       178.4831 
 383   0.0000       6.592806       179.3994 
 384   0.0000       6.600207       179.6008 
 385   0.0000       6.684111       181.8839 
 386   0.0000       6.726015       183.0242 
 387   0.0000       6.803460       185.1316 
 388   0.0000       6.831261       185.8881 
 389   0.0000       6.880472       187.2272 
 390   0.0000       6.964771       189.5211 
 391   0.0000       7.104007       193.3099 
 392   0.0000       7.562388       205.7830 
 393   0.0000       8.811565       239.7749 
 394   0.0000       8.989473       244.6160 
 395   0.0000       9.409904       256.0565 
 396   0.0000      20.725918       563.9809 
 397   0.0000      21.972973       597.9150 
 398   0.0000      22.488383       611.9400 
 399   0.0000      22.509635       612.5183 
 400   0.0000      22.614138       615.3620 
 401   0.0000      22.733736       618.6164 
 402   0.0000      23.012854       626.2116 
 403   0.0000      23.238275       632.3456 
 404   0.0000      32.339489       880.0022 
 405   0.0000      43.236484      1176.5245 
 406   0.0000      43.472164      1182.9377 
 407   0.0000      43.863974      1193.5994 

                    ********************************
                    * MULLIKEN POPULATION ANALYSIS *
                    ********************************

------------------------------------------
FOD BASED MULLIKEN REDUCED ORBITAL CHARGES
------------------------------------------
  0 C s       :    -0.000035  s :    -0.000035
      pz      :     0.002950  p :     0.003338
      px      :     0.000074
      py      :     0.000314
      dz2     :     0.000086  d :     0.000566
      dxz     :     0.000032
      dyz     :     0.000362
      dx2y2   :     0.000067
      dxy     :     0.000018
      f0      :     0.000001  f :     0.000025
      f+1     :     0.000002
      f-1     :     0.000004
      f+2     :     0.000002
      f-2     :     0.000012
      f+3     :     0.000003
      f-3     :     0.000001
  1 C s       :     0.000040  s :     0.000040
      pz      :     0.006684  p :     0.007829
      px      :     0.000483
      py      :     0.000661
      dz2     :     0.000027  d :     0.000324
      dxz     :     0.000233
      dyz     :     0.000033
      dx2y2   :     0.000017
      dxy     :     0.000014
      f0      :     0.000001  f :     0.000014
      f+1     :     0.000002
      f-1     :     0.000000
      f+2     :     0.000005
      f-2     :     0.000003
      f+3     :     0.000000
      f-3     :     0.000001
  2 C s       :    -0.000004  s :    -0.000004
      pz      :     0.009439  p :     0.010575
      px      :     0.000241
      py      :     0.000896
      dz2     :     0.000029  d :     0.000187
      dxz     :     0.000082
      dyz     :     0.000060
      dx2y2   :     0.000005
      dxy     :     0.000011
      f0      :     0.000001  f :     0.000009
      f+1     :     0.000001
      f-1     :     0.000002
      f+2     :     0.000003
      f-2     :     0.000001
      f+3     :     0.000000
      f-3     :     0.000001
  3 C s       :     0.000289  s :     0.000289
      pz      :     0.005921  p :     0.007035
      px      :     0.000542
      py      :     0.000572
      dz2     :     0.000079  d :     0.000988
      dxz     :     0.000308
      dyz     :     0.000380
      dx2y2   :     0.000169
      dxy     :     0.000052
      f0      :     0.000001  f :     0.000042
      f+1     :     0.000007
      f-1     :     0.000002
      f+2     :     0.000005
      f-2     :     0.000017
      f+3     :     0.000003
      f-3     :     0.000008
  4 C s       :    -0.000017  s :    -0.000017
      pz      :     0.006923  p :     0.007599
      px      :     0.000098
      py      :     0.000578
      dz2     :     0.000083  d :     0.000298
      dxz     :     0.000017
      dyz     :     0.000166
      dx2y2   :     0.000031
      dxy     :     0.000001
      f0      :     0.000001  f :     0.000014
      f+1     :     0.000001
      f-1     :     0.000003
      f+2     :     0.000002
      f-2     :     0.000006
      f+3     :     0.000001
      f-3     :     0.000000
  5 C s       :     0.000007  s :     0.000007
      pz      :     0.003053  p :     0.003331
      px      :     0.000073
      py      :     0.000205
      dz2     :     0.000005  d :     0.000553
      dxz     :     0.000410
      dyz     :     0.000070
      dx2y2   :     0.000034
      dxy     :     0.000034
      f0      :     0.000001  f :     0.000025
      f+1     :     0.000005
      f-1     :     0.000001
      f+2     :     0.000007
      f-2     :     0.000007
      f+3     :     0.000001
      f-3     :     0.000002
  6 H s       :     0.000063  s :     0.000063
      pz      :     0.000051  p :     0.000056
      px      :     0.000001
      py      :     0.000004
  7 C s       :     0.001016  s :     0.001016
      pz      :     0.007648  p :     0.014869
      px      :     0.004184
      py      :     0.003037
      dz2     :     0.000262  d :     0.000934
      dxz     :     0.000301
      dyz     :     0.000179
      dx2y2   :     0.000093
      dxy     :     0.000099
      f0      :     0.000009  f :     0.000037
      f+1     :     0.000002
      f-1     :     0.000009
      f+2     :     0.000003
      f-2     :     0.000006
      f+3     :     0.000004
      f-3     :     0.000004
  8 H s       :     0.000058  s :     0.000058
      pz      :     0.000021  p :     0.000024
      px      :     0.000001
      py      :     0.000003
  9 H s       :     0.000012  s :     0.000012
      pz      :     0.000075  p :     0.000084
      px      :     0.000002
      py      :     0.000007
 10 H s       :     0.000083  s :     0.000083
      pz      :     0.000047  p :     0.000054
      px      :     0.000003
      py      :     0.000004
 11 H s       :     0.000033  s :     0.000033
      pz      :     0.000021  p :     0.000024
      px      :     0.000001
      py      :     0.000002
 12 N s       :     0.000621  s :     0.000621
      pz      :     0.007642  p :     0.010883
      px      :     0.001932
      py      :     0.001309
      dz2     :     0.000101  d :     0.000971
      dxz     :     0.000173
      dyz     :     0.000204
      dx2y2   :     0.000313
      dxy     :     0.000180
      f0      :     0.000005  f :     0.000028
      f+1     :     0.000003
      f-1     :     0.000007
      f+2     :     0.000002
      f-2     :     0.000005
      f+3     :     0.000007
      f-3     :     0.000000
 13 O s       :    -0.000344  s :    -0.000344
      pz      :     0.014670  p :     0.024316
      px      :     0.005245
      py      :     0.004401
      dz2     :     0.000003  d :     0.000024
      dxz     :     0.000022
      dyz     :     0.000004
      dx2y2   :    -0.000002
      dxy     :    -0.000003
      f0      :     0.000000  f :    -0.000001
      f+1     :     0.000000
      f-1     :     0.000000
      f+2     :    -0.000000
      f-2     :    -0.000000
      f+3     :    -0.000000
      f-3     :    -0.000000
 14 O s       :    -0.000038  s :    -0.000038
      pz      :     0.003803  p :     0.007350
      px      :     0.001789
      py      :     0.001758
      dz2     :     0.000000  d :     0.000087
      dxz     :     0.000036
      dyz     :     0.000014
      dx2y2   :     0.000031
      dxy     :     0.000005
      f0      :     0.000000  f :     0.000002
      f+1     :     0.000001
      f-1     :     0.000000
      f+2     :     0.000000
      f-2     :     0.000000
      f+3     :    -0.000000
      f-3     :     0.000000
 15 S s       :     0.000820  s :     0.000820
      pz      :     0.010827  p :     0.017066
      px      :     0.003495
      py      :     0.002744
      dz2     :     0.000703  d :     0.002131
      dxz     :     0.000372
      dyz     :     0.000352
      dx2y2   :     0.000459
      dxy     :     0.000246
      f0      :     0.000005  f :     0.000154
      f+1     :     0.000058
      f-1     :     0.000021
      f+2     :     0.000013
      f-2     :     0.000015
      f+3     :     0.000023
      f-3     :     0.000019
 16 O s       :     0.000007  s :     0.000007
      pz      :     0.006961  p :     0.012820
      px      :     0.002449
      py      :     0.003409
      dz2     :     0.000008  d :     0.000011
      dxz     :    -0.000000
      dyz     :     0.000003
      dx2y2   :     0.000001
      dxy     :    -0.000001
      f0      :     0.000000  f :     0.000001
      f+1     :     0.000000
      f-1     :     0.000000
      f+2     :     0.000000
      f-2     :     0.000000
      f+3     :     0.000000
      f-3     :    -0.000000


                     *******************************
                     * LOEWDIN POPULATION ANALYSIS *
                     *******************************

----------------------
LOEWDIN ATOMIC CHARGES
----------------------
   0 C :   -0.123983
   1 C :   -0.072006
   2 C :   -0.115104
   3 C :   -0.152326
   4 C :   -0.067714
   5 C :   -0.121241
   6 H :    0.152803
   7 C :   -0.116154
   8 H :    0.147837
   9 H :    0.146368
  10 H :    0.156095
  11 H :    0.148158
  12 N :    0.087457
  13 O :   -0.046128
  14 O :   -0.238711
  15 S :    0.525145
  16 O :   -0.310499

-------------------------------
LOEWDIN REDUCED ORBITAL CHARGES
-------------------------------
  0 C s       :     2.767788  s :     2.767788
      pz      :     0.891806  p :     2.927374
      px      :     0.986117
      py      :     1.049451
      dz2     :     0.033315  d :     0.385536
      dxz     :     0.026824
      dyz     :     0.072107
      dx2y2   :     0.151256
      dxy     :     0.102033
      f0      :     0.003498  f :     0.043284
      f+1     :     0.003108
      f-1     :     0.004693
      f+2     :     0.003239
      f-2     :     0.007390
      f+3     :     0.009153
      f-3     :     0.012204
  1 C s       :     2.762607  s :     2.762607
      pz      :     0.877672  p :     2.886012
      px      :     1.012304
      py      :     0.996037
      dz2     :     0.024965  d :     0.380673
      dxz     :     0.071585
      dyz     :     0.033805
      dx2y2   :     0.132542
      dxy     :     0.117777
      f0      :     0.003699  f :     0.042713
      f+1     :     0.004869
      f-1     :     0.002393
      f+2     :     0.004896
      f-2     :     0.005437
      f+3     :     0.008549
      f-3     :     0.012869
  2 C s       :     2.770834  s :     2.770834
      pz      :     0.879598  p :     2.915482
      px      :     1.030557
      py      :     1.005327
      dz2     :     0.036583  d :     0.385931
      dxz     :     0.057845
      dyz     :     0.039339
      dx2y2   :     0.096881
      dxy     :     0.155283
      f0      :     0.003253  f :     0.042857
      f+1     :     0.003849
      f-1     :     0.004151
      f+2     :     0.007314
      f-2     :     0.003419
      f+3     :     0.008564
      f-3     :     0.012308
  3 C s       :     2.699972  s :     2.699972
      pz      :     0.887470  p :     2.864301
      px      :     1.001169
      py      :     0.975661
      dz2     :     0.048843  d :     0.528885
      dxz     :     0.079986
      dyz     :     0.064594
      dx2y2   :     0.153189
      dxy     :     0.182272
      f0      :     0.004335  f :     0.059167
      f+1     :     0.004897
      f-1     :     0.005174
      f+2     :     0.007651
      f-2     :     0.006559
      f+3     :     0.011971
      f-3     :     0.018579
  4 C s       :     2.762837  s :     2.762837
      pz      :     0.871164  p :     2.884657
      px      :     0.997910
      py      :     1.015583
      dz2     :     0.033832  d :     0.377413
      dxz     :     0.026802
      dyz     :     0.071810
      dx2y2   :     0.146173
      dxy     :     0.098796
      f0      :     0.003468  f :     0.042807
      f+1     :     0.003132
      f-1     :     0.004777
      f+2     :     0.003278
      f-2     :     0.007406
      f+3     :     0.009396
      f-3     :     0.011348
  5 C s       :     2.767752  s :     2.767752
      pz      :     0.885027  p :     2.925381
      px      :     1.052588
      py      :     0.987767
      dz2     :     0.024998  d :     0.384870
      dxz     :     0.069972
      dyz     :     0.034310
      dx2y2   :     0.131475
      dxy     :     0.124115
      f0      :     0.003731  f :     0.043237
      f+1     :     0.005018
      f-1     :     0.002296
      f+2     :     0.004589
      f-2     :     0.005676
      f+3     :     0.009003
      f-3     :     0.012924
  6 H s       :     0.788229  s :     0.788229
      pz      :     0.015300  p :     0.058968
      px      :     0.013028
      py      :     0.030640
  7 C s       :     2.812313  s :     2.812313
      pz      :     0.838443  p :     2.728959
      px      :     0.892607
      py      :     0.997909
      dz2     :     0.078372  d :     0.499733
      dxz     :     0.091485
      dyz     :     0.120939
      dx2y2   :     0.120940
      dxy     :     0.087997
      f0      :     0.006501  f :     0.075149
      f+1     :     0.004847
      f-1     :     0.014904
      f+2     :     0.011104
      f-2     :     0.012184
      f+3     :     0.013843
      f-3     :     0.011765
  8 H s       :     0.794133  s :     0.794133
      pz      :     0.013575  p :     0.058030
      px      :     0.033118
      py      :     0.011337
  9 H s       :     0.795547  s :     0.795547
      pz      :     0.012972  p :     0.058085
      px      :     0.020625
      py      :     0.024488
 10 H s       :     0.784157  s :     0.784157
      pz      :     0.013492  p :     0.059749
      px      :     0.035459
      py      :     0.010798
 11 H s       :     0.793825  s :     0.793825
      pz      :     0.015056  p :     0.058017
      px      :     0.013406
      py      :     0.029555
 12 N s       :     2.997362  s :     2.997362
      pz      :     1.227991  p :     3.464456
      px      :     1.105472
      py      :     1.130993
      dz2     :     0.039592  d :     0.407052
      dxz     :     0.054955
      dyz     :     0.089866
      dx2y2   :     0.135594
      dxy     :     0.087044
      f0      :     0.005112  f :     0.043673
      f+1     :     0.003348
      f-1     :     0.006123
      f+2     :     0.003368
      f-2     :     0.007611
      f+3     :     0.011258
      f-3     :     0.006854
 13 O s       :     3.531892  s :     3.531892
      pz      :     1.546636  p :     4.394622
      px      :     1.391923
      py      :     1.456064
      dz2     :     0.012415  d :     0.109039
      dxz     :     0.020446
      dyz     :     0.014961
      dx2y2   :     0.026758
      dxy     :     0.034458
      f0      :     0.001160  f :     0.010575
      f+1     :     0.000949
      f-1     :     0.000968
      f+2     :     0.000048
      f-2     :     0.002137
      f+3     :     0.002499
      f-3     :     0.002815
 14 O s       :     3.597752  s :     3.597752
      pz      :     1.484732  p :     4.564296
      px      :     1.467347
      py      :     1.612216
      dz2     :     0.009554  d :     0.072679
      dxz     :     0.016175
      dyz     :     0.008042
      dx2y2   :     0.012954
      dxy     :     0.025954
      f0      :     0.000339  f :     0.003984
      f+1     :     0.000603
      f-1     :     0.000297
      f+2     :     0.000253
      f-2     :     0.000705
      f+3     :     0.000791
      f-3     :     0.000997
 15 S s       :     5.268054  s :     5.268054
      pz      :     3.017995  p :     9.007868
      px      :     2.845418
      py      :     3.144455
      dz2     :     0.137907  d :     1.009052
      dxz     :     0.247211
      dyz     :     0.127202
      dx2y2   :     0.242052
      dxy     :     0.254680
      f0      :     0.014211  f :     0.189881
      f+1     :     0.022896
      f-1     :     0.016851
      f+2     :     0.019287
      f-2     :     0.036964
      f+3     :     0.043204
      f-3     :     0.036468
 16 O s       :     3.637710  s :     3.637710
      pz      :     1.489006  p :     4.598667
      px      :     1.509360
      py      :     1.600301
      dz2     :     0.009977  d :     0.069928
      dxz     :     0.019550
      dyz     :     0.011103
      dx2y2   :     0.010932
      dxy     :     0.018365
      f0      :     0.000408  f :     0.004194
      f+1     :     0.000681
      f-1     :     0.000251
      f+2     :     0.000561
      f-2     :     0.001087
      f+3     :     0.000490
      f-3     :     0.000715


                      *****************************
                      * MAYER POPULATION ANALYSIS *
                      *****************************

  NA   - Mulliken gross atomic population
  ZA   - Total nuclear charge
  QA   - Mulliken gross atomic charge
  VA   - Mayer's total valence
  BVA  - Mayer's bonded valence
  FA   - Mayer's free valence

  ATOM       NA         ZA         QA         VA         BVA        FA
  0 C      6.0980     6.0000    -0.0980     3.9295     3.9218     0.0077
  1 C      6.1740     6.0000    -0.1740     3.9660     3.9498     0.0162
  2 C      6.0748     6.0000    -0.0748     3.9246     3.9035     0.0212
  3 C      5.8661     6.0000     0.1339     3.8381     3.8217     0.0164
  4 C      6.1554     6.0000    -0.1554     3.9594     3.9438     0.0156
  5 C      6.0940     6.0000    -0.0940     3.9166     3.9088     0.0078
  6 H      0.8794     1.0000     0.1206     0.9739     0.9736     0.0002
  7 C      5.9477     6.0000     0.0523     3.8502     3.8170     0.0332
  8 H      0.8871     1.0000     0.1129     0.9664     0.9662     0.0002
  9 H      0.8856     1.0000     0.1144     0.9642     0.9640     0.0002
 10 H      0.8769     1.0000     0.1231     1.0055     1.0052     0.0003
 11 H      0.8859     1.0000     0.1141     0.9668     0.9667     0.0001
 12 N      6.7317     7.0000     0.2683     3.6340     3.6094     0.0246
 13 O      8.2849     8.0000    -0.2849     2.0556     2.0084     0.0472
 14 O      8.3659     8.0000    -0.3659     2.0667     2.0520     0.0146
 15 S     15.4270    16.0000     0.5730     3.8965     3.8567     0.0398
 16 O      8.3655     8.0000    -0.3655     2.0781     2.0527     0.0254

  Mayer bond orders larger than 0.100000
B(  0-C ,  1-C ) :   1.4405 B(  0-C ,  2-C ) :   1.3810 B(  0-C ,  8-H ) :   0.9670 
B(  1-C ,  3-C ) :   1.3103 B(  1-C ,  6-H ) :   0.9769 B(  2-C ,  5-C ) :   1.3827 
B(  2-C ,  9-H ) :   0.9662 B(  3-C ,  4-C ) :   1.3322 B(  3-C ,  7-C ) :   1.0485 
B(  4-C ,  5-C ) :   1.4299 B(  4-C , 10-H ) :   0.9652 B(  5-C , 11-H ) :   0.9694 
B(  7-C , 12-N ) :   2.1657 B(  7-C , 13-O ) :   0.2390 B(  7-C , 14-O ) :   0.2938 
B( 12-N , 13-O ) :   1.2576 B( 13-O , 15-S ) :   0.3477 B( 14-O , 15-S ) :   1.5716 
B( 14-O , 16-O ) :   0.1105 B( 15-S , 16-O ) :   1.8214 

-------
TIMINGS
-------

Total SCF time: 0 days 0 hours 1 min 1 sec 

Total time                  ....      61.388 sec
Sum of individual times     ....      61.181 sec  ( 99.7%)

Fock matrix formation       ....      58.699 sec  ( 95.6%)
  Split-RI-J                ....      13.936 sec  ( 23.7% of F)
  XC integration            ....      44.703 sec  ( 76.2% of F)
    Basis function eval.    ....       6.338 sec  ( 14.2% of XC)
    Density eval.           ....      15.974 sec  ( 35.7% of XC)
    XC-Functional eval.     ....       2.110 sec  (  4.7% of XC)
    XC-Potential eval.      ....      19.931 sec  ( 44.6% of XC)
Diagonalization             ....       0.385 sec  (  0.6%)
Density matrix formation    ....       0.216 sec  (  0.4%)
Population analysis         ....       0.013 sec  (  0.0%)
Initial guess               ....       0.741 sec  (  1.2%)
Orbital Transformation      ....       0.000 sec  (  0.0%)
Orbital Orthonormalization  ....       0.000 sec  (  0.0%)
DIIS solution               ....       0.142 sec  (  0.2%)
Grid generation             ....       0.985 sec  (  1.6%)

Maximum memory used throughout the entire SCF-calculation: 191.2 MB

-------------------------   --------------------
FINAL SINGLE POINT ENERGY      -948.615816242862
-------------------------   --------------------


                            ***************************************
                            *     ORCA property calculations      *
                            ***************************************

                                    ---------------------
                                    Active property flags
                                    ---------------------
   (+) Dipole Moment


------------------------------------------------------------------------------
                       ORCA ELECTRIC PROPERTIES CALCULATION
------------------------------------------------------------------------------

Dipole Moment Calculation                       ... on
Quadrupole Moment Calculation                   ... off
Polarizability Calculation                      ... off
GBWName                                         ... FOD.gbw
Electron density                                ... FOD.scfp
The origin for moment calculation is the CENTER OF MASS  = ( 1.821794,  1.484544  0.113121)

-------------
DIPOLE MOMENT
-------------
                                X             Y             Z
Electronic contribution:      9.21688       8.65808       0.23873
Nuclear contribution   :    -11.02300      -9.61809      -0.00367
                        -----------------------------------------
Total Dipole Moment    :     -1.80612      -0.96002       0.23505
                        -----------------------------------------
Magnitude (a.u.)       :      2.05887
Magnitude (Debye)      :      5.23324



--------------------
Rotational spectrum 
--------------------
 
Rotational constants in cm-1:     0.072963     0.014325     0.012606 
Rotational constants in MHz :  2187.388552   429.438086   377.906301 

 Dipole components along the rotational axes: 
x,y,z [a.u.] :    -2.012495     0.106390     0.421317 
x,y,z [Debye]:    -5.115355     0.270423     1.070903 

 

Timings for individual modules:

Sum of individual times         ...       61.744 sec (=   1.029 min)
GTO integral calculation        ...        0.334 sec (=   0.006 min)   0.5 %
SCF iterations                  ...       61.410 sec (=   1.024 min)  99.5 %
                             ****ORCA TERMINATED NORMALLY****
TOTAL RUN TIME: 0 days 0 hours 1 minutes 1 seconds 882 msec
