17
XYZ file generated by orca_plot on BaseName=FOD
  C      -2.427866     -0.710026     -0.267251
  C      -1.546944      0.347817     -0.433007
  C      -1.963742     -1.949858      0.170299
  C      -0.178449      0.148502     -0.180408
  C       0.290775     -1.097758      0.261654
  C      -0.608838     -2.138605      0.437570
  H      -1.896997      1.320816     -0.762320
  C       0.732941      1.221260     -0.362603
  H      -3.484300     -0.563554     -0.470696
  H      -2.661753     -2.770496      0.306910
  H       1.347954     -1.227628      0.466121
  H      -0.250598     -3.103790      0.782084
  N       1.081461      2.195984     -0.978096
  O       1.945476      3.101644     -0.891897
  O       2.084944      1.343152      1.152922
  S       3.230640      2.272693      0.769265
  O       4.305296      1.609849     -0.000546
