17
C7H5NO3S optimized with ADF in AMS.
 C        0.08974757200988       0.08411727985780      -0.11225099173717
 C        1.06991959967922       1.05234613804677      -0.24992852170709
 C        0.39760230824383      -1.15337046076849       0.44868650893541
 C        2.37644566745587       0.78149985895236       0.17397484682454
 C        2.68546742033268      -0.46043402508615       0.73459294596399
 C        1.69421607220768      -1.42218872419948       0.86959208090532
 H        0.83512557942706       2.01735479368470      -0.67993675923312
 C        3.41406386148172       1.79255857815320       0.03787232762331
 H       -0.92119963411971       0.29411613300122      -0.44019012253333
 H       -0.37413467439381      -1.90641145199759       0.55615959645736
 H        3.69654133930631      -0.66736000227176       1.05819503992555
 H        1.93757671779864      -2.38405921623132       1.30442785735675
 N        3.26893230899349       2.92742974746922      -0.54069650271628
 O        4.49185414428681       3.63584087477658      -0.42298405352978
 O        4.63939502034486       1.51920058197986       0.57645937502542
 S        5.76406494563511       2.62837356242360      -0.01737616532032
 O        6.30878175131036       2.05798633220946      -1.22589746224056
