!DLPNO-CCSD(T) Extrapolate(3/4,cc) cc-pVQZ/C TightPNO TightSCF 
!CPCM(Benzene)
%geom maxiter 300 end
%maxcore 4000 
%pal nprocs 36
end

*xyz 0 1
6        0.007624000     -0.092967000     -0.093431000
6        0.705216000      1.091337000     -0.286560000
6        0.653751000     -1.179226000      0.479022000
6        2.056470000      1.219100000      0.084818000
6        2.691264000      0.105376000      0.663041000
6        1.992635000     -1.076333000      0.854540000
7        0.000319000      2.224221000     -0.895299000
6        2.808771000      2.399774000     -0.088673000
1       -1.031689000     -0.148939000     -0.394147000
1        0.111283000     -2.106459000      0.631290000
1        3.731997000      0.194630000      0.954515000
1        2.499985000     -1.925265000      1.302194000
7        3.612895000      3.235822000     -0.139599000
8        4.439418000      4.121380000     -0.193940000
8        5.554794000      1.876437000      1.564115000
16       6.495568000      2.880885000      1.021348000
8        7.261927000      2.475566000     -0.169943000
8       -1.175220000      2.070382000     -1.201328000
8        0.631484000      3.263879000     -1.063204000

*
