3
Coordinates from ORCA-job orca
  S   0.00000000000000     -0.00000064632677      0.38898747247723
  O   0.00000000000000      1.25635928246051     -0.37607792750671
  O   0.00000000000000     -1.25635863613374     -0.37607754497052
