!DLPNO-CCSD(T) Extrapolate(3/4,cc) cc-pVQZ/C TightPNO TightSCF 
!CPCM(Benzene)
%geom maxiter 300 end
%maxcore 4000 
%pal nprocs 36
end

*xyz 0 1
6        0.010075000     -0.007275000     -0.125294000
6        0.735279000      1.157930000     -0.310995000
6        0.556140000     -1.151156000      0.444281000
6        2.074836000      1.169968000      0.096490000
6        2.651515000      0.025338000      0.676362000
6        1.887860000     -1.121003000      0.843907000
1        0.275800000      2.030411000     -0.758579000
6        2.860567000      2.335550000     -0.068255000
7       -1.405165000     -0.028453000     -0.552444000
1       -0.052391000     -2.038738000      0.568812000
1        3.690263000      0.054768000      0.988172000
1        2.334737000     -2.002503000      1.291797000
7        3.548634000      3.262538000     -0.181919000
8        4.302604000      4.208242000     -0.273883000
8        5.547202000      2.021079000      1.515986000
16       6.447272000      3.054091000      0.959444000
8        7.221070000      2.669382000     -0.233363000
8       -1.866318000      0.994500000     -1.041786000
8       -2.029971000     -1.068309000     -0.389914000

*
