17
Coordinates from ORCA-job orca
  C   1.38240478805775      0.18587231186254      1.62155912958003
  C   2.15077676789444      0.79440375930103      0.63900995588975
  C   0.57731965591811     -0.90552730742234      1.31339891554953
  C   2.10880865113553      0.29867181013085     -0.66207094613413
  C   1.30544194002103     -0.79000642100104     -0.98135358565976
  C   0.54130408128271     -1.38951083154210      0.01107152927178
  C   3.69687072879468      1.73159763855813     -1.85960513169624
  N   2.87321630826432      0.88500766560102     -1.68503142576371
  O   6.69281568744652      3.46929262054935      0.26465066296225
  O   4.50403078759465      2.53202136311624     -2.14813988907899
  S   5.46352489310702      4.18659255370362      0.12322150245972
  O   4.32704284494625      3.71846424245416      0.86007407067906
  H   2.77517814692059      1.64929983947243      0.87332313438303
  H   1.41453092736697      0.57058223640000      2.63496958546798
  H   -0.02048351422421     -1.37593882941218      2.08595009120357
  H   1.28774233564629     -1.15669712566747     -2.00089513089175
  H   -0.08502503017288     -2.23922652610426     -0.23723046822214
