17
Coordinates from ORCA-job orca
  C   0.27761854617994      0.02326355606698     -0.51959247726480
  C   1.37816760872965      0.86545045854909     -0.57879188182977
  C   0.26305703613143     -1.04458108738405      0.37930144797044
  C   2.47061498322673      0.59284038185047      0.24922162307306
  C   2.45591927261052     -0.44768169782622      1.18117897345832
  C   1.34634454753621     -1.27997382033277      1.22641303900433
  H   1.40937115451175      1.71133515457662     -1.25833992981643
  C   3.77632728068786      1.37542267545595      0.02401299330794
  H   -0.57615789147402      0.20624851571217     -1.16455153680412
  H   -0.60882331608235     -1.69019540276941      0.43099990551489
  H   3.30450465996273     -0.59878263361760      1.84069426423340
  H   1.31913043765467     -2.10431056575675      1.93215120902756
  N   3.48985458119881      2.24176824479955      0.89234238065533
  O   5.25763469315627      3.22449946416023      0.69464350752112
  O   4.68288438046833      1.10342870792784     -0.80829543316270
  S   5.85998915535226      2.92792102023621     -0.66943437102185
  O   5.26796487014920      3.69034802835169     -1.78125271386672
