17
C7H5NO3S optimized with ADF in AMS.
 C        0.08976523741159       0.08412499732534      -0.11221173390725
 C        1.06986057611928       1.05246894713421      -0.24959531533004
 C        0.39765215109775      -1.15344099791784       0.44851459024366
 C        2.37634604230238       0.78167596832171       0.17442908077171
 C        2.68540066922992      -0.46031343208869       0.73486817216386
 C        1.69423706444018      -1.42220816902033       0.86951323343845
 H        0.83512818057682       2.01751739149497      -0.67955030970416
 C        3.41392063132388       1.79278242807145       0.03830593135929
 H       -0.92114855248536       0.29407176235901      -0.44030507898482
 H       -0.37400946299064      -1.90661041363566       0.55566575136426
 H        3.69649817566634      -0.66722787928925       1.05840904129656
 H        1.93766693637012      -2.38419077710926       1.30407453269837
 N        3.26877627853265       2.92744868991957      -0.54059199243402
 O        4.49173547361011       3.63567820861447      -0.42379301006725
 O        4.63939710990688       1.51943647596086       0.57666647507587
 S        5.76399433081285       2.62832685754236      -0.01786836037593
 O        6.30917915807521       2.05745994231704      -1.22583100760852
