17
Coordinates from ORCA-job orca E -948.145793763476
  C       0.053471      0.075389     -0.108728
  C       1.052831      1.036600     -0.247192
  C       0.346957     -1.171179      0.461536
  C       2.361738      0.752768      0.186618
  C       2.656765     -0.497089      0.755988
  C       1.647946     -1.453388      0.892116
  H       0.837164      2.002447     -0.688820
  C       3.407823      1.761713      0.044035
  H      -0.953535      0.296333     -0.445710
  H      -0.434422     -1.916402      0.567900
  H       3.666884     -0.707868      1.084480
  H       1.878398     -2.417198      1.333073
  N       3.217077      2.933592     -0.479589
  O       4.370590      3.743610     -0.492799
  O       4.677438      1.419534      0.517898
  S       5.930804      2.712320      0.014739
  O       6.656471      2.225820     -1.324845
17
Coordinates from ORCA-job orca E -948.166737935824
  C       0.073369      0.084334     -0.109109
  C       1.067946      1.041911     -0.248933
  C       0.365740     -1.157760      0.458834
  C       2.373263      0.757830      0.182253
  C       2.667334     -0.488275      0.750674
  C       1.661368     -1.439735      0.886671
  H       0.849123      2.008477     -0.690465
  C       3.419143      1.765877      0.040270
  H      -0.934909      0.305775     -0.445058
  H      -0.416496     -1.903183      0.565980
  H       3.677823     -0.703449      1.079845
  H       1.891763     -2.404540      1.327664
  N       3.231987      2.924404     -0.482534
  O       4.372250      3.698100     -0.486526
  O       4.667362      1.428635      0.511313
  S       5.863239      2.677161      0.003960
  O       6.544096      2.201437     -1.274137
17
Coordinates from ORCA-job orca E -948.173032821271
  C       0.084880      0.087444     -0.108684
  C       1.076021      1.044329     -0.251837
  C       0.378033     -1.151778      0.458361
  C       2.381229      0.763266      0.175102
  C       2.675539     -0.480545      0.743313
  C       1.671840     -1.431082      0.882105
  H       0.851476      2.010015     -0.693038
  C       3.429031      1.773841      0.031283
  H      -0.925077      0.308164     -0.442001
  H      -0.403755     -1.897990      0.568111
  H       3.685660     -0.700396      1.071981
  H       1.904610     -2.395784      1.323482
  N       3.256551      2.926713     -0.492403
  O       4.410828      3.656665     -0.472572
  O       4.671560      1.461360      0.500756
  S       5.804458      2.645811     -0.007669
  O       6.421516      2.176970     -1.215590
17
Coordinates from ORCA-job orca E -948.174613138252
  C       0.084614      0.084238     -0.114752
  C       1.074518      1.044334     -0.253134
  C       0.378944     -1.155325      0.453336
  C       2.378888      0.765936      0.179478
  C       2.674733     -0.477393      0.748826
  C       1.672680     -1.431455      0.883003
  H       0.849363      2.010024     -0.694017
  C       3.423386      1.778346      0.041942
  H      -0.924355      0.302595     -0.452010
  H      -0.401182     -1.903599      0.559334
  H       3.684114     -0.694386      1.081686
  H       1.906433     -2.395503      1.324873
  N       3.254864      2.932569     -0.488620
  O       4.419315      3.668020     -0.450021
  O       4.668510      1.473565      0.527201
  S       5.816097      2.643595     -0.015755
  O       6.413479      2.151440     -1.260670
17
Coordinates from ORCA-job orca E -948.174991611829
  C       0.084602      0.083765     -0.114420
  C       1.072595      1.046264     -0.251591
  C       0.381740     -1.156386      0.451744
  C       2.377728      0.768976      0.179470
  C       2.676892     -0.474534      0.746596
  C       1.676581     -1.430790      0.880343
  H       0.844697      2.012360     -0.690221
  C       3.419244      1.782190      0.043210
  H      -0.924932      0.300811     -0.450588
  H      -0.396870     -1.906255      0.556988
  H       3.686822     -0.691196      1.078014
  H       1.912800     -2.394978      1.320414
  N       3.256755      2.934189     -0.498641
  O       4.435299      3.664387     -0.448047
  O       4.664802      1.487483      0.541923
  S       5.807444      2.641057     -0.015769
  O       6.398200      2.129657     -1.258726
17
Coordinates from ORCA-job orca E -948.175161795736
  C       0.083002      0.084657     -0.109516
  C       1.068547      1.049773     -0.246719
  C       0.384881     -1.156986      0.451384
  C       2.375812      0.772472      0.178310
  C       2.680154     -0.472236      0.740293
  C       1.681975     -1.430765      0.874475
  H       0.836525      2.017091     -0.680352
  C       3.413963      1.785805      0.039917
  H      -0.928208      0.300974     -0.440861
  H      -0.392000     -1.908534      0.556979
  H       3.691627     -0.689287      1.066324
  H       1.921820     -2.395961      1.310162
  N       3.257823      2.929838     -0.524109
  O       4.451731      3.657173     -0.458999
  O       4.656492      1.502572      0.559863
  S       5.796087      2.644647     -0.008991
  O       6.394168      2.105768     -1.237459
17
Coordinates from ORCA-job orca E -948.175199058357
  C       0.082234      0.085471     -0.106573
  C       1.067207      1.051132     -0.244116
  C       0.385778     -1.156957      0.451535
  C       2.375591      0.773175      0.177320
  C       2.681537     -0.472410      0.736694
  C       1.683767     -1.431242      0.871497
  H       0.833783      2.019384     -0.674858
  C       3.413361      1.786745      0.037219
  H      -0.929877      0.302156     -0.434913
  H      -0.390772     -1.908778      0.557737
  H       3.693762     -0.689811      1.059979
  H       1.924664     -2.397082      1.305174
  N       3.258382      2.925102     -0.538709
  O       4.453757      3.655897     -0.465710
  O       4.651240      1.508551      0.569491
  S       5.794029      2.648811     -0.005471
  O       6.395958      2.096856     -1.225597
17
Coordinates from ORCA-job orca E -948.175248222528
  C       0.078735      0.088288     -0.095782
  C       1.062941      1.054529     -0.235316
  C       0.386418     -1.156834      0.453530
  C       2.374685      0.773671      0.173804
  C       2.684498     -0.474811      0.724720
  C       1.687261     -1.433692      0.862567
  H       0.826092      2.025868     -0.657102
  C       3.412852      1.787828      0.028254
  H      -0.936108      0.307096     -0.414165
  H      -0.389669     -1.908846      0.562199
  H       3.699269     -0.693938      1.038556
  H       1.930860     -2.401746      1.289791
  N       3.260233      2.908730     -0.581595
  O       4.455057      3.651038     -0.495838
  O       4.636960      1.523402      0.590447
  S       5.787842      2.665705      0.008171
  O       6.416474      2.080712     -1.181542
17
Coordinates from ORCA-job orca E -948.175254097133
  C       0.078323      0.088976     -0.093714
  C       1.062521      1.055249     -0.233388
  C       0.386616     -1.156831      0.453634
  C       2.374750      0.773680      0.173155
  C       2.685113     -0.475330      0.722276
  C       1.688019     -1.434281      0.860460
  H       0.825207      2.027371     -0.653152
  C       3.413595      1.788015      0.026937
  H      -0.937005      0.308391     -0.410132
  H      -0.389414     -1.908845      0.562694
  H       3.700448     -0.694739      1.034294
  H       1.932073     -2.402829      1.286316
  N       3.261724      2.904306     -0.591278
  O       4.454092      3.649597     -0.501193
  O       4.633558      1.529318      0.597172
  S       5.787007      2.669104      0.010497
  O       6.417774      2.075847     -1.173881
17
Coordinates from ORCA-job orca E -948.175256978988
  C       0.077317      0.089742     -0.090864
  C       1.061520      1.055991     -0.231093
  C       0.386335     -1.156874      0.454280
  C       2.374344      0.773463      0.172238
  C       2.685477     -0.476173      0.719228
  C       1.688503     -1.435116      0.858241
  H       0.823677      2.028924     -0.648708
  C       3.413813      1.787600      0.025143
  H      -0.938607      0.309913     -0.404826
  H      -0.389657     -1.908821      0.564019
  H       3.701518     -0.696000      1.028841
  H       1.933134     -2.404235      1.282469
  N       3.262845      2.899885     -0.600842
  O       4.453170      3.647386     -0.510553
  O       4.630905      1.533829      0.601175
  S       5.785360      2.673409      0.014465
  O       6.424746      2.074076     -1.162513
17
Coordinates from ORCA-job orca E -948.175257896616
  C       0.076851      0.090080     -0.089517
  C       1.060889      1.056499     -0.229969
  C       0.386378     -1.156931      0.454471
  C       2.374014      0.773593      0.171842
  C       2.685723     -0.476353      0.717767
  C       1.688947     -1.435447      0.857072
  H       0.822658      2.029810     -0.646478
  C       3.413607      1.787487      0.024393
  H      -0.939390      0.310511     -0.402262
  H      -0.389503     -1.908947      0.564471
  H       3.702119     -0.696258      1.026218
  H       1.933958     -2.404852      1.280424
  N       3.263575      2.897864     -0.605526
  O       4.452891      3.646132     -0.515178
  O       4.629592      1.536565      0.603695
  S       5.784581      2.674738      0.016484
  O       6.427512      2.072509     -1.157207
