-------------------------------------------------------------
----------------------- !PROPERTIES! ------------------------
-------------------------------------------------------------
# -----------------------------------------------------------
$ SCF_Energy
   description: The SCF energy
   geom. index: 1
   prop. index: 1
        SCF Energy:     -948.1567629613
# -----------------------------------------------------------
$ DFT_Energy
   description: The DFT energy
   geom. index: 1
   prop. index: 1
   Number of Alpha Electrons                 47.0000001343 
   Number of Beta  Electrons                 47.0000001343 
   Total number of  Electrons                94.0000002686 
   Exchange energy                          -94.4539850788 
   Correlation energy                        -3.2119421163 
   Correlation energy NL                      0.0000000000 
   Exchange-Correlation energy              -97.6659271951 
   Embedding correction                       0.0000000000 
   Total DFT Energy (No VdW correction)    -948.1567629613 
# -----------------------------------------------------------
$ Solvation_Details
   description: Details concerning solvation
   geom. index: 1
   prop. index: 1
     Epsilon:                2.2800000000
     Refrac:                 1.5010000000
     RSolv:                  1.3000000000
     Surface Type:                      2
     Number of Points:                982
     Surface Area:         723.1231809968
     Dielectric Energy:     -0.0061820502
# -----------------------------------------------------------
$ Mayer_Pop
   description: The Mayer population analysis
   geom. index: 1
   prop. index: 1
     Number of atoms                     : 17
     Threshold for printing              : 0.1000000
     Number of bond orders printed       : 19
  NA   - Mulliken gross atomic population
  ZA   - Total nuclear charge
  QA   - Mulliken gross atomic charge
  VA   - Mayer's total valence
  BVA  - Mayer's bonded valence
  FA   - Mayer's free valence
  ATOM       NA         ZA         QA         VA         BVA        FA
  0   0     6.1556     6.0000    -0.1556     3.7435     3.7435    -0.0000
  1   0     6.2196     6.0000    -0.2196     3.8590     3.8590    -0.0000
  2   0     6.1313     6.0000    -0.1313     3.7893     3.7893    -0.0000
  3   0     5.9452     6.0000     0.0548     3.6941     3.6941    -0.0000
  4   0     6.2057     6.0000    -0.2057     3.8155     3.8155    -0.0000
  5   0     6.1641     6.0000    -0.1641     3.7518     3.7518    -0.0000
  6   0     0.8174     1.0000     0.1826     0.9567     0.9567    -0.0000
  7   0     5.6299     6.0000     0.3701     3.7662     3.7662    -0.0000
  8   0     0.8326     1.0000     0.1674     0.9631     0.9631    -0.0000
  9   0     0.8322     1.0000     0.1678     0.9621     0.9621     0.0000
 10   0     0.8183     1.0000     0.1817     0.9564     0.9564    -0.0000
 11   0     0.8336     1.0000     0.1664     0.9635     0.9635     0.0000
 12   0     7.2460     7.0000    -0.2460     3.0138     3.0138    -0.0000
 13   0     8.1770     8.0000    -0.1770     1.9282     1.9282    -0.0000
 14   0     8.3125     8.0000    -0.3125     2.0135     2.0135     0.0000
 15   0    15.2689    16.0000     0.7311     3.2503     3.2503     0.0000
 16   0     8.4102     8.0000    -0.4102     1.8787     1.8787    -0.0000
      Bond orders larger than 0.1000000
           Atom A     A.N. of A          Atom B    A.N. of B              Bond order
                0             6               1            6                1.397142
                0             6               2            6                1.373628
                0             6               8            1                0.950644
                1             6               3            6                1.374280
                1             6               6            1                0.953709
                2             6               5            6                1.402152
                2             6               9            1                0.946794
                3             6               4            6                1.373020
                3             6               7            6                1.010698
                4             6               5            6                1.368613
                4             6              10            1                0.956561
                5             6              11            1                0.952731
                7             6              12            7                1.695166
                7             6              14            8                1.036991
               12             7              13            8                1.002693
               12             7              15           16                0.106997
               13             8              15           16                0.706170
               14             8              15           16                0.768889
               15            16              16            8                1.649919
# -----------------------------------------------------------
$ VdW_Correction
   description: The Van der Waals Correction
   geom. index: 1
   prop. index: 1
        Van der Waals Correction:       -0.0066933846
# -----------------------------------------------------------
$ SCF_Energy
   description: The SCF energy
   geom. index: 2
   prop. index: 1
        SCF Energy:     -948.1781560347
# -----------------------------------------------------------
$ DFT_Energy
   description: The DFT energy
   geom. index: 2
   prop. index: 1
   Number of Alpha Electrons                 47.0000002402 
   Number of Beta  Electrons                 47.0000002402 
   Total number of  Electrons                94.0000004804 
   Exchange energy                          -94.5901616637 
   Correlation energy                        -3.2215357458 
   Correlation energy NL                      0.0000000000 
   Exchange-Correlation energy              -97.8116974095 
   Embedding correction                       0.0000000000 
   Total DFT Energy (No VdW correction)    -948.1781560347 
# -----------------------------------------------------------
$ Solvation_Details
   description: Details concerning solvation
   geom. index: 2
   prop. index: 1
     Epsilon:                2.2800000000
     Refrac:                 1.5010000000
     RSolv:                  1.3000000000
     Surface Type:                      2
     Number of Points:                975
     Surface Area:         712.2513911422
     Dielectric Energy:     -0.0057694150
# -----------------------------------------------------------
$ VdW_Correction
   description: The Van der Waals Correction
   geom. index: 2
   prop. index: 1
        Van der Waals Correction:       -0.0067639993
# -----------------------------------------------------------
$ SCF_Energy
   description: The SCF energy
   geom. index: 3
   prop. index: 1
        SCF Energy:     -948.1849720759
# -----------------------------------------------------------
$ DFT_Energy
   description: The DFT energy
   geom. index: 3
   prop. index: 1
   Number of Alpha Electrons                 47.0000008228 
   Number of Beta  Electrons                 47.0000008228 
   Total number of  Electrons                94.0000016456 
   Exchange energy                          -94.7382228303 
   Correlation energy                        -3.2306001389 
   Correlation energy NL                      0.0000000000 
   Exchange-Correlation energy              -97.9688229692 
   Embedding correction                       0.0000000000 
   Total DFT Energy (No VdW correction)    -948.1849720759 
# -----------------------------------------------------------
$ Solvation_Details
   description: Details concerning solvation
   geom. index: 3
   prop. index: 1
     Epsilon:                2.2800000000
     Refrac:                 1.5010000000
     RSolv:                  1.3000000000
     Surface Type:                      2
     Number of Points:                973
     Surface Area:         702.0990768002
     Dielectric Energy:     -0.0054447201
# -----------------------------------------------------------
$ VdW_Correction
   description: The Van der Waals Correction
   geom. index: 3
   prop. index: 1
        Van der Waals Correction:       -0.0068180322
# -----------------------------------------------------------
$ SCF_Energy
   description: The SCF energy
   geom. index: 4
   prop. index: 1
        SCF Energy:     -948.1865627052
# -----------------------------------------------------------
$ DFT_Energy
   description: The DFT energy
   geom. index: 4
   prop. index: 1
   Number of Alpha Electrons                 47.0000010307 
   Number of Beta  Electrons                 47.0000010307 
   Total number of  Electrons                94.0000020613 
   Exchange energy                          -94.6952872459 
   Correlation energy                        -3.2282154774 
   Correlation energy NL                      0.0000000000 
   Exchange-Correlation energy              -97.9235027234 
   Embedding correction                       0.0000000000 
   Total DFT Energy (No VdW correction)    -948.1865627052 
# -----------------------------------------------------------
$ Solvation_Details
   description: Details concerning solvation
   geom. index: 4
   prop. index: 1
     Epsilon:                2.2800000000
     Refrac:                 1.5010000000
     RSolv:                  1.3000000000
     Surface Type:                      2
     Number of Points:                972
     Surface Area:         704.2310466765
     Dielectric Energy:     -0.0056051624
# -----------------------------------------------------------
$ VdW_Correction
   description: The Van der Waals Correction
   geom. index: 4
   prop. index: 1
        Van der Waals Correction:       -0.0068092286
# -----------------------------------------------------------
$ SCF_Energy
   description: The SCF energy
   geom. index: 5
   prop. index: 1
        SCF Energy:     -948.1870488983
# -----------------------------------------------------------
$ DFT_Energy
   description: The DFT energy
   geom. index: 5
   prop. index: 1
   Number of Alpha Electrons                 47.0000010355 
   Number of Beta  Electrons                 47.0000010355 
   Total number of  Electrons                94.0000020709 
   Exchange energy                          -94.6970806346 
   Correlation energy                        -3.2283347439 
   Correlation energy NL                      0.0000000000 
   Exchange-Correlation energy              -97.9254153785 
   Embedding correction                       0.0000000000 
   Total DFT Energy (No VdW correction)    -948.1870488983 
# -----------------------------------------------------------
$ Solvation_Details
   description: Details concerning solvation
   geom. index: 5
   prop. index: 1
     Epsilon:                2.2800000000
     Refrac:                 1.5010000000
     RSolv:                  1.3000000000
     Surface Type:                      2
     Number of Points:                971
     Surface Area:         703.4849844763
     Dielectric Energy:     -0.0056634929
# -----------------------------------------------------------
$ VdW_Correction
   description: The Van der Waals Correction
   geom. index: 5
   prop. index: 1
        Van der Waals Correction:       -0.0068138866
# -----------------------------------------------------------
$ SCF_Energy
   description: The SCF energy
   geom. index: 6
   prop. index: 1
        SCF Energy:     -948.1873187366
# -----------------------------------------------------------
$ DFT_Energy
   description: The DFT energy
   geom. index: 6
   prop. index: 1
   Number of Alpha Electrons                 47.0000010292 
   Number of Beta  Electrons                 47.0000010292 
   Total number of  Electrons                94.0000020585 
   Exchange energy                          -94.7001569719 
   Correlation energy                        -3.2284454988 
   Correlation energy NL                      0.0000000000 
   Exchange-Correlation energy              -97.9286024707 
   Embedding correction                       0.0000000000 
   Total DFT Energy (No VdW correction)    -948.1873187366 
# -----------------------------------------------------------
$ Solvation_Details
   description: Details concerning solvation
   geom. index: 6
   prop. index: 1
     Epsilon:                2.2800000000
     Refrac:                 1.5010000000
     RSolv:                  1.3000000000
     Surface Type:                      2
     Number of Points:                970
     Surface Area:         702.1064847436
     Dielectric Energy:     -0.0057230185
# -----------------------------------------------------------
$ VdW_Correction
   description: The Van der Waals Correction
   geom. index: 6
   prop. index: 1
        Van der Waals Correction:       -0.0068192865
# -----------------------------------------------------------
$ SCF_Energy
   description: The SCF energy
   geom. index: 7
   prop. index: 1
        SCF Energy:     -948.1873639484
# -----------------------------------------------------------
$ DFT_Energy
   description: The DFT energy
   geom. index: 7
   prop. index: 1
   Number of Alpha Electrons                 47.0000009869 
   Number of Beta  Electrons                 47.0000009869 
   Total number of  Electrons                94.0000019737 
   Exchange energy                          -94.6995595052 
   Correlation energy                        -3.2283586939 
   Correlation energy NL                      0.0000000000 
   Exchange-Correlation energy              -97.9279181991 
   Embedding correction                       0.0000000000 
   Total DFT Energy (No VdW correction)    -948.1873639484 
# -----------------------------------------------------------
$ Solvation_Details
   description: Details concerning solvation
   geom. index: 7
   prop. index: 1
     Epsilon:                2.2800000000
     Refrac:                 1.5010000000
     RSolv:                  1.3000000000
     Surface Type:                      2
     Number of Points:                969
     Surface Area:         701.5824271219
     Dielectric Energy:     -0.0057249477
# -----------------------------------------------------------
$ VdW_Correction
   description: The Van der Waals Correction
   geom. index: 7
   prop. index: 1
        Van der Waals Correction:       -0.0068205032
# -----------------------------------------------------------
$ SCF_Energy
   description: The SCF energy
   geom. index: 8
   prop. index: 1
        SCF Energy:     -948.1874111659
# -----------------------------------------------------------
$ DFT_Energy
   description: The DFT energy
   geom. index: 8
   prop. index: 1
   Number of Alpha Electrons                 47.0000008404 
   Number of Beta  Electrons                 47.0000008404 
   Total number of  Electrons                94.0000016807 
   Exchange energy                          -94.6977454001 
   Correlation energy                        -3.2281313874 
   Correlation energy NL                      0.0000000000 
   Exchange-Correlation energy              -97.9258767875 
   Embedding correction                       0.0000000000 
   Total DFT Energy (No VdW correction)    -948.1874111659 
# -----------------------------------------------------------
$ Solvation_Details
   description: Details concerning solvation
   geom. index: 8
   prop. index: 1
     Epsilon:                2.2800000000
     Refrac:                 1.5010000000
     RSolv:                  1.3000000000
     Surface Type:                      2
     Number of Points:                965
     Surface Area:         700.4561627542
     Dielectric Energy:     -0.0057181899
# -----------------------------------------------------------
$ VdW_Correction
   description: The Van der Waals Correction
   geom. index: 8
   prop. index: 1
        Van der Waals Correction:       -0.0068210420
# -----------------------------------------------------------
$ SCF_Energy
   description: The SCF energy
   geom. index: 9
   prop. index: 1
        SCF Energy:     -948.1874189011
# -----------------------------------------------------------
$ DFT_Energy
   description: The DFT energy
   geom. index: 9
   prop. index: 1
   Number of Alpha Electrons                 47.0000007676 
   Number of Beta  Electrons                 47.0000007676 
   Total number of  Electrons                94.0000015352 
   Exchange energy                          -94.6981821026 
   Correlation energy                        -3.2281660783 
   Correlation energy NL                      0.0000000000 
   Exchange-Correlation energy              -97.9263481809 
   Embedding correction                       0.0000000000 
   Total DFT Energy (No VdW correction)    -948.1874189011 
# -----------------------------------------------------------
$ Solvation_Details
   description: Details concerning solvation
   geom. index: 9
   prop. index: 1
     Epsilon:                2.2800000000
     Refrac:                 1.5010000000
     RSolv:                  1.3000000000
     Surface Type:                      2
     Number of Points:                962
     Surface Area:         700.2497545780
     Dielectric Energy:     -0.0057160783
# -----------------------------------------------------------
$ VdW_Correction
   description: The Van der Waals Correction
   geom. index: 9
   prop. index: 1
        Van der Waals Correction:       -0.0068216074
# -----------------------------------------------------------
$ SCF_Energy
   description: The SCF energy
   geom. index: 10
   prop. index: 1
        SCF Energy:     -948.1874205285
# -----------------------------------------------------------
$ DFT_Energy
   description: The DFT energy
   geom. index: 10
   prop. index: 1
   Number of Alpha Electrons                 47.0000007140 
   Number of Beta  Electrons                 47.0000007140 
   Total number of  Electrons                94.0000014280 
   Exchange energy                          -94.6984102669 
   Correlation energy                        -3.2281915169 
   Correlation energy NL                      0.0000000000 
   Exchange-Correlation energy              -97.9266017838 
   Embedding correction                       0.0000000000 
   Total DFT Energy (No VdW correction)    -948.1874205285 
# -----------------------------------------------------------
$ Solvation_Details
   description: Details concerning solvation
   geom. index: 10
   prop. index: 1
     Epsilon:                2.2800000000
     Refrac:                 1.5010000000
     RSolv:                  1.3000000000
     Surface Type:                      2
     Number of Points:                961
     Surface Area:         700.1625987837
     Dielectric Energy:     -0.0057159343
# -----------------------------------------------------------
$ VdW_Correction
   description: The Van der Waals Correction
   geom. index: 10
   prop. index: 1
        Van der Waals Correction:       -0.0068213186
# -----------------------------------------------------------
$ SCF_Energy
   description: The SCF energy
   geom. index: 11
   prop. index: 1
        SCF Energy:     -948.1874207429
# -----------------------------------------------------------
$ DFT_Energy
   description: The DFT energy
   geom. index: 11
   prop. index: 1
   Number of Alpha Electrons                 47.0000006886 
   Number of Beta  Electrons                 47.0000006886 
   Total number of  Electrons                94.0000013772 
   Exchange energy                          -94.6985511227 
   Correlation energy                        -3.2282108265 
   Correlation energy NL                      0.0000000000 
   Exchange-Correlation energy              -97.9267619492 
   Embedding correction                       0.0000000000 
   Total DFT Energy (No VdW correction)    -948.1874207429 
# -----------------------------------------------------------
$ Solvation_Details
   description: Details concerning solvation
   geom. index: 11
   prop. index: 1
     Epsilon:                2.2800000000
     Refrac:                 1.5010000000
     RSolv:                  1.3000000000
     Surface Type:                      2
     Number of Points:                965
     Surface Area:         700.1248354280
     Dielectric Energy:     -0.0057172793
# -----------------------------------------------------------
$ Mayer_Pop
   description: The Mayer population analysis
   geom. index: 11
   prop. index: 1
     Number of atoms                     : 17
     Threshold for printing              : 0.1000000
     Number of bond orders printed       : 18
  NA   - Mulliken gross atomic population
  ZA   - Total nuclear charge
  QA   - Mulliken gross atomic charge
  VA   - Mayer's total valence
  BVA  - Mayer's bonded valence
  FA   - Mayer's free valence
  ATOM       NA         ZA         QA         VA         BVA        FA
  0   0     6.1564     6.0000    -0.1564     3.7513     3.7513     0.0000
  1   0     6.2124     6.0000    -0.2124     3.8631     3.8631     0.0000
  2   0     6.1275     6.0000    -0.1275     3.7906     3.7906     0.0000
  3   0     5.9804     6.0000     0.0196     3.6817     3.6817     0.0000
  4   0     6.2063     6.0000    -0.2063     3.8260     3.8260     0.0000
  5   0     6.1641     6.0000    -0.1641     3.7589     3.7589    -0.0000
  6   0     0.8175     1.0000     0.1825     0.9568     0.9568    -0.0000
  7   0     5.6119     6.0000     0.3881     3.8093     3.8093     0.0000
  8   0     0.8334     1.0000     0.1666     0.9634     0.9634    -0.0000
  9   0     0.8326     1.0000     0.1674     0.9623     0.9623    -0.0000
 10   0     0.8191     1.0000     0.1809     0.9569     0.9569    -0.0000
 11   0     0.8341     1.0000     0.1659     0.9637     0.9637    -0.0000
 12   0     7.2552     7.0000    -0.2552     2.8871     2.8871    -0.0000
 13   0     8.1312     8.0000    -0.1312     1.8468     1.8468     0.0000
 14   0     8.2490     8.0000    -0.2490     1.9698     1.9698    -0.0000
 15   0    15.3386    16.0000     0.6614     3.3538     3.3538     0.0000
 16   0     8.4303     8.0000    -0.4303     1.7521     1.7521     0.0000
      Bond orders larger than 0.1000000
           Atom A     A.N. of A          Atom B    A.N. of B              Bond order
                0             6               1            6                1.401900
                0             6               2            6                1.376902
                0             6               8            1                0.951467
                1             6               3            6                1.383317
                1             6               6            1                0.951334
                2             6               5            6                1.405068
                2             6               9            1                0.946139
                3             6               4            6                1.378875
                3             6               7            6                0.982473
                4             6               5            6                1.372785
                4             6              10            1                0.955985
                5             6              11            1                0.952567
                7             6              12            7                1.726157
                7             6              14            8                1.054486
               12             7              13            8                0.922409
               13             8              15           16                0.791281
               14             8              15           16                0.783841
               15            16              16            8                1.671510
# -----------------------------------------------------------
$ VdW_Correction
   description: The Van der Waals Correction
   geom. index: 11
   prop. index: 1
        Van der Waals Correction:       -0.0068213935
# -----------------------------------------------------------
$ SCF_Electric_Properties
   description: The SCF Calculated Electric Properties
   geom. index: 11
   prop. index: 1
       Filename                          : orca.scfp 
       Do Dipole Moment Calculation      : true 
       Do Quadrupole Moment Calculation  : false 
       Do Polarizability Calculation     : false 
** Dipole moment part of electric properties **
        Magnitude of dipole moment (Debye) :        3.9495606355
        Electronic Contribution:
                  0    
      0      10.381192
      1       7.927769
      2      -0.710414
        Nuclear Contribution:
                  0    
      0     -11.179819
      1      -8.822556
      2       1.698334
        Total Dipole moment:
                  0    
      0      -0.798628
      1      -0.894787
      2       0.987919
# -----------------------------------------------------------
$ Hessian
   description: Details about the Hessian
   geom. index: 11
   prop. index: 1
Normal modes:
Number of Rows: 51 Number of Columns: 51
                  0          1          2          3          4          5    
      0       0.000000   0.000000   0.000000   0.000000   0.000000   0.000000
      1       0.000000   0.000000   0.000000   0.000000   0.000000   0.000000
      2       0.000000   0.000000   0.000000   0.000000   0.000000   0.000000
      3       0.000000   0.000000   0.000000   0.000000   0.000000   0.000000
      4       0.000000   0.000000   0.000000   0.000000   0.000000   0.000000
      5       0.000000   0.000000   0.000000   0.000000   0.000000   0.000000
      6       0.000000   0.000000   0.000000   0.000000   0.000000   0.000000
      7       0.000000   0.000000   0.000000   0.000000   0.000000   0.000000
      8       0.000000   0.000000   0.000000   0.000000   0.000000   0.000000
      9       0.000000   0.000000   0.000000   0.000000   0.000000   0.000000
     10       0.000000   0.000000   0.000000   0.000000   0.000000   0.000000
     11       0.000000   0.000000   0.000000   0.000000   0.000000   0.000000
     12       0.000000   0.000000   0.000000   0.000000   0.000000   0.000000
     13       0.000000   0.000000   0.000000   0.000000   0.000000   0.000000
     14       0.000000   0.000000   0.000000   0.000000   0.000000   0.000000
     15       0.000000   0.000000   0.000000   0.000000   0.000000   0.000000
     16       0.000000   0.000000   0.000000   0.000000   0.000000   0.000000
     17       0.000000   0.000000   0.000000   0.000000   0.000000   0.000000
     18       0.000000   0.000000   0.000000   0.000000   0.000000   0.000000
     19       0.000000   0.000000   0.000000   0.000000   0.000000   0.000000
     20       0.000000   0.000000   0.000000   0.000000   0.000000   0.000000
     21       0.000000   0.000000   0.000000   0.000000   0.000000   0.000000
     22       0.000000   0.000000   0.000000   0.000000   0.000000   0.000000
     23       0.000000   0.000000   0.000000   0.000000   0.000000   0.000000
     24       0.000000   0.000000   0.000000   0.000000   0.000000   0.000000
     25       0.000000   0.000000   0.000000   0.000000   0.000000   0.000000
     26       0.000000   0.000000   0.000000   0.000000   0.000000   0.000000
     27       0.000000   0.000000   0.000000   0.000000   0.000000   0.000000
     28       0.000000   0.000000   0.000000   0.000000   0.000000   0.000000
     29       0.000000   0.000000   0.000000   0.000000   0.000000   0.000000
     30       0.000000   0.000000   0.000000   0.000000   0.000000   0.000000
     31       0.000000   0.000000   0.000000   0.000000   0.000000   0.000000
     32       0.000000   0.000000   0.000000   0.000000   0.000000   0.000000
     33       0.000000   0.000000   0.000000   0.000000   0.000000   0.000000
     34       0.000000   0.000000   0.000000   0.000000   0.000000   0.000000
     35       0.000000   0.000000   0.000000   0.000000   0.000000   0.000000
     36       0.000000   0.000000   0.000000   0.000000   0.000000   0.000000
     37       0.000000   0.000000   0.000000   0.000000   0.000000   0.000000
     38       0.000000   0.000000   0.000000   0.000000   0.000000   0.000000
     39       0.000000   0.000000   0.000000   0.000000   0.000000   0.000000
     40       0.000000   0.000000   0.000000   0.000000   0.000000   0.000000
     41       0.000000   0.000000   0.000000   0.000000   0.000000   0.000000
     42       0.000000   0.000000   0.000000   0.000000   0.000000   0.000000
     43       0.000000   0.000000   0.000000   0.000000   0.000000   0.000000
     44       0.000000   0.000000   0.000000   0.000000   0.000000   0.000000
     45       0.000000   0.000000   0.000000   0.000000   0.000000   0.000000
     46       0.000000   0.000000   0.000000   0.000000   0.000000   0.000000
     47       0.000000   0.000000   0.000000   0.000000   0.000000   0.000000
     48       0.000000   0.000000   0.000000   0.000000   0.000000   0.000000
     49       0.000000   0.000000   0.000000   0.000000   0.000000   0.000000
     50       0.000000   0.000000   0.000000   0.000000   0.000000   0.000000
                  6          7          8          9         10         11    
      0       0.053927  -0.068344  -0.012934  -0.063162   0.028336  -0.113925
      1      -0.068941   0.056879  -0.095517  -0.131128   0.028822  -0.131851
      2      -0.223744   0.101588   0.080427   0.004658  -0.027613   0.007671
      3       0.058575   0.009921  -0.078980  -0.184326   0.103684  -0.110541
      4      -0.071137  -0.051702  -0.054115   0.018942  -0.079451  -0.129834
      5      -0.199831  -0.093945  -0.146063   0.123571  -0.179515  -0.144045
      6      -0.004972  -0.139771   0.103219   0.074373  -0.063387  -0.128417
      7       0.000107   0.093811  -0.012480  -0.146190   0.089427  -0.070393
      8      -0.030953   0.226629   0.206512  -0.105998   0.162106   0.158793
      9       0.006794   0.017702  -0.033677  -0.157286   0.063973  -0.086559
     10      -0.001332  -0.119931   0.058699   0.143095  -0.071332   0.005250
     11       0.021444  -0.163258  -0.224083   0.128082  -0.050406  -0.055484
     12      -0.051695  -0.047168   0.094598  -0.050652   0.048978  -0.082921
     13       0.065844  -0.095544   0.111112   0.160478  -0.121884  -0.042978
     14       0.208645  -0.070878  -0.170542   0.112366  -0.157733  -0.152460
     15      -0.057605  -0.126045   0.169126   0.077926  -0.024131  -0.063504
     16       0.067831   0.013343   0.076737   0.014973  -0.040765  -0.063021
     17       0.184221   0.126592   0.051604  -0.011678  -0.053760  -0.056030
     18       0.103333   0.058741  -0.179269  -0.293269   0.168233  -0.176522
     19      -0.130026  -0.071031  -0.106651   0.006100  -0.111696  -0.184967
     20      -0.362804  -0.166645  -0.214429   0.153103  -0.289906  -0.239935
     21       0.009951   0.045115  -0.068506  -0.130888  -0.039443  -0.042671
     22       0.000943  -0.146580   0.093746   0.109822   0.069416   0.087008
     23       0.057430  -0.185213  -0.154825   0.023790   0.170916   0.177446
     24       0.096975  -0.075783  -0.061521  -0.075217   0.037298  -0.122854
     25      -0.124366   0.119277  -0.185487  -0.245941   0.078299  -0.145796
     26      -0.402738   0.169990   0.174740  -0.037389  -0.021734   0.024680
     27      -0.008639  -0.204381   0.141919   0.177106  -0.143237  -0.143054
     28       0.000523   0.186089  -0.022583  -0.273643   0.205262  -0.025459
     29      -0.054175   0.400616   0.411063  -0.253663   0.390194   0.362139
     30      -0.093411  -0.043799   0.137470  -0.041082   0.054467  -0.067034
     31       0.115880  -0.152077   0.195958   0.262710  -0.186116  -0.053318
     32       0.380900  -0.120869  -0.259448   0.147866  -0.217321  -0.207182
     33      -0.102179  -0.179378   0.271343   0.189267  -0.064656   0.011512
     34       0.122380   0.039039   0.132785   0.021822  -0.055165  -0.051192
     35       0.334930   0.216337   0.120483  -0.060540  -0.062867  -0.071474
     36      -0.022932  -0.000933   0.039789  -0.079530  -0.204580   0.084548
     37       0.076745  -0.072247   0.170505   0.165541   0.151817   0.063705
     38       0.198130  -0.041174  -0.043308   0.119273   0.358685   0.112526
     39      -0.000524  -0.050363   0.085002   0.047100  -0.125343   0.172147
     40       0.040755  -0.017500   0.091714  -0.037267   0.032908  -0.089605
     41       0.171222   0.067824   0.161032  -0.153675  -0.123961  -0.215461
     42       0.053791   0.060661  -0.125381  -0.039811   0.056980  -0.048826
     43      -0.080819  -0.186954  -0.005244  -0.109484   0.053481   0.171267
     44      -0.068664  -0.240396  -0.055501  -0.244466  -0.052778   0.337150
     45       0.026128   0.003541  -0.019687   0.034221  -0.000878   0.127792
     46      -0.045763   0.051985  -0.120349  -0.086274   0.072691  -0.071654
     47      -0.051806   0.079252   0.076344   0.002466  -0.093835   0.022386
     48      -0.096543   0.243104  -0.104295   0.322316   0.157353   0.049817
     49       0.070580   0.343368  -0.129233   0.061508  -0.266177   0.294798
     50      -0.178581   0.062250   0.032748   0.085671   0.165552  -0.208632
                 12         13         14         15         16         17    
      0       0.170095  -0.040710  -0.050037  -0.030983  -0.078256  -0.005179
      1       0.202084   0.073152   0.018688  -0.107797   0.008595  -0.069690
      2      -0.044384   0.206758   0.009637  -0.029992   0.101939  -0.101976
      3       0.181736   0.058672  -0.129856  -0.067534  -0.118595  -0.036506
      4       0.133976  -0.081770   0.076391  -0.021186   0.052463  -0.012486
      5      -0.059946  -0.159779  -0.186876   0.026421  -0.004095  -0.034019
      6       0.184007  -0.014040   0.106051  -0.071502   0.054360  -0.062335
      7       0.223675  -0.020290   0.077489  -0.084567  -0.081524   0.035233
      8       0.003387  -0.026108   0.087086   0.048841  -0.155813   0.177627
      9       0.093532   0.024790  -0.155968  -0.021122  -0.004031  -0.071057
     10       0.006679  -0.020978   0.135090   0.079195  -0.028804   0.145412
     11       0.023642  -0.012674   0.018274   0.019339  -0.299829   0.266337
     12       0.190851  -0.048251  -0.004841  -0.070145  -0.046865  -0.030010
     13       0.041632   0.049559   0.202964   0.018955   0.118844   0.040247
     14      -0.006562   0.208695  -0.045613  -0.082377  -0.031240  -0.025602
     15       0.167632   0.018130   0.160855  -0.049596   0.004083   0.018477
     16       0.097807  -0.083699   0.076945  -0.002671   0.104960  -0.029012
     17      -0.024551  -0.171978  -0.124575   0.011687   0.101775  -0.140483
     18       0.311596   0.112262  -0.157003  -0.167269  -0.238021  -0.024109
     19       0.154956  -0.162406  -0.003449  -0.052347   0.111139  -0.121498
     20      -0.077317  -0.378819  -0.355122   0.006661   0.201853  -0.296539
     21      -0.077300   0.005776   0.044223   0.177273   0.095770   0.023679
     22      -0.028894   0.010682  -0.125624  -0.013869  -0.120323   0.009180
     23       0.050774  -0.038057   0.179233   0.027557  -0.056277   0.006384
     24       0.166420  -0.083613  -0.098676  -0.011646  -0.149745   0.048448
     25       0.186651   0.179138  -0.131476  -0.136534   0.023069  -0.170538
     26      -0.040049   0.420964   0.060603  -0.116477   0.340920  -0.349469
     27       0.148522  -0.013191   0.152236  -0.059700   0.129204  -0.071567
     28       0.266442  -0.028159   0.047851  -0.092555  -0.175078   0.063981
     29       0.042970  -0.074211   0.209426   0.078398  -0.269204   0.308205
     30       0.202172  -0.111381   0.039115  -0.057972  -0.069486   0.020098
     31       0.071302   0.119586   0.364020  -0.040867   0.254299  -0.040253
     32      -0.034052   0.467753  -0.089139  -0.162285   0.139920  -0.243629
     33       0.081175   0.055797   0.275280   0.035712   0.030489   0.122254
     34       0.065264  -0.162555   0.048772   0.025256   0.213961  -0.117596
     35      -0.050836  -0.373922  -0.258907   0.027040   0.334542  -0.403352
     36      -0.124968   0.009429  -0.001660   0.171217  -0.005745   0.062471
     37      -0.031435   0.036013  -0.244924   0.076002  -0.064778  -0.088197
     38       0.116118  -0.001893   0.027926   0.172022   0.149380  -0.126089
     39      -0.142326   0.013031   0.012349   0.275611  -0.259390  -0.290870
     40      -0.179069   0.025200  -0.183386  -0.014117   0.040034   0.146164
     41      -0.303726  -0.023385   0.118505  -0.392911  -0.085215  -0.005805
     42      -0.063817   0.004997   0.019888   0.238290   0.177457   0.192816
     43      -0.097109   0.016330  -0.207297  -0.285457   0.054470   0.065126
     44       0.020406  -0.027374   0.111131  -0.220578   0.094774  -0.086356
     45      -0.161773   0.001380  -0.034195  -0.034224   0.094176   0.097366
     46      -0.232479  -0.005835   0.124129   0.200157  -0.029932  -0.087612
     47       0.142567   0.020229  -0.098644   0.178441   0.041440   0.087617
     48      -0.101186  -0.029798   0.046651  -0.478478  -0.012790  -0.035422
     49       0.214427  -0.002876  -0.010944  -0.050288  -0.045436  -0.023449
     50      -0.050719   0.002840   0.018045   0.099688  -0.012602  -0.022285
                 18         19         20         21         22         23    
      0      -0.331934  -0.249094   0.008436  -0.018509   0.034744  -0.223383
      1       0.034287  -0.084982   0.000949  -0.014315  -0.057945   0.103885
      2      -0.093761  -0.018948   0.041399  -0.026088  -0.149864  -0.086694
      3      -0.068792   0.015347   0.070370   0.005808  -0.021666  -0.221223
      4      -0.218813  -0.279019  -0.073558  -0.017082   0.036141   0.091593
      5       0.072014   0.101084  -0.040340   0.096809   0.091314  -0.097085
      6       0.000668  -0.171031  -0.016912  -0.031829  -0.020438   0.204853
      7       0.171198  -0.024968  -0.043304   0.037057   0.033873   0.189755
      8      -0.059231  -0.038713  -0.078617   0.071575   0.092484  -0.039812
      9       0.002856   0.162660   0.061410   0.013226   0.024828  -0.186650
     10      -0.164932   0.022794  -0.015808   0.008092  -0.040371  -0.178482
     11       0.060628   0.017459  -0.076613   0.039457  -0.111882   0.029310
     12       0.317939   0.193635   0.034986   0.024323  -0.024560   0.099716
     13      -0.039952   0.105126  -0.024900   0.024841   0.038724  -0.210680
     14       0.092759  -0.003561  -0.055194   0.082270   0.095071   0.089348
     15       0.073025  -0.039576  -0.024146   0.007156   0.035269   0.112081
     16       0.233485   0.331573   0.037906   0.032509  -0.057934  -0.206961
     17      -0.077404  -0.129397   0.015685  -0.035763  -0.152983   0.105614
     18       0.180078   0.010943   0.004509   0.101758  -0.106785   0.011879
     19      -0.143492  -0.269044   0.044046  -0.125396   0.173328   0.180174
     20       0.102350   0.124833   0.273294  -0.210172   0.460331  -0.036857
     21      -0.122277   0.123593  -0.098795   0.131452   0.009204  -0.041344
     22      -0.025222   0.031054   0.220006  -0.146540  -0.012963  -0.044681
     23      -0.027248   0.052266   0.380271  -0.270558  -0.021229   0.052820
     24      -0.316777  -0.185597  -0.049964   0.079372  -0.023460  -0.342411
     25       0.078484   0.152104   0.201433  -0.119864   0.036452  -0.210097
     26      -0.110421  -0.059608   0.373514  -0.418302   0.105766   0.072765
     27       0.240323   0.075761  -0.064075   0.068510  -0.123738   0.192727
     28      -0.055157  -0.255454   0.040664  -0.107791   0.206614   0.206354
     29       0.087538   0.122652   0.161976  -0.211312   0.545031   0.013432
     30       0.302037   0.119932  -0.057156   0.078812  -0.107626   0.164609
     31      -0.078442  -0.110169   0.019782  -0.138939   0.180217   0.034832
     32       0.110151   0.086378   0.273678  -0.219991   0.468824   0.070469
     33      -0.189522  -0.042542  -0.095594   0.073884  -0.018629  -0.242521
     34       0.152957   0.342008   0.167980  -0.117171   0.040112  -0.287902
     35      -0.109656  -0.104936   0.356465  -0.416627   0.102573   0.129240
     36      -0.135629   0.139611   0.104083   0.040366  -0.001914   0.175022
     37      -0.021987  -0.010308  -0.038608   0.089633   0.005586   0.000705
     38      -0.012794   0.020081  -0.187782   0.106129   0.013943   0.022833
     39      -0.016921   0.057304  -0.108496  -0.048799   0.002155   0.076501
     40      -0.106108   0.025256   0.240494   0.256381  -0.000371   0.204786
     41      -0.007142   0.041362  -0.061333  -0.105762  -0.003805  -0.041293
     42      -0.139362   0.239250  -0.083579  -0.173236  -0.001887   0.124192
     43      -0.013225   0.074302  -0.305045  -0.251458   0.000431   0.053033
     44      -0.068036   0.035546   0.028378   0.251245   0.007308  -0.003925
     45       0.229349  -0.268315   0.035449  -0.001575  -0.002097  -0.091234
     46       0.089285  -0.096722  -0.005111   0.011637   0.000852  -0.032935
     47       0.072093  -0.070427  -0.007899  -0.050986  -0.002332  -0.023403
     48      -0.101698   0.093565   0.019902   0.065685   0.001503   0.034639
     49      -0.029988   0.035884   0.002694  -0.011702  -0.001372   0.004257
     50      -0.038919   0.050843  -0.017552  -0.011456   0.000890   0.016269
                 24         25         26         27         28         29    
      0       0.001667   0.012843   0.017868  -0.117789   0.011754   0.019807
      1      -0.003034  -0.023231  -0.001993   0.020665  -0.002556  -0.032161
      2      -0.001697  -0.062518  -0.007338  -0.037179  -0.000883  -0.083885
      3       0.021325   0.016259   0.034501  -0.065526  -0.014493  -0.018677
      4      -0.033401  -0.028302  -0.024345   0.034553   0.029508   0.029717
      5      -0.077723  -0.075771   0.022840   0.024804   0.085059   0.082401
      6       0.020952   0.000237  -0.011246   0.031449   0.018612   0.004208
      7      -0.042629   0.000264  -0.001776   0.015962  -0.036789  -0.002692
      8      -0.105544   0.000029  -0.023659  -0.055616  -0.088071  -0.010962
      9      -0.039680  -0.000058  -0.021383   0.089114   0.003986   0.000689
     10       0.072112   0.001100   0.016293   0.090798  -0.029650  -0.001330
     11       0.186005   0.002225   0.013654  -0.034930  -0.050413  -0.003336
     12       0.019089  -0.017239   0.033206   0.039684  -0.025819   0.014631
     13      -0.026352   0.028253  -0.028904  -0.060060   0.042827  -0.027609
     14      -0.080001   0.075494   0.031630   0.089199   0.088628  -0.072892
     15       0.000908  -0.013261  -0.000221   0.015193   0.002196  -0.020493
     16       0.005083   0.021144  -0.021495  -0.162298   0.006714   0.034741
     17      -0.010177   0.059762   0.010557   0.048125  -0.022278   0.089055
     18      -0.024615  -0.106967   0.116754  -0.063629   0.123676   0.098001
     19       0.036744   0.175381  -0.016552  -0.093688  -0.185739  -0.165374
     20       0.113503   0.470876  -0.009862  -0.298859  -0.495893  -0.440619
     21       0.040807   0.000490  -0.120788   0.004568  -0.008272  -0.000050
     22      -0.059417  -0.000643   0.040504   0.266608  -0.011210   0.001538
     23      -0.109891  -0.000593  -0.056514  -0.136050   0.036177   0.000866
     24      -0.108138  -0.099798   0.009279  -0.160355   0.001545  -0.104427
     25       0.190539   0.163349   0.077803  -0.065861   0.028477   0.172743
     26       0.491770   0.434865   0.078339   0.024747   0.055725   0.464673
     27      -0.108739  -0.001355  -0.064109  -0.080967  -0.110160  -0.012480
     28       0.177728   0.002598   0.067573   0.167680   0.181545   0.025582
     29       0.485412   0.005212   0.080615   0.235230   0.492727   0.063717
     30      -0.028920   0.107931   0.055315   0.105610   0.118276  -0.090088
     31       0.046720  -0.179959  -0.075060  -0.231601  -0.189339   0.142533
     32       0.129163  -0.484379  -0.070983  -0.223340  -0.553313   0.392538
     33      -0.110755   0.094062  -0.052040  -0.172306  -0.015665   0.111112
     34       0.201269  -0.160360  -0.036106  -0.174332   0.066159  -0.186931
     35       0.503478  -0.417850   0.012591   0.146338   0.122677  -0.495030
     36      -0.016685  -0.005818   0.743384  -0.139038   0.003225  -0.002193
     37       0.013954   0.000974   0.189338   0.321346  -0.033070  -0.000087
     38       0.028341  -0.000012   0.168167  -0.198102   0.011118  -0.001427
     39       0.005135   0.002445  -0.351442  -0.113471   0.014487   0.000742
     40       0.017355   0.001590  -0.328229  -0.246426   0.024044   0.000120
     41      -0.005966  -0.000365   0.023334   0.056595  -0.004847   0.000173
     42      -0.022139   0.003046  -0.217634   0.273342  -0.016944   0.001062
     43      -0.005531  -0.000637   0.031185  -0.210531   0.017733  -0.000824
     44       0.029442   0.000533  -0.080374   0.217964  -0.020588   0.000940
     45       0.001006   0.000233  -0.018849  -0.004833   0.000694   0.000026
     46       0.001040  -0.000431   0.083518   0.023153  -0.003048  -0.000184
     47      -0.003129   0.000335  -0.047704  -0.009644   0.001852  -0.000026
     48       0.004761   0.000069   0.003009  -0.002563  -0.000135  -0.000155
     49      -0.001474   0.000055  -0.020890  -0.000533   0.000382   0.000215
     50      -0.001178  -0.000349   0.006318   0.001815  -0.000389   0.000179
                 30         31         32         33         34         35    
      0      -0.017668   0.022339  -0.233079  -0.065883  -0.056901   0.013594
      1       0.028029  -0.019127   0.111973  -0.059630   0.000734   0.040492
      2       0.074844   0.017374  -0.095542   0.007908  -0.013491  -0.012507
      3       0.005792   0.085094   0.087543  -0.059721   0.044711  -0.006507
      4      -0.008275  -0.349060  -0.044495   0.041558   0.095474  -0.000202
      5      -0.029535   0.147082   0.037314  -0.028107  -0.026377  -0.001128
      6       0.019381   0.285319  -0.038681   0.103036   0.053742   0.042133
      7      -0.035402   0.289729  -0.059855   0.068571  -0.062719  -0.037224
      8      -0.089506  -0.047466   0.013224  -0.002933   0.036244   0.023821
      9       0.002070  -0.042049   0.091735   0.170350   0.004313  -0.004718
     10      -0.001839  -0.028399   0.071216   0.128157  -0.063608   0.004403
     11      -0.006465   0.003892  -0.007181  -0.013103   0.026053  -0.002788
     12       0.005818  -0.358175  -0.077086  -0.016922  -0.104115  -0.003368
     13      -0.008390   0.064286   0.086211  -0.057860  -0.043970   0.003168
     14      -0.018913  -0.105349  -0.051045   0.019726  -0.006337  -0.002122
     15      -0.015002  -0.012207   0.117672  -0.057975   0.000573  -0.038665
     16       0.025868   0.014707  -0.193183  -0.013225   0.092517  -0.010821
     17       0.068006  -0.008794   0.101436  -0.008644  -0.035739  -0.004652
     18      -0.053688   0.081326   0.418554  -0.352043   0.482683  -0.195366
     19       0.089527  -0.360889   0.055064  -0.038660   0.231094  -0.056248
     20       0.232925   0.172477   0.065913  -0.071173   0.021725  -0.021667
     21       0.001845  -0.044773   0.120471   0.232852  -0.033092  -0.003528
     22      -0.001523   0.004435   0.019655   0.047496  -0.000745  -0.001576
     23      -0.003963  -0.018112   0.029897   0.054222  -0.007132  -0.000038
     24       0.106919   0.029718  -0.157263  -0.192490  -0.123133   0.145020
     25      -0.182133  -0.088602   0.398397  -0.460716  -0.191492   0.463163
     26      -0.478633   0.015990  -0.184986   0.131826   0.045667  -0.142623
     27      -0.125416   0.280769  -0.007046   0.190201   0.374228   0.446214
     28       0.207674   0.322711  -0.111801  -0.007145  -0.365212  -0.419189
     29       0.551834  -0.045414   0.041698   0.045681   0.222193   0.261161
     30      -0.040830  -0.367158   0.000331  -0.135366  -0.212519   0.040773
     31       0.066164   0.094993   0.330398  -0.477666  -0.371677   0.147399
     32       0.187866  -0.118249  -0.120695   0.134876   0.087820  -0.044866
     33       0.100435  -0.094643   0.473876  -0.351239   0.246843  -0.453094
     34      -0.167575   0.008962  -0.097803  -0.096888   0.175823  -0.135590
     35      -0.441475  -0.025378   0.141431  -0.038067  -0.007821  -0.052077
     36       0.000022   0.009231  -0.012748  -0.020226   0.004008   0.001626
     37       0.001369   0.027229  -0.032132  -0.036919   0.030124   0.001467
     38       0.000631  -0.011040   0.013735   0.014402  -0.013551  -0.000647
     39      -0.000532   0.002582  -0.011334  -0.028941  -0.000967   0.000135
     40      -0.000733  -0.004562  -0.003693  -0.018104  -0.005177   0.000351
     41      -0.000079   0.001821  -0.000843   0.000596   0.000850  -0.000029
     42      -0.000333   0.045420  -0.072906  -0.125968   0.016802   0.000309
     43      -0.000299  -0.007147   0.018036   0.028248  -0.006882  -0.000747
     44       0.000600   0.019191  -0.034503  -0.056823   0.009929   0.000364
     45      -0.000034  -0.001520   0.000751   0.000760  -0.000586  -0.000066
     46       0.000121   0.003864  -0.011129  -0.018056   0.003718   0.000303
     47      -0.000156  -0.002064  -0.000141  -0.000100   0.000451  -0.000040
     48       0.000028  -0.000242  -0.003481  -0.005452   0.001580   0.000096
     49      -0.000121  -0.000845   0.006273   0.010059  -0.002185  -0.000145
     50       0.000083   0.001365   0.006075   0.009195  -0.003001  -0.000123
                 36         37         38         39         40         41    
      0      -0.007990  -0.024974   0.063023  -0.014353  -0.053499  -0.109876
      1      -0.045428  -0.035010   0.034631   0.110540  -0.113472  -0.092641
      2       0.015365   0.007611   0.001091  -0.045058   0.030927   0.010067
      3       0.047149   0.041177  -0.071823  -0.002193   0.212602   0.041371
      4       0.016769   0.012640   0.004605   0.019299   0.078856   0.100977
      5       0.004032   0.004384  -0.018025  -0.007302   0.018387  -0.028440
      6      -0.006142  -0.000797  -0.001179   0.023241  -0.147328   0.067072
      7      -0.008257  -0.003527   0.002784  -0.025299   0.130755  -0.081461
      8       0.001799   0.001222  -0.001376   0.015020  -0.083495   0.046084
      9      -0.013611   0.028093  -0.064868   0.213193  -0.051137   0.112201
     10      -0.010626   0.024408  -0.254190  -0.063878   0.081838  -0.086958
     11       0.001279  -0.003379   0.081331   0.074949  -0.043650   0.059151
     12       0.020918   0.015678  -0.043667  -0.006982  -0.067535  -0.106631
     13       0.050336   0.048404  -0.047824   0.062635  -0.185829  -0.012935
     14      -0.014605  -0.015745   0.008218  -0.026335   0.055619  -0.019380
     15      -0.050210  -0.040990  -0.040969  -0.108407   0.124269   0.128605
     16      -0.011156  -0.027874   0.072686  -0.042195   0.033472   0.101855
     17      -0.006875   0.001628  -0.036397  -0.008466   0.015632  -0.009666
     18       0.481893   0.320674  -0.220907  -0.554441  -0.513701  -0.246031
     19       0.146085   0.097032  -0.041135  -0.140415  -0.135700   0.030979
     20       0.053802   0.035402  -0.031447  -0.072315  -0.069647  -0.069326
     21       0.017809   0.002079   0.281514  -0.152823  -0.029424  -0.034929
     22       0.009226   0.009051   0.062068  -0.048553  -0.003671  -0.047178
     23       0.000199   0.001471   0.065878  -0.023124  -0.007836   0.015805
     24      -0.123547  -0.125460   0.061548  -0.206408  -0.086251   0.007735
     25      -0.415939  -0.354217   0.019215  -0.489786  -0.209870   0.341431
     26       0.129087   0.106212   0.007725   0.137041   0.061827  -0.126489
     27       0.006400   0.003709   0.041916   0.100602   0.297870  -0.434432
     28      -0.020168  -0.008858  -0.030051  -0.102172  -0.292589   0.389441
     29       0.009110   0.003859   0.020857   0.061971   0.178872  -0.247487
     30       0.151774   0.101367   0.164863   0.077937   0.130566  -0.075511
     31       0.475551   0.329397   0.647644   0.347217   0.452724   0.144354
     32      -0.142031  -0.092246  -0.207706  -0.109883  -0.142045  -0.071747
     33      -0.478730  -0.398244   0.436494   0.280447   0.146031  -0.490859
     34      -0.141475  -0.137045   0.225254   0.074976   0.039464  -0.070591
     35      -0.056313  -0.039348   0.013203   0.034478   0.018874  -0.083448
     36      -0.003967  -0.007865  -0.018831   0.022549  -0.000828   0.005562
     37       0.003408  -0.018675   0.112825  -0.010110  -0.015840   0.038605
     38      -0.002716   0.008243  -0.062064   0.011088   0.008371  -0.017788
     39      -0.002783   0.009145  -0.040912   0.015271   0.003372   0.000422
     40      -0.002161  -0.003732  -0.039415   0.016319   0.004562   0.001559
     41       0.001253  -0.006459   0.003847  -0.002771  -0.000979  -0.001303
     42      -0.000825  -0.006769  -0.051094   0.014452   0.007093  -0.001544
     43      -0.000937  -0.005612   0.003594  -0.010112   0.001268  -0.001509
     44       0.001048  -0.010631  -0.019866   0.010441   0.001553   0.000279
     45       0.012274  -0.123958  -0.011246   0.005049   0.000705   0.000703
     46      -0.014454   0.122995  -0.008191   0.005277   0.000282   0.001035
     47      -0.024807   0.236474   0.011682  -0.006739  -0.000494  -0.000973
     48      -0.025842   0.243863   0.008925  -0.004283  -0.000499  -0.000518
     49       0.025654  -0.237217  -0.004243   0.002190   0.000192   0.000274
     50       0.049289  -0.462760  -0.016233   0.008146   0.000892   0.000984
                 42         43         44         45         46         47    
      0       0.020097   0.087805   0.004297   0.169635  -0.039811   0.053089
      1       0.152861  -0.140501   0.219627   0.193207   0.007525  -0.011963
      2      -0.053254   0.073861  -0.081256  -0.034644  -0.011817   0.016498
      3       0.109342  -0.179252   0.018223  -0.294108   0.003555  -0.006950
      4      -0.026430   0.009559  -0.123413  -0.131374  -0.010539   0.021484
      5       0.034678  -0.043544   0.051419  -0.017238   0.004701  -0.009545
      6      -0.080300  -0.213121   0.131071  -0.156752   0.042236   0.001564
      7      -0.064139   0.207592  -0.189733  -0.043986   0.040812   0.005472
      8       0.006083  -0.127447   0.101924  -0.018783  -0.005941  -0.001731
      9      -0.122066   0.183609  -0.062606   0.174407  -0.000274   0.000277
     10      -0.087014  -0.035915   0.303537   0.050312  -0.000166  -0.000080
     11       0.004853   0.053946  -0.133148   0.021815   0.000006   0.000094
     12      -0.000568  -0.016267  -0.004005  -0.168994  -0.008618  -0.016455
     13       0.114561   0.147031  -0.260510  -0.192616   0.002716   0.005006
     14      -0.043344  -0.060192   0.097549   0.034842  -0.002941  -0.005538
     15       0.137751   0.130307  -0.056678   0.287329   0.007766   0.012702
     16       0.000277  -0.090437   0.111611   0.123850  -0.035641  -0.050183
     17       0.031029   0.064029  -0.055142   0.017834   0.015287   0.021923
     18      -0.380585   0.318122   0.114458   0.399069  -0.033909   0.067415
     19      -0.186032   0.158642  -0.112631   0.071323   0.132667  -0.263731
     20      -0.015533   0.005662   0.059920   0.065550  -0.057032   0.113415
     21       0.054336  -0.022039   0.007895  -0.029868  -0.000023  -0.000159
     22      -0.016896  -0.355603  -0.371767   0.147955  -0.000095   0.000164
     23       0.026593   0.176186   0.190043  -0.084648   0.000035  -0.000103
     24      -0.176925   0.175656  -0.144611   0.034497   0.468994  -0.614419
     25      -0.459116   0.079103  -0.243697  -0.283714  -0.100274   0.133390
     26       0.133431   0.010085   0.057593   0.114296   0.143755  -0.189109
     27      -0.054348   0.341497  -0.247426  -0.038764  -0.497824  -0.039474
     28      -0.117019  -0.315738   0.163661  -0.178250  -0.482338  -0.043090
     29       0.032202   0.196582  -0.120341   0.059072   0.070483   0.007509
     30      -0.179212  -0.122861   0.201346  -0.026150   0.110387   0.206406
     31      -0.431913  -0.197295   0.354262   0.306373  -0.024721  -0.046372
     32       0.121120   0.046361  -0.087849  -0.120879   0.033890   0.063343
     33      -0.404825  -0.048835   0.022882  -0.372960  -0.104617  -0.146251
     34      -0.173415  -0.161908   0.150264  -0.070524   0.420003   0.580352
     35      -0.025397   0.052393  -0.052182  -0.056906  -0.183076  -0.253339
     36      -0.003816  -0.009594  -0.021759   0.009247  -0.000007   0.000056
     37       0.041247   0.235393   0.219030  -0.112404   0.000045   0.000011
     38      -0.022322  -0.123481  -0.119631   0.060741  -0.000012   0.000003
     39      -0.007011  -0.007156  -0.007223   0.008391  -0.000054   0.000030
     40      -0.006122  -0.002646  -0.002354   0.005124  -0.000011  -0.000040
     41       0.000520  -0.003313  -0.002634   0.000535  -0.000018   0.000021
     42      -0.001449  -0.008649  -0.002954  -0.001937  -0.000011  -0.000045
     43       0.005037   0.019111   0.028645  -0.011745  -0.000047  -0.000116
     44      -0.003193  -0.014291  -0.018146   0.006100   0.000019   0.000031
     45      -0.001210   0.001924   0.001433  -0.000159   0.000024   0.000024
     46      -0.001922  -0.000358  -0.001690   0.002170  -0.000006   0.000011
     47       0.001427   0.002584   0.004699  -0.001964  -0.000005  -0.000003
     48       0.000540   0.000279   0.001040  -0.000183  -0.000013  -0.000003
     49       0.000015  -0.000392  -0.001097  -0.000186   0.000012   0.000005
     50      -0.001116  -0.001798  -0.003567   0.000948   0.000016   0.000002
                 48         49         50    
      0      -0.024616  -0.037929   0.013683
      1       0.008446   0.006189  -0.003159
      2      -0.008742  -0.010946   0.004300
      3       0.009147  -0.014755   0.003768
      4      -0.030848   0.066055  -0.015073
      5       0.013527  -0.027883   0.006448
      6      -0.042414  -0.010431   0.013390
      7      -0.040455  -0.012532   0.011586
      8       0.005753   0.002393  -0.001370
      9      -0.001043   0.002825  -0.000326
     10      -0.000602  -0.001100  -0.002622
     11       0.000005   0.001037   0.000957
     12      -0.024241  -0.023797  -0.071656
     13       0.007243   0.004742   0.014801
     14      -0.008118  -0.007064  -0.021497
     15       0.011660   0.001230  -0.006343
     16      -0.034682   0.001665   0.032226
     17       0.015807  -0.000353  -0.013680
     18      -0.092418   0.182675  -0.041589
     19       0.363965  -0.742229   0.166988
     20      -0.156387   0.317600  -0.071575
     21      -0.000046  -0.000411  -0.000573
     22      -0.000064   0.000578   0.000181
     23       0.000007  -0.000328  -0.000242
     24       0.285396   0.408619  -0.148573
     25      -0.065615  -0.086710   0.032661
     26       0.089213   0.125038  -0.045898
     27       0.471520   0.124830  -0.135480
     28       0.456269   0.124106  -0.129614
     29      -0.066570  -0.018794   0.018560
     30       0.293670   0.273760   0.810827
     31      -0.066004  -0.058858  -0.174542
     32       0.090234   0.082960   0.246167
     33      -0.103918   0.001538   0.085107
     34       0.397695  -0.013766  -0.344103
     35      -0.174454   0.005575   0.149859
     36      -0.000062   0.000166   0.000039
     37      -0.000026  -0.000000   0.000048
     38      -0.000007   0.000055  -0.000013
     39      -0.000030   0.000025   0.000092
     40       0.000006  -0.000080   0.000024
     41      -0.000003   0.000024   0.000019
     42      -0.000022  -0.000174  -0.000004
     43      -0.000135  -0.000208  -0.000318
     44       0.000055   0.000041   0.000124
     45       0.000015   0.000035   0.000013
     46      -0.000002   0.000011   0.000022
     47      -0.000016  -0.000009  -0.000007
     48      -0.000027  -0.000018  -0.000001
     49       0.000002   0.000003  -0.000011
     50       0.000025   0.000011  -0.000007
# -----------------------------------------------------------
$ THERMOCHEMISTRY_Energies
   description: The Thermochemistry energies
   geom. index: 11
   prop. index: 1
        Temperature (Kelvin)           :        298.1500000000
        Pressure (atm)                 :          1.0000000000
        Total Mass (AMU)               :        183.1810000000
        Spin Degeneracy                :          1.0000000000
        Electronic Energy (Hartree)    :       -948.1752578966
        Translational Energy (Hartree) :          0.0014162714
        Rotational Energy (Hartree)    :          0.0014162714
        Vibrational Energy (Hartree)   :          0.0069578564
        Number of frequencies          :     51      
        Scaling Factor for frequencies :          1.0000000000
        Vibrational frequencies        :     
                  0    
      0       0.000000
      1       0.000000
      2       0.000000
      3       0.000000
      4       0.000000
      5       0.000000
      6      36.441189
      7      75.965641
      8     135.189945
      9     159.010746
     10     267.944260
     11     288.927836
     12     317.390784
     13     403.299181
     14     409.110805
     15     435.350054
     16     468.326935
     17     485.644686
     18     631.971115
     19     635.325769
     20     653.578779
     21     681.300277
     22     693.667136
     23     711.548783
     24     772.039304
     25     852.041195
     26     889.902619
     27     930.430594
     28     937.135638
     29     985.218106
     30     1003.006101
     31     1021.554196
     32     1044.097250
     33     1073.792570
     34     1109.981167
     35     1184.130257
     36     1202.126292
     37     1211.401173
     38     1322.692189
     39     1345.177733
     40     1362.685843
     41     1474.756983
     42     1521.190229
     43     1600.472381
     44     1629.230092
     45     1637.854736
     46     3173.419952
     47     3182.293340
     48     3190.481825
     49     3199.132839
     50     3203.141201
        Zero Point Energy (Hartree)    :          0.1128817930
        Inner Energy (Hartree)         :       -948.0525857044
        Enthalpy (Hartree)             :       -948.0516414954
        Electronic entropy             :          0.0000000000
        Rotational entropy             :          0.0146880337
        Vibrational entropy            :          0.0117680959
        Translational entropy          :          0.0146880337
        Entropy                        :          0.0461846472
        Gibbs Energy (Hartree)         :       -948.0978261426
        Is Linear                      :                 false
# -------------------------------------------------------------
----------------------- !GEOMETRIES! ------------------------
# -------------------------------------------------------------
------------------------ !GEOMETRY! -------------------------
    Number of atoms:    17 
    Geometry Index:     1 
    Coordinates:
               0 C      0.053471005055    0.075389213115   -0.108727816624
               1 C      1.052830948759    1.036599629200   -0.247192157018
               2 C      0.346956867511   -1.171179075368    0.461535715532
               3 C      2.361738036490    0.752767595844    0.186617621194
               4 C      2.656765258834   -0.497089239837    0.755988460470
               5 C      1.647946443564   -1.453388497618    0.892115779343
               6 H      0.837163658096    2.002446843270   -0.688820091116
               7 C      3.407823312283    1.761712955412    0.044035377602
               8 H     -0.953535089321    0.296332721128   -0.445709687047
               9 H     -0.434421509456   -1.916401892544    0.567899822841
              10 H      3.666883941981   -0.707868052178    1.084479568793
              11 H      1.878398020929   -2.417197872117    1.333073097718
              12 N      3.217077035974    2.933592280854   -0.479589202650
              13 O      4.370589899345    3.743609951478   -0.492798742900
              14 O      4.677437678297    1.419534029652    0.517897815100
              15 S      5.930803795953    2.712319646496    0.014739465713
              16 O      6.656470695705    2.225819763212   -1.324845026952
------------------------ !GEOMETRY! -------------------------
    Number of atoms:    17 
    Geometry Index:     2 
    Coordinates:
               0 C      0.073368959386    0.084333932304   -0.109109326586
               1 C      1.067945628983    1.041911099816   -0.248933068161
               2 C      0.365740118654   -1.157760226311    0.458833660814
               3 C      2.373263321365    0.757830273220    0.182252625926
               4 C      2.667333860880   -0.488274903283    0.750674370912
               5 C      1.661368094440   -1.439735019521    0.886670714958
               6 H      0.849122774213    2.008476963786   -0.690465147348
               7 C      3.419142501429    1.765876838984    0.040269506998
               8 H     -0.934909026732    0.305775081739   -0.445057840978
               9 H     -0.416495971156   -1.903182540733    0.565980306306
              10 H      3.677823465247   -0.703449374048    1.079845153763
              11 H      1.891763153090   -2.404539541861    1.327663728971
              12 N      3.231986714690    2.924404061105   -0.482534200716
              13 O      4.372249744796    3.698100435199   -0.486526326188
              14 O      4.667362296526    1.428635095672    0.511313189799
              15 S      5.863238532965    2.677160859264    0.003959791877
              16 O      6.544095831225    2.201436964668   -1.274137140348
------------------------ !GEOMETRY! -------------------------
    Number of atoms:    17 
    Geometry Index:     3 
    Coordinates:
               0 C      0.084880007107    0.087443912654   -0.108683542486
               1 C      1.076021285429    1.044328626489   -0.251837277609
               2 C      0.378032880881   -1.151778462407    0.458360755933
               3 C      2.381229241657    0.763265617396    0.175101651150
               4 C      2.675539208991   -0.480545485601    0.743313125670
               5 C      1.671840111971   -1.431081736561    0.882105148724
               6 H      0.851476204732    2.010014790654   -0.693037941067
               7 C      3.429031375266    1.773840504799    0.031283126174
               8 H     -0.925077262285    0.308163731917   -0.442000657292
               9 H     -0.403755025681   -1.897990310079    0.568110940443
              10 H      3.685660017126   -0.700395997475    1.071980893120
              11 H      1.904609569052   -2.395784207816    1.323481948049
              12 N      3.256551132823    2.926713280895   -0.492403092097
              13 O      4.410827733930    3.656664596995   -0.472572451349
              14 O      4.671560162220    1.461360047564    0.500756247603
              15 S      5.804457777487    2.645810959287   -0.007669162928
              16 O      6.421515579292    2.176970131288   -1.215589712037
------------------------ !GEOMETRY! -------------------------
    Number of atoms:    17 
    Geometry Index:     4 
    Coordinates:
               0 C      0.084613913529    0.084237745490   -0.114752347814
               1 C      1.074518287321    1.044333734158   -0.253134448766
               2 C      0.378943796998   -1.155325194648    0.453335678230
               3 C      2.378888146478    0.765936403432    0.179477741863
               4 C      2.674733026326   -0.477392602405    0.748825707008
               5 C      1.672679578562   -1.431455441955    0.883003169497
               6 H      0.849362768643    2.010024017160   -0.694017092877
               7 C      3.423385755151    1.778346117513    0.041942392093
               8 H     -0.924354502782    0.302594668577   -0.452010079149
               9 H     -0.401182415015   -1.903598887901    0.559334263449
              10 H      3.684113661417   -0.694386436483    1.081686330737
              11 H      1.906432942657   -2.395502885760    1.324873192899
              12 N      3.254863579655    2.932569131653   -0.488619720759
              13 O      4.419315148609    3.668019774606   -0.450021175161
              14 O      4.668510376879    1.473564697663    0.527200721359
              15 S      5.816097416261    2.643595301083   -0.015754568344
              16 O      6.413478519313    2.151439857817   -1.260669764265
------------------------ !GEOMETRY! -------------------------
    Number of atoms:    17 
    Geometry Index:     5 
    Coordinates:
               0 C      0.084602298072    0.083765063690   -0.114419548257
               1 C      1.072594734291    1.046264051177   -0.251591378941
               2 C      0.381740385912   -1.156385658591    0.451744176253
               3 C      2.377727759809    0.768975736514    0.179470057323
               4 C      2.676892410579   -0.474533709743    0.746596095795
               5 C      1.676580824216   -1.430789976297    0.880343371765
               6 H      0.844697293867    2.012359763111   -0.690221094922
               7 C      3.419244356103    1.782190126478    0.043209776107
               8 H     -0.924931746133    0.300810739281   -0.450588182358
               9 H     -0.396869789832   -1.906254650670    0.556987871980
              10 H      3.686822035688   -0.691196177169    1.078013581429
              11 H      1.912799692834   -2.394977644943    1.320414300819
              12 N      3.256754554811    2.934189296366   -0.498641021546
              13 O      4.435298921009    3.664386612709   -0.448047319226
              14 O      4.664801722956    1.487482710777    0.541923493805
              15 S      5.807444325769    2.641057169134   -0.015768630250
              16 O      6.398200220050    2.129656548176   -1.258725549775
------------------------ !GEOMETRY! -------------------------
    Number of atoms:    17 
    Geometry Index:     6 
    Coordinates:
               0 C      0.083002305391    0.084656573726   -0.109516425139
               1 C      1.068546627467    1.049772610789   -0.246719318177
               2 C      0.384880884740   -1.156986240493    0.451383896678
               3 C      2.375811912718    0.772472255960    0.178309689742
               4 C      2.680154345324   -0.472235564571    0.740292640294
               5 C      1.681975286284   -1.430765110105    0.874474632297
               6 H      0.836525438611    2.017090905693   -0.680352439810
               7 C      3.413963183245    1.785805121958    0.039917258314
               8 H     -0.928207636449    0.300973821262   -0.440861005689
               9 H     -0.391999678651   -1.908534100651    0.556978960519
              10 H      3.691627138811   -0.689287462233    1.066323977763
              11 H      1.921819766982   -2.395961398006    1.310162300771
              12 N      3.257823111109    2.929838368808   -0.524109262235
              13 O      4.451730503934    3.657172525341   -0.458998671974
              14 O      4.656491751260    1.502572022170    0.559863457495
              15 S      5.796087171135    2.644647220798   -0.008990534294
              16 O      6.394167888089    2.105768449555   -1.237459156555
------------------------ !GEOMETRY! -------------------------
    Number of atoms:    17 
    Geometry Index:     7 
    Coordinates:
               0 C      0.082233649673    0.085470523329   -0.106572935204
               1 C      1.067207454493    1.051131963466   -0.244116033032
               2 C      0.385778322065   -1.156956692113    0.451535406428
               3 C      2.375590749703    0.773175078339    0.177320242012
               4 C      2.681536932531   -0.472409541647    0.736694436896
               5 C      1.683766546879   -1.431242487307    0.871497450509
               6 H      0.833783475919    2.019384234233   -0.674857622589
               7 C      3.413360597138    1.786744530418    0.037218794502
               8 H     -0.929877131972    0.302156343802   -0.434912906702
               9 H     -0.390772389287   -1.908778085197    0.557736586498
              10 H      3.693761836340   -0.689810736851    1.059978959162
              11 H      1.924664451123   -2.397082074874    1.305174110197
              12 N      3.258381555314    2.925102034605   -0.538709422919
              13 O      4.453757015546    3.655897362455   -0.465709546003
              14 O      4.651239908106    1.508550520149    0.569490769640
              15 S      5.794028983619    2.648811420404   -0.005470990136
              16 O      6.395958042810    2.096855606786   -1.225597299259
------------------------ !GEOMETRY! -------------------------
    Number of atoms:    17 
    Geometry Index:     8 
    Coordinates:
               0 C      0.078734823442    0.088288196426   -0.095781630896
               1 C      1.062941136934    1.054528668131   -0.235315736318
               2 C      0.386418158244   -1.156834168713    0.453529509222
               3 C      2.374684781757    0.773670695551    0.173804347540
               4 C      2.684497801125   -0.474810808999    0.724720319692
               5 C      1.687261403476   -1.433691992881    0.862567155896
               6 H      0.826092198821    2.025868412965   -0.657102497661
               7 C      3.412851955851    1.787827885458    0.028253811704
               8 H     -0.936108201343    0.307095694625   -0.414164623176
               9 H     -0.389668643368   -1.908845893300    0.562199233486
              10 H      3.699269055980   -0.693938026515    1.038556149232
              11 H      1.930859907871   -2.401745693913    1.289790931033
              12 N      3.260233126895    2.908730262931   -0.581594634993
              13 O      4.455057034147    3.651037751040   -0.495837828797
              14 O      4.636960069208    1.523402056803    0.590446886979
              15 S      5.787841715575    2.665705017510    0.008170856621
              16 O      6.416473675384    2.080711942881   -1.181542249566
------------------------ !GEOMETRY! -------------------------
    Number of atoms:    17 
    Geometry Index:     9 
    Coordinates:
               0 C      0.078322866462    0.088976069396   -0.093714461554
               1 C      1.062520679041    1.055249491814   -0.233387881032
               2 C      0.386616465267   -1.156831017644    0.453634029607
               3 C      2.374750213248    0.773679750867    0.173155404859
               4 C      2.685113293699   -0.475329983763    0.722276204629
               5 C      1.688019162351   -1.434281287593    0.860460143550
               6 H      0.825206822826    2.027371117940   -0.653151512048
               7 C      3.413595102945    1.788014646260    0.026937497949
               8 H     -0.937005281404    0.308391328628   -0.410131667640
               9 H     -0.389414034251   -1.908845030596    0.562694490733
              10 H      3.700447707212   -0.694738563830    1.034294203020
              11 H      1.932072574868   -2.402828877312    1.286315660220
              12 N      3.261723677013    2.904306318998   -0.591277846944
              13 O      4.454092012016    3.649597060609   -0.501192813388
              14 O      4.633557744454    1.529317782614    0.597172397074
              15 S      5.787006695846    2.669104303037    0.010496794645
              16 O      6.417774298406    2.075846890577   -1.173880643679
------------------------ !GEOMETRY! -------------------------
    Number of atoms:    17 
    Geometry Index:     10 
    Coordinates:
               0 C      0.077317123491    0.089741561851   -0.090863645779
               1 C      1.061520274817    1.055991318008   -0.231092903501
               2 C      0.386334622916   -1.156874263071    0.454280320935
               3 C      2.374344331250    0.773463442683    0.172237957108
               4 C      2.685477199109   -0.476173060970    0.719227788854
               5 C      1.688503053189   -1.435115501406    0.858240633868
               6 H      0.823676724589    2.028923840486   -0.648707657902
               7 C      3.413813111155    1.787600306839    0.025143314962
               8 H     -0.938606529396    0.309913311669   -0.404826097722
               9 H     -0.389657399385   -1.908821084163    0.564019295242
              10 H      3.701518106019   -0.696000283179    1.028841072743
              11 H      1.933134209014   -2.404234550738    1.282468546201
              12 N      3.262844962020    2.899884698110   -0.600842358988
              13 O      4.453169638454    3.647386408478   -0.510553383573
              14 O      4.630905055899    1.533828567671    0.601174838823
              15 S      5.785359852203    2.673408795020    0.014465157419
              16 O      6.424745664658    2.074076492713   -1.162512878691
------------------------ !GEOMETRY! -------------------------
    Number of atoms:    17 
    Geometry Index:     11 
    Coordinates:
               0 C      0.076851471703    0.090080088776   -0.089517320407
               1 C      1.060888821056    1.056498808863   -0.229969284169
               2 C      0.386377936184   -1.156930769823    0.454470592235
               3 C      2.374013711853    0.773592811017    0.171842474057
               4 C      2.685722941912   -0.476352797418    0.717767361520
               5 C      1.688946507542   -1.435447356830    0.857072306600
               6 H      0.822658469128    2.029809822473   -0.646477697414
               7 C      3.413606865369    1.787486872427    0.024393359574
               8 H     -0.939390455819    0.310511076630   -0.402261991874
               9 H     -0.389503157604   -1.908947243560    0.564470572491
              10 H      3.702118929522   -0.696257811177    1.026217723580
              11 H      1.933957547494   -2.404851742501    1.280424296489
              12 N      3.263574834170    2.897864440742   -0.605526171144
              13 O      4.452891130857    3.646131858734   -0.515177670083
              14 O      4.629592001182    1.536565319776    0.603694551022
              15 S      5.784580771219    2.674738081213    0.016484322338
              16 O      6.427511674231    2.072508540657   -1.157207424815
