17
Coordinates from ORCA-job mol
  C   -2.35544790088058     -0.75207823178020     -0.36703299790061
  C   -1.50065418220220      0.33118884296406     -0.48642777730839
  C   -1.92024934873593     -1.97540444824944      0.13554110435765
  C   -0.15793189579888      0.16899175995424     -0.10605205236405
  C   0.29922929719396     -1.05386833891156      0.40224303190429
  C   -0.59038118913881     -2.11169777782232      0.52011968262364
  H   -1.85499222823448      1.28073334673239     -0.87055527139356
  C   0.73827121058320      1.26444039399573     -0.23452268950253
  Cl  -4.02596248780488     -0.56882364116287     -0.84931740383384
  H   -2.61506630821592     -2.80329777742652      0.22366436944278
  H   1.33637231200499     -1.15102912421022      0.69965045572208
  H   -0.24454333907574     -3.06196899446380      0.91428439657541
  N   1.01350189499527      2.31150773228088     -0.75951373693933
  O   1.87797216253830      3.20529951813634     -0.71095398761769
  O   2.27189985236822      1.19759630115238      1.10075063305760
  S   3.39061737716865      2.14440415291669      0.68193575988644
  O   4.33736477323482      1.57400628589421     -0.29381351670989
