17
C7NH4SO3Cl
C        0.735885342     -1.382401701      0.045601658
C        1.460066557     -0.810788792     -0.991612116
C        0.695657433     -0.818528945      1.315936608
C        2.163698300      0.369687411     -0.738747840
C        2.143076484      0.960849543      0.529432265
C        1.408821762      0.358743768      1.542345494
H        1.483092899     -1.261321419     -1.978207875
C        3.545507698      1.921966912     -1.995049723
Cl      -0.156576678     -2.864076703     -0.266576394
H        0.122174446     -1.287064063      2.108241185
H        2.696178209      1.879373345      0.709746616
H        1.389050409      0.812891391      2.529449254
N        2.886218971      0.930328853     -1.795122884
O        4.203713913      2.839726977     -2.324952166
O        4.072179764      4.143166474      0.698543160
S        5.572650426      3.864605898      0.358910426
O        6.028317362      2.326535220      0.483865213
