28
Coordinates from ORCA-job ./Intermediate_b E -1159.276439911923
  C      -4.014834     -1.218640      0.353408
  C      -3.161120     -0.119609      0.355949
  C      -3.718304     -2.345803      1.129106
  C      -1.992117     -0.139664      1.137723
  C      -1.697961     -1.269521      1.917044
  C      -2.560112     -2.366502      1.909208
  H      -3.383075      0.767490     -0.241297
  C      -1.088074      1.019142      1.145179
  H      -4.922001     -1.196985     -0.255913
  H      -4.392810     -3.205953      1.125415
  H      -0.790183     -1.277509      2.523295
  H      -2.324379     -3.243326      2.517596
  N      -1.253909      2.031834      0.351400
  O      -0.263026      2.988704      0.568334
  O      -0.040715      1.005556      1.995612
  S       1.108253      2.388186      1.592789
  N       2.348244      1.948089      0.809599
  C       2.555163      1.219481     -0.369591
  C       3.896926      0.942196     -0.692936
  C       4.209306      0.225284     -1.844728
  C       3.190094     -0.221662     -2.690849
  C       1.856655      0.057512     -2.375997
  C       1.530626      0.772964     -1.225334
  H       4.678500      1.300795     -0.019316
  H       5.254686      0.014092     -2.083616
  H       3.433699     -0.785033     -3.594994
  H       1.055468     -0.285071     -3.035774
  H       0.485000      0.993954     -1.001313
28
Coordinates from ORCA-job ./Intermediate_b E -1159.277290060365
  C      -3.957802     -1.177323      0.292028
  C      -3.122402     -0.070251      0.326869
  C      -3.640885     -2.323181      1.024498
  C      -1.950342     -0.103476      1.097805
  C      -1.634468     -1.252168      1.833384
  C      -2.479963     -2.356170      1.793095
  H      -3.363758      0.826361     -0.235016
  C      -1.060635      1.060992      1.140057
  H      -4.863944     -1.147324     -0.306079
  H      -4.299706     -3.186285      0.995569
  H      -0.727333     -1.273120      2.428617
  H      -2.229415     -3.245058      2.364599
  N      -1.234356      2.096118      0.385570
  O      -0.244091      3.043182      0.632367
  O      -0.015253      1.029521      1.986582
  S       1.132406      2.424117      1.630331
  N       2.351431      1.991738      0.818768
  C       2.524670      1.215331     -0.332763
  C       3.853266      1.003570     -0.732322
  C       4.128708      0.247553     -1.863534
  C       3.086547     -0.304625     -2.608076
  C       1.765870     -0.093408     -2.212603
  C       1.475803      0.660222     -1.081966
  H       4.651377      1.441812     -0.140260
  H       5.159944      0.088296     -2.164648
  H       3.301756     -0.897418     -3.492116
  H       0.950045     -0.520097     -2.789092
  H       0.442528      0.821094     -0.791663
28
Coordinates from ORCA-job ./Intermediate_b E -1159.277388766676
  C      -4.016721     -1.188065      0.364117
  C      -3.177777     -0.085277      0.373234
  C      -3.688324     -2.329339      1.095819
  C      -1.990730     -0.119502      1.118152
  C      -1.662298     -1.263542      1.852715
  C      -2.512142     -2.362937      1.837668
  H      -3.431023      0.805460     -0.189023
  C      -1.093748      1.038269      1.131531
  H      -4.934167     -1.158169     -0.212932
  H      -4.349990     -3.188334      1.086770
  H      -0.743860     -1.288097      2.426577
  H      -2.252827     -3.248014      2.407560
  N      -1.265478      2.061704      0.363074
  O      -0.251641      2.992057      0.565693
  O      -0.031722      1.002071      1.954027
  S       1.110368      2.395732      1.592155
  N       2.343984      1.958773      0.809646
  C       2.544508      1.214907     -0.359281
  C       3.882515      0.971409     -0.699232
  C       4.187452      0.239040     -1.836500
  C       3.166882     -0.257160     -2.644821
  C       1.837265     -0.012842     -2.308598
  C       1.517025      0.719613     -1.174154
  H       4.664339      1.363302     -0.058419
  H       5.224718      0.053839     -2.091817
  H       3.405750     -0.830557     -3.533235
  H       1.038861     -0.393965     -2.935680
  H       0.478785      0.909620     -0.935045
28
Coordinates from ORCA-job ./Intermediate_b E -1159.277481850233
  C      -3.991694     -1.189437      0.338573
  C      -3.154997     -0.083842      0.354467
  C      -3.666699     -2.330258      1.073696
  C      -1.973949     -0.114587      1.109901
  C      -1.649430     -1.257691      1.848840
  C      -2.496612     -2.360224      1.826470
  H      -3.406804      0.806952     -0.211686
  C      -1.079197      1.046032      1.129235
  H      -4.905622     -1.162007     -0.247427
  H      -4.327182     -3.192330      1.059191
  H      -0.735257     -1.280188      2.432412
  H      -2.239721     -3.245670      2.400243
  N      -1.246864      2.069641      0.358608
  O      -0.244381      3.008376      0.579740
  O      -0.028493      1.017862      1.967009
  S       1.116168      2.408947      1.605159
  N       2.345221      1.966386      0.819243
  C       2.535097      1.215027     -0.347414
  C       3.870019      0.972054     -0.702255
  C       4.162523      0.232556     -1.839280
  C       3.132633     -0.270690     -2.632330
  C       1.806104     -0.026208     -2.281425
  C       1.498183      0.712742     -1.146678
  H       4.660267      1.369953     -0.073026
  H       5.198594      0.047342     -2.106716
  H       3.362106     -0.850241     -3.521391
  H       0.999586     -0.413203     -2.897351
  H       0.460403      0.902702     -0.895811
28
Coordinates from ORCA-job ./Intermediate_b E -1159.277491396718
  C      -3.999928     -1.178259      0.344099
  C      -3.162937     -0.072489      0.362895
  C      -3.668274     -2.326140      1.065381
  C      -1.975072     -0.110360      1.107214
  C      -1.643758     -1.260339      1.832496
  C      -2.491379     -2.362921      1.807447
  H      -3.421660      0.823299     -0.192806
  C      -1.079919      1.050202      1.128812
  H      -4.919541     -1.145197     -0.233302
  H      -4.329075     -3.188378      1.048635
  H      -0.724493     -1.289473      2.408266
  H      -2.229150     -3.253905      2.370795
  N      -1.250262      2.078423      0.364304
  O      -0.246291      3.015721      0.585990
  O      -0.025698      1.017473      1.962049
  S       1.115382      2.411660      1.604826
  N       2.343907      1.972848      0.816644
  C       2.535090      1.214105     -0.345941
  C       3.870714      0.988309     -0.709756
  C       4.164907      0.243782     -1.843463
  C       3.136213     -0.281427     -2.623867
  C       1.808964     -0.053810     -2.263969
  C       1.499196      0.689591     -1.132157
  H       4.660824      1.403133     -0.090892
  H       5.201737      0.071930     -2.118246
  H       3.367222     -0.865170     -3.510228
  H       1.003098     -0.458118     -2.870149
  H       0.460184      0.865513     -0.875076
28
Coordinates from ORCA-job ./Intermediate_b E -1159.277499672647
  C      -3.998659     -1.178474      0.346015
  C      -3.163238     -0.071406      0.364509
  C      -3.663305     -2.327181      1.064161
  C      -1.973394     -0.109012      1.105347
  C      -1.638268     -1.259596      1.827686
  C      -2.484385     -2.363429      1.802964
  H      -3.426400      0.824312     -0.188944
  C      -1.079555      1.052507      1.125856
  H      -4.919915     -1.145563     -0.228521
  H      -4.322801     -3.190264      1.047639
  H      -0.717752     -1.289640      2.401160
  H      -2.219185     -3.254856      2.363965
  N      -1.247860      2.078097      0.357437
  O      -0.245363      3.016653      0.581031
  O      -0.027658      1.023258      1.962207
  S       1.113295      2.415779      1.603635
  N       2.342169      1.972502      0.819317
  C       2.532849      1.213903     -0.343881
  C       3.868216      0.983747     -0.705324
  C       4.161417      0.238388     -1.838828
  C       3.132176     -0.283292     -2.620778
  C       1.805217     -0.051089     -2.262990
  C       1.496342      0.693477     -1.131569
  H       4.659252      1.395290     -0.085706
  H       5.197930      0.063059     -2.112127
  H       3.362557     -0.867728     -3.506694
  H       0.998959     -0.452415     -2.870402
  H       0.457360      0.872972     -0.877165
28
Coordinates from ORCA-job ./Intermediate_b E -1159.277503871415
  C      -4.004395     -1.176048      0.355156
  C      -3.170157     -0.067937      0.372688
  C      -3.662331     -2.327704      1.065338
  C      -1.974830     -0.107640      1.104266
  C      -1.632981     -1.260950      1.818887
  C      -2.477918     -2.365765      1.795264
  H      -3.439846      0.829514     -0.174602
  C      -1.081943      1.054511      1.122603
  H      -4.929949     -1.141388     -0.212128
  H      -4.320841     -3.191434      1.049716
  H      -0.708416     -1.293577      2.385506
  H      -2.207314     -3.259277      2.350150
  N      -1.249531      2.077542      0.350726
  O      -0.247420      3.017200      0.574087
  O      -0.030689      1.028173      1.960153
  S       1.109174      2.419657      1.599245
  N       2.339558      1.973203      0.819193
  C       2.532174      1.213845     -0.343533
  C       3.868090      0.981361     -0.700974
  C       4.163201      0.234898     -1.833330
  C       3.135368     -0.285608     -2.617877
  C       1.807855     -0.050946     -2.263932
  C       1.497086      0.694940     -1.133748
  H       4.658486      1.391556     -0.079819
  H       5.200102      0.057798     -2.103642
  H       3.367301     -0.870909     -3.502702
  H       1.002636     -0.451137     -2.873295
  H       0.457530      0.876122     -0.883396
28
Coordinates from ORCA-job ./Intermediate_b E -1159.277506496557
  C      -4.010130     -1.172430      0.364458
  C      -3.177488     -0.063031      0.381848
  C      -3.660101     -2.328014      1.064295
  C      -1.975755     -0.105488      1.102551
  C      -1.625972     -1.262627      1.807000
  C      -2.469326     -2.368639      1.783751
  H      -3.454053      0.837305     -0.157154
  C      -1.084305      1.057657      1.119641
  H      -4.940716     -1.135468     -0.194297
  H      -4.317373     -3.192638      1.049030
  H      -0.696484     -1.297827      2.365310
  H      -2.192383     -3.265060      2.330684
  N      -1.251882      2.078550      0.345057
  O      -0.250553      3.019846      0.568546
  O      -0.033614      1.034054      1.958234
  S       1.105100      2.425054      1.594910
  N       2.336859      1.976375      0.817913
  C       2.531038      1.214326     -0.342856
  C       3.867384      0.980331     -0.697479
  C       4.164146      0.231187     -1.827642
  C       3.137470     -0.290574     -2.612904
  C       1.809508     -0.054375     -2.261756
  C       1.497166      0.694242     -1.133737
  H       4.657135      1.391306     -0.076075
  H       5.201411      0.053005     -2.095670
  H       3.370688     -0.877934     -3.495973
  H       1.005087     -0.455401     -2.871559
  H       0.457143      0.876269     -0.886126
28
Coordinates from ORCA-job ./Intermediate_b E -1159.277509075632
  C      -4.017373     -1.167512      0.376916
  C      -3.187110     -0.056300      0.394436
  C      -3.656290     -2.328535      1.061954
  C      -1.976569     -0.102520      1.099939
  C      -1.615839     -1.265069      1.789841
  C      -2.456838     -2.372778      1.766751
  H      -3.472383      0.848491     -0.132462
  C      -1.087208      1.062133      1.115756
  H      -4.954869     -1.127487     -0.169927
  H      -4.311788     -3.194496      1.046958
  H      -0.679433     -1.303065      2.336325
  H      -2.171223     -3.273352      2.302274
  N      -1.255394      2.080535      0.338172
  O      -0.255433      3.024299      0.561693
  O      -0.037357      1.042055      1.955612
  S       1.099865      2.433110      1.589162
  N       2.333293      1.982449      0.815242
  C       2.529205      1.215764     -0.342017
  C       3.866055      0.979052     -0.692954
  C       4.164730      0.225255     -1.819455
  C       3.139356     -0.298561     -2.605112
  C       1.810887     -0.059635     -2.257811
  C       1.496744      0.693598     -1.133384
  H       4.654861      1.391624     -0.071385
  H       5.202454      0.045068     -2.084317
  H       3.374024     -0.889498     -3.485394
  H       1.007345     -0.462093     -2.867820
  H       0.456288      0.877467     -0.888993
28
Coordinates from ORCA-job ./Intermediate_b E -1159.277510536907
  C      -4.021821     -1.164323      0.385275
  C      -3.193325     -0.051818      0.403027
  C      -3.653061     -2.329034      1.059841
  C      -1.976779     -0.100572      1.097990
  C      -1.608481     -1.266841      1.777650
  C      -2.447755     -2.375759      1.754479
  H      -3.484066      0.856346     -0.115095
  C      -1.088870      1.065205      1.113138
  H      -4.964058     -1.122360     -0.153261
  H      -4.307272     -3.196000      1.044890
  H      -0.667270     -1.306141      2.315802
  H      -2.156279     -3.279259      2.281908
  N      -1.257786      2.082134      0.333817
  O      -0.259076      3.027699      0.557176
  O      -0.039667      1.047351      1.953670
  S       1.096544      2.439142      1.585357
  N       2.330866      1.987842      0.812825
  C       2.527680      1.217356     -0.341553
  C       3.864832      0.977982     -0.689779
  C       4.164537      0.220319     -1.813336
  C       3.139851     -0.304746     -2.599087
  C       1.811103     -0.063115     -2.254738
  C       1.495976      0.693902     -1.133214
  H       4.652928      1.391736     -0.068032
  H       5.202529      0.038094     -2.075831
  H       3.375288     -0.898685     -3.477168
  H       1.008037     -0.466441     -2.864855
  H       0.455392      0.879987     -0.890898
