 28
  Energy -1159.277510536907  Dipole 3.88385  G(298) 101.72
 C   -4.02182100  -1.16432300   0.38527500
 C   -3.19332500  -0.05181800   0.40302700
 C   -3.65306100  -2.32903400   1.05984100
 C   -1.97677900  -0.10057200   1.09799000
 C   -1.60848100  -1.26684100   1.77765000
 C   -2.44775500  -2.37575900   1.75447900
 H   -3.48406600   0.85634600  -0.11509500
 C   -1.08887000   1.06520500   1.11313800
 H   -4.96405800  -1.12236000  -0.15326100
 H   -4.30727200  -3.19600000   1.04489000
 H   -0.66727000  -1.30614100   2.31580200
 H   -2.15627900  -3.27925900   2.28190800
 N   -1.25778600   2.08213400   0.33381700
 O   -0.25907600   3.02769900   0.55717600
 O   -0.03966700   1.04735100   1.95367000
 S    1.09654400   2.43914200   1.58535700
 N    2.33086600   1.98784200   0.81282500
 C    2.52768000   1.21735600  -0.34155300
 C    3.86483200   0.97798200  -0.68977900
 C    4.16453700   0.22031900  -1.81333600
 C    3.13985100  -0.30474600  -2.59908700
 C    1.81110300  -0.06311500  -2.25473800
 C    1.49597600   0.69390200  -1.13321400
 H    4.65292800   1.39173600  -0.06803200
 H    5.20252900   0.03809400  -2.07583100
 H    3.37528800  -0.89868500  -3.47716800
 H    1.00803700  -0.46644100  -2.86485500
 H    0.45539200   0.87998700  -0.89089800
