25
Coordinates from ORCA-job ./PhNCNPh E -610.750694530465
  C       1.774331      2.324266     -2.470221
  C       1.100891      1.709525     -1.424080
  C       1.178704      3.368632     -3.177582
  C      -0.183672      2.147072     -1.083667
  C      -0.784302      3.193051     -1.783962
  C      -0.098994      3.799381     -2.831129
  H       1.565561      0.904251     -0.860710
  C      -0.671642      0.595281      0.661742
  H       2.773337      1.988312     -2.732570
  H       1.712491      3.845696     -3.993943
  H      -1.780085      3.519020     -1.500500
  H      -0.566618      4.613813     -3.376500
  N      -0.911279      1.564192     -0.029103
  N      -0.482456     -0.253501      1.528402
  C      -0.727873     -1.640930      1.483549
  C      -0.569071     -2.364611      2.665827
  C      -1.103772     -2.289334      0.303088
  C      -0.792867     -3.736777      2.666247
  C      -1.326149     -3.660184      0.317428
  C      -1.172087     -4.388899      1.495861
  H      -0.277226     -1.845279      3.573722
  H      -1.216242     -1.718644     -0.615299
  H      -0.669378     -4.298202      3.587618
  H      -1.617651     -4.163217     -0.600096
  H      -1.344351     -5.460853      1.499526
25
Coordinates from ORCA-job ./PhNCNPh E -610.750882075925
  C       1.785886      2.340471     -2.455927
  C       1.099825      1.713831     -1.423515
  C       1.195667      3.387675     -3.163591
  C      -0.192329      2.141006     -1.096732
  C      -0.787474      3.189774     -1.799051
  C      -0.089556      3.808691     -2.831270
  H       1.556906      0.899795     -0.866532
  C      -0.680711      0.581853      0.643334
  H       2.788671      2.008341     -2.709929
  H       1.737651      3.872476     -3.970160
  H      -1.789570      3.508397     -1.528838
  H      -0.554260      4.624454     -3.377632
  N      -0.931126      1.546115     -0.056973
  N      -0.486012     -0.256114      1.513605
  C      -0.730892     -1.642798      1.477414
  C      -0.548320     -2.363927      2.658811
  C      -1.131025     -2.297684      0.307015
  C      -0.772804     -3.736752      2.668922
  C      -1.350338     -3.669588      0.329935
  C      -1.173651     -4.394324      1.508212
  H      -0.236055     -1.841696      3.558086
  H      -1.263839     -1.730501     -0.611018
  H      -0.631397     -4.294728      3.590180
  H      -1.660033     -4.176177     -0.580011
  H      -1.345613     -5.466528      1.519315
25
Coordinates from ORCA-job ./PhNCNPh E -610.750969625034
  C       1.798663      2.355155     -2.434626
  C       1.092494      1.713274     -1.424481
  C       1.220725      3.410092     -3.140758
  C      -0.207589      2.131888     -1.116665
  C      -0.790618      3.187517     -1.820158
  C      -0.073272      3.821659     -2.829712
  H       1.538480      0.889098     -0.873297
  C      -0.701183      0.568783      0.613596
  H       2.806961      2.027953     -2.673061
  H       1.777457      3.906811     -3.929831
  H      -1.799440      3.500307     -1.568191
  H      -0.529858      4.642514     -3.375446
  N      -0.965251      1.523985     -0.099076
  N      -0.499692     -0.257317      1.490387
  C      -0.737279     -1.645309      1.466919
  C      -0.517627     -2.361422      2.645732
  C      -1.170970     -2.309301      0.312819
  C      -0.737247     -3.735177      2.669737
  C      -1.384763     -3.681900      0.348851
  C      -1.170279     -4.400593      1.524957
  H      -0.178704     -1.833720      3.532105
  H      -1.335304     -1.747490     -0.603560
  H      -0.567132     -4.287639      3.589532
  H      -1.720387     -4.193886     -0.548837
  H      -1.338584     -5.473223      1.546713
25
Coordinates from ORCA-job ./PhNCNPh E -610.750999540565
  C       1.802334      2.353860     -2.421830
  C       1.082234      1.706480     -1.425222
  C       1.236531      3.416682     -3.125943
  C      -0.219669      2.127030     -1.127598
  C      -0.790614      3.190035     -1.830344
  C      -0.059728      3.829772     -2.826304
  H       1.519106      0.875626     -0.876598
  C      -0.722047      0.566182      0.597036
  H       2.812167      2.024908     -2.651085
  H       1.803987      3.918144     -3.904266
  H      -1.801271      3.504704     -1.588112
  H      -0.507606      4.656397     -3.370552
  N      -0.992087      1.514587     -0.123701
  N      -0.518888     -0.254357      1.478578
  C      -0.745564     -1.644467      1.460900
  C      -0.500557     -2.357270      2.636655
  C      -1.195912     -2.313572      0.316240
  C      -0.710649     -3.732260      2.667101
  C      -1.400532     -3.687168      0.358394
  C      -1.160025     -4.402548      1.531568
  H      -0.149157     -1.825592      3.515836
  H      -1.381159     -1.754614     -0.597916
  H      -0.520578     -4.281723      3.584745
  H      -1.749390     -4.202665     -0.532166
  H      -1.321326     -5.476110      1.558231
25
Coordinates from ORCA-job ./PhNCNPh E -610.751020702575
  C       1.800866      2.340441     -2.410797
  C       1.066000      1.692753     -1.425653
  C       1.251672      3.414014     -3.111823
  C      -0.234069      2.123531     -1.135452
  C      -0.788514      3.196866     -1.835768
  C      -0.043107      3.837173     -2.820233
  H       1.490980      0.854178     -0.879278
  C      -0.750749      0.569518      0.585442
  H       2.809535      2.003473     -2.633217
  H       1.830749      3.916109     -3.881089
  H      -1.798246      3.519631     -1.600396
  H      -0.478587      4.672061     -3.361886
  N      -1.023542      1.510694     -0.143900
  N      -0.549360     -0.246871      1.471829
  C      -0.758357     -1.640074      1.456395
  C      -0.487723     -2.349828      2.628013
  C      -1.218843     -2.313534      0.318740
  C      -0.681167     -3.726983      2.661183
  C      -1.407674     -3.689049      0.363647
  C      -1.140590     -4.401905      1.532565
  H      -0.129627     -1.814013      3.502010
  H      -1.424983     -1.756615     -0.592156
  H      -0.470571     -4.274272      3.575579
  H      -1.764900     -4.208081     -0.521465
  H      -1.289593     -5.477154      1.561355
25
Coordinates from ORCA-job ./PhNCNPh E -610.751027353888
  C       1.796829      2.326825     -2.407673
  C       1.055348      1.682523     -1.425451
  C       1.257417      3.406606     -3.106835
  C      -0.241499      2.123111     -1.136453
  C      -0.786329      3.202511     -1.834740
  C      -0.034248      3.839616     -2.816189
  H       1.473319      0.839753     -0.880129
  C      -0.767494      0.574737      0.584793
  H       2.803093      1.982209     -2.629242
  H       1.841775      3.905948     -3.873907
  H      -1.793808      3.532688     -1.600085
  H      -0.462130      4.679473     -3.356160
  N      -1.039129      1.512962     -0.148586
  N      -0.569625     -0.240606      1.473121
  C      -0.766924     -1.635617      1.456006
  C      -0.485749     -2.344629      2.625377
  C      -1.226895     -2.310224      0.319073
  C      -0.667422     -3.723389      2.656765
  C      -1.404359     -3.687288      0.362449
  C      -1.126179     -4.399869      1.528858
  H      -0.128879     -1.807285      3.498909
  H      -1.441575     -1.753394     -0.589852
  H      -0.448251     -4.270581      3.569189
  H      -1.761386     -4.207678     -0.521924
  H      -1.266300     -5.476341      1.556334
25
Coordinates from ORCA-job ./PhNCNPh E -610.751029770594
  C       1.793549      2.318073     -2.408014
  C       1.050018      1.676846     -1.425270
  C       1.258621      3.400722     -3.106161
  C      -0.244339      2.123732     -1.135297
  C      -0.784866      3.205960     -1.832284
  C      -0.030572      3.840040     -2.814134
  H       1.464634      0.832003     -0.880645
  C      -0.774884      0.578488      0.587405
  H       2.797853      1.968583     -2.630840
  H       1.844638      3.897374     -3.873713
  H      -1.790540      3.540668     -1.596357
  H      -0.454823      4.682290     -3.353251
  N      -1.044741      1.515941     -0.147552
  N      -0.580229     -0.236803      1.476310
  C      -0.771427     -1.632673      1.457016
  C      -0.487639     -2.341956      2.625565
  C      -1.228073     -2.307168      0.318719
  C      -0.662950     -3.721653      2.654530
  C      -1.399205     -3.685202      0.359895
  C      -1.118109     -4.398280      1.525250
  H      -0.133777     -1.804396      3.500157
  H      -1.445021     -1.749782     -0.589304
  H      -0.441611     -4.269420      3.566089
  H      -1.753636     -4.205883     -0.525364
  H      -1.253272     -5.475444      1.550898
25
Coordinates from ORCA-job ./PhNCNPh E -610.751030928651
  C       1.792237      2.315139     -2.409178
  C       1.048711      1.675063     -1.425555
  C       1.258293      3.398615     -3.106745
  C      -0.244612      2.124186     -1.134570
  C      -0.784263      3.207242     -1.830811
  C      -0.029856      3.840141     -2.813455
  H       1.462458      0.829470     -0.881495
  C      -0.776212      0.579748      0.589154
  H       2.795699      1.963975     -2.633192
  H       1.844329      3.894156     -3.875016
  H      -1.789170      3.543401     -1.593730
  H      -0.453205      4.683114     -3.352156
  N      -1.045104      1.517173     -0.146277
  N      -0.583620     -0.235562      1.478287
  C      -0.772896     -1.631668      1.457915
  C      -0.489556     -2.341258      2.626421
  C      -1.227282     -2.305922      0.318534
  C      -0.662877     -3.721289      2.654131
  C      -1.396322     -3.684324      0.358549
  C      -1.115578     -4.397755      1.523752
  H      -0.137571     -1.803837      3.501829
  H      -1.444063     -1.748145     -0.589275
  H      -0.441910     -4.269458      3.565545
  H      -1.748924     -4.204986     -0.527463
  H      -1.249105     -5.475157      1.548448
