 28
  Energy -1159.336496363937  Dipole 3.15988  G(298) 98.32
 C    1.69871100   2.24089400  -2.60155000
 C    1.04219700   1.63126200  -1.54130600
 C    1.14684900   3.36164800  -3.22359500
 C   -0.17993100   2.15120300  -1.10051300
 C   -0.73792500   3.27138500  -1.71712000
 C   -0.06959300   3.87285900  -2.77850000
 H    1.46886600   0.76109800  -1.04843500
 C   -0.64586000   0.59617800   0.64754300
 H    2.64850000   1.84004800  -2.94385100
 H    1.66636500   3.83381000  -4.05205800
 H   -1.68655300   3.65967700  -1.35938900
 H   -0.50295400   4.74541700  -3.25847400
 N   -0.88708500   1.57623800  -0.02765600
 O    1.61777700   1.96980300   2.17492400
 N   -0.45010100  -0.25567800   1.50899400
 S    1.70415500   0.63626700   2.80764000
 O    2.66369400  -0.30784000   2.19770000
 C   -0.69682400  -1.64370700   1.47218800
 C   -0.59263400  -2.35321600   2.66906500
 C   -1.01802000  -2.30368800   0.28172900
 C   -0.81931500  -3.72543000   2.67417600
 C   -1.24359700  -3.67438100   0.30143400
 C   -1.14570500  -4.38995700   1.49434100
 H   -0.34186400  -1.82553500   3.58451100
 H   -1.08575200  -1.74319400  -0.64735600
 H   -0.73978100  -4.27645600   3.60670400
 H   -1.49336300  -4.18704700  -0.62314100
 H   -1.32025800  -5.46165800   1.50199400
