 28
  Energy -1159.243042765094  Dipole 8.43084  G(298) 100.13
 C   -2.93808000  -0.00339900   1.11862800
 C   -2.00500800   1.01272200   0.96796100
 C   -3.15855400  -0.90949900   0.08219600
 C   -1.29433100   1.12582700  -0.23576100
 C   -1.50731500   0.20644600  -1.27506000
 C   -2.44642000  -0.80190100  -1.11195900
 H   -1.81366800   1.71757800   1.77113900
 C   -0.27705800   2.11965900  -0.36072800
 H   -3.49302800  -0.09212800   2.04765200
 H   -3.88654900  -1.70602000   0.20654200
 H   -0.93360400   0.29284100  -2.19239900
 H   -2.61803600  -1.51201700  -1.91536100
 N    0.11642200   3.08811300  -0.97104400
 O    1.11530300   3.83096900  -1.02050800
 N    1.35891800   1.60425500   0.80937700
 S    2.53772700   2.68891100   0.60098600
 O    3.75716700   2.20485400  -0.12496800
 C    1.53301000   0.22967000   0.47767900
 C    2.03522800  -0.20671800  -0.75328400
 C    1.07480800  -0.69859600   1.41752000
 C    2.08797500  -1.56905000  -1.02705900
 C    1.13989500  -2.05817800   1.13559500
 C    1.64638300  -2.49720100  -0.08618500
 H    2.35496100   0.51570000  -1.49605500
 H    0.66757000  -0.34144000   2.35866200
 H    2.47198100  -1.90611700  -1.98572000
 H    0.78543700  -2.77568600   1.87010300
 H    1.68886500  -3.55959600  -0.30795100
