28
Coordinates from ORCA-job ./TS1_b E -1159.238165849463
  C      -4.105487     -1.061205      0.174481
  C      -3.322492      0.083672      0.280192
  C      -3.722871     -2.245326      0.814417
  C      -2.134209      0.055606      1.043095
  C      -1.752918     -1.136750      1.688018
  C      -2.546520     -2.275750      1.567724
  H      -3.615053      1.009297     -0.220110
  C      -1.331654      1.233631      1.157237
  H      -5.024104     -1.029380     -0.416880
  H      -4.342043     -3.141306      0.725199
  H      -0.835258     -1.146063      2.277533
  H      -2.242624     -3.196450      2.072090
  N      -1.284399      2.420460      0.883971
  O      -0.512790      3.392027      0.997947
  O       0.352286      0.930726      2.076392
  S       1.403131      2.078727      1.891165
  N       2.451689      1.992926      0.750962
  C       2.638904      1.136296     -0.323186
  C       3.682176      1.464463     -1.216912
  C       3.952069      0.655058     -2.315485
  C       3.191639     -0.496560     -2.545810
  C       2.158105     -0.831405     -1.663783
  C       1.876400     -0.030110     -0.560924
  H       4.264475      2.367619     -1.020353
  H       4.761412      0.923500     -2.999430
  H       3.403469     -1.131569     -3.409643
  H       1.561797     -1.730935     -1.838442
  H       1.074871     -0.291200      0.130535
28
Coordinates from ORCA-job ./TS1_b E -1159.239751879840
  C      -3.875078     -1.086377      0.025027
  C      -3.137185      0.077282      0.175572
  C      -3.500197     -2.253896      0.690376
  C      -2.005647      0.078786      1.013269
  C      -1.628881     -1.093615      1.683921
  C      -2.378413     -2.251271      1.514859
  H      -3.422168      0.986906     -0.343178
  C      -1.259331      1.285979      1.163739
  H      -4.748475     -1.082309     -0.620517
  H      -4.082169     -3.161984      0.564556
  H      -0.758137     -1.090659      2.328501
  H      -2.082241     -3.157014      2.035569
  N      -1.237668      2.462527      0.875784
  O      -0.494816      3.455984      1.017490
  O       0.363058      1.021620      2.184816
  S       1.441302      2.126304      1.989636
  N       2.444495      1.980999      0.818554
  C       2.536736      1.110122     -0.256743
  C       3.576128      1.376947     -1.168155
  C       3.762620      0.562502     -2.274373
  C       2.921505     -0.528554     -2.492056
  C       1.891659     -0.799699     -1.590863
  C       1.690657      0.004976     -0.478529
  H       4.222625      2.230043     -0.986058
  H       4.566658      0.778920     -2.971832
  H       3.067218     -1.165472     -3.359482
  H       1.235214     -1.649436     -1.755797
  H       0.890531     -0.219612      0.215916
28
Coordinates from ORCA-job ./TS1_b E -1159.239827849880
  C      -3.721500     -1.082411     -0.113840
  C      -3.006768      0.087927      0.089376
  C      -3.392210     -2.243588      0.585806
  C      -1.948316      0.103816      1.017309
  C      -1.617833     -1.062485      1.722278
  C      -2.340844     -2.227680      1.498319
  H      -3.254836      0.991966     -0.457381
  C      -1.224195      1.317537      1.220232
  H      -4.538752     -1.089109     -0.829154
  H      -3.953905     -3.157507      0.417158
  H      -0.800231     -1.049845      2.433276
  H      -2.079575     -3.128900      2.044966
  N      -1.204381      2.497312      0.943575
  O      -0.462529      3.490619      1.101975
  O       0.378701      1.049824      2.266736
  S       1.477055      2.130520      2.044399
  N       2.440420      1.973410      0.841569
  C       2.491513      1.093379     -0.229758
  C       3.462132      1.377495     -1.209110
  C       3.598468      0.555409     -2.317280
  C       2.777376     -0.561955     -2.467753
  C       1.818615     -0.852948     -1.496770
  C       1.667823     -0.039766     -0.383029
  H       4.094263      2.250574     -1.078304
  H       4.348723      0.786231     -3.068031
  H       2.885128     -1.204673     -3.336462
  H       1.180268     -1.725058     -1.607644
  H       0.925390     -0.280094      0.367540
28
Coordinates from ORCA-job ./TS1_b E -1159.239930511397
  C      -3.549315     -1.097419     -0.257485
  C      -2.839346      0.070060     -0.022354
  C      -3.328069     -2.229838      0.526235
  C      -1.901813      0.113489      1.026268
  C      -1.680107     -1.023838      1.816133
  C      -2.391935     -2.188149      1.556593
  H      -3.000073      0.951088     -0.635287
  C      -1.185311      1.324689      1.266182
  H      -4.274849     -1.125600     -1.065159
  H      -3.882947     -3.142635      0.331016
  H      -0.953304     -0.990054      2.619248
  H      -2.215154     -3.067678      2.168460
  N      -1.162622      2.510530      1.014360
  O      -0.409021      3.492943      1.186745
  O       0.409400      1.028741      2.311997
  S       1.518543      2.098753      2.091370
  N       2.462513      1.937098      0.873661
  C       2.468100      1.071119     -0.210943
  C       3.354189      1.401058     -1.253520
  C       3.439722      0.594945     -2.378513
  C       2.655427     -0.553771     -2.480308
  C       1.785028     -0.892532     -1.443834
  C       1.682888     -0.094232     -0.313878
  H       3.959971      2.297197     -1.159269
  H       4.122626      0.862115     -3.179783
  H       2.724736     -1.184762     -3.361456
  H       1.178572     -1.791094     -1.515825
  H       1.012151     -0.372224      0.489347
28
Coordinates from ORCA-job ./TS1_b E -1159.240026349535
  C      -3.309463     -1.137428     -0.404031
  C      -2.619347      0.034680     -0.132797
  C      -3.214293     -2.228591      0.459401
  C      -1.838914      0.125291      1.033789
  C      -1.744243     -0.970726      1.903866
  C      -2.428276     -2.142024      1.606538
  H      -2.676580      0.883193     -0.807018
  C      -1.142092      1.338595      1.314740
  H      -3.916646     -1.203306     -1.302115
  H      -3.749740     -3.146404      0.235093
  H      -1.132943     -0.897559      2.796023
  H      -2.350374     -2.990998      2.279142
  N      -1.112767      2.529005      1.084868
  O      -0.345219      3.498977      1.274651
  O       0.440210      1.020211      2.374699
  S       1.565441      2.070126      2.146226
  N       2.479831      1.902853      0.906032
  C       2.425588      1.050711     -0.189822
  C       3.248928      1.397110     -1.277325
  C       3.268260      0.608600     -2.417967
  C       2.481296     -0.540372     -2.490638
  C       1.676817     -0.898163     -1.408307
  C       1.640501     -0.117048     -0.262204
  H       3.857572      2.293509     -1.205886
  H       3.901872      0.889849     -3.254207
  H       2.499092     -1.157830     -3.383876
  H       1.071229     -1.799018     -1.456247
  H       1.024260     -0.413243      0.577373
28
Coordinates from ORCA-job ./TS1_b E -1159.240043121775
  C      -3.043514     -1.176331     -0.528906
  C      -2.384209      0.003062     -0.214260
  C      -3.086469     -2.225307      0.388737
  C      -1.781516      0.143510      1.047856
  C      -1.827858     -0.909660      1.973124
  C      -2.474688     -2.090050      1.633856
  H      -2.328754      0.818579     -0.928343
  C      -1.105401      1.357443      1.370604
  H      -3.514685     -1.282410     -1.501642
  H      -3.594324     -3.150181      0.131403
  H      -1.351958     -0.796197      2.940971
  H      -2.506911     -2.907162      2.348342
  N      -1.064139      2.550907      1.155304
  O      -0.275420      3.502425      1.363312
  O       0.467448      1.011011      2.430527
  S       1.607818      2.042065      2.190754
  N       2.489500      1.867133      0.927718
  C       2.377747      1.027775     -0.174987
  C       3.130840      1.394936     -1.305309
  C       3.086723      0.621374     -2.455572
  C       2.307048     -0.534101     -2.495386
  C       1.575316     -0.914181     -1.370054
  C       1.602401     -0.147971     -0.213698
  H       3.734790      2.296193     -1.259865
  H       3.665099      0.919442     -3.325361
  H       2.275044     -1.139769     -3.396262
  H       0.976897     -1.820925     -1.391669
  H       1.043171     -0.461611      0.658809
28
Coordinates from ORCA-job ./TS1_b E -1159.240072720581
  C      -3.164653     -1.162833     -0.473092
  C      -2.494639      0.014649     -0.175134
  C      -3.153267     -2.227347      0.427744
  C      -1.821294      0.136326      1.053053
  C      -1.811741     -0.932790      1.960784
  C      -2.473822     -2.109819      1.638809
  H      -2.484103      0.842674     -0.876790
  C      -1.129228      1.346961      1.354576
  H      -3.689392     -1.254207     -1.419539
  H      -3.671849     -3.149784      0.183493
  H      -1.283211     -0.833765      2.902492
  H      -2.463487     -2.938537      2.340422
  N      -1.082187      2.537697      1.125757
  O      -0.294022      3.490093      1.330239
  O       0.455334      1.002401      2.396650
  S       1.586870      2.045771      2.166509
  N       2.485019      1.881010      0.914094
  C       2.403773      1.038769     -0.188629
  C       3.186739      1.403901     -1.299251
  C       3.177192      0.625535     -2.447024
  C       2.401936     -0.532254     -2.503928
  C       1.638663     -0.909066     -1.398655
  C       1.630984     -0.137932     -0.245192
  H       3.787276      2.306634     -1.240287
  H       3.779179      0.921491     -3.301365
  H       2.397070     -1.141882     -3.402668
  H       1.042380     -1.816734     -1.434089
  H       1.044479     -0.446964      0.611021
28
Coordinates from ORCA-job ./TS1_b E -1159.239897737418
  C      -3.302106     -1.162801     -0.385192
  C      -2.634781      0.022452     -0.114154
  C      -3.170357     -2.258233      0.467847
  C      -1.837809      0.121459      1.040833
  C      -1.707563     -0.978679      1.901234
  C      -2.370914     -2.162176      1.604985
  H      -2.722312      0.874888     -0.780275
  C      -1.152742      1.343076      1.314925
  H      -3.920945     -1.234959     -1.274839
  H      -3.688415     -3.186130      0.244006
  H      -1.088202     -0.898185      2.787394
  H      -2.265821     -3.013601      2.270893
  N      -1.115345      2.527691      1.060437
  O      -0.353313      3.502835      1.243158
  O       0.434785      1.040033      2.381235
  S       1.558097      2.088894      2.144077
  N       2.473976      1.912556      0.905712
  C       2.412576      1.061891     -0.191013
  C       3.311341      1.345129     -1.236454
  C       3.327823      0.557173     -2.377471
  C       2.458043     -0.526572     -2.495064
  C       1.573472     -0.819723     -1.456784
  C       1.542743     -0.040482     -0.309318
  H       3.981665      2.193019     -1.131670
  H       4.022361      0.789119     -3.179854
  H       2.472060     -1.142448     -3.389518
  H       0.899865     -1.668262     -1.540234
  H       0.861820     -0.287964      0.495104
28
Coordinates from ORCA-job ./TS1_b E -1159.239790150332
  C      -3.640146     -1.096216     -0.173202
  C      -2.934206      0.074734      0.056596
  C      -3.375186     -2.240959      0.578397
  C      -1.955963      0.108131      1.067506
  C      -1.692408     -1.040507      1.827388
  C      -2.400682     -2.207927      1.572804
  H      -3.127419      0.965812     -0.531798
  C      -1.239578      1.320956      1.300324
  H      -4.396886     -1.117583     -0.951943
  H      -3.926800     -3.156477      0.386768
  H      -0.937988     -1.011349      2.604630
  H      -2.191216     -3.096697      2.160551
  N      -1.221771      2.504338      1.033317
  O      -0.457389      3.483643      1.173191
  O       0.389507      1.019189      2.274492
  S       1.489180      2.099761      2.041826
  N       2.428270      1.956021      0.818535
  C       2.482947      1.084109     -0.258091
  C       3.440104      1.390724     -1.244097
  C       3.577986      0.580115     -2.360326
  C       2.771469     -0.547524     -2.513443
  C       1.827860     -0.861884     -1.534893
  C       1.677195     -0.061578     -0.412084
  H       4.060025      2.272415     -1.112834
  H       4.317437      0.828431     -3.116130
  H       2.879378     -1.180397     -3.389292
  H       1.202474     -1.743355     -1.646291
  H       0.953805     -0.325927      0.348100
28
Coordinates from ORCA-job ./TS1_b E -1159.239959168081
  C      -3.502976     -1.121089     -0.273388
  C      -2.806168      0.052412     -0.027824
  C      -3.305387     -2.241993      0.532825
  C      -1.907934      0.112363      1.053230
  C      -1.711183     -1.013017      1.866538
  C      -2.408159     -2.183614      1.596749
  H      -2.946021      0.924867     -0.657957
  C      -1.197409      1.325123      1.301634
  H      -4.198848     -1.163429     -1.106160
  H      -3.849045     -3.159772      0.329288
  H      -1.015498     -0.962644      2.696171
  H      -2.251518     -3.054602      2.226079
  N      -1.168834      2.510780      1.047800
  O      -0.402121      3.484899      1.214853
  O       0.415058      1.013526      2.312289
  S       1.523154      2.084560      2.089111
  N       2.456804      1.934097      0.861886
  C       2.460799      1.073932     -0.227346
  C       3.372376      1.389006     -1.252615
  C       3.457288      0.589494     -2.382290
  C       2.644447     -0.536859     -2.508049
  C       1.747271     -0.860528     -1.489767
  C       1.647507     -0.069812     -0.354227
  H       3.998929      2.268773     -1.141108
  H       4.161050      0.844942     -3.169231
  H       2.711936     -1.161984     -3.393514
  H       1.117729     -1.741444     -1.580148
  H       0.956751     -0.337987      0.435174
28
Coordinates from ORCA-job ./TS1_b E -1159.240028616318
  C      -3.254480     -1.138814     -0.425032
  C      -2.581418      0.037823     -0.131330
  C      -3.183075     -2.227720      0.443497
  C      -1.844126      0.134318      1.062172
  C      -1.775892     -0.958391      1.938703
  C      -2.441285     -2.134389      1.619350
  H      -2.617354      0.885030     -0.808702
  C      -1.153463      1.347071      1.360040
  H      -3.828388     -1.210567     -1.344300
  H      -3.703916     -3.149459      0.201564
  H      -1.201289     -0.878378      2.854646
  H      -2.384468     -2.981411      2.296492
  N      -1.120106      2.537747      1.126253
  O      -0.335788      3.496595      1.312934
  O       0.437498      1.016305      2.387402
  S       1.564714      2.063524      2.144092
  N       2.461062      1.900558      0.890300
  C       2.410124      1.046519     -0.203929
  C       3.229358      1.397045     -1.293373
  C       3.251594      0.608118     -2.433594
  C       2.470800     -0.545183     -2.505205
  C       1.670512     -0.907154     -1.421297
  C       1.632803     -0.126321     -0.275149
  H       3.832636      2.297190     -1.223795
  H       3.882365      0.892825     -3.270785
  H       2.490291     -1.162482     -3.398469
  H       1.069779     -1.811403     -1.467599
  H       1.021513     -0.428997      0.565113
28
Coordinates from ORCA-job ./TS1_b E -1159.240020642376
  C      -2.977977     -1.198421     -0.543590
  C      -2.332513     -0.014041     -0.218811
  C      -3.054495     -2.235730      0.385042
  C      -1.778979      0.143120      1.063588
  C      -1.858862     -0.898584      1.999522
  C      -2.490998     -2.084153      1.651037
  H      -2.250050      0.792164     -0.940898
  C      -1.106615      1.356978      1.394560
  H      -3.411628     -1.317649     -1.532118
  H      -3.550884     -3.164699      0.120097
  H      -1.419805     -0.771997      2.983258
  H      -2.549614     -2.892466      2.373796
  N      -1.057418      2.549843      1.175692
  O      -0.261950      3.495513      1.385958
  O       0.475703      1.001911      2.436219
  S       1.614622      2.033937      2.193729
  N       2.489178      1.862758      0.925041
  C       2.366968      1.029576     -0.181373
  C       3.132112      1.387048     -1.306747
  C       3.078692      0.619472     -2.460612
  C       2.276104     -0.519862     -2.509706
  C       1.531075     -0.889982     -1.389834
  C       1.568239     -0.130060     -0.229567
  H       3.753289      2.276168     -1.254544
  H       3.667158      0.909858     -3.326233
  H       2.236210     -1.120606     -3.413563
  H       0.914117     -1.784041     -1.418657
  H       0.998322     -0.436051      0.638714
28
Coordinates from ORCA-job ./TS1_b E -1159.240078753582
  C      -3.188366     -1.173005     -0.452691
  C      -2.518387      0.006234     -0.161690
  C      -3.161655     -2.238969      0.446092
  C      -1.829462      0.128391      1.057884
  C      -1.804376     -0.942291      1.963501
  C      -2.466689     -2.121046      1.648266
  H      -2.519975      0.835334     -0.862157
  C      -1.136918      1.340571      1.352683
  H      -3.725212     -1.264548     -1.392324
  H      -3.680325     -3.162749      0.207132
  H      -1.264175     -0.842877      2.898523
  H      -2.444210     -2.950860      2.348323
  N      -1.092704      2.530891      1.121757
  O      -0.307541      3.486463      1.320244
  O       0.454061      1.000035      2.389294
  S       1.582393      2.046885      2.160191
  N       2.484338      1.884818      0.910140
  C       2.408338      1.046128     -0.195266
  C       3.225201      1.394445     -1.286901
  C       3.223313      0.619036     -2.436654
  C       2.420243     -0.518385     -2.515210
  C       1.621294     -0.877782     -1.429496
  C       1.606833     -0.110039     -0.273862
  H       3.846337      2.281895     -1.211421
  H       3.852420      0.901665     -3.275843
  H       2.420740     -1.125357     -3.415774
  H       1.001959     -1.769027     -1.482108
  H       0.992525     -0.405856      0.567366
28
Coordinates from ORCA-job ./TS1_b E -1159.240077779210
  C      -3.159976     -1.175531     -0.466053
  C      -2.492028      0.003620     -0.169895
  C      -3.153882     -2.235448      0.440218
  C      -1.827058      0.131908      1.062147
  C      -1.822993     -0.932553      1.975396
  C      -2.482296     -2.111573      1.655128
  H      -2.477179      0.828039     -0.875722
  C      -1.134555      1.342808      1.362002
  H      -3.678638     -1.271960     -1.415343
  H      -3.670396     -3.159397      0.197260
  H      -1.301107     -0.827998      2.920285
  H      -2.476235     -2.936740      2.360971
  N      -1.088625      2.533936      1.134553
  O      -0.298060      3.485203      1.334998
  O       0.454949      0.995802      2.395297
  S       1.586624      2.039210      2.164398
  N       2.483625      1.877900      0.910745
  C       2.404521      1.041321     -0.196165
  C       3.206727      1.400325     -1.295134
  C       3.201059      0.627542     -2.446661
  C       2.409502     -0.518290     -2.519572
  C       1.625985     -0.888721     -1.426371
  C       1.615150     -0.123471     -0.269027
  H       3.819361      2.294013     -1.223946
  H       3.818526      0.918705     -3.291557
  H       2.407324     -1.123333     -3.421421
  H       1.016374     -1.786923     -1.474388
  H       1.013303     -0.428393      0.577857
28
Coordinates from ORCA-job ./TS1_b E -1159.240079927271
  C      -3.158407     -1.176804     -0.466242
  C      -2.491752      0.003065     -0.170026
  C      -3.148990     -2.237736      0.438823
  C      -1.824588      0.131085      1.060897
  C      -1.817327     -0.934376      1.973020
  C      -2.475369     -2.114080      1.652626
  H      -2.479623      0.828272     -0.874989
  C      -1.133914      1.342975      1.360916
  H      -3.678690     -1.272962     -1.414674
  H      -3.664509     -3.162228      0.195806
  H      -1.294023     -0.830147      2.917150
  H      -2.466741     -2.939963      2.357613
  N      -1.088720      2.533947      1.133311
  O      -0.300246      3.486829      1.333615
  O       0.456518      0.997813      2.395451
  S       1.587104      2.042106      2.164676
  N       2.484217      1.880313      0.911082
  C       2.402997      1.043145     -0.195280
  C       3.210799      1.395886     -1.292177
  C       3.203444      0.622115     -2.443035
  C       2.404290     -0.518335     -2.517398
  C       1.614696     -0.882342     -1.426403
  C       1.605584     -0.116088     -0.269708
  H       3.829231      2.285488     -1.219850
  H       3.825470      0.908328     -3.286283
  H       2.400808     -1.124144     -3.418736
  H       0.999033     -1.776338     -1.475649
  H       0.998710     -0.415823      0.575465
28
Coordinates from ORCA-job ./TS1_b E -1159.239985591259
  C      -3.379072     -1.129113     -0.355252
  C      -2.693921      0.046337     -0.086362
  C      -3.244602     -2.232930      0.486406
  C      -1.875449      0.126072      1.054700
  C      -1.742482     -0.982091      1.903817
  C      -2.424213     -2.155595      1.609961
  H      -2.782643      0.905254     -0.743810
  C      -1.174309      1.338765      1.327055
  H      -4.014269     -1.187087     -1.234268
  H      -3.777130     -3.152958      0.264363
  H      -1.106321     -0.915679      2.779071
  H      -2.317301     -3.013699      2.266819
  N      -1.136923      2.525507      1.077475
  O      -0.359895      3.490356      1.257159
  O       0.419359      1.016800      2.358753
  S       1.542996      2.069545      2.123998
  N       2.459311      1.907523      0.885042
  C       2.435147      1.053931     -0.209678
  C       3.289962      1.398444     -1.273478
  C       3.342154      0.609029     -2.412272
  C       2.555239     -0.538398     -2.508055
  C       1.717975     -0.893631     -1.450035
  C       1.650671     -0.112671     -0.305441
  H       3.897437      2.294067     -1.185019
  H       4.000719      0.888665     -3.229522
  H       2.597559     -1.155962     -3.400345
  H       1.110851     -1.792362     -1.515927
  H       1.009148     -0.408118      0.514844
28
Coordinates from ORCA-job ./TS1_b E -1159.240077987755
  C      -3.208796     -1.167041     -0.443285
  C      -2.537814      0.011903     -0.153561
  C      -3.169652     -2.237987      0.449155
  C      -1.834727      0.128706      1.058492
  C      -1.797572     -0.946757      1.958022
  C      -2.461231     -2.125094      1.643904
  H      -2.549517      0.844983     -0.849178
  C      -1.141676      1.340978      1.351788
  H      -3.756366     -1.254366     -1.377107
  H      -3.689227     -3.161481      0.211088
  H      -1.247548     -0.851367      2.887676
  H      -2.429265     -2.958513      2.339295
  N      -1.098804      2.531136      1.119966
  O      -0.314177      3.487617      1.316139
  O       0.450594      1.001645      2.385773
  S       1.578278      2.049408      2.155944
  N       2.480805      1.888233      0.906260
  C       2.410609      1.047329     -0.197714
  C       3.231288      1.394980     -1.286726
  C       3.235772      0.617093     -2.434785
  C       2.435401     -0.522177     -2.514245
  C       1.632500     -0.880803     -1.431171
  C       1.611704     -0.110565     -0.277315
  H       3.850381      2.283787     -1.210477
  H       3.867900      0.899180     -3.271882
  H       2.441061     -1.131128     -3.413451
  H       1.015511     -1.773635     -1.484493
  H       0.994569     -0.406066      0.561887
28
Coordinates from ORCA-job ./TS1_b E -1159.240074496837
  C      -3.116223     -1.184557     -0.483066
  C      -2.454054     -0.003503     -0.181241
  C      -3.131390     -2.237093      0.431556
  C      -1.817562      0.134309      1.064646
  C      -1.835069     -0.922732      1.986372
  C      -2.487473     -2.103985      1.660560
  H      -2.422280      0.815114     -0.893263
  C      -1.129429      1.346067      1.370521
  H      -3.613157     -1.288424     -1.443121
  H      -3.642760     -3.162770      0.184285
  H      -1.334465     -0.810686      2.941943
  H      -2.498150     -2.923548      2.372852
  N      -1.081494      2.537369      1.144426
  O      -0.288443      3.486420      1.347058
  O       0.458041      0.996014      2.405838
  S       1.592790      2.035264      2.171673
  N       2.484210      1.871479      0.914269
  C       2.395755      1.037785     -0.194234
  C       3.193678      1.396207     -1.296493
  C       3.178284      0.626894     -2.450251
  C       2.381092     -0.515069     -2.522318
  C       1.601942     -0.885189     -1.425911
  C       1.601015     -0.123428     -0.266228
  H       3.810642      2.286981     -1.226062
  H       3.792498      0.917821     -3.297602
  H       2.371233     -1.117372     -3.425950
  H       0.988103     -1.780577     -1.473154
  H       1.002666     -0.428790      0.582893
28
Coordinates from ORCA-job ./TS1_b E -1159.240080172934
  C      -3.173123     -1.174395     -0.459018
  C      -2.505192      0.005215     -0.164739
  C      -3.155825     -2.237857      0.442958
  C      -1.828345      0.130324      1.061216
  C      -1.813147     -0.937655      1.970261
  C      -2.472831     -2.116973      1.651757
  H      -2.499348      0.832416     -0.867429
  C      -1.136787      1.342230      1.359247
  H      -3.700748     -1.268293     -1.403616
  H      -3.672531     -3.162069      0.201421
  H      -1.282585     -0.835676      2.910553
  H      -2.458013     -2.944772      2.354392
  N      -1.092250      2.532976      1.130206
  O      -0.304289      3.486534      1.328934
  O       0.454351      0.998260      2.392399
  S       1.584216      2.043542      2.161668
  N       2.482632      1.882303      0.908991
  C       2.405392      1.044258     -0.196847
  C       3.217603      1.395854     -1.290889
  C       3.214429      0.621222     -2.441168
  C       2.414967     -0.518868     -2.517848
  C       1.620850     -0.881650     -1.429718
  C       1.607664     -0.114615     -0.273600
  H       3.836136      2.285238     -1.216814
  H       3.839899      0.906499     -3.282177
  H       2.414660     -1.125295     -3.418774
  H       1.004798     -1.775272     -1.480792
  H       0.997414     -0.413481      0.569426
28
Coordinates from ORCA-job ./TS1_b E -1159.240080177230
  C      -3.179059     -1.173154     -0.456229
  C      -2.510922      0.006512     -0.162668
  C      -3.157507     -2.238033      0.443981
  C      -1.829463      0.130289      1.060896
  C      -1.810030     -0.939104      1.968210
  C      -2.469999     -2.118444      1.650350
  H      -2.508534      0.834824     -0.864067
  C      -1.137975      1.342424      1.358155
  H      -3.710215     -1.265959     -1.398952
  H      -3.674406     -3.162274      0.202977
  H      -1.276076     -0.838188      2.906677
  H      -2.451867     -2.947291      2.351674
  N      -1.093681      2.533019      1.128495
  O      -0.306378      3.487174      1.326616
  O       0.453263      0.999497      2.391893
  S       1.583035      2.044737      2.160791
  N       2.482001      1.882950      0.908581
  C       2.405931      1.044520     -0.196999
  C       3.220230      1.395127     -1.289822
  C       3.218515      0.620060     -2.439803
  C       2.418377     -0.519492     -2.517436
  C       1.622091     -0.881268     -1.430552
  C       1.607498     -0.113821     -0.274734
  H       3.839256      2.284106     -1.215001
  H       3.845651      0.904576     -3.279829
  H       2.419205     -1.126268     -3.418129
  H       1.005476     -1.774462     -1.482365
  H       0.995581     -0.412059      0.567289
