! r2SCAN-3c TightSCF OptTS Freq CPCM(THF)  # OptTS VeryTightOpt Freq SP NMR
%geom inhess Read InHessName "TS1_a.hess" end

* xyz 0 1
 C   -3.45106989   0.38691483   1.01737736
 C   -2.41000675   1.30577042   0.91501252
 C   -3.48631802  -0.73094591   0.17702180
 C   -1.39813515   1.12192395  -0.04986707
 C   -1.43434835  -0.01148916  -0.88526354
 C   -2.47713025  -0.92824658  -0.76963447
 H   -2.36928916   2.17869857   1.57036587
 C   -0.32525327   2.07130348  -0.14691021
 H   -4.23903956   0.54142374   1.75866217
 H   -4.30357085  -1.45181339   0.26241646
 H   -0.64003871  -0.16209132  -1.61905570
 H   -2.50197666  -1.80284276  -1.42405086
 N   -0.06531822   3.21538567  -0.48266232
 O    0.88815587   4.01392084  -0.43829479
 N    1.50854578   1.47766510   0.66571462
 S    2.62979455   2.62994590   0.40248620
 O    3.68371409   2.35538615  -0.62960543
 C    1.70276477   0.11860994   0.29496606
 C    2.37165770  -0.30746218  -0.86894272
 C    1.15966191  -0.84298543   1.16684491
 C    2.49768132  -1.67189347  -1.13502013
 C    1.29351439  -2.20218391   0.89149329
 C    1.96210685  -2.62292367  -0.26200419
 H    2.80256517   0.43581654  -1.53913096
 H    0.63924726  -0.49774478   2.06328684
 H    3.02447794  -1.99377758  -2.03745408
 H    0.87142077  -2.93728569   1.58170340
 H    2.06618645  -3.68907929  -0.47945503
*
