19
Coordinates from ORCA-job mol E -1152.644137927515
  C       0.018298     -0.007352     -0.127706
  C       0.722379      1.170228     -0.312729
  C       0.584854     -1.139066      0.444188
  C       2.060914      1.211267      0.097489
  C       2.657539      0.077867      0.680300
  C       1.915118     -1.082203      0.846486
  H       0.241052      2.029356     -0.763297
  C       2.826362      2.390385     -0.066756
  N      -1.398854     -0.056185     -0.559357
  H      -0.011969     -2.034876      0.565585
  H       3.694484      0.131643      0.994568
  H       2.378656     -1.954222      1.296231
  N       3.538295      3.302932     -0.162937
  O       4.303796      4.235641     -0.241363
  O       5.488076      1.948075      1.491696
  S       6.445870      2.940262      0.957635
  O       7.197106      2.552788     -0.245638
  O      -1.870133      0.955475     -1.059321
  O      -2.001832     -1.105656     -0.386256
19
Coordinates from ORCA-job mol E -1152.644208887082
  C       0.018073     -0.007266     -0.127513
  C       0.724053      1.169678     -0.312272
  C       0.582037     -1.140917      0.444590
  C       2.061950      1.207061      0.098680
  C       2.656367      0.072046      0.681053
  C       1.912054     -1.086924      0.847153
  H       0.246665      2.031129     -0.762772
  C       2.828308      2.385873     -0.065998
  N      -1.397752     -0.053100     -0.559391
  H      -0.014795     -2.036824      0.566553
  H       3.693584      0.121897      0.994443
  H       2.373787     -1.960083      1.296501
  N       3.537681      3.299232     -0.163572
  O       4.301539      4.235748     -0.245198
  O       5.496124      1.956599      1.493600
  S       6.447990      2.952929      0.957077
  O       7.198970      2.561267     -0.246202
  O      -1.870802      0.958850     -1.058535
  O      -2.005822     -1.100836     -0.389376
19
Coordinates from ORCA-job mol E -1152.644242891335
  C       0.016866     -0.007024     -0.127012
  C       0.726247      1.168216     -0.311586
  C       0.576616     -1.143170      0.444950
  C       2.063964      1.199776      0.099849
  C       2.654689      0.062820      0.681666
  C       1.906708     -1.093940      0.847711
  H       0.254591      2.033010     -0.761560
  C       2.832597      2.377363     -0.064970
  N      -1.396582     -0.047951     -0.558380
  H      -0.020885     -2.038481      0.567981
  H       3.692196      0.107069      0.995091
  H       2.365220     -1.968757      1.296995
  N       3.538490      3.292588     -0.164707
  O       4.298733      4.233923     -0.249673
  O       5.507605      1.969068      1.495469
  S       6.449574      2.972725      0.955649
  O       7.201764      2.578512     -0.247463
  O      -1.868894      0.965285     -1.057555
  O      -2.009490     -1.094672     -0.393636
19
Coordinates from ORCA-job mol E -1152.644193726335
  C       0.016634     -0.008347     -0.130923
  C       0.729478      1.165083     -0.314907
  C       0.572301     -1.145911      0.442420
  C       2.066809      1.192108      0.098475
  C       2.653595      0.054114      0.681397
  C       1.902053     -1.100506      0.847020
  H       0.263069      2.032269     -0.765506
  C       2.838012      2.368170     -0.065928
  N      -1.394600     -0.045567     -0.564050
  H      -0.026114     -2.040465      0.565980
  H       3.690801      0.094062      0.996559
  H       2.357186     -1.976491      1.297385
  N       3.540544      3.285591     -0.167445
  O       4.297273      4.230401     -0.254681
  O       5.515927      1.982039      1.499758
  S       6.448935      2.992346      0.957038
  O       7.205131      2.597207     -0.244144
  O      -1.870453      0.975331     -1.045099
  O      -2.016570     -1.085073     -0.384530
19
Coordinates from ORCA-job mol E -1152.644261243068
  C       0.015047     -0.007143     -0.127441
  C       0.728975      1.165552     -0.311732
  C       0.570691     -1.145357      0.444447
  C       2.067018      1.191270      0.100029
  C       2.653511      0.052667      0.681724
  C       1.901027     -1.101314      0.847546
  H       0.262822      2.033425     -0.761191
  C       2.839206      2.366583     -0.064492
  N      -1.397101     -0.042817     -0.558464
  H      -0.028295     -2.039444      0.568280
  H       3.691046      0.091593      0.995953
  H       2.355877     -1.977960      1.296932
  N       3.541221      3.284478     -0.166843
  O       4.297576      4.228965     -0.254698
  O       5.518571      1.983336      1.498866
  S       6.449427      2.994864      0.954628
  O       7.205353      2.601309     -0.247114
  O      -1.867547      0.973861     -1.053335
  O      -2.014415     -1.087507     -0.394272
19
Coordinates from ORCA-job mol E -1152.644270387762
  C       0.014259     -0.007076     -0.127074
  C       0.729764      1.164599     -0.311370
  C       0.568925     -1.145881      0.444499
  C       2.068074      1.188726      0.099951
  C       2.653383      0.049504      0.681450
  C       1.899417     -1.103533      0.847302
  H       0.264637      2.033181     -0.760543
  C       2.841812      2.362917     -0.064510
  N      -1.398399     -0.040976     -0.557661
  H      -0.031031     -2.039311      0.568417
  H       3.691008      0.087148      0.995638
  H       2.353220     -1.980831      1.296483
  N       3.542369      3.281858     -0.168023
  O       4.298176      4.226347     -0.256570
  O       5.521673      1.987884      1.500540
  S       6.449003      3.001695      0.954376
  O       7.206754      2.609418     -0.246505
  O      -1.867121      0.976306     -1.052594
  O      -2.015914     -1.085616     -0.394986
19
Coordinates from ORCA-job mol E -1152.644290754855
  C       0.011328     -0.007038     -0.126190
  C       0.733635      1.160234     -0.310515
  C       0.560900     -1.148777      0.444278
  C       2.072786      1.176819      0.099180
  C       2.652464      0.034573      0.679941
  C       1.891912     -1.114189      0.846017
  H       0.273433      2.032009     -0.758671
  C       2.853596      2.345928     -0.065033
  N      -1.402914     -0.032882     -0.555321
  H      -0.043531     -2.039180      0.568538
  H       3.690469      0.066281      0.993892
  H       2.340819     -1.994338      1.294518
  N       3.547012      3.269657     -0.174094
  O       4.300720      4.214853     -0.265758
  O       5.536543      2.009396      1.508792
  S       6.447141      3.034060      0.954200
  O       7.213258      2.646291     -0.242528
  O      -1.865881      0.988237     -1.046798
  O      -2.023680     -1.075573     -0.395626
19
Coordinates from ORCA-job mol E -1152.644294686140
  C       0.010575     -0.007142     -0.125944
  C       0.734774      1.158835     -0.310559
  C       0.558260     -1.149972      0.444145
  C       2.074101      1.172936      0.098393
  C       2.651985      0.029517      0.678834
  C       1.889485     -1.117893      0.845268
  H       0.275689      2.031367     -0.758423
  C       2.857442      2.340236     -0.065880
  N      -1.404150     -0.030374     -0.554447
  H      -0.048006     -2.039128      0.568487
  H       3.690226      0.059586      0.992233
  H       2.336957     -1.998898      1.293537
  N       3.548144      3.265665     -0.177127
  O       4.301720      4.211129     -0.269484
  O       5.542147      2.016514      1.512322
  S       6.446951      3.045142      0.955387
  O       7.216335      2.658577     -0.239602
  O      -1.865903      0.992100     -1.044092
  O      -2.026723     -1.071837     -0.394227
19
Coordinates from ORCA-job mol E -1152.644296946815
  C       0.010116     -0.007264     -0.125564
  C       0.735343      1.157954     -0.310809
  C       0.556371     -1.150972      0.444159
  C       2.074813      1.170273      0.097198
  C       2.651547      0.025863      0.677253
  C       1.887899     -1.120613      0.844355
  H       0.276373      2.030675     -0.758452
  C       2.860141      2.336155     -0.067323
  N      -1.404996     -0.028677     -0.553228
  H      -0.051615     -2.038945      0.568597
  H       3.690120      0.055136      0.989652
  H       2.334638     -2.002121      1.292369
  N       3.548646      3.262895     -0.180473
  O       4.302474      4.208565     -0.272849
  O       5.546654      2.021117      1.515415
  S       6.447231      3.053126      0.957774
  O       7.219726      2.667638     -0.235591
  O      -1.866177      0.994488     -1.042006
  O      -2.029296     -1.068932     -0.391658
19
Coordinates from ORCA-job mol E -1152.644297501729
  C       0.010075     -0.007275     -0.125294
  C       0.735279      1.157930     -0.310995
  C       0.556140     -1.151156      0.444281
  C       2.074836      1.169968      0.096490
  C       2.651515      0.025338      0.676362
  C       1.887860     -1.121003      0.843907
  H       0.275800      2.030411     -0.758579
  C       2.860567      2.335550     -0.068255
  N      -1.405165     -0.028453     -0.552444
  H      -0.052391     -2.038738      0.568812
  H       3.690263      0.054768      0.988172
  H       2.334737     -2.002503      1.291797
  N       3.548634      3.262538     -0.181919
  O       4.302604      4.208242     -0.273883
  O       5.547202      2.021079      1.515986
  S       6.447272      3.054091      0.959444
  O       7.221070      2.669382     -0.233363
  O      -1.866318      0.994500     -1.041786
  O      -2.029971     -1.068309     -0.389914
