17
Coordinates from ORCA-job mol_NEB-HEI_converged
  C   -2.48954056756294     -0.51812140316055      0.13487611051177
  C   -1.55877376605532      0.49022800313526     -0.12870289180990
  C   -2.05140010687099     -1.81921666623399      0.42073628149882
  C   -0.19309793475367      0.17517238855626     -0.07463407714227
  C   0.25658034885370     -1.13654371532656      0.14955874509391
  C   -0.68270336470289     -2.12959342212896      0.42630870176293
  H   -1.87458566022988      1.49696255236285     -0.37444499164985
  C   0.91304025479813      1.32719868529938     -0.01325833363702
  H   -3.55025452179544     -0.29381530430175      0.11266743609921
  H   -2.77834001008310     -2.59799981206354      0.62540401681792
  H   1.31764298457254     -1.35541164065126      0.12050445164686
  H   -0.35301460629085     -3.14100683290855      0.63547883078968
  N   0.92021338638193      1.26841725845360     -1.29195214707036
  O   2.62451736800927      2.52833416366335     -1.54882078245735
  O   1.50006635879179      1.82897401962129      0.99080061974783
  S   3.51497643396159      2.57784902079516     -0.16039004907080
  O   4.48467340297614      1.29857270488801     -0.02413192113138
