-------------------------------------------------------------
----------------------- !PROPERTIES! ------------------------
-------------------------------------------------------------
# -----------------------------------------------------------
$ PAL_Flags
   description: The PAL Flags
   geom. index: 1
   prop. index: 1
        Diskflag:     2
# -----------------------------------------------------------
$ SCF_Energy
   description: The SCF energy
   geom. index: 1
   prop. index: 1
        SCF Energy:    -1154.3189912099
# -----------------------------------------------------------
$ Solvation_Details
   description: Details concerning solvation
   geom. index: 1
   prop. index: 1
     Epsilon:                7.2500000000
     Refrac:                 1.4070000000
     RSolv:                  1.3000000000
     Surface Type:                      2
     Number of Points:               1542
     Surface Area:        1022.5960821558
     Dielectric Energy:     -0.0185751742
# -----------------------------------------------------------
$ Mayer_Pop
   description: The Mayer population analysis
   geom. index: 1
   prop. index: 1
     Number of atoms                     : 28
     Threshold for printing              : 0.1000000
     Number of bond orders printed       : 31
  NA   - Mulliken gross atomic population
  ZA   - Total nuclear charge
  QA   - Mulliken gross atomic charge
  VA   - Mayer's total valence
  BVA  - Mayer's bonded valence
  FA   - Mayer's free valence
  ATOM       NA         ZA         QA         VA         BVA        FA
  0   0     6.1563     6.0000    -0.1563     3.7611     3.7611    -0.0000
  1   0     6.1486     6.0000    -0.1486     3.8259     3.8259     0.0000
  2   0     6.1592     6.0000    -0.1592     3.7935     3.7935    -0.0000
  3   0     5.9379     6.0000     0.0621     3.7377     3.7377    -0.0000
  4   0     6.1525     6.0000    -0.1525     3.7950     3.7950    -0.0000
  5   0     6.1602     6.0000    -0.1602     3.7637     3.7637    -0.0000
  6   0     0.8155     1.0000     0.1845     0.9790     0.9790    -0.0000
  7   0     5.8658     6.0000     0.1342     3.7940     3.7940    -0.0000
  8   0     0.8148     1.0000     0.1852     0.9654     0.9654    -0.0000
  9   0     0.8134     1.0000     0.1866     0.9663     0.9663    -0.0000
 10   0     0.8083     1.0000     0.1917     0.9795     0.9795    -0.0000
 11   0     0.8148     1.0000     0.1852     0.9656     0.9656    -0.0000
 12   0     6.8542     7.0000     0.1458     3.5546     3.5546    -0.0000
 13   0     8.5590     8.0000    -0.5590     1.6373     1.6373    -0.0000
 14   0     8.5844     8.0000    -0.5844     1.8581     1.8581     0.0000
 15   0    15.2206    16.0000     0.7794     3.5766     3.5766    -0.0000
 16   0     7.3630     7.0000    -0.3630     2.9987     2.9987     0.0000
 17   0     5.8338     6.0000     0.1662     3.7994     3.7994    -0.0000
 18   0     6.1577     6.0000    -0.1577     3.8035     3.8035    -0.0000
 19   0     6.1697     6.0000    -0.1697     3.7733     3.7733     0.0000
 20   0     6.1587     6.0000    -0.1587     3.7905     3.7905     0.0000
 21   0     6.1721     6.0000    -0.1721     3.7779     3.7779    -0.0000
 22   0     6.2175     6.0000    -0.2175     3.7637     3.7637     0.0000
 23   0     0.8193     1.0000     0.1807     0.9829     0.9829    -0.0000
 24   0     0.8171     1.0000     0.1829     0.9657     0.9657     0.0000
 25   0     0.8163     1.0000     0.1837     0.9670     0.9670    -0.0000
 26   0     0.8155     1.0000     0.1845     0.9677     0.9677    -0.0000
 27   0     0.7937     1.0000     0.2063     0.9728     0.9728     0.0000
      Bond orders larger than 0.1000000
           Atom A     A.N. of A          Atom B    A.N. of B              Bond order
                0             6               1            6                1.385891
                0             6               2            6                1.354238
                0             6               8            1                0.967322
                1             6               3            6                1.302433
                1             6               6            1                0.963021
                2             6               5            6                1.361996
                2             6               9            1                0.967564
                3             6               4            6                1.326298
                3             6               7            6                1.048189
                4             6               5            6                1.378470
                4             6              10            1                0.958594
                5             6              11            1                0.968323
                7             6              12            7                2.231691
                7             6              13            8                0.180260
                7             6              14            8                0.304993
               12             7              13            8                1.223137
               13             8              15           16                0.147047
               14             8              15           16                1.425736
               15            16              16            7                1.827016
               16             7              17            6                1.047398
               17             6              18            6                1.320028
               17             6              22            6                1.318698
               18             6              19            6                1.388840
               18             6              23            1                0.961845
               19             6              20            6                1.358340
               19             6              24            1                0.967189
               20             6              21            6                1.360128
               20             6              25            1                0.969035
               21             6              22            6                1.378713
               21             6              26            1                0.966118
               22             6              27            1                0.945892
# -----------------------------------------------------------
$ MDCI_Energies
   description: The MDCI energies
   geom. index: 1
   prop. index: 1
        Total number of Electrons                                                    134
        Number of correlated Electrons                                                90
        Number of alpha correlated Electrons                                          45
        Number of beta correlated Electrons                                           45
        Reference Energy:                                               -1154.3189911686
        Total Correlation Energy:                                          -3.3089063100
        Alpha-Alpha Pairs Correlation Energy (No (T))                       0.0000000000
        Beta-Beta Pairs Correlation Energy (No (T))                         0.0000000000
        Alpha-Beta Pairs Correlation Energy (No (T))                        0.0000000000
        Singlet pairs energy of double amplitudes (No (T))                  0.0000000000
        Triplet pairs energy of double amplitudes (No (T))                  0.0000000000
        Singlet pairs energy of quadratic single amplitudes (No (T))        0.0000000000
        Triplet pairs energy of quadratic single amplitudes (No (T))        0.0000000000
        Triples Correction Energy:                                         -0.1726059028
        Total MDCI Energy:                                              -1157.6278974787
# -----------------------------------------------------------
$ PAL_Flags
   description: The PAL Flags
   geom. index: 2
   prop. index: 1
        Diskflag:     2
# -----------------------------------------------------------
$ SCF_Energy
   description: The SCF energy
   geom. index: 2
   prop. index: 1
        SCF Energy:    -1154.3767898574
# -----------------------------------------------------------
$ Solvation_Details
   description: Details concerning solvation
   geom. index: 2
   prop. index: 1
     Epsilon:                7.2500000000
     Refrac:                 1.4070000000
     RSolv:                  1.3000000000
     Surface Type:                      2
     Number of Points:               1542
     Surface Area:        1022.5960821558
     Dielectric Energy:     -0.0186859969
# -----------------------------------------------------------
$ Mayer_Pop
   description: The Mayer population analysis
   geom. index: 2
   prop. index: 1
     Number of atoms                     : 28
     Threshold for printing              : 0.1000000
     Number of bond orders printed       : 31
  NA   - Mulliken gross atomic population
  ZA   - Total nuclear charge
  QA   - Mulliken gross atomic charge
  VA   - Mayer's total valence
  BVA  - Mayer's bonded valence
  FA   - Mayer's free valence
  ATOM       NA         ZA         QA         VA         BVA        FA
  0   0     6.1433     6.0000    -0.1433     3.7703     3.7703    -0.0000
  1   0     6.1473     6.0000    -0.1473     3.8464     3.8464    -0.0000
  2   0     6.1572     6.0000    -0.1572     3.8226     3.8226     0.0000
  3   0     6.0354     6.0000    -0.0354     3.7634     3.7634    -0.0000
  4   0     6.1632     6.0000    -0.1632     3.7880     3.7880    -0.0000
  5   0     6.1446     6.0000    -0.1446     3.7805     3.7805     0.0000
  6   0     0.8134     1.0000     0.1866     0.9872     0.9872    -0.0000
  7   0     5.7158     6.0000     0.2842     3.7140     3.7140     0.0000
  8   0     0.8049     1.0000     0.1951     0.9657     0.9657     0.0000
  9   0     0.8027     1.0000     0.1973     0.9672     0.9672     0.0000
 10   0     0.8095     1.0000     0.1905     0.9912     0.9912    -0.0000
 11   0     0.8072     1.0000     0.1928     0.9670     0.9670     0.0000
 12   0     6.9338     7.0000     0.0662     3.4973     3.4973     0.0000
 13   0     8.5732     8.0000    -0.5732     1.6309     1.6309     0.0000
 14   0     8.6384     8.0000    -0.6384     1.8083     1.8083    -0.0000
 15   0    15.0797    16.0000     0.9203     3.5810     3.5810    -0.0000
 16   0     7.5314     7.0000    -0.5314     2.9140     2.9140    -0.0000
 17   0     5.8562     6.0000     0.1438     3.8289     3.8289     0.0000
 18   0     6.1416     6.0000    -0.1416     3.8208     3.8208     0.0000
 19   0     6.1688     6.0000    -0.1688     3.8128     3.8128     0.0000
 20   0     6.1445     6.0000    -0.1445     3.7982     3.7982     0.0000
 21   0     6.1857     6.0000    -0.1857     3.7948     3.7948     0.0000
 22   0     6.1629     6.0000    -0.1629     3.7672     3.7672     0.0000
 23   0     0.8081     1.0000     0.1919     0.9872     0.9872     0.0000
 24   0     0.8045     1.0000     0.1955     0.9633     0.9633    -0.0000
 25   0     0.8081     1.0000     0.1919     0.9698     0.9698    -0.0000
 26   0     0.8060     1.0000     0.1940     0.9676     0.9676    -0.0000
 27   0     0.8125     1.0000     0.1875     0.9905     0.9905     0.0000
      Bond orders larger than 0.1000000
           Atom A     A.N. of A          Atom B    A.N. of B              Bond order
                0             6               1            6                1.411369
                0             6               2            6                1.379279
                0             6               8            1                0.968193
                1             6               3            6                1.288080
                1             6               6            1                0.976285
                2             6               5            6                1.390610
                2             6               9            1                0.970583
                3             6               4            6                1.305021
                3             6               7            6                1.112684
                4             6               5            6                1.406943
                4             6              10            1                0.972896
                5             6              11            1                0.969346
                7             6              12            7                2.148227
                7             6              13            8                0.150955
                7             6              14            8                0.310916
               12             7              13            8                1.230241
               13             8              15           16                0.160788
               14             8              15           16                1.428306
               15            16              16            7                1.825156
               16             7              17            6                1.032896
               17             6              18            6                1.341639
               17             6              22            6                1.334366
               18             6              19            6                1.414441
               18             6              23            1                0.964204
               19             6              20            6                1.386771
               19             6              24            1                0.964054
               20             6              21            6                1.379280
               20             6              25            1                0.973118
               21             6              22            6                1.392123
               21             6              26            1                0.965063
               22             6              27            1                0.970268
# -----------------------------------------------------------
$ MDCI_Energies
   description: The MDCI energies
   geom. index: 2
   prop. index: 1
        Total number of Electrons                                                    134
        Number of correlated Electrons                                                90
        Number of alpha correlated Electrons                                          45
        Number of beta correlated Electrons                                           45
        Reference Energy:                                               -1154.3767900944
        Total Correlation Energy:                                          -3.4963155475
        Alpha-Alpha Pairs Correlation Energy (No (T))                       0.0000000000
        Beta-Beta Pairs Correlation Energy (No (T))                         0.0000000000
        Alpha-Beta Pairs Correlation Energy (No (T))                        0.0000000000
        Singlet pairs energy of double amplitudes (No (T))                  0.0000000000
        Triplet pairs energy of double amplitudes (No (T))                  0.0000000000
        Singlet pairs energy of quadratic single amplitudes (No (T))        0.0000000000
        Triplet pairs energy of quadratic single amplitudes (No (T))        0.0000000000
        Triples Correction Energy:                                         -0.1870538032
        Total MDCI Energy:                                              -1157.8731056419
# -----------------------------------------------------------
$ Energy_Extrapolation
   description: The Extrapolation of the energies
   geom. index: 2
   prop. index: 1
       Do EP1                            : 1 
       Do EP2                            : 0 
       Do EP3                            : 0 
       Number of energies                : 2 
       SCF energy with basis  cc-pVTZ :  -1154.3189911686 
       SCF energy with basis  cc-pVQZ :  -1154.3767900944 
       CBS SCF Energy                    :  -1154.3942051375 
       Correlation energy with basis  cc-pVTZ :  -1154.3189911686 
       Correlation energy with basis  cc-pVQZ :  -1154.3767900944 
       CBS Correlation Energy            :     -3.6297302128 
       CBS Total Energy                  :  -1158.0239353503 
# -----------------------------------------------------------
$ Calculation_Info
   description: Details of the calculation
   geom. index: 2
   prop. index: 1
     Multiplicity:                          1
     Charge:                                0
     number of atoms:                       28
     number of electrons:                   134
     number of frozen core electrons:       1
     number of correlated electrons:        0
     number of basis functions:             684
     number of aux C basis functions:       2952
     number of aux J basis functions:       0
     number of aux JK basis functions:      0
     number of aux CABS basis functions:    0
     Total Energy                           0.000000
# -----------------------------------------------------------
$ SCF_Electric_Properties
   description: The SCF Calculated Electric Properties
   geom. index: 2
   prop. index: 1
       Filename                          : /scratch/obeletsan/orcajob__14459-7Ff7/ts1_thf.scfp 
       Do Dipole Moment Calculation      : true 
       Do Quadrupole Moment Calculation  : false 
       Do Polarizability Calculation     : false 
** Dipole moment part of electric properties **
        Magnitude of dipole moment (Debye) :        7.6914454726
        Electronic Contribution:
                  0    
      0       3.169809
      1       9.612167
      2       8.819602
        Nuclear Contribution:
                  0    
      0      -3.341115
      1     -12.472064
      2      -9.793377
        Total Dipole moment:
                  0    
      0      -0.171305
      1      -2.859897
      2      -0.973774
# -------------------------------------------------------------
----------------------- !GEOMETRIES! ------------------------
# -------------------------------------------------------------
------------------------ !GEOMETRY! -------------------------
    Number of atoms:    28 
    Geometry Index:     1 
    Coordinates:
               0 C     -3.179059000000   -1.173154000000   -0.456229000000
               1 C     -2.510922000000    0.006512000000   -0.162668000000
               2 C     -3.157507000000   -2.238033000000    0.443981000000
               3 C     -1.829463000000    0.130289000000    1.060896000000
               4 C     -1.810030000000   -0.939104000000    1.968210000000
               5 C     -2.469999000000   -2.118444000000    1.650350000000
               6 H     -2.508534000000    0.834824000000   -0.864067000000
               7 C     -1.137975000000    1.342424000000    1.358155000000
               8 H     -3.710215000000   -1.265959000000   -1.398952000000
               9 H     -3.674406000000   -3.162274000000    0.202977000000
              10 H     -1.276076000000   -0.838188000000    2.906677000000
              11 H     -2.451867000000   -2.947291000000    2.351674000000
              12 N     -1.093681000000    2.533019000000    1.128495000000
              13 O     -0.306378000000    3.487174000000    1.326616000000
              14 O      0.453263000000    0.999497000000    2.391893000000
              15 S      1.583035000000    2.044737000000    2.160791000000
              16 N      2.482001000000    1.882950000000    0.908581000000
              17 C      2.405931000000    1.044520000000   -0.196999000000
              18 C      3.220230000000    1.395127000000   -1.289822000000
              19 C      3.218515000000    0.620060000000   -2.439803000000
              20 C      2.418377000000   -0.519492000000   -2.517436000000
              21 C      1.622091000000   -0.881268000000   -1.430552000000
              22 C      1.607498000000   -0.113821000000   -0.274734000000
              23 H      3.839256000000    2.284106000000   -1.215001000000
              24 H      3.845651000000    0.904576000000   -3.279829000000
              25 H      2.419205000000   -1.126268000000   -3.418129000000
              26 H      1.005476000000   -1.774462000000   -1.482365000000
              27 H      0.995581000000   -0.412059000000    0.567289000000
------------------------ !GEOMETRY! -------------------------
    Number of atoms:    28 
    Geometry Index:     2 
    Coordinates:
               0 C     -3.179059000000   -1.173154000000   -0.456229000000
               1 C     -2.510922000000    0.006512000000   -0.162668000000
               2 C     -3.157507000000   -2.238033000000    0.443981000000
               3 C     -1.829463000000    0.130289000000    1.060896000000
               4 C     -1.810030000000   -0.939104000000    1.968210000000
               5 C     -2.469999000000   -2.118444000000    1.650350000000
               6 H     -2.508534000000    0.834824000000   -0.864067000000
               7 C     -1.137975000000    1.342424000000    1.358155000000
               8 H     -3.710215000000   -1.265959000000   -1.398952000000
               9 H     -3.674406000000   -3.162274000000    0.202977000000
              10 H     -1.276076000000   -0.838188000000    2.906677000000
              11 H     -2.451867000000   -2.947291000000    2.351674000000
              12 N     -1.093681000000    2.533019000000    1.128495000000
              13 O     -0.306378000000    3.487174000000    1.326616000000
              14 O      0.453263000000    0.999497000000    2.391893000000
              15 S      1.583035000000    2.044737000000    2.160791000000
              16 N      2.482001000000    1.882950000000    0.908581000000
              17 C      2.405931000000    1.044520000000   -0.196999000000
              18 C      3.220230000000    1.395127000000   -1.289822000000
              19 C      3.218515000000    0.620060000000   -2.439803000000
              20 C      2.418377000000   -0.519492000000   -2.517436000000
              21 C      1.622091000000   -0.881268000000   -1.430552000000
              22 C      1.607498000000   -0.113821000000   -0.274734000000
              23 H      3.839256000000    2.284106000000   -1.215001000000
              24 H      3.845651000000    0.904576000000   -3.279829000000
              25 H      2.419205000000   -1.126268000000   -3.418129000000
              26 H      1.005476000000   -1.774462000000   -1.482365000000
              27 H      0.995581000000   -0.412059000000    0.567289000000
