19
Coordinates from ORCA-job mol
  C   0.13200573274430      0.08832684508310      0.34014868968928
  C   1.11531278881106      1.00568978531119      0.00184710622562
  C   0.48050690676033     -1.24520281984962      0.51505338356591
  C   2.45688766793898      0.63359324387893     -0.13264231314843
  C   2.78790186537666     -0.70869130940417      0.05966846428831
  C   1.80490707765560     -1.64299583968523      0.36483777944737
  N   0.68252609063691      2.38447426419993     -0.30133134941595
  C   3.54228111710966      1.59028453436424     -0.39047497946020
  H   -0.89281803795442      0.42756456258163      0.43854214670140
  H   -0.28600907194728     -1.97199670645651      0.76423925308121
  H   3.82915269033733     -1.00234192599536     -0.02086258131197
  H   2.08070065948063     -2.68388073944956      0.50139025199573
  N   4.46453640234235      1.36442398181389     -1.24860193629264
  O   5.38473069915249      2.42434538256573     -1.21651940854178
  O   3.61773656496439      2.70530642139475      0.39127127702854
  S   5.18680727514308      3.42149142029003      0.19139880256907
  O   6.03903741272474      2.90402638946054      1.26412748967449
  O   -0.31355767658862      2.79891540625412      0.27375807116293
  O   1.33104083531178      2.99956910364236     -1.13670214725890
