!DLPNO-CCSD(T) Extrapolate(3/4,cc) cc-pVQZ/C TightPNO TightSCF 
!CPCM(Benzene)
%geom maxiter 300 end
%maxcore 4000 
%pal nprocs 36
end

*xyz 0 1
6        1.772864000     -0.419432000      0.368653000
6        2.858257000      0.372534000      0.035862000
6        1.983105000     -1.764239000      0.655704000
6        4.140574000     -0.185067000     -0.007384000
6        4.335304000     -1.542128000      0.286356000
6        3.252273000     -2.335306000      0.619055000
1        2.726781000      1.424481000     -0.193489000
6        6.395579000      0.521735000     -0.487947000
1        0.771839000     -0.006889000      0.406732000
7        0.834730000     -2.606370000      1.005606000
1        5.334072000     -1.967016000      0.251115000
1        3.381067000     -3.386441000      0.848325000
7        5.199672000      0.649418000     -0.349632000
8        7.551487000      0.544714000     -0.657962000
8       -0.274497000     -2.081661000      1.031053000
8        1.045805000     -3.789853000      1.253552000

*
