17
Coordinates from ORCA-job orca
  C   -0.06696306610630      0.05754580993330     -0.21522708571126
  C   0.69395394865494      1.20913296108349     -0.35066223840456
  C   0.48137711180425     -1.08277914878254      0.36769915254968
  C   2.02205463793459      1.21576801980497      0.10404540601293
  C   2.57813731716787      0.06783836886202      0.69290456546742
  C   1.79956226402697     -1.07310276778505      0.81857697044636
  H   0.27549268326305      2.10175455100894     -0.80394424788948
  C   2.82267774832927      2.37620782995352     -0.02253172221681
  H   -1.09407295338973      0.05014261637317     -0.56689003655026
  H   -0.12024218042394     -1.98084247222959      0.47027486082399
  H   3.60616138764479      0.09705161361216      1.03869395835957
  H   2.22663582892703     -1.96203451320919      1.27262118633186
  N   3.50973230319083      3.30493764943832     -0.12342687943034
  O   4.29633970671314      4.23465134589283     -0.18193200082620
  O   5.39278165070829      1.88376393286538      1.49226615723980
  Se  6.39401724554236      3.03809009099117      0.92039821427464
  O   7.19095436601225      2.57837411218699     -0.41546626047737
