17
Coordinates from ORCA-job orca
  C   -0.08289696098611      0.07300209730851     -0.20185258311479
  C   0.70265518893932      1.20800410058313     -0.34168719717896
  C   0.44502997097247     -1.08196996788628      0.37263906058939
  C   2.03512423628626      1.17970038614431      0.10004792012900
  C   2.57129417706661      0.01776125504653      0.68019979572882
  C   1.76790522420741     -1.10562227650423      0.81103409655520
  H   0.30094945787739      2.11199849297801     -0.78762698394210
  C   2.85867203562627      2.32337460705470     -0.03104488437186
  H   -1.11347953401847      0.09049661403453     -0.54310713609575
  H   -0.17659968880859     -1.96600645072696      0.47885546310877
  H   3.60273821462514      0.01848431291380      1.01700027319139
  H   2.17821383972255     -2.00566899748701      1.25874311002592
  N   3.53284805267184      3.25778906363511     -0.15327247627557
  O   4.31504157291708      4.19613094355022     -0.22503051979658
  O   5.45992661973328      1.94199608267182      1.51386953857252
  Se  6.39079456173251      3.15192789943830      0.93622669660143
  O   7.22038303143469      2.70510183724539     -0.38759417372688
