17
Coordinates from ORCA-job neb1_NEB-HEI_converged
  C   -2.32484728336215     -0.77082546454620     -0.45099493676767
  C   -1.47034455796646      0.31660924553077     -0.52867996954439
  C   -1.92397955756068     -1.98048917210363      0.11055418228737
  C   -0.16253000842769      0.17843332919627     -0.03009979352599
  C   0.25951579004174     -1.03101763895991      0.53579434109173
  C   -0.62833708686408     -2.09542371059120      0.60150067408474
  H   -1.80110932882137      1.25126483675508     -0.96639622912163
  C   0.73307878482947      1.28405483842919     -0.10132144438181
  Cl  -3.95185228018753     -0.61449024083516     -1.07339903881172
  H   -2.61724253322833     -2.81308488795793      0.15967808322181
  H   1.27055114817120     -1.11598812712689      0.91378413842168
  H   -0.30625547818995     -3.03404390641673      1.04091229209244
  N   0.91932698162778      2.40674432534810     -0.50419696286907
  O   1.80428190723186      3.28375789921471     -0.46424749288401
  O   2.43151844559060      1.03775131641603      0.93535756636021
  S   3.49114288262160      2.05188919203813      0.50014859428420
  O   4.27708217449398      1.64485816560936     -0.67839400393789
