17
Coordinates from ORCA-job mol E -1407.710462293226
  C      -2.324847     -0.770825     -0.450995
  C      -1.470345      0.316609     -0.528680
  C      -1.923980     -1.980489      0.110554
  C      -0.162530      0.178433     -0.030100
  C       0.259516     -1.031018      0.535794
  C      -0.628337     -2.095424      0.601501
  H      -1.801109      1.251265     -0.966396
  C       0.733079      1.284055     -0.101321
  Cl     -3.951852     -0.614490     -1.073399
  H      -2.617243     -2.813085      0.159678
  H       1.270551     -1.115988      0.913784
  H      -0.306255     -3.034044      1.040912
  N       0.919327      2.406744     -0.504197
  O       1.804282      3.283758     -0.464247
  O       2.431518      1.037751      0.935358
  S       3.491143      2.051889      0.500149
  O       4.277082      1.644858     -0.678394
17
Coordinates from ORCA-job mol E -1407.708358350622
  C      -2.302382     -0.760638     -0.441738
  C      -1.451792      0.329125     -0.523720
  C      -1.889906     -1.974210      0.102651
  C      -0.136750      0.189794     -0.046870
  C       0.297681     -1.023224      0.502135
  C      -0.586361     -2.090551      0.571986
  H      -1.790976      1.267030     -0.947972
  C       0.752622      1.298680     -0.125536
  Cl     -3.939154     -0.601883     -1.036687
  H      -2.580425     -2.808666      0.155217
  H       1.315043     -1.109264      0.862737
  H      -0.255061     -3.032515      0.997327
  N       0.931664      2.422019     -0.529556
  O       1.820255      3.293955     -0.487056
  O       2.324224      1.221827      1.153287
  S       3.444855      2.019607      0.482902
  O       4.046463      1.358914     -0.689109
17
Coordinates from ORCA-job mol E -1407.706606480718
  C      -2.308071     -0.772781     -0.458215
  C      -1.483431      0.338977     -0.498832
  C      -1.875469     -1.987988      0.066668
  C      -0.176302      0.219821      0.003112
  C       0.278217     -0.992889      0.533959
  C      -0.578405     -2.084082      0.558919
  H      -1.836096      1.279209     -0.906322
  C       0.712876      1.323377     -0.099687
  Cl     -3.942267     -0.634857     -1.065190
  H      -2.546407     -2.839537      0.087623
  H       1.289347     -1.058345      0.919380
  H      -0.231226     -3.028242      0.966428
  N       0.931661      2.415552     -0.569256
  O       1.831076      3.285745     -0.516767
  O       2.450470      1.275021      1.242084
  S       3.510498      2.022776      0.447219
  O       3.973529      1.238240     -0.711122
17
Coordinates from ORCA-job mol E -1407.706786506888
  C      -2.306850     -0.759294     -0.421622
  C      -1.497802      0.364387     -0.441739
  C      -1.845241     -1.987304      0.046119
  C      -0.175331      0.241383      0.018745
  C       0.303791     -0.980646      0.506869
  C      -0.538206     -2.083154      0.512149
  H      -1.872650      1.315971     -0.799927
  C       0.721610      1.328658     -0.135721
  Cl     -3.961289     -0.617842     -0.969431
  H      -2.504547     -2.848193      0.049688
  H       1.319221     -1.039657      0.882141
  H      -0.171328     -3.036262      0.879484
  N       1.008983      2.363039     -0.685813
  O       1.896015      3.244580     -0.657957
  O       2.272222      1.375630      1.258576
  S       3.425346      2.003127      0.512149
  O       3.926056      1.115578     -0.553710
17
Coordinates from ORCA-job mol E -1407.709811704985
  C      -2.325420     -0.754088     -0.402426
  C      -1.495064      0.352827     -0.455682
  C      -1.879571     -1.983098      0.077305
  C      -0.166568      0.212794     -0.019027
  C       0.297436     -1.011111      0.480047
  C      -0.566614     -2.095812      0.521746
  H      -1.859322      1.304997     -0.823492
  C       0.730945      1.305354     -0.159021
  Cl     -3.983058     -0.592957     -0.935228
  H      -2.554513     -2.831309      0.105815
  H       1.318764     -1.087243      0.833072
  H      -0.211848     -3.049045      0.900558
  N       0.994441      2.349783     -0.699599
  O       1.877507      3.230222     -0.666198
  O       2.256638      1.237908      1.142376
  S       3.408152      2.056943      0.578409
  O       4.158096      1.353835     -0.478656
17
Coordinates from ORCA-job mol E -1407.710480256980
  C      -2.354648     -0.736901     -0.339472
  C      -1.501028      0.349626     -0.433616
  C      -1.912604     -1.978809      0.108369
  C      -0.152672      0.173668     -0.081259
  C       0.307867     -1.063406      0.389017
  C      -0.580426     -2.125083      0.480559
  H      -1.862717      1.314075     -0.770961
  C       0.752351      1.260009     -0.240610
  Cl     -4.034341     -0.533949     -0.781429
  H      -2.605006     -2.811143      0.169212
  H       1.344114     -1.166227      0.685826
  H      -0.229768     -3.087720      0.838921
  N       1.041852      2.262541     -0.843988
  O       1.915960      3.151868     -0.810983
  O       2.197105      1.257146      1.116498
  S       3.343062      2.182045      0.704957
  O       4.330900      1.552259     -0.191041
17
Coordinates from ORCA-job mol E -1407.710009663528
  C      -2.359984     -0.723556     -0.287402
  C      -1.506924      0.361226     -0.407836
  C      -1.901245     -1.971674      0.125096
  C      -0.143842      0.172903     -0.127825
  C       0.334070     -1.069821      0.308916
  C      -0.553223     -2.128341      0.433125
  H      -1.878750      1.332694     -0.712297
  C       0.760362      1.253059     -0.315550
  Cl     -4.058516     -0.508843     -0.642871
  H      -2.593545     -2.802102      0.209431
  H       1.383283     -1.177011      0.558927
  H      -0.191320     -3.096063      0.765685
  N       1.110295      2.196950     -0.976431
  O       1.979008      3.090753     -0.930063
  O       2.069236      1.362622      1.198422
  S       3.260149      2.221227      0.779115
  O       4.290946      1.485976      0.021558
17
Coordinates from ORCA-job mol E -1407.710407385426
  C      -2.353062     -0.706648     -0.258963
  C      -1.480965      0.355851     -0.432706
  C      -1.908748     -1.951355      0.177908
  C      -0.114069      0.146905     -0.190185
  C       0.352383     -1.098475      0.249790
  C      -0.553073     -2.132503      0.434534
  H      -1.841661      1.325229     -0.756764
  C       0.788084      1.239600     -0.326893
  Cl     -4.054782     -0.468535     -0.582950
  H      -2.615796     -2.762605      0.311859
  H       1.409724     -1.230420      0.449584
  H      -0.200744     -3.099036      0.780589
  N       1.127181      2.201683     -0.976722
  O       1.997212      3.092215     -0.889751
  O       1.970588      1.256253      1.024179
  S       3.159318      2.212005      0.839731
  O       4.318411      1.619836      0.146762
17
Coordinates from ORCA-job mol E -1407.709879645719
  C      -2.366979     -0.726432     -0.283361
  C      -1.511086      0.356448     -0.405175
  C      -1.908997     -1.975752      0.125636
  C      -0.148032      0.165117     -0.128702
  C       0.328912     -1.080170      0.302081
  C      -0.559677     -2.137285      0.426586
  H      -1.880903      1.329227     -0.707880
  C       0.758033      1.247485     -0.300639
  Cl     -4.065698     -0.508523     -0.635448
  H      -2.602849     -2.804795      0.211577
  H       1.379198     -1.190590      0.546339
  H      -0.199331     -3.106795      0.755587
  N       1.135950      2.176971     -0.972111
  O       1.998226      3.081712     -0.925260
  O       2.065457      1.416586      1.177551
  S       3.277129      2.255285      0.781138
  O       4.300647      1.501512      0.032081
17
Coordinates from ORCA-job mol E -1407.709393586575
  C      -2.351690     -0.745731     -0.344628
  C      -1.526810      0.365044     -0.411266
  C      -1.877627     -1.984108      0.080343
  C      -0.177157      0.215756     -0.051736
  C       0.310943     -1.013815      0.411783
  C      -0.547392     -2.101300      0.471792
  H      -1.910778      1.327568     -0.728515
  C       0.718100      1.297631     -0.246319
  Cl     -4.034763     -0.577933     -0.786686
  H      -2.546620     -2.836939      0.114327
  H       1.343131     -1.086333      0.734654
  H      -0.175925     -3.060674      0.817576
  N       1.073620      2.256329     -0.873396
  O       1.938447      3.150205     -0.846679
  O       2.171320      1.323855      1.198839
  S       3.355209      2.117946      0.680173
  O       4.237992      1.352498     -0.220262
17
Coordinates from ORCA-job mol E -1407.710153496241
  C      -2.352998     -0.745833     -0.361754
  C      -1.500025      0.342071     -0.443351
  C      -1.917695     -1.985378      0.098870
  C      -0.159331      0.172774     -0.057671
  C       0.294615     -1.062807      0.422345
  C      -0.592825     -2.126647      0.497509
  H      -1.857094      1.303404     -0.794233
  C       0.745898      1.259472     -0.211186
  Cl     -4.023350     -0.548315     -0.840421
  H      -2.608710     -2.819663      0.146664
  H       1.325327     -1.163041      0.738922
  H      -0.246342     -3.087566      0.864451
  N       1.022918      2.278994     -0.793743
  O       1.887520      3.178680     -0.775940
  O       2.265232      1.293268      1.147913
  S       3.404614      2.185151      0.659025
  O       4.312248      1.525436     -0.297399
17
Coordinates from ORCA-job mol E -1407.709915760687
  C      -2.358714     -0.758790     -0.379161
  C      -1.526333      0.346875     -0.433495
  C      -1.904313     -1.995551      0.070879
  C      -0.188034      0.196203     -0.032326
  C       0.280735     -1.033055      0.451166
  C      -0.585329     -2.115404      0.497026
  H      -1.896798      1.307334     -0.772432
  C       0.712345      1.279951     -0.201717
  Cl     -4.027516     -0.586433     -0.871701
  H      -2.578541     -2.844554      0.094308
  H       1.304142     -1.110170      0.798477
  H      -0.227601     -3.073511      0.860455
  N       1.034221      2.280306     -0.783653
  O       1.888996      3.186236     -0.775557
  O       2.330434      1.329014      1.209966
  S       3.458571      2.158254      0.625895
  O       4.283734      1.433297     -0.358130
17
Coordinates from ORCA-job mol E -1407.709992150326
  C      -2.372348     -0.743579     -0.316476
  C      -1.532756      0.353408     -0.423350
  C      -1.902979     -1.982981      0.110045
  C      -0.174066      0.186954     -0.109954
  C       0.313280     -1.047498      0.340929
  C      -0.559258     -2.119907      0.446132
  H      -1.911348      1.317753     -0.741730
  C       0.722526      1.273309     -0.286021
  Cl     -4.065655     -0.556281     -0.708436
  H      -2.584238     -2.823710      0.182228
  H       1.358451     -1.136621      0.614637
  H      -0.190770     -3.081853      0.787911
  N       1.097066      2.223288     -0.917675
  O       1.953667      3.124877     -0.884425
  O       2.192918      1.397060      1.275232
  S       3.363581      2.199358      0.734194
  O       4.291927      1.416422     -0.103241
17
Coordinates from ORCA-job mol E -1407.710185159671
  C      -2.369083     -0.742543     -0.320691
  C      -1.525753      0.351479     -0.426820
  C      -1.906305     -1.981673      0.113811
  C      -0.168753      0.182331     -0.106832
  C       0.312738     -1.052875      0.347929
  C      -0.564181     -2.121768      0.454257
  H      -1.899927      1.314999     -0.752844
  C       0.728803      1.270279     -0.271115
  Cl     -4.059283     -0.551870     -0.724570
  H      -2.591061     -2.819318      0.188366
  H       1.357363     -1.146645      0.621494
  H      -0.199979     -3.083624      0.800885
  N       1.091889      2.232551     -0.893786
  O       1.949080      3.134889     -0.863533
  O       2.182258      1.369966      1.222997
  S       3.359955      2.195488      0.732172
  O       4.302239      1.448331     -0.121719
17
Coordinates from ORCA-job mol E -1407.710935091376
  C      -2.374509     -0.767589     -0.379874
  C      -1.549015      0.343329     -0.433254
  C      -1.911139     -2.002865      0.065689
  C      -0.206815      0.196397     -0.043102
  C       0.270477     -1.030613      0.438303
  C      -0.589443     -2.117540      0.485472
  H      -1.925307      1.302657     -0.768818
  C       0.690987      1.278405     -0.218092
  Cl     -4.046820     -0.602829     -0.862279
  H      -2.581725     -2.854635      0.093386
  H       1.296552     -1.101710      0.780286
  H      -0.225624     -3.074655      0.845385
  N       1.049367      2.264575     -0.790566
  O       1.883650      3.182245     -0.802360
  O       2.411879      1.393453      1.301521
  S       3.507065      2.183343      0.629965
  O       4.300418      1.408034     -0.341663
17
Coordinates from ORCA-job mol E -1407.713198255112
  C      -2.384338     -0.785622     -0.422191
  C      -1.559453      0.325376     -0.463002
  C      -1.937909     -2.015834      0.054981
  C      -0.230412      0.186482     -0.023167
  C       0.230722     -1.035037      0.485142
  C      -0.630623     -2.122289      0.516653
  H      -1.925967      1.277294     -0.828943
  C       0.670034      1.266553     -0.187253
  Cl     -4.039077     -0.627864     -0.965563
  H      -2.610331     -2.866103      0.076067
  H       1.247568     -1.104722      0.853950
  H      -0.276030     -3.073987      0.899641
  N       1.009660      2.288524     -0.683591
  O       1.802841      3.224165     -0.735422
  O       2.648830      1.356349      1.337106
  S       3.619860      2.206020      0.571865
  O       4.364625      1.500695     -0.486273
17
Coordinates from ORCA-job mol E -1407.714375676076
  C      -2.394974     -0.786499     -0.424879
  C      -1.545170      0.302941     -0.504261
  C      -1.977655     -2.011274      0.091407
  C      -0.218468      0.151187     -0.060715
  C       0.219822     -1.069834      0.465261
  C      -0.667224     -2.135323      0.536684
  H      -1.892169      1.247927     -0.905566
  C       0.686560      1.235971     -0.194963
  Cl     -4.045083     -0.609617     -0.979068
  H      -2.671469     -2.842259      0.149015
  H       1.243134     -1.162775      0.810251
  H      -0.329039     -3.083139      0.943711
  N       0.991673      2.294908     -0.630668
  O       1.756005      3.244658     -0.692440
  O       2.733970      1.270134      1.286182
  S       3.642681      2.251122      0.599786
  O       4.467405      1.701874     -0.489737
17
Coordinates from ORCA-job mol E -1407.711603955089
  C      -2.385292     -0.765157     -0.383952
  C      -1.522065      0.310808     -0.501744
  C      -1.967062     -1.989684      0.131248
  C      -0.182937      0.141680     -0.109162
  C       0.258046     -1.081990      0.408125
  C      -0.641427     -2.132502      0.524886
  H      -1.867911      1.258062     -0.898958
  C       0.721539      1.230967     -0.235328
  Cl     -4.050248     -0.570392     -0.884124
  H      -2.670950     -2.809057      0.224447
  H       1.293286     -1.190501      0.709778
  H      -0.303701     -3.081981      0.928193
  N       0.998120      2.290485     -0.709568
  O       1.814991      3.209458     -0.735240
  O       2.522852      1.194402      1.178561
  S       3.506837      2.233301      0.676362
  O       4.475922      1.752100     -0.323523
17
Coordinates from ORCA-job mol E -1407.710226327221
  C      -2.363548     -0.755199     -0.364227
  C      -1.518591      0.337064     -0.470729
  C      -1.917641     -1.980057      0.125428
  C      -0.172804      0.179360     -0.099498
  C       0.293928     -1.042800      0.401701
  C      -0.587081     -2.108594      0.510750
  H      -1.881389      1.287785     -0.843857
  C       0.720202      1.274256     -0.238796
  Cl     -4.036429     -0.580151     -0.840620
  H      -2.605768     -2.814220      0.206689
  H       1.331579     -1.132827      0.700430
  H      -0.233671     -3.059369      0.896844
  N       1.011568      2.299450     -0.791543
  O       1.888371      3.179008     -0.757324
  O       2.300158      1.201508      1.136356
  S       3.403377      2.151558      0.688030
  O       4.367740      1.563226     -0.259636
17
Coordinates from ORCA-job mol E -1407.710443984217
  C      -2.355565     -0.750744     -0.358133
  C      -1.506797      0.338333     -0.468539
  C      -1.911638     -1.977342      0.128409
  C      -0.161410      0.177933     -0.096850
  C       0.303822     -1.047534      0.398649
  C      -0.579974     -2.110981      0.508197
  H      -1.867884      1.291113     -0.838054
  C       0.732590      1.273580     -0.231671
  Cl     -4.029448     -0.570217     -0.828956
  H      -2.601555     -2.810136      0.208841
  H       1.341652     -1.140539      0.694709
  H      -0.228524     -3.063690      0.891344
  N       1.028295      2.298115     -0.792201
  O       1.904877      3.183319     -0.752204
  O       2.226920      1.231079      1.099786
  S       3.374547      2.145091      0.688933
  O       4.330092      1.532621     -0.252261
17
Coordinates from ORCA-job mol E -1407.710485673063
  C      -2.357173     -0.751721     -0.360091
  C      -1.506817      0.335436     -0.476419
  C      -1.914939     -1.976878      0.131716
  C      -0.161713      0.175296     -0.103782
  C       0.302091     -1.048868      0.395661
  C      -0.583078     -2.110686      0.510453
  H      -1.866800      1.286750     -0.850761
  C       0.731729      1.272390     -0.234423
  Cl     -4.030809     -0.571202     -0.832324
  H      -2.606009     -2.808274      0.216321
  H       1.340375     -1.142855      0.690302
  H      -0.232319     -3.062143      0.897356
  N       1.023375      2.302357     -0.784266
  O       1.894631      3.190009     -0.744351
  O       2.251393      1.221442      1.119151
  S       3.382426      2.146762      0.687982
  O       4.333637      1.542184     -0.262527
17
Coordinates from ORCA-job mol E -1407.710492191481
  C      -2.357052     -0.750877     -0.359219
  C      -1.504532      0.334245     -0.478626
  C      -1.916842     -1.975873      0.134752
  C      -0.159228      0.172003     -0.107910
  C       0.302747     -1.052274      0.392712
  C      -0.584538     -2.111936      0.511108
  H      -1.862833      1.285397     -0.855024
  C       0.734771      1.269428     -0.235490
  Cl     -4.030806     -0.567900     -0.830237
  H      -2.609679     -2.805478      0.222490
  H       1.341547     -1.148537      0.684718
  H      -0.235118     -3.063421      0.899126
  N       1.023717      2.301788     -0.782555
  O       1.894340      3.190433     -0.739537
  O       2.248968      1.219266      1.113285
  S       3.379514      2.150354      0.690720
  O       4.335022      1.553382     -0.260315
17
Coordinates from ORCA-job mol E -1407.710494669691
  C      -2.356814     -0.750394     -0.359168
  C      -1.503309      0.333791     -0.479842
  C      -1.917944     -1.974937      0.137162
  C      -0.157684      0.170200     -0.110965
  C       0.303087     -1.053734      0.391380
  C      -0.585460     -2.112060      0.512479
  H      -1.860442      1.284394     -0.858757
  C       0.736862      1.267463     -0.237765
  Cl     -4.030417     -0.566434     -0.830404
  H      -2.611973     -2.803236      0.227718
  H       1.342347     -1.151517      0.681321
  H      -0.236823     -3.063311      0.901789
  N       1.022921      2.302926     -0.780286
  O       1.892579      3.192248     -0.735483
  O       2.248202      1.211302      1.106236
  S       3.377075      2.149579      0.693640
  O       4.337793      1.563718     -0.259055
17
Coordinates from ORCA-job mol E -1407.710496808854
  C      -2.357150     -0.750842     -0.360387
  C      -1.503173      0.332925     -0.481411
  C      -1.919064     -1.975199      0.137093
  C      -0.158016      0.169429     -0.110702
  C       0.302064     -1.054477      0.392360
  C      -0.586888     -2.112494      0.513364
  H      -1.859735      1.283351     -0.861306
  C       0.736817      1.266507     -0.237359
  Cl     -4.030293     -0.566755     -0.833242
  H      -2.613425     -2.803218      0.227672
  H       1.341048     -1.152491      0.683089
  H      -0.238810     -3.063576      0.903582
  N       1.021686      2.303700     -0.776986
  O       1.889721      3.194412     -0.732125
  O       2.255414      1.211233      1.109380
  S       3.381323      2.150865      0.692129
  O       4.338481      1.566630     -0.265148
17
Coordinates from ORCA-job mol E -1407.710498900816
  C      -2.356911     -0.751030     -0.361231
  C      -1.502924      0.332712     -0.482358
  C      -1.919030     -1.975139      0.137063
  C      -0.158050      0.169569     -0.110408
  C       0.301860     -1.054126      0.393329
  C      -0.587069     -2.112180      0.514177
  H      -1.859320      1.282950     -0.862871
  C       0.736802      1.266525     -0.237155
  Cl     -4.029789     -0.567271     -0.835125
  H      -2.613375     -2.803182      0.227535
  H       1.340678     -1.151922      0.684767
  H      -0.239144     -3.063084      0.904963
  N       1.021040      2.304772     -0.774819
  O       1.888300      3.196024     -0.729083
  O       2.257281      1.209496      1.109376
  S       3.382310      2.149452      0.690988
  O       4.337343      1.566434     -0.269147
17
Coordinates from ORCA-job mol E -1407.710500611539
  C      -2.356884     -0.751056     -0.361597
  C      -1.502674      0.332499     -0.482795
  C      -1.919346     -1.975117      0.137126
  C      -0.157961      0.169262     -0.110286
  C       0.301626     -1.054413      0.393807
  C      -0.587509     -2.112297      0.514632
  H      -1.858778      1.282689     -0.863683
  C       0.737140      1.265936     -0.237392
  Cl     -4.029599     -0.567133     -0.835986
  H      -2.613864     -2.803016      0.227627
  H       1.340342     -1.152323      0.685523
  H      -0.239849     -3.063183      0.905704
  N       1.020529      2.305089     -0.773764
  O       1.887493      3.196656     -0.727399
  O       2.258766      1.208559      1.108752
  S       3.382906      2.149644      0.690552
  O       4.337661      1.568202     -0.270822
17
Coordinates from ORCA-job mol E -1407.710502072176
  C      -2.356725     -0.751117     -0.362026
  C      -1.502469      0.332408     -0.483158
  C      -1.919353     -1.975095      0.137042
  C      -0.157904      0.169265     -0.110024
  C       0.301502     -1.054321      0.394465
  C      -0.587674     -2.112188      0.515125
  H      -1.858437      1.282545     -0.864318
  C       0.737307      1.265774     -0.237391
  Cl     -4.029275     -0.567270     -0.837000
  H      -2.613890     -2.802991      0.227391
  H       1.340092     -1.152136      0.686670
  H      -0.240167     -3.063007      0.906489
  N       1.020045      2.305661     -0.772654
  O       1.886761      3.197452     -0.725721
  O       2.259546      1.207440      1.107959
  S       3.383286      2.148996      0.689913
  O       4.337353      1.568584     -0.272762
17
Coordinates from ORCA-job mol E -1407.710503341664
  C      -2.356634     -0.751167     -0.362403
  C      -1.502274      0.332283     -0.483457
  C      -1.919489     -1.975099      0.136973
  C      -0.157853      0.169150     -0.109768
  C       0.301319     -1.054393      0.395052
  C      -0.587954     -2.112197      0.515554
  H      -1.858061      1.282386     -0.864872
  C       0.737514      1.265481     -0.237392
  Cl     -4.029024     -0.567285     -0.837909
  H      -2.614096     -2.802950      0.227193
  H       1.339793     -1.152201      0.687658
  H      -0.240633     -3.062981      0.907167
  N       1.019525      2.306086     -0.771652
  O       1.886027      3.198100     -0.724349
  O       2.260582      1.206539      1.107223
  S       3.383801      2.148773      0.689367
  O       4.337456      1.569475     -0.274384
17
Coordinates from ORCA-job mol E -1407.710504445577
  C      -2.356513     -0.751235     -0.362815
  C      -1.502100      0.332186     -0.483747
  C      -1.919548     -1.975111      0.136857
  C      -0.157831      0.169125     -0.109456
  C       0.301149     -1.054352      0.395705
  C      -0.588166     -2.112142      0.515995
  H      -1.857747      1.282242     -0.865405
  C       0.737644      1.265326     -0.237272
  Cl     -4.028737     -0.567395     -0.838911
  H      -2.614180     -2.802960      0.226893
  H       1.339497     -1.152092      0.688772
  H      -0.240995     -3.062878      0.907859
  N       1.018995      2.306591     -0.770584
  O       1.885275      3.198810     -0.722992
  O       2.261526      1.205613      1.106522
  S       3.384335      2.148319      0.688735
  O       4.337396      1.569954     -0.276158
17
Coordinates from ORCA-job mol E -1407.710505421017
  C      -2.356411     -0.751307     -0.363224
  C      -1.501933      0.332074     -0.484034
  C      -1.919644     -1.975132      0.136748
  C      -0.157816      0.169071     -0.109147
  C       0.300960     -1.054350      0.396339
  C      -0.588413     -2.112117      0.516419
  H      -1.857430      1.282086     -0.865942
  C       0.737767      1.265152     -0.237116
  Cl     -4.028470     -0.567487     -0.839907
  H      -2.614314     -2.802967      0.226612
  H       1.339187     -1.152049      0.689837
  H      -0.241396     -3.062810      0.908525
  N       1.018452      2.307063     -0.769513
  O       1.884511      3.199486     -0.721712
  O       2.262585      1.204766      1.105902
  S       3.384935      2.147983      0.688106
  O       4.337429      1.570538     -0.277894
17
Coordinates from ORCA-job mol E -1407.710506278247
  C      -2.356303     -0.751384     -0.363638
  C      -1.501777      0.331972     -0.484313
  C      -1.919717     -1.975154      0.136627
  C      -0.157811      0.169046     -0.108826
  C       0.300776     -1.054314      0.396981
  C      -0.588635     -2.112074      0.516839
  H      -1.857137      1.281936     -0.866466
  C       0.737860      1.265029     -0.236909
  Cl     -4.028195     -0.567609     -0.840920
  H      -2.614411     -2.802988      0.226309
  H       1.338883     -1.151957      0.690915
  H      -0.241759     -3.062720      0.909182
  N       1.017915      2.307549     -0.768433
  O       1.883763      3.200160     -0.720461
  O       2.263600      1.203929      1.105302
  S       3.385532      2.147588      0.687457
  O       4.337416      1.570990     -0.279645
17
Coordinates from ORCA-job mol E -1407.710507031099
  C      -2.356203     -0.751460     -0.364040
  C      -1.501629      0.331872     -0.484578
  C      -1.919794     -1.975178      0.136509
  C      -0.157812      0.169018     -0.108511
  C       0.300592     -1.054285      0.397602
  C      -0.588857     -2.112039      0.517239
  H      -1.856857      1.281789     -0.866969
  C       0.737943      1.264913     -0.236685
  Cl     -4.027932     -0.567727     -0.841905
  H      -2.614513     -2.803010      0.226014
  H       1.338584     -1.151878      0.691951
  H      -0.242118     -3.062642      0.909808
  N       1.017389      2.308013     -0.767383
  O       1.883041      3.200797     -0.719280
  O       2.264609      1.203144      1.104739
  S       3.386128      2.147231      0.686823
  O       4.337427      1.571441     -0.281332
17
Coordinates from ORCA-job mol E -1407.710507700271
  C      -2.356103     -0.751536     -0.364431
  C      -1.501491      0.331779     -0.484830
  C      -1.919861     -1.975204      0.136388
  C      -0.157817      0.169002     -0.108198
  C       0.300415     -1.054243      0.398209
  C      -0.589064     -2.111999      0.517625
  H      -1.856595      1.281649     -0.867452
  C       0.738009      1.264822     -0.236443
  Cl     -4.027674     -0.567855     -0.842870
  H      -2.614599     -2.803038      0.225717
  H       1.338294     -1.151783      0.692964
  H      -0.242451     -3.062558      0.910410
  N       1.016878      2.308470     -0.766357
  O       1.882351      3.201411     -0.718149
  O       2.265574      1.202388      1.104197
  S       3.386709      2.146866      0.686196
  O       4.337424      1.571829     -0.282976
17
Coordinates from ORCA-job mol E -1407.710508293272
  C      -2.356008     -0.751612     -0.364809
  C      -1.501362      0.331689     -0.485070
  C      -1.919924     -1.975231      0.136271
  C      -0.157826      0.168989     -0.107893
  C       0.300243     -1.054201      0.398793
  C      -0.589263     -2.111960      0.517993
  H      -1.856348      1.281514     -0.867913
  C       0.738066      1.264742     -0.236195
  Cl     -4.027426     -0.567981     -0.843801
  H      -2.614680     -2.803068      0.225428
  H       1.338014     -1.151690      0.693936
  H      -0.242770     -3.062478      0.910984
  N       1.016386      2.308908     -0.765367
  O       1.881693      3.201993     -0.717077
  O       2.266507      1.201674      1.103685
  S       3.387273      2.146519      0.685588
  O       4.337425      1.572193     -0.284554
17
Coordinates from ORCA-job mol E -1407.710508812258
  C      -2.355916     -0.751685     -0.365172
  C      -1.501240      0.331605     -0.485297
  C      -1.919982     -1.975257      0.136155
  C      -0.157838      0.168983     -0.107597
  C       0.300078     -1.054155      0.399357
  C      -0.589451     -2.111920      0.518346
  H      -1.856117      1.281385     -0.868352
  C       0.738112      1.264676     -0.235943
  Cl     -4.027187     -0.568110     -0.844700
  H      -2.614751     -2.803100      0.225146
  H       1.337746     -1.151592      0.694873
  H      -0.243069     -3.062398      0.911532
  N       1.015913      2.309332     -0.764413
  O       1.881068      3.202547     -0.716056
  O       2.267396      1.200993      1.103196
  S       3.387818      2.146178      0.684998
  O       4.337420      1.572519     -0.286072
17
Coordinates from ORCA-job mol E -1407.710509275590
  C      -2.355829     -0.751757     -0.365521
  C      -1.501127      0.331525     -0.485513
  C      -1.920036     -1.975283      0.136042
  C      -0.157852      0.168978     -0.107311
  C       0.299919     -1.054108      0.399897
  C      -0.589629     -2.111881      0.518681
  H      -1.855899      1.281262     -0.868769
  C       0.738152      1.264619     -0.235693
  Cl     -4.026958     -0.568236     -0.845562
  H      -2.614817     -2.803133      0.224873
  H       1.337488     -1.151496      0.695768
  H      -0.243353     -3.062321      0.912053
  N       1.015460      2.309738     -0.763498
  O       1.880475      3.203071     -0.715087
  O       2.268247      1.200348      1.102733
  S       3.388341      2.145851      0.684430
  O       4.337416      1.572822     -0.287523
17
Coordinates from ORCA-job mol E -1407.710509686262
  C      -2.355745     -0.751827     -0.365854
  C      -1.501020      0.331450     -0.485717
  C      -1.920085     -1.975309      0.135934
  C      -0.157866      0.168977     -0.107036
  C       0.299767     -1.054059      0.400413
  C      -0.589797     -2.111842      0.519000
  H      -1.855694      1.281145     -0.869166
  C       0.738184      1.264572     -0.235445
  Cl     -4.026739     -0.568361     -0.846387
  H      -2.614876     -2.803167      0.224610
  H       1.337243     -1.151398      0.696624
  H      -0.243620     -3.062245      0.912549
  N       1.015027      2.310127     -0.762623
  O       1.879915      3.203569     -0.714168
  O       2.269056      1.199735      1.102293
  S       3.388841      2.145535      0.683885
  O       4.337408      1.573098     -0.288910
17
Coordinates from ORCA-job mol E -1407.710510043329
  C      -2.355665     -0.751894     -0.366171
  C      -1.500920      0.331379     -0.485910
  C      -1.920131     -1.975334      0.135829
  C      -0.157882      0.168979     -0.106773
  C       0.299622     -1.054011      0.400905
  C      -0.589956     -2.111805      0.519303
  H      -1.855502      1.281034     -0.869542
  C       0.738212      1.264531     -0.235203
  Cl     -4.026530     -0.568482     -0.847175
  H      -2.614930     -2.803200      0.224357
  H       1.337008     -1.151303      0.697439
  H      -0.243872     -3.062172      0.913018
  N       1.014616      2.310498     -0.761787
  O       1.879386      3.204039     -0.713297
  O       2.269826      1.199155      1.101876
  S       3.389319      2.145233      0.683363
  O       4.337399      1.573353     -0.290231
17
Coordinates from ORCA-job mol E -1407.710510367190
  C      -2.355589     -0.751958     -0.366473
  C      -1.500826      0.331312     -0.486092
  C      -1.920174     -1.975358      0.135729
  C      -0.157899      0.168982     -0.106521
  C       0.299485     -1.053962      0.401374
  C      -0.590106     -2.111768      0.519590
  H      -1.855322      1.280928     -0.869898
  C       0.738235      1.264496     -0.234968
  Cl     -4.026331     -0.568600     -0.847926
  H      -2.614980     -2.803234      0.224115
  H       1.336785     -1.151209      0.698215
  H      -0.244109     -3.062102      0.913464
  N       1.014225      2.310852     -0.760990
  O       1.878887      3.204484     -0.712473
  O       2.270555      1.198606      1.101480
  S       3.389774      2.144944      0.682864
  O       4.337389      1.573588     -0.291488
17
Coordinates from ORCA-job mol E -1407.710510649366
  C      -2.355517     -0.752019     -0.366761
  C      -1.500737      0.331249     -0.486265
  C      -1.920213     -1.975382      0.135633
  C      -0.157915      0.168986     -0.106281
  C       0.299354     -1.053915      0.401820
  C      -0.590248     -2.111732      0.519862
  H      -1.855152      1.280828     -0.870236
  C       0.738255      1.264466     -0.234741
  Cl     -4.026142     -0.568714     -0.848640
  H      -2.615025     -2.803266      0.223884
  H       1.336573     -1.151118      0.698952
  H      -0.244333     -3.062034      0.913885
  N       1.013854      2.311188     -0.760233
  O       1.878416      3.204903     -0.711692
  O       2.271246      1.198087      1.101105
  S       3.390207      2.144667      0.682388
  O       4.337377      1.573805     -0.292681
17
Coordinates from ORCA-job mol E -1407.710510906943
  C      -2.355448     -0.752078     -0.367033
  C      -1.500654      0.331189     -0.486428
  C      -1.920249     -1.975404      0.135541
  C      -0.157932      0.168992     -0.106052
  C       0.299229     -1.053868      0.402243
  C      -0.590381     -2.111698      0.520120
  H      -1.854992      1.280733     -0.870555
  C       0.738271      1.264440     -0.234523
  Cl     -4.025962     -0.568824     -0.849317
  H      -2.615066     -2.803298      0.223664
  H       1.336372     -1.151029      0.699650
  H      -0.244543     -3.061969      0.914284
  N       1.013502      2.311508     -0.759514
  O       1.877972      3.205300     -0.710954
  O       2.271900      1.197596      1.100751
  S       3.390617      2.144404      0.681936
  O       4.337365      1.574006     -0.293814
