17
Coordinates from ORCA-job mol
  C   -2.36148355857875     -0.73819007411280     -0.32157786963700
  C   -1.49943422870190      0.33518299771614     -0.47277612111610
  C   -1.92504571897783     -1.96790836993060      0.16373461870823
  C   -0.14559013519692      0.15060102081645     -0.14569322934464
  C   0.31546112052978     -1.07837345076425      0.34522156182915
  C   -0.58305111921853     -2.12408897221880      0.49848266856940
  H   -1.85342878142021      1.29160793994575     -0.84045981675275
  C   0.75968276431029      1.23295806453076     -0.31122638835070
  Cl  -4.04952007489800     -0.53177257484136     -0.73900076474314
  H   -2.62597596925334     -2.78765766155231      0.27898706269301
  H   1.36189295508592     -1.19331155997787      0.60286395762181
  H   -0.23681137211955     -3.07954233617610      0.87947118909318
  N   1.07462850704026      2.23596887629220     -0.89683066084244
  O   1.93597067001983      3.13921893543250     -0.82939763401494
  O   2.17768295769025      1.29139361698004      1.14360454966131
  S   3.31244865808121      2.22857935010875      0.74715284711659
  O   4.34257332560750      1.59533419775150     -0.10255597049097
