!DLPNO-CCSD(T) Extrapolate(3/4,cc) cc-pVQZ/C TightPNO TightSCF 
!CPCM(THF)
%geom maxiter 300 end
%maxcore 4000 
%pal nprocs 36
end

*xyz 0 1
6       -4.471569000     -0.845454000     -0.681923000
6       -3.554073000      0.156082000     -0.975235000
6       -4.096207000     -1.922539000      0.121171000
6       -2.273557000      0.076533000     -0.426613000
6       -1.875048000     -1.011661000      0.351915000
6       -2.802392000     -2.006073000      0.636857000
1       -3.823068000      0.995993000     -1.608788000
6       -1.320775000      1.299214000     -0.546239000
1       -5.476467000     -0.792949000     -1.090096000
1       -4.813397000     -2.709457000      0.336384000
1       -0.859629000     -1.063127000      0.734124000
1       -2.513324000     -2.853074000      1.251883000
7       -0.777916000      0.875359000     -1.620301000
8        0.430906000      2.314996000     -2.031812000
8       -1.268622000      2.245960000      0.254326000
16       0.927151000      3.179451000     -0.844132000
7        1.998380000      2.608052000      0.110115000
6        2.576849000      1.360855000      0.263794000
6        2.374201000      0.269486000     -0.606047000
6        3.017972000     -0.930203000     -0.348859000
6        3.858706000     -1.064234000      0.757945000
6        4.065663000      0.015852000      1.616649000
6        3.433641000      1.224004000      1.373908000
1        1.721519000      0.369915000     -1.463885000
1        2.864339000     -1.771926000     -1.017791000
1        4.355003000     -2.011305000      0.948726000
1        4.721667000     -0.087598000      2.475743000
1        3.580047000      2.077846000      2.028180000

*
