!DLPNO-CCSD(T) Extrapolate(3/4,cc) cc-pVQZ/C TightPNO TightSCF 
!CPCM(Benzene)
%geom maxiter 300 end
%maxcore 4000 
%pal nprocs 36
end

*xyz 0 1
6       -0.021039000     -0.126389000      0.357157000
6        0.815943000      0.975315000      0.418169000
6        0.447594000     -1.433726000      0.409625000
6        2.195299000      0.754836000      0.537688000
6        2.691003000     -0.561088000      0.592856000
6        1.818005000     -1.637853000      0.528481000
1        0.411080000      1.978689000      0.374545000
6        3.084245000      1.853986000      0.603479000
7       -1.476024000      0.103845000      0.232163000
1       -0.247854000     -2.262627000      0.358320000
1        3.759781000     -0.722824000      0.685921000
1        2.208689000     -2.649324000      0.571374000
7        3.831686000      2.744158000      0.651437000
8        4.603058000      3.668180000      0.703044000
8       -2.202599000     -0.880048000      0.177413000
8       -1.867660000      1.263071000      0.190998000

*
