19
Coordinates from ORCA-job mol
  C   0.60893135757988     -0.01390177104581     -0.47703508320611
  C   1.31616320811176      1.08618376095076      0.00354178407924
  C   1.06036507650766     -1.29837660204623     -0.23397445699108
  C   2.50761061768732      0.91420068805447      0.74127594816469
  C   2.95458049545318     -0.39776966552950      0.95113789522199
  C   2.24276155763097     -1.48620638537764      0.47942315831598
  N   0.76927508643350      2.40495809182407     -0.31771478676269
  C   3.28325525726161      3.10934796347057      1.41616307302831
  H   -0.29640799152569      0.16726402875393     -1.04357150699768
  H   0.49777314222899     -2.14746752800751     -0.60711953119891
  H   3.88637862326563     -0.52904205846220      1.49041669589924
  H   2.61800517064935     -2.48788393013223      0.66466777486536
  N   3.34751702405501      1.90412002967881      1.21907324368605
  O   3.58488626176725      1.75148260496972     -2.03664493856874
  O   3.47633938334644      4.21989944532663      1.70349020799826
  S   4.90175101995538      1.85066806710973     -1.38288115571118
  O   5.57944472352651      0.58953546438514     -1.04184869074103
  O   -0.10270246563930      2.47579394752472     -1.16770710609529
  O   1.20775645170458      3.38009684855254      0.29845747501359
