19
Coordinates from ORCA-job mol
  C   0.08690254005674      0.11327880602722     -0.10151337899608
  C   1.08005256442966      1.06598189329527     -0.23681318762606
  C   0.41079230304185     -1.11810351062140      0.45928138852448
  C   2.38758628761293      0.77990793056682      0.18278337817387
  C   2.69001891317750     -0.46637173662609      0.74273600915737
  C   1.69588860793186     -1.42316857267245      0.88380225447151
  H   0.85492022271505      2.03549122605066     -0.66764815671695
  C   3.43085478455409      1.78962476561769      0.03993798951261
  H   -0.93021662505188      0.30861434618750     -0.41924063977017
  N   -0.65077864512466     -2.13653696300366      0.60779265623253
  H   3.70199476985510     -0.68596383767543      1.06342672194035
  H   1.90454018143556     -2.39544211081454      1.31359999478168
  N   3.26265096512132      2.91610895976952     -0.55390220957272
  O   4.44335065791943      3.65494875664299     -0.49780409139217
  O   4.66009000025420      1.51920704020816      0.57805148162756
  S   5.80469944513629      2.67089021708250     -0.02056121069405
  O   6.41750009370251      2.10320057977269     -1.22191993102273
  O   -1.77379806136295     -1.83946155867977      0.22257489176047
  O   -0.33670900540465     -3.20981623112769      1.10521603960849
