 $CONTRL SCFTYP=rhf RUNTYP=optimize d5=.t. 
!dfttyp=pbe0
 mplevl=2
 maxit=100 icut=20 inttyp=hondo itol=30 gencon=.f. wide=1                                
 mult=1 icharg=0 exetyp=run fstint=.t. nzvar=0 $END                            
 $SYSTEM TIMLIM=100000 mwords=360 nojac=1  $END                                  
 $PCM SOLVNT=BENZENE $END
 $system mxbcst=-1 $end                                                         
 $p2p p2p=.t. dlb=.t. $end                                                      
 $smp                                                                           
  mkl64=21 smppar=1 mklnp=18 np=36 httnp=1 dianp=1                              
  pts=0x101                                                                     
 $end                                                                           
 $mpi mxgsum=0x40000 mnpdot=1d9 $end                                            
 $MOORTH nostf=1 nozero=1 syms=1 symden=1 symvec=1 tole=0 tolz=0 $end           
 $BASIS GBASIS=apvtzs extfil=.t. $END                                          
 $GUESS GUESS=huckel                                                            
 $END                                                                           
! $RIMP2 AUXBAS=cc-pvdz/C VERBOSE=.T. $END
 $MP2 method=1 $END
 $MP2GRD dblbf=0 fused=0 asysnc=1 tol1=1d-12 tol2=1d-12 $END
 $FORCE NVIB=2 VIBSIZ=0.005 $END
 $trans mptran=2 dirtrf=.t. mode=112 cuttrf=1d-20 $end
 $DATA
 C7NH5SO3
C1
CARBON          6.0      0.624474287        -1.403385481         0.032301853
CARBON          6.0      1.380293112        -0.795386589        -0.965021777
CARBON          6.0      0.620430907        -0.884922804         1.325630730
CARBON          6.0      2.134255538         0.337352646        -0.661176549
CARBON          6.0      2.138736814         0.865954152         0.632197994
CARBON          6.0      1.378158949         0.247630555         1.619615817
HYDROGEN        1.0      1.396510867        -1.183433508        -1.973347048
CARBON          6.0      3.634676585         1.837904249        -1.898725354
HYDROGEN        1.0      0.040164904        -2.281999356        -0.203060603
HYDROGEN        1.0      0.032418938        -1.359470432         2.098370449
HYDROGEN        1.0      2.730869504         1.743895571         0.852662247
HYDROGEN        1.0      1.380471115         0.654506284         2.621349292
NITROGEN        7.0      2.881671813         0.921578465        -1.686144919
OXYGEN          8.0      4.381279037         2.690526169        -2.242445693
OXYGEN          8.0      4.191281352         3.726902384         0.790929675
SULFUR         16.0      5.490124206         4.016416395         0.177229482
OXYGEN          8.0      6.559682072         3.030830303         0.332535404
 $END

