16
Coordinates from ORCA-job mol
  C   -0.11857644945098     -0.06711712930166      0.34905069897436
  C   0.75600122680863      1.00254890441350      0.41384540911750
  C   0.39500348337747     -1.35887429090345      0.40468907094232
  C   2.13955364841395      0.77400454125255      0.53395971650300
  C   2.63282102536583     -0.54309230320868      0.58875927032092
  C   1.75781340126977     -1.61233085310904      0.52343033983037
  H   0.38117287783011      2.01938101445416      0.37242121231696
  C   3.03306741412796      1.86609328353519      0.59973740420569
  H   -1.18662956687718      0.08895839273739      0.25600558386463
  N   -0.53500774360549     -2.49636838087838      0.33517129092313
  H   3.69976063222794     -0.71349851398769      0.68193086860114
  H   2.11863674512431     -2.63309912609339      0.56341022430030
  N   3.77807742051836      2.75916218091248      0.64636619807057
  O   4.54608521924256      3.68443728417409      0.69595576939613
  O   -1.73223994345086     -2.24955361397620      0.23744284436086
  O   -0.05946939092237     -3.62581139002087      0.37908409827212
