21

C          0.62813       -1.40913        0.02304
C          1.37915       -0.80752       -0.97760
C          0.64261       -0.86832        1.30324
C          2.13769        0.32836       -0.69460
C          2.14599        0.86431        0.59675
C          1.39604        0.26336        1.59722
H          1.38163       -1.21428       -1.98326
C          3.61008        1.83707       -1.91723
O         -0.25639       -3.10896       -0.51342
H         -0.18565       -1.39101        2.27855
H          2.73823        1.74785        0.81519
H          1.39740        0.67249        2.60169
N          2.87840        0.90111       -1.72992
O          4.33223        2.70627       -2.24172
O          4.17926        3.81830        0.80010
S          5.52217        4.00346        0.22373
O          6.48612        2.90805        0.39096
C         -0.87348       -3.45534        0.61675
H         -1.40127       -4.37412        0.46779
H         -1.56508       -2.68783        0.89518
H         -0.14928       -3.58203        1.39417
