-------------------------------------------------------------
----------------------- !PROPERTIES! ------------------------
-------------------------------------------------------------
# -----------------------------------------------------------
$ PAL_Flags
   description: The PAL Flags
   geom. index: 1
   prop. index: 1
        Diskflag:     2
# -----------------------------------------------------------
$ SCF_Energy
   description: The SCF energy
   geom. index: 1
   prop. index: 1
        SCF Energy:    -1062.6083624273
# -----------------------------------------------------------
$ DFT_Energy
   description: The DFT energy
   geom. index: 1
   prop. index: 1
   Number of Alpha Electrons                 54.9999767863 
   Number of Beta  Electrons                 54.9999767863 
   Total number of  Electrons               109.9999535725 
   Exchange energy                         -108.7268835089 
   Correlation energy                        -3.7179975045 
   Correlation energy NL                      0.0000000000 
   Exchange-Correlation energy             -112.4448810134 
   Embedding correction                       0.0000000000 
   Total DFT Energy (No VdW correction)   -1062.6083624273 
# -----------------------------------------------------------
$ VdW_Correction
   description: The Van der Waals Correction
   geom. index: 1
   prop. index: 1
        Van der Waals Correction:       -0.0078004292
# -----------------------------------------------------------
$ PAL_Flags
   description: The PAL Flags
   geom. index: 2
   prop. index: 1
        Diskflag:     2
# -----------------------------------------------------------
$ SCF_Energy
   description: The SCF energy
   geom. index: 2
   prop. index: 1
        SCF Energy:    -1062.6446310362
# -----------------------------------------------------------
$ DFT_Energy
   description: The DFT energy
   geom. index: 2
   prop. index: 1
   Number of Alpha Electrons                 54.9999728562 
   Number of Beta  Electrons                 54.9999728562 
   Total number of  Electrons               109.9999457124 
   Exchange energy                         -108.7438744461 
   Correlation energy                        -3.7196809489 
   Correlation energy NL                      0.0000000000 
   Exchange-Correlation energy             -112.4635553950 
   Embedding correction                       0.0000000000 
   Total DFT Energy (No VdW correction)   -1062.6446310362 
# -----------------------------------------------------------
$ VdW_Correction
   description: The Van der Waals Correction
   geom. index: 2
   prop. index: 1
        Van der Waals Correction:       -0.0077993020
# -----------------------------------------------------------
$ PAL_Flags
   description: The PAL Flags
   geom. index: 3
   prop. index: 1
        Diskflag:     2
# -----------------------------------------------------------
$ SCF_Energy
   description: The SCF energy
   geom. index: 3
   prop. index: 1
        SCF Energy:    -1062.6760123350
# -----------------------------------------------------------
$ DFT_Energy
   description: The DFT energy
   geom. index: 3
   prop. index: 1
   Number of Alpha Electrons                 54.9999939652 
   Number of Beta  Electrons                 54.9999939652 
   Total number of  Electrons               109.9999879304 
   Exchange energy                         -108.7735085847 
   Correlation energy                        -3.7220122376 
   Correlation energy NL                      0.0000000000 
   Exchange-Correlation energy             -112.4955208223 
   Embedding correction                       0.0000000000 
   Total DFT Energy (No VdW correction)   -1062.6760123350 
# -----------------------------------------------------------
$ VdW_Correction
   description: The Van der Waals Correction
   geom. index: 3
   prop. index: 1
        Van der Waals Correction:       -0.0078101194
# -----------------------------------------------------------
$ PAL_Flags
   description: The PAL Flags
   geom. index: 4
   prop. index: 1
        Diskflag:     2
# -----------------------------------------------------------
$ SCF_Energy
   description: The SCF energy
   geom. index: 4
   prop. index: 1
        SCF Energy:    -1062.7022365416
# -----------------------------------------------------------
$ DFT_Energy
   description: The DFT energy
   geom. index: 4
   prop. index: 1
   Number of Alpha Electrons                 55.0000017927 
   Number of Beta  Electrons                 55.0000017927 
   Total number of  Electrons               110.0000035854 
   Exchange energy                         -108.8103311858 
   Correlation energy                        -3.7251318679 
   Correlation energy NL                      0.0000000000 
   Exchange-Correlation energy             -112.5354630537 
   Embedding correction                       0.0000000000 
   Total DFT Energy (No VdW correction)   -1062.7022365416 
# -----------------------------------------------------------
$ VdW_Correction
   description: The Van der Waals Correction
   geom. index: 4
   prop. index: 1
        Van der Waals Correction:       -0.0078429425
# -----------------------------------------------------------
$ PAL_Flags
   description: The PAL Flags
   geom. index: 5
   prop. index: 1
        Diskflag:     2
# -----------------------------------------------------------
$ SCF_Energy
   description: The SCF energy
   geom. index: 5
   prop. index: 1
        SCF Energy:    -1062.7229252814
# -----------------------------------------------------------
$ DFT_Energy
   description: The DFT energy
   geom. index: 5
   prop. index: 1
   Number of Alpha Electrons                 54.9999804698 
   Number of Beta  Electrons                 54.9999804698 
   Total number of  Electrons               109.9999609395 
   Exchange energy                         -108.8524386370 
   Correlation energy                        -3.7288533627 
   Correlation energy NL                      0.0000000000 
   Exchange-Correlation energy             -112.5812919997 
   Embedding correction                       0.0000000000 
   Total DFT Energy (No VdW correction)   -1062.7229252814 
# -----------------------------------------------------------
$ VdW_Correction
   description: The Van der Waals Correction
   geom. index: 5
   prop. index: 1
        Van der Waals Correction:       -0.0078839531
# -----------------------------------------------------------
$ PAL_Flags
   description: The PAL Flags
   geom. index: 6
   prop. index: 1
        Diskflag:     2
# -----------------------------------------------------------
$ SCF_Energy
   description: The SCF energy
   geom. index: 6
   prop. index: 1
        SCF Energy:    -1062.7344176960
# -----------------------------------------------------------
$ DFT_Energy
   description: The DFT energy
   geom. index: 6
   prop. index: 1
   Number of Alpha Electrons                 54.9999667272 
   Number of Beta  Electrons                 54.9999667272 
   Total number of  Electrons               109.9999334545 
   Exchange energy                         -108.9005124843 
   Correlation energy                        -3.7325786390 
   Correlation energy NL                      0.0000000000 
   Exchange-Correlation energy             -112.6330911232 
   Embedding correction                       0.0000000000 
   Total DFT Energy (No VdW correction)   -1062.7344176960 
# -----------------------------------------------------------
$ VdW_Correction
   description: The Van der Waals Correction
   geom. index: 6
   prop. index: 1
        Van der Waals Correction:       -0.0079121515
# -----------------------------------------------------------
$ PAL_Flags
   description: The PAL Flags
   geom. index: 7
   prop. index: 1
        Diskflag:     2
# -----------------------------------------------------------
$ SCF_Energy
   description: The SCF energy
   geom. index: 7
   prop. index: 1
        SCF Energy:    -1062.7383499179
# -----------------------------------------------------------
$ DFT_Energy
   description: The DFT energy
   geom. index: 7
   prop. index: 1
   Number of Alpha Electrons                 54.9999555808 
   Number of Beta  Electrons                 54.9999555808 
   Total number of  Electrons               109.9999111616 
   Exchange energy                         -108.9137254165 
   Correlation energy                        -3.7328596102 
   Correlation energy NL                      0.0000000000 
   Exchange-Correlation energy             -112.6465850267 
   Embedding correction                       0.0000000000 
   Total DFT Energy (No VdW correction)   -1062.7383499179 
# -----------------------------------------------------------
$ VdW_Correction
   description: The Van der Waals Correction
   geom. index: 7
   prop. index: 1
        Van der Waals Correction:       -0.0079009417
# -----------------------------------------------------------
$ PAL_Flags
   description: The PAL Flags
   geom. index: 8
   prop. index: 1
        Diskflag:     2
# -----------------------------------------------------------
$ SCF_Energy
   description: The SCF energy
   geom. index: 8
   prop. index: 1
        SCF Energy:    -1062.7413668999
# -----------------------------------------------------------
$ DFT_Energy
   description: The DFT energy
   geom. index: 8
   prop. index: 1
   Number of Alpha Electrons                 54.9999481751 
   Number of Beta  Electrons                 54.9999481751 
   Total number of  Electrons               109.9998963502 
   Exchange energy                         -108.9093035291 
   Correlation energy                        -3.7323096443 
   Correlation energy NL                      0.0000000000 
   Exchange-Correlation energy             -112.6416131733 
   Embedding correction                       0.0000000000 
   Total DFT Energy (No VdW correction)   -1062.7413668999 
# -----------------------------------------------------------
$ VdW_Correction
   description: The Van der Waals Correction
   geom. index: 8
   prop. index: 1
        Van der Waals Correction:       -0.0078828610
# -----------------------------------------------------------
$ PAL_Flags
   description: The PAL Flags
   geom. index: 9
   prop. index: 1
        Diskflag:     2
# -----------------------------------------------------------
$ SCF_Energy
   description: The SCF energy
   geom. index: 9
   prop. index: 1
        SCF Energy:    -1062.7430768944
# -----------------------------------------------------------
$ DFT_Energy
   description: The DFT energy
   geom. index: 9
   prop. index: 1
   Number of Alpha Electrons                 54.9999568087 
   Number of Beta  Electrons                 54.9999568087 
   Total number of  Electrons               109.9999136175 
   Exchange energy                         -108.9126489371 
   Correlation energy                        -3.7319372552 
   Correlation energy NL                      0.0000000000 
   Exchange-Correlation energy             -112.6445861923 
   Embedding correction                       0.0000000000 
   Total DFT Energy (No VdW correction)   -1062.7430768944 
# -----------------------------------------------------------
$ VdW_Correction
   description: The Van der Waals Correction
   geom. index: 9
   prop. index: 1
        Van der Waals Correction:       -0.0078619831
# -----------------------------------------------------------
$ PAL_Flags
   description: The PAL Flags
   geom. index: 10
   prop. index: 1
        Diskflag:     2
# -----------------------------------------------------------
$ SCF_Energy
   description: The SCF energy
   geom. index: 10
   prop. index: 1
        SCF Energy:    -1062.7434744438
# -----------------------------------------------------------
$ DFT_Energy
   description: The DFT energy
   geom. index: 10
   prop. index: 1
   Number of Alpha Electrons                 54.9999784145 
   Number of Beta  Electrons                 54.9999784145 
   Total number of  Electrons               109.9999568290 
   Exchange energy                         -108.9116140060 
   Correlation energy                        -3.7317190325 
   Correlation energy NL                      0.0000000000 
   Exchange-Correlation energy             -112.6433330385 
   Embedding correction                       0.0000000000 
   Total DFT Energy (No VdW correction)   -1062.7434744438 
# -----------------------------------------------------------
$ VdW_Correction
   description: The Van der Waals Correction
   geom. index: 10
   prop. index: 1
        Van der Waals Correction:       -0.0078516577
# -----------------------------------------------------------
$ PAL_Flags
   description: The PAL Flags
   geom. index: 11
   prop. index: 1
        Diskflag:     2
# -----------------------------------------------------------
$ SCF_Energy
   description: The SCF energy
   geom. index: 11
   prop. index: 1
        SCF Energy:    -1062.7436034507
# -----------------------------------------------------------
$ DFT_Energy
   description: The DFT energy
   geom. index: 11
   prop. index: 1
   Number of Alpha Electrons                 54.9999912012 
   Number of Beta  Electrons                 54.9999912012 
   Total number of  Electrons               109.9999824024 
   Exchange energy                         -108.9110353899 
   Correlation energy                        -3.7314758324 
   Correlation energy NL                      0.0000000000 
   Exchange-Correlation energy             -112.6425112223 
   Embedding correction                       0.0000000000 
   Total DFT Energy (No VdW correction)   -1062.7436034507 
# -----------------------------------------------------------
$ VdW_Correction
   description: The Van der Waals Correction
   geom. index: 11
   prop. index: 1
        Van der Waals Correction:       -0.0078439815
# -----------------------------------------------------------
$ PAL_Flags
   description: The PAL Flags
   geom. index: 12
   prop. index: 1
        Diskflag:     2
# -----------------------------------------------------------
$ SCF_Energy
   description: The SCF energy
   geom. index: 12
   prop. index: 1
        SCF Energy:    -1062.7436339169
# -----------------------------------------------------------
$ DFT_Energy
   description: The DFT energy
   geom. index: 12
   prop. index: 1
   Number of Alpha Electrons                 54.9999958155 
   Number of Beta  Electrons                 54.9999958155 
   Total number of  Electrons               109.9999916309 
   Exchange energy                         -108.9125531814 
   Correlation energy                        -3.7315914165 
   Correlation energy NL                      0.0000000000 
   Exchange-Correlation energy             -112.6441445980 
   Embedding correction                       0.0000000000 
   Total DFT Energy (No VdW correction)   -1062.7436339169 
# -----------------------------------------------------------
$ VdW_Correction
   description: The Van der Waals Correction
   geom. index: 12
   prop. index: 1
        Van der Waals Correction:       -0.0078433970
# -----------------------------------------------------------
$ PAL_Flags
   description: The PAL Flags
   geom. index: 13
   prop. index: 1
        Diskflag:     2
# -----------------------------------------------------------
$ SCF_Energy
   description: The SCF energy
   geom. index: 13
   prop. index: 1
        SCF Energy:    -1062.7436459754
# -----------------------------------------------------------
$ DFT_Energy
   description: The DFT energy
   geom. index: 13
   prop. index: 1
   Number of Alpha Electrons                 54.9999952972 
   Number of Beta  Electrons                 54.9999952972 
   Total number of  Electrons               109.9999905945 
   Exchange energy                         -108.9125895320 
   Correlation energy                        -3.7315921588 
   Correlation energy NL                      0.0000000000 
   Exchange-Correlation energy             -112.6441816908 
   Embedding correction                       0.0000000000 
   Total DFT Energy (No VdW correction)   -1062.7436459754 
# -----------------------------------------------------------
$ VdW_Correction
   description: The Van der Waals Correction
   geom. index: 13
   prop. index: 1
        Van der Waals Correction:       -0.0078426201
# -----------------------------------------------------------
$ PAL_Flags
   description: The PAL Flags
   geom. index: 14
   prop. index: 1
        Diskflag:     2
# -----------------------------------------------------------
$ SCF_Energy
   description: The SCF energy
   geom. index: 14
   prop. index: 1
        SCF Energy:    -1062.7436506862
# -----------------------------------------------------------
$ DFT_Energy
   description: The DFT energy
   geom. index: 14
   prop. index: 1
   Number of Alpha Electrons                 54.9999945778 
   Number of Beta  Electrons                 54.9999945778 
   Total number of  Electrons               109.9999891556 
   Exchange energy                         -108.9128334289 
   Correlation energy                        -3.7316290027 
   Correlation energy NL                      0.0000000000 
   Exchange-Correlation energy             -112.6444624317 
   Embedding correction                       0.0000000000 
   Total DFT Energy (No VdW correction)   -1062.7436506862 
# -----------------------------------------------------------
$ VdW_Correction
   description: The Van der Waals Correction
   geom. index: 14
   prop. index: 1
        Van der Waals Correction:       -0.0078424862
# -----------------------------------------------------------
$ PAL_Flags
   description: The PAL Flags
   geom. index: 15
   prop. index: 1
        Diskflag:     2
# -----------------------------------------------------------
$ SCF_Energy
   description: The SCF energy
   geom. index: 15
   prop. index: 1
        SCF Energy:    -1062.7436527195
# -----------------------------------------------------------
$ DFT_Energy
   description: The DFT energy
   geom. index: 15
   prop. index: 1
   Number of Alpha Electrons                 54.9999943233 
   Number of Beta  Electrons                 54.9999943233 
   Total number of  Electrons               109.9999886466 
   Exchange energy                         -108.9128023350 
   Correlation energy                        -3.7316356188 
   Correlation energy NL                      0.0000000000 
   Exchange-Correlation energy             -112.6444379539 
   Embedding correction                       0.0000000000 
   Total DFT Energy (No VdW correction)   -1062.7436527195 
# -----------------------------------------------------------
$ VdW_Correction
   description: The Van der Waals Correction
   geom. index: 15
   prop. index: 1
        Van der Waals Correction:       -0.0078421477
# -----------------------------------------------------------
$ SCF_Electric_Properties
   description: The SCF Calculated Electric Properties
   geom. index: 15
   prop. index: 1
       Filename                          : mol.scfp 
       Do Dipole Moment Calculation      : true 
       Do Quadrupole Moment Calculation  : false 
       Do Polarizability Calculation     : false 
** Dipole moment part of electric properties **
        Magnitude of dipole moment (Debye) :        2.6835328828
        Electronic Contribution:
                  0    
      0      14.983672
      1      15.726269
      2      -6.031300
        Nuclear Contribution:
                  0    
      0     -15.762892
      1     -16.044934
      2       6.668404
        Total Dipole moment:
                  0    
      0      -0.779220
      1      -0.318665
      2       0.637104
# -----------------------------------------------------------
$ PAL_Flags
   description: The PAL Flags
   geom. index: 16
   prop. index: 1
        Diskflag:     2
# -----------------------------------------------------------
$ SCF_Energy
   description: The SCF energy
   geom. index: 16
   prop. index: 1
        SCF Energy:    -1062.7436527163
# -----------------------------------------------------------
$ DFT_Energy
   description: The DFT energy
   geom. index: 16
   prop. index: 1
   Number of Alpha Electrons                 54.9999943233 
   Number of Beta  Electrons                 54.9999943233 
   Total number of  Electrons               109.9999886467 
   Exchange energy                         -108.9127903475 
   Correlation energy                        -3.7316357665 
   Correlation energy NL                      0.0000000000 
   Exchange-Correlation energy             -112.6444261140 
   Embedding correction                       0.0000000000 
   Total DFT Energy (No VdW correction)   -1062.7436527163 
# -----------------------------------------------------------
$ VdW_Correction
   description: The Van der Waals Correction
   geom. index: 16
   prop. index: 1
        Van der Waals Correction:       -0.0078421477
# -----------------------------------------------------------
$ THERMOCHEMISTRY_Energies
   description: The Thermochemistry energies
   geom. index: 16
   prop. index: 1
        Temperature (Kelvin)           :        298.1500000000
        Pressure (atm)                 :          1.0000000000
        Total Mass (AMU)               :        213.0095788828
        Spin Degeneracy                :          1.0000000000
        Electronic Energy (Hartree)    :      -1062.7361273548
        Translational Energy (Hartree) :          0.0014162714
        Rotational Energy (Hartree)    :          0.0014162714
        Vibrational Energy (Hartree)   :          0.0120144439
        Number of frequencies          :     63      
        Scaling Factor for frequencies :          1.0000000000
        Vibrational frequencies        :     
                  0    
      0       0.000000
      1       0.000000
      2       0.000000
      3       0.000000
      4       0.000000
      5       0.000000
      6      10.105437
      7      23.714522
      8      37.889434
      9      51.830609
     10      58.403208
     11      72.957413
     12      95.697024
     13     104.718388
     14     124.324142
     15     208.133983
     16     243.975901
     17     244.344998
     18     281.634986
     19     337.002322
     20     453.917565
     21     473.133521
     22     486.873875
     23     501.127892
     24     556.972030
     25     584.709007
     26     611.780142
     27     648.056229
     28     688.363299
     29     736.576654
     30     770.461220
     31     862.236019
     32     877.751703
     33     898.396932
     34     961.029844
     35     1016.363030
     36     1069.242292
     37     1115.986963
     38     1123.775896
     39     1125.396109
     40     1168.662025
     41     1199.440024
     42     1210.044030
     43     1268.800544
     44     1292.224472
     45     1313.083187
     46     1371.684593
     47     1454.647796
     48     1467.101712
     49     1485.722697
     50     1498.258708
     51     1505.729518
     52     1537.301524
     53     1613.984856
     54     1642.682923
     55     2355.438080
     56     2985.651364
     57     3059.399052
     58     3130.732382
     59     3174.451083
     60     3196.598636
     61     3205.703748
     62     3211.853867
        Zero Point Energy (Hartree)    :          0.1430827770
        Inner Energy (Hartree)         :      -1062.5781975911
        Enthalpy (Hartree)             :      -1062.5772533820
        Electronic entropy             :          0.0000000000
        Rotational entropy             :          0.0155669190
        Vibrational entropy            :          0.0228301309
        Translational entropy          :          0.0155669190
        Entropy                        :          0.0583392297
        Gibbs Energy (Hartree)         :      -1062.6355926118
        Is Linear                      :                 false
# -------------------------------------------------------------
----------------------- !GEOMETRIES! ------------------------
# -------------------------------------------------------------
------------------------ !GEOMETRY! -------------------------
    Number of atoms:    21 
    Geometry Index:     1 
    Coordinates:
               0 C      0.628130000000   -1.409130000000    0.023040000000
               1 C      1.379150000000   -0.807520000000   -0.977600000000
               2 C      0.642610000000   -0.868320000000    1.303240000000
               3 C      2.137690000000    0.328360000000   -0.694600000000
               4 C      2.145990000000    0.864310000000    0.596750000000
               5 C      1.396040000000    0.263360000000    1.597220000000
               6 H      1.381630000000   -1.214280000000   -1.983260000000
               7 C      3.610080000000    1.837070000000   -1.917230000000
               8 O     -0.256390000000   -3.108960000000   -0.513420000000
               9 H     -0.185650000000   -1.391010000000    2.278550000000
              10 H      2.738230000000    1.747850000000    0.815190000000
              11 H      1.397400000000    0.672490000000    2.601690000000
              12 N      2.878400000000    0.901110000000   -1.729920000000
              13 O      4.332230000000    2.706270000000   -2.241720000000
              14 O      4.179260000000    3.818300000000    0.800100000000
              15 S      5.522170000000    4.003460000000    0.223730000000
              16 O      6.486120000000    2.908050000000    0.390960000000
              17 C     -0.873480000000   -3.455340000000    0.616750000000
              18 H     -1.401270000000   -4.374120000000    0.467790000000
              19 H     -1.565080000000   -2.687830000000    0.895180000000
              20 H     -0.149280000000   -3.582030000000    1.394170000000
------------------------ !GEOMETRY! -------------------------
    Number of atoms:    21 
    Geometry Index:     2 
    Coordinates:
               0 C      0.623371345648   -1.415556774393    0.028508764193
               1 C      1.365959351800   -0.827555348991   -0.974931294857
               2 C      0.621070369111   -0.891487173738    1.315310533091
               3 C      2.122392185597    0.308782573396   -0.689950606774
               4 C      2.129094341631    0.844331743164    0.601300735871
               5 C      1.376863627386    0.241423066061    1.600081062085
               6 H      1.366710539198   -1.238936923618   -1.979372112689
               7 C      3.593446160129    1.815379188994   -1.913003575108
               8 O     -0.198721896442   -3.023195623405   -0.529116307786
               9 H     -0.134962273645   -1.354857801639    2.242907100225
              10 H      2.720876754355    1.728148017638    0.820043728287
              11 H      1.377774759414    0.651921700902    2.603704176636
              12 N      2.862094178525    0.879465213457   -1.725177843602
              13 O      4.315150318974    2.684332210431   -2.237548780600
              14 O      4.161304667200    3.798894061956    0.803446786876
              15 S      5.504298381469    3.983947446289    0.227147231277
              16 O      6.468434167061    2.888916712759    0.395450462495
              17 C     -0.836635569414   -3.405260107922    0.612340373648
              18 H     -1.370807680532   -4.337999325759    0.452643239322
              19 H     -1.542966982462   -2.633686743746    0.896449177253
              20 H     -0.100766745004   -3.544916111833    1.396377150157
------------------------ !GEOMETRY! -------------------------
    Number of atoms:    21 
    Geometry Index:     3 
    Coordinates:
               0 C      0.617732038142   -1.423779279037    0.034522400087
               1 C      1.353681165170   -0.847090618015   -0.972159648019
               2 C      0.598633346781   -0.914934066651    1.330964604891
               3 C      2.108686716181    0.290301424168   -0.686267983231
               4 C      2.114175181591    0.826072065872    0.604554213885
               5 C      1.359977033742    0.221194807037    1.601262772575
               6 H      1.351940136662   -1.263611756685   -1.974036817745
               7 C      3.579080621375    1.795896203921   -1.910061596349
               8 O     -0.140744578639   -2.929681093926   -0.530801126904
               9 H     -0.093524699601   -1.327362068046    2.212759115889
              10 H      2.705468995662    1.710270755070    0.823200063364
              11 H      1.361882581063    0.634910505695    2.603673467963
              12 N      2.848017490974    0.859698742044   -1.721805406538
              13 O      4.300386127151    2.664863966768   -2.234708926234
              14 O      4.145149837329    3.781648192360    0.805437988267
              15 S      5.488243573993    3.966844494663    0.229396228291
              16 O      6.452798069215    2.872371733963    0.398796900470
              17 C     -0.804483849680   -3.360061815999    0.609895719112
              18 H     -1.337077072475   -4.298229117791    0.431178960538
              19 H     -1.523402819686   -2.591745441667    0.896001716135
              20 H     -0.062639894950   -3.515487633742    1.394807353552
------------------------ !GEOMETRY! -------------------------
    Number of atoms:    21 
    Geometry Index:     4 
    Coordinates:
               0 C      0.610467172394   -1.437150176892    0.038245234504
               1 C      1.343843227666   -0.865224187683   -0.970994791135
               2 C      0.579258937808   -0.937507040374    1.343092089895
               3 C      2.097201703495    0.273133200905   -0.684935462935
               4 C      2.101707141531    0.809124746831    0.605406071154
               5 C      1.345994090675    0.202000111450    1.598946352326
               6 H      1.340294298561   -1.286061965843   -1.970375423393
               7 C      3.567056224307    1.779333119316   -1.908556953987
               8 O     -0.083735472383   -2.828093719035   -0.514870243922
               9 H     -0.066835427391   -1.312901266565    2.194150448016
              10 H      2.692157305582    1.693735363941    0.824404065532
              11 H      1.348806788767    0.619157010948    2.600331877128
              12 N      2.836602262921    0.842527401109   -1.720607559525
              13 O      4.287890841291    2.648867029898   -2.232908816123
              14 O      4.130454105163    3.766299388703    0.806900325294
              15 S      5.473647686162    3.952309882001    0.231434686269
              16 O      6.439014272500    2.858643725243    0.401557393307
              17 C     -0.775984020796   -3.317504027389    0.610276123594
              18 H     -1.301029706286   -4.257680767452    0.400055955822
              19 H     -1.509363602879   -2.558235121529    0.898790191476
              20 H     -0.033467829089   -3.492682707583    1.396268436705
------------------------ !GEOMETRY! -------------------------
    Number of atoms:    21 
    Geometry Index:     5 
    Coordinates:
               0 C      0.602390781271   -1.456257887118    0.036396667849
               1 C      1.338120408035   -0.880191120170   -0.973526207466
               2 C      0.565285386149   -0.958620825250    1.346715633205
               3 C      2.088937265683    0.258530620175   -0.686946602757
               4 C      2.092556777139    0.794339863822    0.603364290050
               5 C      1.335489766808    0.183810670999    1.591999483191
               6 H      1.334419470809   -1.303249323229   -1.971261304042
               7 C      3.558309310501    1.767534191937   -1.908399609494
               8 O     -0.032826746068   -2.726918410323   -0.481899324298
               9 H     -0.054043345536   -1.310869291226    2.186671687251
              10 H      2.681693954581    1.679348196925    0.823798166906
              11 H      1.338061392567    0.603184138140    2.592989552928
              12 N      2.828869864390    0.829714758414   -1.722055911490
              13 O      4.278566806339    2.638349420070   -2.231570294972
              14 O      4.117833149571    3.753782795761    0.808831633067
              15 S      5.461141148615    3.941485992543    0.234384381320
              16 O      6.427773127142    2.848885452706    0.404578321130
              17 C     -0.753842531838   -3.280068779685    0.616003434967
              18 H     -1.266473737293   -4.218862443965    0.363890164360
              19 H     -1.503100278241   -2.533991546062    0.908356900755
              20 H     -0.015181970624   -3.477846474466    1.404288937539
------------------------ !GEOMETRY! -------------------------
    Number of atoms:    21 
    Geometry Index:     6 
    Coordinates:
               0 C      0.595307481414   -1.483912667350    0.023848913081
               1 C      1.340311392112   -0.889566184906   -0.983258583136
               2 C      0.559210064114   -0.979600402218    1.335595032064
               3 C      2.086334156946    0.248663347770   -0.693911563176
               4 C      2.088795750923    0.782946828945    0.597544061340
               5 C      1.329750417985    0.165712750080    1.577342784306
               6 H      1.339508749332   -1.310997430373   -1.981047532497
               7 C      3.554917860109    1.765044610971   -1.909010304552
               8 O     -0.000416070254   -2.643543287302   -0.432640438627
               9 H     -0.043301098985   -1.317438913189    2.174253372328
              10 H      2.675538451916    1.668364663418    0.821838256164
              11 H      1.329209307163    0.584666889623    2.579200349213
              12 N      2.827404136918    0.825214500466   -1.726900343461
              13 O      4.274134983080    2.638644842989   -2.228983217168
              14 O      4.107875554460    3.746390568042    0.814032114389
              15 S      5.451254761182    3.937751029606    0.241329409153
              16 O      6.420246681842    2.846906930176    0.410199669344
              17 C     -0.746059115910   -3.253401786974    0.634209478883
              18 H     -1.244062377259   -4.184923465372    0.334417712986
              19 H     -1.507720649907   -2.520762625945    0.933592654610
              20 H     -0.014260437182   -3.474070198457    1.424958174755
------------------------ !GEOMETRY! -------------------------
    Number of atoms:    21 
    Geometry Index:     7 
    Coordinates:
               0 C      0.613568782623   -1.513155047053    0.002748422381
               1 C      1.365127508138   -0.893095032515   -0.999426090651
               2 C      0.572829380938   -0.998572883496    1.306906091252
               3 C      2.099716933038    0.247873055634   -0.703852754570
               4 C      2.096647231176    0.779499063464    0.590329834082
               5 C      1.332726669617    0.152706585061    1.557918555167
               6 H      1.370933743951   -1.310974963034   -1.998715177275
               7 C      3.562395422893    1.780208338592   -1.908742261123
               8 O     -0.030084012662   -2.634868060596   -0.399198902508
               9 H     -0.011707038055   -1.350807255982    2.131680738992
              10 H      2.677462226156    1.666778178305    0.820871349637
              11 H      1.319512924991    0.569304547541    2.561345973199
              12 N      2.840526126164    0.835175835889   -1.732810451197
              13 O      4.277181415197    2.659780657219   -2.224351864432
              14 O      4.103942733513    3.758485715493    0.821943876624
              15 S      5.446124416123    3.957066915275    0.249296122905
              16 O      6.421089301949    2.871210103509    0.416741633711
              17 C     -0.776995751355   -3.251042925573    0.667252563203
              18 H     -1.281424194362   -4.163045583134    0.335314864537
              19 H     -1.524667142275   -2.517182372213    0.995622747913
              20 H     -0.050926677759   -3.493254872389    1.455734728151
------------------------ !GEOMETRY! -------------------------
    Number of atoms:    21 
    Geometry Index:     8 
    Coordinates:
               0 C      0.622385962460   -1.518794677948   -0.003455016282
               1 C      1.382619786435   -0.893854711187   -0.999869752167
               2 C      0.587092186432   -0.995954285426    1.291654782273
               3 C      2.111668369860    0.246966565053   -0.700667691551
               4 C      2.103624860137    0.786461577814    0.593013810751
               5 C      1.336828236609    0.157068823910    1.555970488567
               6 H      1.393473914038   -1.313984295026   -1.999537843300
               7 C      3.571610052368    1.781571890337   -1.907114828644
               8 O     -0.064607602002   -2.626681542906   -0.382083552704
               9 H      0.008641747772   -1.397954407019    2.114878481909
              10 H      2.680499364608    1.676227684044    0.822320833638
              11 H      1.315307156786    0.570986518887    2.560683822308
              12 N      2.853236410002    0.834601984380   -1.729563393608
              13 O      4.283889003478    2.662502430173   -2.225528599445
              14 O      4.106450204344    3.781076247359    0.812886348733
              15 S      5.447480495708    3.977685984451    0.237196638235
              16 O      6.425946577031    2.896453854693    0.414456575908
              17 C     -0.802787142011   -3.256569278961    0.678017945095
              18 H     -1.301274956183   -4.145601656916    0.288630004079
              19 H     -1.545833018134   -2.540288511437    1.054134307477
              20 H     -0.092271609738   -3.529830194273    1.470586638727
------------------------ !GEOMETRY! -------------------------
    Number of atoms:    21 
    Geometry Index:     9 
    Coordinates:
               0 C      0.621110591262   -1.513799917635    0.013345208454
               1 C      1.387782131717   -0.893065727071   -0.981784616768
               2 C      0.600548037823   -0.976532328189    1.302145280265
               3 C      2.116551338595    0.246933841387   -0.685122559140
               4 C      2.108803168459    0.800027477706    0.604758353132
               5 C      1.346359070253    0.173583810222    1.573504025266
               6 H      1.400158371852   -1.318260678486   -1.979736294609
               7 C      3.579124969316    1.771663665145   -1.903818845284
               8 O     -0.081164484226   -2.614424594379   -0.362397644394
               9 H      0.032012339341   -1.421889181588    2.108764555210
              10 H      2.684521434001    1.692508973354    0.824987646907
              11 H      1.325280012193    0.587652929122    2.577964707982
              12 N      2.861218417316    0.826177177620   -1.717807233173
              13 O      4.291628550841    2.649427660592   -2.231167617113
              14 O      4.114247249997    3.810126286022    0.788170554079
              15 S      5.453578370405    3.997084996160    0.205608905349
              16 O      6.433810646633    2.920532171745    0.401161010697
              17 C     -0.825497787914   -3.273642249924    0.664937495444
              18 H     -1.300688630540   -4.133322753052    0.198016477796
              19 H     -1.578874545022   -2.590211504026    1.077292271696
              20 H     -0.146529252302   -3.588480054723    1.467788318203
------------------------ !GEOMETRY! -------------------------
    Number of atoms:    21 
    Geometry Index:     10 
    Coordinates:
               0 C      0.623454526127   -1.505711578458    0.030884396351
               1 C      1.386234558704   -0.892760001210   -0.969078778971
               2 C      0.606550927471   -0.965460018797    1.318523398926
               3 C      2.116537259918    0.248166828888   -0.676126138592
               4 C      2.110664911537    0.805292312860    0.611279583899
               5 C      1.352615153598    0.182392507615    1.587747787047
               6 H      1.396807994211   -1.320129269208   -1.965898359379
               7 C      3.580222873521    1.766951661411   -1.902631739343
               8 O     -0.070615171113   -2.609340388046   -0.351663762264
               9 H      0.031724797185   -1.425286724736    2.118823174387
              10 H      2.687163203253    1.698779009561    0.825608767356
              11 H      1.335041971336    0.598223223956    2.591000911723
              12 N      2.862090368011    0.822717611857   -1.711214990723
              13 O      4.292902385170    2.642677348651   -2.234983968726
              14 O      4.121356958448    3.823452096176    0.773828367669
              15 S      5.458590012240    4.004688042529    0.184595335519
              16 O      6.439678263907    2.930351735520    0.387895277686
              17 C     -0.832702844578   -3.282609882893    0.650660115728
              18 H     -1.292203699610   -4.132042575192    0.147563193641
              19 H     -1.601627400516   -2.616812368723    1.063727291119
              20 H     -0.180507048818   -3.621449571761    1.466070136947
------------------------ !GEOMETRY! -------------------------
    Number of atoms:    21 
    Geometry Index:     11 
    Coordinates:
               0 C      0.626793080047   -1.500586366224    0.042722710814
               1 C      1.385094704974   -0.892845283100   -0.962030150466
               2 C      0.609526807060   -0.960186672322    1.330848203369
               3 C      2.116918203117    0.249453474316   -0.671785459667
               4 C      2.111974796358    0.806763457915    0.614016544700
               5 C      1.355973705685    0.187394352521    1.595544932038
               6 H      1.393942963561   -1.320342859363   -1.958341960074
               7 C      3.578986672234    1.767274292779   -1.902130004620
               8 O     -0.058972797468   -2.612939330099   -0.344607468170
               9 H      0.030821949448   -1.418550098999    2.124160469663
              10 H      2.689465380371    1.700405411984    0.825780974303
              11 H      1.341667695695    0.605655257187    2.597644493652
              12 N      2.861444435211    0.823195543946   -1.707964021493
              13 O      4.290828664292    2.642863641259   -2.236535458160
              14 O      4.128163132741    3.829659773402    0.769085468788
              15 S      5.462837755013    4.008247361401    0.173120511887
              16 O      6.444990147179    2.935139426741    0.377752630461
              17 C     -0.836730105255   -3.289097764342    0.642124029788
              18 H     -1.287949724428   -4.136382019553    0.126337274041
              19 H     -1.618010840598   -2.631507838227    1.044191198881
              20 H     -0.203786625238   -3.641523761223    1.466675080264
------------------------ !GEOMETRY! -------------------------
    Number of atoms:    21 
    Geometry Index:     12 
    Coordinates:
               0 C      0.629034013382   -1.499779809859    0.045368476979
               1 C      1.384914382541   -0.894192960457   -0.961320339435
               2 C      0.610110951487   -0.960820048693    1.333748144320
               3 C      2.117017036155    0.249038355860   -0.671780786050
               4 C      2.112125594106    0.805273035433    0.613687350047
               5 C      1.356210572884    0.187436145751    1.596423769978
               6 H      1.393198938186   -1.320936221275   -1.957863786433
               7 C      3.576853848103    1.768145826171   -1.902610439981
               8 O     -0.050288348566   -2.613182036910   -0.341233946030
               9 H      0.028125340035   -1.416734131787    2.126516963680
              10 H      2.690014482904    1.698749941144    0.825688550770
              11 H      1.343142132919    0.606906135258    2.598039332774
              12 N      2.860194420171    0.823606737196   -1.707904001284
              13 O      4.287650813869    2.644619686898   -2.236747997814
              14 O      4.130834257057    3.830038193932    0.771257047120
              15 S      5.463648500205    4.008572601578    0.171004732601
              16 O      6.447086046767    2.936431097169    0.374566556885
              17 C     -0.835467475453   -3.286965273108    0.640768037378
              18 H     -1.284995921091   -4.135626451150    0.123841631282
              19 H     -1.623782901000   -2.632670152710    1.035194099962
              20 H     -0.211646684658   -3.645820670442    1.469966603252
------------------------ !GEOMETRY! -------------------------
    Number of atoms:    21 
    Geometry Index:     13 
    Coordinates:
               0 C      0.631033392045   -1.501145152156    0.043969952685
               1 C      1.386176349752   -0.895309080050   -0.963013402134
               2 C      0.610707935150   -0.962994216382    1.332337636299
               3 C      2.117707779519    0.248617169356   -0.673344201203
               4 C      2.112596120771    0.803808815623    0.612413445180
               5 C      1.356385172695    0.185991067329    1.594714482939
               6 H      1.394770771430   -1.321246742237   -1.959860644135
               7 C      3.575879048951    1.769568560300   -1.903332129866
               8 O     -0.048915108650   -2.616354914644   -0.340790114275
               9 H      0.028928412534   -1.416514830296    2.125017095205
              10 H      2.690340677032    1.697176185877    0.825498767162
              11 H      1.343362656583    0.605952755006    2.596175751980
              12 N      2.860109534530    0.824325879285   -1.708995231148
              13 O      4.285753022789    2.647181472022   -2.236374075325
              14 O      4.131479382452    3.829828545582    0.775412215937
              15 S      5.462988030768    4.009386453336    0.172520609825
              16 O      6.448007332265    2.938515847408    0.375196862875
              17 C     -0.835659485376   -3.284546262411    0.642607385442
              18 H     -1.287898372169   -4.134923434670    0.130244792963
              19 H     -1.625640910715   -2.629830972047    1.033397950734
              20 H     -0.214131742357   -3.645397146232    1.472812848860
------------------------ !GEOMETRY! -------------------------
    Number of atoms:    21 
    Geometry Index:     14 
    Coordinates:
               0 C      0.631480598569   -1.502430409602    0.042310594365
               1 C      1.387116898682   -0.896151251491   -0.964144714494
               2 C      0.611104843580   -0.964415016913    1.330522250002
               3 C      2.118350975331    0.247774700887   -0.674192804835
               4 C      2.112970508869    0.803040464880    0.611770612749
               5 C      1.356590020214    0.184811734017    1.593478811441
               6 H      1.396156998915   -1.321816025519   -1.961159226979
               7 C      3.575740189511    1.769569417766   -1.903761459263
               8 O     -0.050023063445   -2.616998148711   -0.341033287022
               9 H      0.030602459036   -1.418103299547    2.123964518148
              10 H      2.690413378518    1.696463304059    0.825385572246
              11 H      1.343364224739    0.604770244288    2.594967905669
              12 N      2.860643034352    0.823800943480   -1.709610984197
              13 O      4.285008480723    2.647946106219   -2.236072662900
              14 O      4.131197771702    3.830169573423    0.778078602177
              15 S      5.461744574019    4.010323541387    0.173248204182
              16 O      6.448294180995    2.940957494730    0.376508748614
              17 C     -0.835957093311   -3.282405063839    0.643888270231
              18 H     -1.290574967524   -4.133193318686    0.134084795175
              19 H     -1.625971627079   -2.627474466265    1.034816548246
              20 H     -0.214272386394   -3.644550524561    1.473559706443
------------------------ !GEOMETRY! -------------------------
    Number of atoms:    21 
    Geometry Index:     15 
    Coordinates:
               0 C      0.631491032745   -1.502996279402    0.041896862344
               1 C      1.387471949950   -0.896531830866   -0.964274171406
               2 C      0.611427017232   -0.964757196814    1.330017737119
               3 C      2.118616152227    0.247273048969   -0.674310871629
               4 C      2.113215683620    0.802925884325    0.611664065412
               5 C      1.356906375314    0.184450358094    1.593245500298
               6 H      1.396730136491   -1.322298022101   -1.961276370172
               7 C      3.575889637902    1.769133015399   -1.903855246630
               8 O     -0.050975978810   -2.617038360270   -0.341234660533
               9 H      0.031930320398   -1.419166193249    2.124000350834
              10 H      2.690551011955    1.696408678720    0.825227127653
              11 H      1.343648400545    0.604361786299    2.594751070434
              12 N      2.861179232700    0.823082046671   -1.709709172396
              13 O      4.284858949925    2.647890679394   -2.235820620178
              14 O      4.131200108226    3.830877254067    0.779286507055
              15 S      5.460908253979    4.011042285142    0.172629122846
              16 O      6.448681832764    2.943010279753    0.377020631266
              17 C     -0.836507670608   -3.281741879013    0.643927829430
              18 H     -1.292284590718   -4.132411931874    0.134889758241
              19 H     -1.626313843056   -2.626706497850    1.035363197341
              20 H     -0.214644012781   -3.644717125394    1.473171352670
------------------------ !GEOMETRY! -------------------------
    Number of atoms:    21 
    Geometry Index:     16 
    Coordinates:
               0 C      0.631491032745   -1.502996279402    0.041896862344
               1 C      1.387471949950   -0.896531830866   -0.964274171406
               2 C      0.611427017232   -0.964757196814    1.330017737119
               3 C      2.118616152227    0.247273048969   -0.674310871629
               4 C      2.113215683620    0.802925884325    0.611664065412
               5 C      1.356906375314    0.184450358094    1.593245500298
               6 H      1.396730136491   -1.322298022101   -1.961276370172
               7 C      3.575889637902    1.769133015399   -1.903855246630
               8 O     -0.050975978810   -2.617038360270   -0.341234660533
               9 H      0.031930320398   -1.419166193249    2.124000350834
              10 H      2.690551011955    1.696408678720    0.825227127653
              11 H      1.343648400545    0.604361786299    2.594751070434
              12 N      2.861179232700    0.823082046671   -1.709709172396
              13 O      4.284858949925    2.647890679394   -2.235820620178
              14 O      4.131200108226    3.830877254067    0.779286507055
              15 S      5.460908253979    4.011042285142    0.172629122846
              16 O      6.448681832764    2.943010279753    0.377020631266
              17 C     -0.836507670608   -3.281741879013    0.643927829430
              18 H     -1.292284590718   -4.132411931874    0.134889758241
              19 H     -1.626313843056   -2.626706497850    1.035363197341
              20 H     -0.214644012781   -3.644717125394    1.473171352670
