-------------------------------------------------------------
----------------------- !PROPERTIES! ------------------------
-------------------------------------------------------------
# -----------------------------------------------------------
$ SCF_Energy
   description: The SCF energy
   geom. index: 1
   prop. index: 1
        SCF Energy:     -948.1570054139
# -----------------------------------------------------------
$ DFT_Energy
   description: The DFT energy
   geom. index: 1
   prop. index: 1
   Number of Alpha Electrons                 47.0000001334 
   Number of Beta  Electrons                 47.0000001334 
   Total number of  Electrons                94.0000002668 
   Exchange energy                          -94.4541518165 
   Correlation energy                        -3.2119485792 
   Correlation energy NL                      0.0000000000 
   Exchange-Correlation energy              -97.6661003956 
   Embedding correction                       0.0000000000 
   Total DFT Energy (No VdW correction)    -948.1570054139 
# -----------------------------------------------------------
$ Solvation_Details
   description: Details concerning solvation
   geom. index: 1
   prop. index: 1
     Epsilon:                2.4000000000
     Refrac:                 1.4970000000
     RSolv:                  1.3000000000
     Surface Type:                      2
     Number of Points:                982
     Surface Area:         723.1231809968
     Dielectric Energy:     -0.0064750106
# -----------------------------------------------------------
$ Mayer_Pop
   description: The Mayer population analysis
   geom. index: 1
   prop. index: 1
     Number of atoms                     : 17
     Threshold for printing              : 0.1000000
     Number of bond orders printed       : 19
  NA   - Mulliken gross atomic population
  ZA   - Total nuclear charge
  QA   - Mulliken gross atomic charge
  VA   - Mayer's total valence
  BVA  - Mayer's bonded valence
  FA   - Mayer's free valence
  ATOM       NA         ZA         QA         VA         BVA        FA
  0   0     6.1563     6.0000    -0.1563     3.7429     3.7429    -0.0000
  1   0     6.2200     6.0000    -0.2200     3.8575     3.8575    -0.0000
  2   0     6.1316     6.0000    -0.1316     3.7880     3.7880    -0.0000
  3   0     5.9452     6.0000     0.0548     3.6914     3.6914    -0.0000
  4   0     6.2059     6.0000    -0.2059     3.8142     3.8142    -0.0000
  5   0     6.1648     6.0000    -0.1648     3.7510     3.7510     0.0000
  6   0     0.8171     1.0000     0.1829     0.9566     0.9566    -0.0000
  7   0     5.6295     6.0000     0.3705     3.7658     3.7658    -0.0000
  8   0     0.8320     1.0000     0.1680     0.9629     0.9629    -0.0000
  9   0     0.8316     1.0000     0.1684     0.9619     0.9619     0.0000
 10   0     0.8178     1.0000     0.1822     0.9562     0.9562    -0.0000
 11   0     0.8330     1.0000     0.1670     0.9633     0.9633     0.0000
 12   0     7.2467     7.0000    -0.2467     3.0131     3.0131    -0.0000
 13   0     8.1775     8.0000    -0.1775     1.9274     1.9274    -0.0000
 14   0     8.3125     8.0000    -0.3125     2.0136     2.0136     0.0000
 15   0    15.2673    16.0000     0.7327     3.2500     3.2500    -0.0000
 16   0     8.4113     8.0000    -0.4113     1.8778     1.8778     0.0000
      Bond orders larger than 0.1000000
           Atom A     A.N. of A          Atom B    A.N. of B              Bond order
                0             6               1            6                1.396978
                0             6               2            6                1.373139
                0             6               8            1                0.950751
                1             6               3            6                1.373197
                1             6               6            1                0.953858
                2             6               5            6                1.401601
                2             6               9            1                0.946869
                3             6               4            6                1.372209
                3             6               7            6                1.010528
                4             6               5            6                1.368335
                4             6              10            1                0.956693
                5             6              11            1                0.952861
                7             6              12            7                1.695184
                7             6              14            8                1.036959
               12             7              13            8                1.002110
               12             7              15           16                0.106898
               13             8              15           16                0.706276
               14             8              15           16                0.769085
               15            16              16            8                1.649303
# -----------------------------------------------------------
$ VdW_Correction
   description: The Van der Waals Correction
   geom. index: 1
   prop. index: 1
        Van der Waals Correction:       -0.0066933846
# -----------------------------------------------------------
$ SCF_Energy
   description: The SCF energy
   geom. index: 2
   prop. index: 1
        SCF Energy:     -948.1783796305
# -----------------------------------------------------------
$ DFT_Energy
   description: The DFT energy
   geom. index: 2
   prop. index: 1
   Number of Alpha Electrons                 47.0000002424 
   Number of Beta  Electrons                 47.0000002424 
   Total number of  Electrons                94.0000004848 
   Exchange energy                          -94.5901604649 
   Correlation energy                        -3.2215310856 
   Correlation energy NL                      0.0000000000 
   Exchange-Correlation energy              -97.8116915505 
   Embedding correction                       0.0000000000 
   Total DFT Energy (No VdW correction)    -948.1783796305 
# -----------------------------------------------------------
$ Solvation_Details
   description: Details concerning solvation
   geom. index: 2
   prop. index: 1
     Epsilon:                2.4000000000
     Refrac:                 1.4970000000
     RSolv:                  1.3000000000
     Surface Type:                      2
     Number of Points:                975
     Surface Area:         712.2710935737
     Dielectric Energy:     -0.0060435631
# -----------------------------------------------------------
$ VdW_Correction
   description: The Van der Waals Correction
   geom. index: 2
   prop. index: 1
        Van der Waals Correction:       -0.0067639386
# -----------------------------------------------------------
$ SCF_Energy
   description: The SCF energy
   geom. index: 3
   prop. index: 1
        SCF Energy:     -948.1851997836
# -----------------------------------------------------------
$ DFT_Energy
   description: The DFT energy
   geom. index: 3
   prop. index: 1
   Number of Alpha Electrons                 47.0000008242 
   Number of Beta  Electrons                 47.0000008242 
   Total number of  Electrons                94.0000016483 
   Exchange energy                          -94.7381285763 
   Correlation energy                        -3.2305907701 
   Correlation energy NL                      0.0000000000 
   Exchange-Correlation energy              -97.9687193463 
   Embedding correction                       0.0000000000 
   Total DFT Energy (No VdW correction)    -948.1851997836 
# -----------------------------------------------------------
$ Solvation_Details
   description: Details concerning solvation
   geom. index: 3
   prop. index: 1
     Epsilon:                2.4000000000
     Refrac:                 1.4970000000
     RSolv:                  1.3000000000
     Surface Type:                      2
     Number of Points:                973
     Surface Area:         702.1281586313
     Dielectric Energy:     -0.0057035792
# -----------------------------------------------------------
$ VdW_Correction
   description: The Van der Waals Correction
   geom. index: 3
   prop. index: 1
        Van der Waals Correction:       -0.0068179889
# -----------------------------------------------------------
$ SCF_Energy
   description: The SCF energy
   geom. index: 4
   prop. index: 1
        SCF Energy:     -948.1867875228
# -----------------------------------------------------------
$ DFT_Energy
   description: The DFT energy
   geom. index: 4
   prop. index: 1
   Number of Alpha Electrons                 47.0000010312 
   Number of Beta  Electrons                 47.0000010312 
   Total number of  Electrons                94.0000020623 
   Exchange energy                          -94.6952657052 
   Correlation energy                        -3.2282096287 
   Correlation energy NL                      0.0000000000 
   Exchange-Correlation energy              -97.9234753339 
   Embedding correction                       0.0000000000 
   Total DFT Energy (No VdW correction)    -948.1867875228 
# -----------------------------------------------------------
$ Solvation_Details
   description: Details concerning solvation
   geom. index: 4
   prop. index: 1
     Epsilon:                2.4000000000
     Refrac:                 1.4970000000
     RSolv:                  1.3000000000
     Surface Type:                      2
     Number of Points:                972
     Surface Area:         704.2569564788
     Dielectric Energy:     -0.0058716230
# -----------------------------------------------------------
$ VdW_Correction
   description: The Van der Waals Correction
   geom. index: 4
   prop. index: 1
        Van der Waals Correction:       -0.0068091964
# -----------------------------------------------------------
$ SCF_Energy
   description: The SCF energy
   geom. index: 5
   prop. index: 1
        SCF Energy:     -948.1872742568
# -----------------------------------------------------------
$ DFT_Energy
   description: The DFT energy
   geom. index: 5
   prop. index: 1
   Number of Alpha Electrons                 47.0000010358 
   Number of Beta  Electrons                 47.0000010358 
   Total number of  Electrons                94.0000020715 
   Exchange energy                          -94.6970444427 
   Correlation energy                        -3.2283277898 
   Correlation energy NL                      0.0000000000 
   Exchange-Correlation energy              -97.9253722325 
   Embedding correction                       0.0000000000 
   Total DFT Energy (No VdW correction)    -948.1872742568 
# -----------------------------------------------------------
$ Solvation_Details
   description: Details concerning solvation
   geom. index: 5
   prop. index: 1
     Epsilon:                2.4000000000
     Refrac:                 1.4970000000
     RSolv:                  1.3000000000
     Surface Type:                      2
     Number of Points:                970
     Surface Area:         703.5100792401
     Dielectric Energy:     -0.0059328743
# -----------------------------------------------------------
$ VdW_Correction
   description: The Van der Waals Correction
   geom. index: 5
   prop. index: 1
        Van der Waals Correction:       -0.0068138612
# -----------------------------------------------------------
$ SCF_Energy
   description: The SCF energy
   geom. index: 6
   prop. index: 1
        SCF Energy:     -948.1875442737
# -----------------------------------------------------------
$ DFT_Energy
   description: The DFT energy
   geom. index: 6
   prop. index: 1
   Number of Alpha Electrons                 47.0000010289 
   Number of Beta  Electrons                 47.0000010289 
   Total number of  Electrons                94.0000020577 
   Exchange energy                          -94.7001201762 
   Correlation energy                        -3.2284382969 
   Correlation energy NL                      0.0000000000 
   Exchange-Correlation energy              -97.9285584730 
   Embedding correction                       0.0000000000 
   Total DFT Energy (No VdW correction)    -948.1875442737 
# -----------------------------------------------------------
$ Solvation_Details
   description: Details concerning solvation
   geom. index: 6
   prop. index: 1
     Epsilon:                2.4000000000
     Refrac:                 1.4970000000
     RSolv:                  1.3000000000
     Surface Type:                      2
     Number of Points:                970
     Surface Area:         702.1258411376
     Dielectric Energy:     -0.0059953351
# -----------------------------------------------------------
$ VdW_Correction
   description: The Van der Waals Correction
   geom. index: 6
   prop. index: 1
        Van der Waals Correction:       -0.0068192719
# -----------------------------------------------------------
$ SCF_Energy
   description: The SCF energy
   geom. index: 7
   prop. index: 1
        SCF Energy:     -948.1875894494
# -----------------------------------------------------------
$ DFT_Energy
   description: The DFT energy
   geom. index: 7
   prop. index: 1
   Number of Alpha Electrons                 47.0000009859 
   Number of Beta  Electrons                 47.0000009859 
   Total number of  Electrons                94.0000019719 
   Exchange energy                          -94.6995241713 
   Correlation energy                        -3.2283516819 
   Correlation energy NL                      0.0000000000 
   Exchange-Correlation energy              -97.9278758532 
   Embedding correction                       0.0000000000 
   Total DFT Energy (No VdW correction)    -948.1875894494 
# -----------------------------------------------------------
$ Solvation_Details
   description: Details concerning solvation
   geom. index: 7
   prop. index: 1
     Epsilon:                2.4000000000
     Refrac:                 1.4970000000
     RSolv:                  1.3000000000
     Surface Type:                      2
     Number of Points:                969
     Surface Area:         701.5998123126
     Dielectric Energy:     -0.0059973302
# -----------------------------------------------------------
$ VdW_Correction
   description: The Van der Waals Correction
   geom. index: 7
   prop. index: 1
        Van der Waals Correction:       -0.0068204963
# -----------------------------------------------------------
$ SCF_Energy
   description: The SCF energy
   geom. index: 8
   prop. index: 1
        SCF Energy:     -948.1876366558
# -----------------------------------------------------------
$ DFT_Energy
   description: The DFT energy
   geom. index: 8
   prop. index: 1
   Number of Alpha Electrons                 47.0000008378 
   Number of Beta  Electrons                 47.0000008378 
   Total number of  Electrons                94.0000016756 
   Exchange energy                          -94.6977030302 
   Correlation energy                        -3.2281239042 
   Correlation energy NL                      0.0000000000 
   Exchange-Correlation energy              -97.9258269344 
   Embedding correction                       0.0000000000 
   Total DFT Energy (No VdW correction)    -948.1876366558 
# -----------------------------------------------------------
$ Solvation_Details
   description: Details concerning solvation
   geom. index: 8
   prop. index: 1
     Epsilon:                2.4000000000
     Refrac:                 1.4970000000
     RSolv:                  1.3000000000
     Surface Type:                      2
     Number of Points:                965
     Surface Area:         700.4694567400
     Dielectric Energy:     -0.0059901082
# -----------------------------------------------------------
$ VdW_Correction
   description: The Van der Waals Correction
   geom. index: 8
   prop. index: 1
        Van der Waals Correction:       -0.0068210521
# -----------------------------------------------------------
$ SCF_Energy
   description: The SCF energy
   geom. index: 9
   prop. index: 1
        SCF Energy:     -948.1876443839
# -----------------------------------------------------------
$ DFT_Energy
   description: The DFT energy
   geom. index: 9
   prop. index: 1
   Number of Alpha Electrons                 47.0000007655 
   Number of Beta  Electrons                 47.0000007655 
   Total number of  Electrons                94.0000015309 
   Exchange energy                          -94.6981424172 
   Correlation energy                        -3.2281589201 
   Correlation energy NL                      0.0000000000 
   Exchange-Correlation energy              -97.9263013374 
   Embedding correction                       0.0000000000 
   Total DFT Energy (No VdW correction)    -948.1876443839 
# -----------------------------------------------------------
$ Solvation_Details
   description: Details concerning solvation
   geom. index: 9
   prop. index: 1
     Epsilon:                2.4000000000
     Refrac:                 1.4970000000
     RSolv:                  1.3000000000
     Surface Type:                      2
     Number of Points:                960
     Surface Area:         700.2654867322
     Dielectric Energy:     -0.0059879010
# -----------------------------------------------------------
$ VdW_Correction
   description: The Van der Waals Correction
   geom. index: 9
   prop. index: 1
        Van der Waals Correction:       -0.0068216159
# -----------------------------------------------------------
$ SCF_Energy
   description: The SCF energy
   geom. index: 10
   prop. index: 1
        SCF Energy:     -948.1876460608
# -----------------------------------------------------------
$ DFT_Energy
   description: The DFT energy
   geom. index: 10
   prop. index: 1
   Number of Alpha Electrons                 47.0000007108 
   Number of Beta  Electrons                 47.0000007108 
   Total number of  Electrons                94.0000014217 
   Exchange energy                          -94.6983733490 
   Correlation energy                        -3.2281845503 
   Correlation energy NL                      0.0000000000 
   Exchange-Correlation energy              -97.9265578993 
   Embedding correction                       0.0000000000 
   Total DFT Energy (No VdW correction)    -948.1876460608 
# -----------------------------------------------------------
$ Solvation_Details
   description: Details concerning solvation
   geom. index: 10
   prop. index: 1
     Epsilon:                2.4000000000
     Refrac:                 1.4970000000
     RSolv:                  1.3000000000
     Surface Type:                      2
     Number of Points:                963
     Surface Area:         700.1790365094
     Dielectric Energy:     -0.0059877333
# -----------------------------------------------------------
$ VdW_Correction
   description: The Van der Waals Correction
   geom. index: 10
   prop. index: 1
        Van der Waals Correction:       -0.0068213314
# -----------------------------------------------------------
$ SCF_Energy
   description: The SCF energy
   geom. index: 11
   prop. index: 1
        SCF Energy:     -948.1876462601
# -----------------------------------------------------------
$ DFT_Energy
   description: The DFT energy
   geom. index: 11
   prop. index: 1
   Number of Alpha Electrons                 47.0000006853 
   Number of Beta  Electrons                 47.0000006853 
   Total number of  Electrons                94.0000013706 
   Exchange energy                          -94.6985118535 
   Correlation energy                        -3.2282036495 
   Correlation energy NL                      0.0000000000 
   Exchange-Correlation energy              -97.9267155030 
   Embedding correction                       0.0000000000 
   Total DFT Energy (No VdW correction)    -948.1876462601 
# -----------------------------------------------------------
$ Solvation_Details
   description: Details concerning solvation
   geom. index: 11
   prop. index: 1
     Epsilon:                2.4000000000
     Refrac:                 1.4970000000
     RSolv:                  1.3000000000
     Surface Type:                      2
     Number of Points:                965
     Surface Area:         700.1431854527
     Dielectric Energy:     -0.0059891672
# -----------------------------------------------------------
$ Mayer_Pop
   description: The Mayer population analysis
   geom. index: 11
   prop. index: 1
     Number of atoms                     : 17
     Threshold for printing              : 0.1000000
     Number of bond orders printed       : 18
  NA   - Mulliken gross atomic population
  ZA   - Total nuclear charge
  QA   - Mulliken gross atomic charge
  VA   - Mayer's total valence
  BVA  - Mayer's bonded valence
  FA   - Mayer's free valence
  ATOM       NA         ZA         QA         VA         BVA        FA
  0   0     6.1571     6.0000    -0.1571     3.7508     3.7508     0.0000
  1   0     6.2127     6.0000    -0.2127     3.8616     3.8616    -0.0000
  2   0     6.1278     6.0000    -0.1278     3.7893     3.7893     0.0000
  3   0     5.9806     6.0000     0.0194     3.6791     3.6791     0.0000
  4   0     6.2065     6.0000    -0.2065     3.8248     3.8248     0.0000
  5   0     6.1648     6.0000    -0.1648     3.7581     3.7581     0.0000
  6   0     0.8172     1.0000     0.1828     0.9567     0.9567     0.0000
  7   0     5.6114     6.0000     0.3886     3.8088     3.8088     0.0000
  8   0     0.8328     1.0000     0.1672     0.9632     0.9632    -0.0000
  9   0     0.8319     1.0000     0.1681     0.9621     0.9621     0.0000
 10   0     0.8186     1.0000     0.1814     0.9567     0.9567    -0.0000
 11   0     0.8335     1.0000     0.1665     0.9635     0.9635    -0.0000
 12   0     7.2560     7.0000    -0.2560     2.8867     2.8867     0.0000
 13   0     8.1315     8.0000    -0.1315     1.8464     1.8464     0.0000
 14   0     8.2488     8.0000    -0.2488     1.9700     1.9700     0.0000
 15   0    15.3375    16.0000     0.6625     3.3538     3.3538    -0.0000
 16   0     8.4312     8.0000    -0.4312     1.7513     1.7513    -0.0000
      Bond orders larger than 0.1000000
           Atom A     A.N. of A          Atom B    A.N. of B              Bond order
                0             6               1            6                1.401751
                0             6               2            6                1.376435
                0             6               8            1                0.951579
                1             6               3            6                1.382239
                1             6               6            1                0.951465
                2             6               5            6                1.404479
                2             6               9            1                0.946222
                3             6               4            6                1.378073
                3             6               7            6                0.982242
                4             6               5            6                1.372526
                4             6              10            1                0.956098
                5             6              11            1                0.952709
                7             6              12            7                1.726104
                7             6              14            8                1.054460
               12             7              13            8                0.922039
               13             8              15           16                0.791527
               14             8              15           16                0.784122
               15            16              16            8                1.670980
# -----------------------------------------------------------
$ VdW_Correction
   description: The Van der Waals Correction
   geom. index: 11
   prop. index: 1
        Van der Waals Correction:       -0.0068214056
# -----------------------------------------------------------
$ SCF_Electric_Properties
   description: The SCF Calculated Electric Properties
   geom. index: 11
   prop. index: 1
       Filename                          : orca.scfp 
       Do Dipole Moment Calculation      : true 
       Do Quadrupole Moment Calculation  : false 
       Do Polarizability Calculation     : false 
** Dipole moment part of electric properties **
        Magnitude of dipole moment (Debye) :        3.9774281462
        Electronic Contribution:
                  0    
      0      10.377082
      1       7.921479
      2      -0.702165
        Nuclear Contribution:
                  0    
      0     -11.179985
      1      -8.822547
      2       1.698183
        Total Dipole moment:
                  0    
      0      -0.802903
      1      -0.901068
      2       0.996018
# -----------------------------------------------------------
$ Hessian
   description: Details about the Hessian
   geom. index: 11
   prop. index: 1
Normal modes:
Number of Rows: 51 Number of Columns: 51
                  0          1          2          3          4          5    
      0       0.000000   0.000000   0.000000   0.000000   0.000000   0.000000
      1       0.000000   0.000000   0.000000   0.000000   0.000000   0.000000
      2       0.000000   0.000000   0.000000   0.000000   0.000000   0.000000
      3       0.000000   0.000000   0.000000   0.000000   0.000000   0.000000
      4       0.000000   0.000000   0.000000   0.000000   0.000000   0.000000
      5       0.000000   0.000000   0.000000   0.000000   0.000000   0.000000
      6       0.000000   0.000000   0.000000   0.000000   0.000000   0.000000
      7       0.000000   0.000000   0.000000   0.000000   0.000000   0.000000
      8       0.000000   0.000000   0.000000   0.000000   0.000000   0.000000
      9       0.000000   0.000000   0.000000   0.000000   0.000000   0.000000
     10       0.000000   0.000000   0.000000   0.000000   0.000000   0.000000
     11       0.000000   0.000000   0.000000   0.000000   0.000000   0.000000
     12       0.000000   0.000000   0.000000   0.000000   0.000000   0.000000
     13       0.000000   0.000000   0.000000   0.000000   0.000000   0.000000
     14       0.000000   0.000000   0.000000   0.000000   0.000000   0.000000
     15       0.000000   0.000000   0.000000   0.000000   0.000000   0.000000
     16       0.000000   0.000000   0.000000   0.000000   0.000000   0.000000
     17       0.000000   0.000000   0.000000   0.000000   0.000000   0.000000
     18       0.000000   0.000000   0.000000   0.000000   0.000000   0.000000
     19       0.000000   0.000000   0.000000   0.000000   0.000000   0.000000
     20       0.000000   0.000000   0.000000   0.000000   0.000000   0.000000
     21       0.000000   0.000000   0.000000   0.000000   0.000000   0.000000
     22       0.000000   0.000000   0.000000   0.000000   0.000000   0.000000
     23       0.000000   0.000000   0.000000   0.000000   0.000000   0.000000
     24       0.000000   0.000000   0.000000   0.000000   0.000000   0.000000
     25       0.000000   0.000000   0.000000   0.000000   0.000000   0.000000
     26       0.000000   0.000000   0.000000   0.000000   0.000000   0.000000
     27       0.000000   0.000000   0.000000   0.000000   0.000000   0.000000
     28       0.000000   0.000000   0.000000   0.000000   0.000000   0.000000
     29       0.000000   0.000000   0.000000   0.000000   0.000000   0.000000
     30       0.000000   0.000000   0.000000   0.000000   0.000000   0.000000
     31       0.000000   0.000000   0.000000   0.000000   0.000000   0.000000
     32       0.000000   0.000000   0.000000   0.000000   0.000000   0.000000
     33       0.000000   0.000000   0.000000   0.000000   0.000000   0.000000
     34       0.000000   0.000000   0.000000   0.000000   0.000000   0.000000
     35       0.000000   0.000000   0.000000   0.000000   0.000000   0.000000
     36       0.000000   0.000000   0.000000   0.000000   0.000000   0.000000
     37       0.000000   0.000000   0.000000   0.000000   0.000000   0.000000
     38       0.000000   0.000000   0.000000   0.000000   0.000000   0.000000
     39       0.000000   0.000000   0.000000   0.000000   0.000000   0.000000
     40       0.000000   0.000000   0.000000   0.000000   0.000000   0.000000
     41       0.000000   0.000000   0.000000   0.000000   0.000000   0.000000
     42       0.000000   0.000000   0.000000   0.000000   0.000000   0.000000
     43       0.000000   0.000000   0.000000   0.000000   0.000000   0.000000
     44       0.000000   0.000000   0.000000   0.000000   0.000000   0.000000
     45       0.000000   0.000000   0.000000   0.000000   0.000000   0.000000
     46       0.000000   0.000000   0.000000   0.000000   0.000000   0.000000
     47       0.000000   0.000000   0.000000   0.000000   0.000000   0.000000
     48       0.000000   0.000000   0.000000   0.000000   0.000000   0.000000
     49       0.000000   0.000000   0.000000   0.000000   0.000000   0.000000
     50       0.000000   0.000000   0.000000   0.000000   0.000000   0.000000
                  6          7          8          9         10         11    
      0       0.053865  -0.068323  -0.012898  -0.063151   0.028182  -0.114324
      1      -0.069003   0.056888  -0.095407  -0.131140   0.028686  -0.132281
      2      -0.223707   0.101549   0.080565   0.004742  -0.027566   0.007782
      3       0.058456   0.009920  -0.078911  -0.184341   0.103532  -0.111119
      4      -0.071151  -0.051672  -0.054098   0.018926  -0.079584  -0.129933
      5      -0.199850  -0.093938  -0.146033   0.123499  -0.179612  -0.143605
      6      -0.004919  -0.139755   0.103196   0.074444  -0.063538  -0.128683
      7       0.000043   0.093791  -0.012394  -0.146158   0.089300  -0.070982
      8      -0.030905   0.226582   0.206629  -0.105914   0.162257   0.158515
      9       0.006748   0.017676  -0.033613  -0.157277   0.063904  -0.086894
     10      -0.001269  -0.119908   0.058608   0.143152  -0.071375   0.005332
     11       0.021416  -0.163222  -0.224146   0.127986  -0.050564  -0.055387
     12      -0.051639  -0.047212   0.094602  -0.050543   0.048844  -0.083432
     13       0.065906  -0.095539   0.110995   0.160538  -0.121946  -0.042853
     14       0.208625  -0.070831  -0.170653   0.112159  -0.157924  -0.152136
     15      -0.057486  -0.126059   0.169092   0.078068  -0.024242  -0.063847
     16       0.067824   0.013327   0.076694   0.015010  -0.040869  -0.063158
     17       0.184211   0.126587   0.051552  -0.011797  -0.053871  -0.055919
     18       0.103087   0.058764  -0.179124  -0.293342   0.167961  -0.177434
     19      -0.130093  -0.071007  -0.106669   0.006023  -0.111883  -0.185095
     20      -0.362993  -0.166742  -0.214485   0.153016  -0.290166  -0.239396
     21       0.009878   0.045090  -0.068448  -0.130941  -0.039397  -0.042396
     22       0.001048  -0.146554   0.093696   0.109953   0.069453   0.086868
     23       0.057423  -0.185139  -0.154820   0.023785   0.170972   0.176995
     24       0.096858  -0.075726  -0.061460  -0.075259   0.037137  -0.123237
     25      -0.124471   0.119286  -0.185287  -0.245983   0.078199  -0.146287
     26      -0.402700   0.169882   0.174946  -0.037184  -0.021643   0.024700
     27      -0.008549  -0.204337   0.141866   0.177171  -0.143382  -0.143096
     28       0.000422   0.186049  -0.022419  -0.273599   0.205189  -0.026322
     29      -0.054097   0.400519   0.411278  -0.253463   0.390612   0.361417
     30      -0.093331  -0.043863   0.137476  -0.040950   0.054334  -0.067551
     31       0.116000  -0.152091   0.195716   0.262810  -0.186181  -0.053163
     32       0.380932  -0.120816  -0.259671   0.147642  -0.217552  -0.206834
     33      -0.101958  -0.179383   0.271275   0.189479  -0.064676   0.011404
     34       0.122378   0.039001   0.132710   0.021876  -0.055269  -0.051278
     35       0.334911   0.216308   0.120361  -0.060699  -0.063017  -0.071400
     36      -0.023037  -0.000994   0.039859  -0.079717  -0.204481   0.085086
     37       0.076957  -0.072069   0.170441   0.165708   0.151908   0.063346
     38       0.198130  -0.041008  -0.043434   0.119297   0.358581   0.111701
     39      -0.000542  -0.050391   0.084992   0.047203  -0.124880   0.172737
     40       0.040839  -0.017455   0.091691  -0.037341   0.032625  -0.089458
     41       0.171183   0.067799   0.160880  -0.153828  -0.124318  -0.214681
     42       0.053789   0.060745  -0.125414  -0.039737   0.056907  -0.048891
     43      -0.080833  -0.187157  -0.005150  -0.109388   0.053714   0.171469
     44      -0.068664  -0.240544  -0.055349  -0.244336  -0.051977   0.337217
     45       0.026168   0.003471  -0.019737   0.034139  -0.000651   0.128162
     46      -0.045841   0.051938  -0.120337  -0.086300   0.072623  -0.071244
     47      -0.051780   0.079261   0.076375   0.002503  -0.093757   0.022325
     48      -0.096458   0.243292  -0.104350   0.322243   0.157013   0.049823
     49       0.070427   0.343426  -0.129207   0.061171  -0.265611   0.294922
     50      -0.178591   0.062222   0.032747   0.085853   0.165281  -0.208916
                 12         13         14         15         16         17    
      0       0.169933  -0.040637  -0.050067  -0.031050  -0.077946  -0.005484
      1       0.201870   0.073121   0.018785  -0.107844   0.008955  -0.069813
      2      -0.044458   0.206781   0.009968  -0.030111   0.102237  -0.101749
      3       0.181647   0.058742  -0.129745  -0.067850  -0.117959  -0.036900
      4       0.133719  -0.081802   0.076218  -0.020941   0.052334  -0.012424
      5      -0.060196  -0.159589  -0.187102   0.026505  -0.003887  -0.033985
      6       0.183739  -0.014142   0.105968  -0.071311   0.054466  -0.062362
      7       0.223588  -0.020365   0.077436  -0.084576  -0.081471   0.034867
      8       0.003662  -0.026185   0.087079   0.048763  -0.156313   0.177312
      9       0.093461   0.024923  -0.155848  -0.021302  -0.003589  -0.070977
     10       0.006655  -0.021089   0.135091   0.079283  -0.029500   0.145492
     11       0.023604  -0.012689   0.018367   0.019082  -0.300370   0.265690
     12       0.190724  -0.048212  -0.004969  -0.070158  -0.046585  -0.030256
     13       0.041495   0.049359   0.203016   0.019184   0.118273   0.040644
     14      -0.006843   0.208717  -0.045276  -0.082659  -0.030986  -0.025752
     15       0.167476   0.017959   0.160802  -0.049474   0.003940   0.018345
     16       0.097674  -0.083763   0.076776  -0.002429   0.104791  -0.028713
     17      -0.024671  -0.171897  -0.124931   0.011878   0.102212  -0.140323
     18       0.311419   0.112344  -0.156906  -0.167819  -0.237010  -0.025030
     19       0.154658  -0.162425  -0.003811  -0.052015   0.111341  -0.121353
     20      -0.077722  -0.378756  -0.355868   0.007140   0.202801  -0.296166
     21      -0.077332   0.005786   0.044163   0.177377   0.095383   0.024115
     22      -0.028698   0.010775  -0.125519  -0.014110  -0.119960   0.008910
     23       0.051144  -0.038181   0.178992   0.027672  -0.056252   0.005914
     24       0.166275  -0.083446  -0.098725  -0.011805  -0.149446   0.047953
     25       0.186469   0.179217  -0.131151  -0.136805   0.023965  -0.170563
     26      -0.040152   0.420932   0.061209  -0.116535   0.341838  -0.348781
     27       0.148186  -0.013339   0.152126  -0.059402   0.129122  -0.071375
     28       0.266491  -0.028210   0.047855  -0.092667  -0.174921   0.063388
     29       0.043668  -0.074395   0.209424   0.078357  -0.270235   0.307791
     30       0.202075  -0.111388   0.038830  -0.057943  -0.069376   0.019753
     31       0.071104   0.119297   0.364031  -0.040399   0.253712  -0.039532
     32      -0.034448   0.468017  -0.088303  -0.162615   0.140808  -0.243326
     33       0.081108   0.055497   0.275294   0.035898   0.029756   0.122322
     34       0.065138  -0.162583   0.048465   0.025688   0.213923  -0.116991
     35      -0.050970  -0.373729  -0.259675   0.027602   0.335661  -0.402689
     36      -0.124966   0.009460  -0.001503   0.171185  -0.006201   0.062470
     37      -0.031281   0.036233  -0.244870   0.075677  -0.064090  -0.088432
     38       0.116403  -0.001900   0.027801   0.171990   0.149390  -0.125755
     39      -0.141689   0.013171   0.011488   0.275288  -0.257754  -0.293009
     40      -0.179494   0.025298  -0.182894  -0.014287   0.039397   0.147019
     41      -0.304283  -0.023573   0.118508  -0.392629  -0.085028  -0.006553
     42      -0.063858   0.004996   0.020226   0.238536   0.175908   0.194044
     43      -0.096638   0.016415  -0.206887  -0.285598   0.054219   0.065839
     44       0.021233  -0.027493   0.110976  -0.220210   0.094968  -0.086330
     45      -0.161733   0.001358  -0.033935  -0.034113   0.093711   0.098178
     46      -0.232646  -0.005863   0.123732   0.200241  -0.029654  -0.088206
     47       0.142690   0.020338  -0.098452   0.178375   0.041037   0.088263
     48      -0.101132  -0.029947   0.046628  -0.478465  -0.012515  -0.035601
     49       0.215123  -0.002863  -0.010972  -0.050294  -0.045156  -0.023733
     50      -0.051376   0.002841   0.017982   0.099420  -0.012500  -0.022382
                 18         19         20         21         22         23    
      0      -0.328327  -0.256768   0.008890  -0.018403   0.034683  -0.223362
      1       0.037211  -0.082644   0.000587  -0.014167  -0.057980   0.103970
      2      -0.094150  -0.021865   0.041335  -0.025238  -0.150032  -0.086592
      3      -0.069690   0.012426   0.070723   0.006051  -0.021717  -0.221244
      4      -0.213338  -0.282019  -0.073652  -0.017200   0.036179   0.091607
      5       0.069899   0.101907  -0.040090   0.096366   0.091486  -0.097069
      6       0.005661  -0.168417  -0.017419  -0.031890  -0.020440   0.204933
      7       0.173904  -0.018844  -0.043674   0.036556   0.033972   0.189863
      8      -0.058889  -0.040003  -0.078292   0.071088   0.092677  -0.039858
      9      -0.001687   0.160112   0.061821   0.013339   0.024780  -0.186719
     10      -0.167565   0.016918  -0.015317   0.008498  -0.040379  -0.178553
     11       0.060646   0.019247  -0.076688   0.039701  -0.111857   0.029364
     12       0.316075   0.201289   0.034646   0.024149  -0.024545   0.099776
     13      -0.043492   0.102211  -0.024480   0.024978   0.038766  -0.210759
     14       0.093858  -0.000412  -0.055245   0.081607   0.095279   0.089316
     15       0.075015  -0.036539  -0.024363   0.006838   0.035303   0.112143
     16       0.226624   0.334296   0.038041   0.032928  -0.057960  -0.206954
     17      -0.074517  -0.130017   0.015292  -0.035107  -0.153110   0.105665
     18       0.182227   0.016570   0.004317   0.101791  -0.106654   0.011796
     19      -0.137167  -0.269741   0.043885  -0.126162   0.173311   0.180110
     20       0.100363   0.126076   0.273931  -0.212225   0.460516  -0.037126
     21      -0.127594   0.117940  -0.098264   0.131355   0.009462  -0.041514
     22      -0.025995   0.029366   0.220085  -0.146154  -0.013322  -0.044791
     23      -0.028416   0.050085   0.379865  -0.269611  -0.021835   0.052744
     24      -0.314924  -0.193802  -0.049268   0.079620  -0.023370  -0.342302
     25       0.075417   0.151926   0.201591  -0.119718   0.036159  -0.210141
     26      -0.109357  -0.062626   0.373295  -0.418248   0.105130   0.072611
     27       0.240803   0.082801  -0.064670   0.068715  -0.123575   0.192889
     28      -0.048158  -0.253546   0.040458  -0.108839   0.206563   0.206369
     29       0.085115   0.123706   0.162620  -0.213512   0.545047   0.012966
     30       0.301949   0.128313  -0.057659   0.078874  -0.107511   0.164698
     31      -0.076289  -0.110929   0.019767  -0.139421   0.180166   0.034623
     32       0.109379   0.088481   0.274049  -0.222037   0.468850   0.070289
     33      -0.190562  -0.048262  -0.095074   0.074167  -0.018465  -0.242447
     34       0.145044   0.341794   0.168286  -0.116827   0.039826  -0.288038
     35      -0.107358  -0.107243   0.356116  -0.416599   0.101841   0.129099
     36      -0.141460   0.133303   0.104575   0.040249  -0.001880   0.174779
     37      -0.022012  -0.010894  -0.038495   0.089384   0.005748   0.000700
     38      -0.014100   0.019871  -0.187359   0.105774   0.014190   0.022888
     39      -0.019105   0.056213  -0.108340  -0.048577   0.002132   0.076269
     40      -0.107506   0.020923   0.240662   0.255108  -0.000062   0.205229
     41      -0.008627   0.040738  -0.061483  -0.105354  -0.003936  -0.041581
     42      -0.148925   0.232108  -0.083263  -0.172574  -0.002106   0.123769
     43      -0.016783   0.073939  -0.304945  -0.250286   0.000192   0.052524
     44      -0.069759   0.032619   0.028837   0.250330   0.007687  -0.003687
     45       0.240427  -0.257303   0.034532  -0.001805  -0.002116  -0.090788
     46       0.093305  -0.092453  -0.005498   0.011445   0.000870  -0.032798
     47       0.075036  -0.067022  -0.008243  -0.050920  -0.002406  -0.023288
     48      -0.105731   0.088927   0.020329   0.065454   0.001601   0.034618
     49      -0.031320   0.034256   0.002873  -0.011542  -0.001390   0.004114
     50      -0.040857   0.048748  -0.017301  -0.011207   0.000873   0.016065
                 24         25         26         27         28         29    
      0       0.001658   0.012802   0.017194  -0.118903   0.011557   0.019867
      1      -0.003043  -0.023188  -0.001868   0.020778  -0.002595  -0.032244
      2      -0.001702  -0.062417  -0.007668  -0.037560  -0.001221  -0.084119
      3       0.021332   0.016265   0.034203  -0.065911  -0.014614  -0.018640
      4      -0.033442  -0.028332  -0.024327   0.034513   0.029542   0.029640
      5      -0.077839  -0.075904   0.022596   0.023708   0.085108   0.082348
      6       0.020920   0.000221  -0.010947   0.031398   0.018635   0.004175
      7      -0.042612   0.000277  -0.001462   0.016543  -0.036657  -0.002549
      8      -0.105507   0.000096  -0.023778  -0.054648  -0.088032  -0.010690
      9      -0.039670  -0.000051  -0.021122   0.089736   0.004151   0.000666
     10       0.072144   0.001095   0.016686   0.091828  -0.029372  -0.001307
     11       0.186142   0.002213   0.013907  -0.034418  -0.050357  -0.003266
     12       0.019097  -0.017248   0.033404   0.040284  -0.025673   0.014592
     13      -0.026352   0.028281  -0.029372  -0.061047   0.042615  -0.027604
     14      -0.080054   0.075556   0.031865   0.088435   0.088698  -0.072910
     15       0.000895  -0.013237  -0.000122   0.015299   0.002221  -0.020474
     16       0.005134   0.021118  -0.022340  -0.163437   0.006323   0.034725
     17      -0.010148   0.059699   0.010927   0.048764  -0.022157   0.088994
     18      -0.024714  -0.106942   0.116128  -0.065743   0.123301   0.097704
     19       0.036870   0.175490  -0.016236  -0.091434  -0.185857  -0.165176
     20       0.113970   0.471426  -0.009388  -0.293976  -0.496498  -0.440177
     21       0.040940   0.000498  -0.120579   0.005193  -0.008309  -0.000049
     22      -0.059582  -0.000657   0.041829   0.268451  -0.010571   0.001525
     23      -0.110033  -0.000573  -0.057370  -0.137356   0.035804   0.000857
     24      -0.108096  -0.099593   0.008133  -0.161909   0.000834  -0.104629
     25       0.190563   0.163078   0.077609  -0.066625   0.028978   0.173225
     26       0.492021   0.434341   0.079315   0.025044   0.057464   0.466147
     27      -0.108552  -0.001264  -0.064000  -0.079584  -0.110051  -0.012066
     28       0.177529   0.002437   0.068110   0.165806   0.181552   0.024989
     29       0.485091   0.004842   0.080840   0.229614   0.492210   0.062029
     30      -0.028919   0.107887   0.055598   0.104465   0.118294  -0.090002
     31       0.046733  -0.179957  -0.075749  -0.230395  -0.189555   0.142380
     32       0.129262  -0.484557  -0.071098  -0.216745  -0.553154   0.392270
     33      -0.110644   0.093980  -0.052951  -0.173024  -0.016142   0.110886
     34       0.201243  -0.160283  -0.037276  -0.176376   0.065794  -0.186724
     35       0.503386  -0.417740   0.012900   0.145623   0.123219  -0.494593
     36      -0.016787  -0.005882   0.742448  -0.142111   0.003085  -0.002190
     37       0.013998   0.000949   0.191039   0.323275  -0.032256  -0.000099
     38       0.028371  -0.000020   0.167474  -0.200306   0.010702  -0.001425
     39       0.005187   0.002483  -0.352001  -0.113395   0.014125   0.000747
     40       0.017457   0.001637  -0.329443  -0.247361   0.023365   0.000127
     41      -0.005993  -0.000367   0.023500   0.056980  -0.004704   0.000171
     42      -0.022214   0.003070  -0.216233   0.275891  -0.016321   0.001050
     43      -0.005572  -0.000634   0.030296  -0.212222   0.017233  -0.000817
     44       0.029521   0.000523  -0.079493   0.220148  -0.020105   0.000942
     45       0.001010   0.000234  -0.018785  -0.004818   0.000675   0.000025
     46       0.001034  -0.000441   0.083490   0.023118  -0.002973  -0.000184
     47      -0.003142   0.000339  -0.047748  -0.009560   0.001810  -0.000024
     48       0.004772   0.000064   0.002932  -0.002567  -0.000147  -0.000153
     49      -0.001472   0.000057  -0.020791  -0.000503   0.000378   0.000215
     50      -0.001170  -0.000345   0.006367   0.001736  -0.000367   0.000175
                 30         31         32         33         34         35    
      0      -0.017618   0.022395  -0.233124  -0.065718  -0.056943   0.013564
      1       0.027962  -0.019105   0.111943  -0.059695   0.000702   0.040433
      2       0.074704   0.017499  -0.095486   0.007989  -0.013489  -0.012490
      3       0.005706   0.085139   0.087547  -0.059760   0.044649  -0.006460
      4      -0.008094  -0.349069  -0.044551   0.041388   0.095513  -0.000190
      5      -0.029284   0.146952   0.037327  -0.028041  -0.026389  -0.001121
      6       0.019361   0.285268  -0.038604   0.103066   0.053796   0.042074
      7      -0.035520   0.289641  -0.059790   0.068740  -0.062703  -0.037170
      8      -0.089684  -0.047551   0.013193  -0.003003   0.036236   0.023777
      9       0.002083  -0.042123   0.091725   0.170277   0.004449  -0.004759
     10      -0.001871  -0.028470   0.071225   0.128144  -0.063490   0.004438
     11      -0.006535   0.003923  -0.007194  -0.013150   0.026032  -0.002811
     12       0.005880  -0.358171  -0.077160  -0.016879  -0.104074  -0.003394
     13      -0.008412   0.064284   0.086211  -0.057835  -0.043966   0.003110
     14      -0.018922  -0.105276  -0.051053   0.019732  -0.006313  -0.002105
     15      -0.015031  -0.012258   0.117684  -0.058068   0.000509  -0.038560
     16       0.025943   0.014789  -0.193202  -0.013245   0.092460  -0.010807
     17       0.068179  -0.008803   0.101429  -0.008651  -0.035726  -0.004629
     18      -0.053225   0.081724   0.418692  -0.352577   0.482535  -0.195437
     19       0.088948  -0.360592   0.055034  -0.038992   0.231121  -0.056288
     20       0.231247   0.172926   0.065756  -0.071036   0.021468  -0.021598
     21       0.001838  -0.044936   0.120629   0.232955  -0.032959  -0.003532
     22      -0.001516   0.004425   0.019670   0.047517  -0.000726  -0.001573
     23      -0.003935  -0.018194   0.029984   0.054332  -0.007085  -0.000040
     24       0.106601   0.029904  -0.157435  -0.192279  -0.123271   0.145016
     25      -0.181733  -0.088894   0.398200  -0.460879  -0.191777   0.463364
     26      -0.477703   0.015395  -0.184857   0.131854   0.045811  -0.142682
     27      -0.125553   0.280643  -0.007035   0.189955   0.374323   0.446253
     28       0.207902   0.322851  -0.111641  -0.006649  -0.365197  -0.419173
     29       0.552772  -0.044964   0.041720   0.045427   0.222087   0.261042
     30      -0.040753  -0.367156   0.000262  -0.135056  -0.212541   0.040727
     31       0.066116   0.095177   0.330592  -0.476864  -0.371943   0.147277
     32       0.187920  -0.118176  -0.120686   0.134580   0.087878  -0.044819
     33       0.100557  -0.094635   0.473782  -0.351936   0.246509  -0.452975
     34      -0.167840   0.008932  -0.097910  -0.097091   0.175723  -0.135578
     35      -0.442292  -0.025595   0.141273  -0.038080  -0.007863  -0.051982
     36       0.000014   0.009159  -0.012765  -0.020261   0.004001   0.001619
     37       0.001362   0.027302  -0.032155  -0.036928   0.030036   0.001463
     38       0.000629  -0.011121   0.013756   0.014409  -0.013524  -0.000650
     39      -0.000526   0.002615  -0.011288  -0.028881  -0.000977   0.000136
     40      -0.000727  -0.004549  -0.003685  -0.018104  -0.005152   0.000350
     41      -0.000080   0.001824  -0.000830   0.000613   0.000839  -0.000029
     42      -0.000335   0.045579  -0.072949  -0.125943   0.016695   0.000316
     43      -0.000297  -0.007192   0.018081   0.028287  -0.006846  -0.000748
     44       0.000598   0.019302  -0.034592  -0.056916   0.009886   0.000366
     45      -0.000034  -0.001516   0.000747   0.000772  -0.000597  -0.000067
     46       0.000120   0.003873  -0.011178  -0.018141   0.003720   0.000306
     47      -0.000153  -0.002049  -0.000212  -0.000232   0.000489  -0.000034
     48       0.000030  -0.000234  -0.003542  -0.005570   0.001612   0.000100
     49      -0.000121  -0.000858   0.006349   0.010200  -0.002215  -0.000150
     50       0.000079   0.001337   0.006211   0.009452  -0.003065  -0.000133
                 36         37         38         39         40         41    
      0      -0.007770  -0.024652   0.063170  -0.014243  -0.053517  -0.109860
      1      -0.045368  -0.035937   0.034465   0.110659  -0.113405  -0.092600
      2       0.015384   0.008036   0.001179  -0.045058   0.030895   0.010065
      3       0.047055   0.041908  -0.071929  -0.002431   0.212520   0.041349
      4       0.016762   0.012939   0.004575   0.019247   0.078887   0.100954
      5       0.004010   0.004433  -0.018026  -0.007335   0.018319  -0.028431
      6      -0.006204  -0.001025  -0.001168   0.023331  -0.147273   0.067097
      7      -0.008316  -0.003730   0.002784  -0.025407   0.130684  -0.081502
      8       0.001811   0.001246  -0.001374   0.015077  -0.083417   0.046085
      9      -0.013996   0.026848  -0.065553   0.213091  -0.050929   0.112181
     10      -0.010915   0.023473  -0.254540  -0.064326   0.081621  -0.086961
     11       0.001314  -0.003287   0.081285   0.075058  -0.043502   0.059120
     12       0.020937   0.016147  -0.043695  -0.007018  -0.067577  -0.106609
     13       0.050225   0.049120  -0.047948   0.062672  -0.185711  -0.012858
     14      -0.014557  -0.015874   0.008268  -0.026357   0.055562  -0.019388
     15      -0.050137  -0.041904  -0.040794  -0.108523   0.124196   0.128603
     16      -0.010977  -0.027650   0.072918  -0.042092   0.033505   0.101845
     17      -0.006919   0.001343  -0.036430  -0.008516   0.015585  -0.009676
     18       0.482075   0.331593  -0.219829  -0.554294  -0.513808  -0.245839
     19       0.146184   0.100322  -0.040820  -0.140398  -0.135769   0.030979
     20       0.053666   0.036466  -0.031241  -0.072136  -0.069521  -0.069223
     21       0.017830   0.003059   0.282199  -0.152263  -0.029482  -0.034927
     22       0.009194   0.009197   0.062242  -0.048432  -0.003725  -0.047208
     23       0.000191   0.001450   0.066153  -0.023018  -0.007840   0.015857
     24      -0.123092  -0.127099   0.062233  -0.206119  -0.086465   0.007665
     25      -0.415257  -0.361601   0.020685  -0.489357  -0.210429   0.341356
     26       0.128920   0.108597   0.007320   0.136898   0.061997  -0.126429
     27       0.006439   0.003789   0.041706   0.100637   0.297485  -0.434612
     28      -0.020298  -0.009309  -0.029844  -0.102194  -0.292179   0.389521
     29       0.009163   0.004049   0.020720   0.061957   0.178549  -0.247446
     30       0.151871   0.104929   0.164761   0.078149   0.130538  -0.075635
     31       0.475755   0.339863   0.647382   0.348214   0.452977   0.144003
     32      -0.142069  -0.095712  -0.207627  -0.110155  -0.142125  -0.071614
     33      -0.478452  -0.407444   0.436349   0.280572   0.146525  -0.490960
     34      -0.141250  -0.139361   0.225425   0.075175   0.039673  -0.070659
     35      -0.056266  -0.040542   0.013044   0.034386   0.018878  -0.083360
     36      -0.003932  -0.007811  -0.018942   0.022512  -0.000813   0.005564
     37       0.003573  -0.018101   0.113044  -0.009874  -0.015762   0.038639
     38      -0.002804   0.007971  -0.062300   0.010974   0.008350  -0.017826
     39      -0.002811   0.008550  -0.040945   0.015166   0.003368   0.000414
     40      -0.002143  -0.003615  -0.039498   0.016225   0.004551   0.001550
     41       0.001306  -0.006203   0.003870  -0.002769  -0.000979  -0.001307
     42      -0.000708  -0.007029  -0.051132   0.014341   0.007101  -0.001543
     43      -0.000901  -0.005514   0.003615  -0.010113   0.001251  -0.001507
     44       0.001130  -0.010255  -0.019920   0.010413   0.001569   0.000279
     45       0.013119  -0.119172  -0.011318   0.005046   0.000709   0.000706
     46      -0.015336   0.118423  -0.008183   0.005253   0.000288   0.001032
     47      -0.026465   0.227519   0.011752  -0.006721  -0.000497  -0.000971
     48      -0.027567   0.234758   0.009008  -0.004283  -0.000501  -0.000520
     49       0.027350  -0.228493  -0.004309   0.002196   0.000192   0.000276
     50       0.052540  -0.445259  -0.016362   0.008132   0.000894   0.000984
                 42         43         44         45         46         47    
      0       0.020092   0.087847   0.004212   0.169687  -0.039825   0.053053
      1       0.152839  -0.140322   0.219862   0.193223   0.007525  -0.011962
      2      -0.053230   0.073773  -0.081333  -0.034649  -0.011811   0.016476
      3       0.109338  -0.179310   0.018417  -0.294228   0.003572  -0.006992
      4      -0.026448   0.009398  -0.123435  -0.131381  -0.010588   0.021624
      5       0.034656  -0.043452   0.051453  -0.017223   0.004720  -0.009600
      6      -0.080314  -0.213009   0.131320  -0.156874   0.042247   0.001628
      7      -0.064080   0.207427  -0.190023  -0.043940   0.040826   0.005534
      8       0.006065  -0.127301   0.102050  -0.018802  -0.005948  -0.001740
      9      -0.122057   0.183616  -0.062898   0.174456  -0.000274   0.000285
     10      -0.086949  -0.035428   0.303522   0.050156  -0.000165  -0.000083
     11       0.004839   0.053703  -0.133192   0.021872   0.000006   0.000097
     12      -0.000552  -0.016232  -0.003984  -0.169054  -0.008623  -0.016478
     13       0.114586   0.146729  -0.260723  -0.192613   0.002719   0.005010
     14      -0.043336  -0.060060   0.097608   0.034837  -0.002941  -0.005541
     15       0.137725   0.130170  -0.056797   0.287502   0.007760   0.012698
     16       0.000227  -0.090350   0.111749   0.123898  -0.035615  -0.050147
     17       0.031018   0.063937  -0.055200   0.017814   0.015272   0.021902
     18      -0.380473   0.318666   0.114041   0.398886  -0.034072   0.067873
     19      -0.186066   0.158690  -0.112839   0.071418   0.133203  -0.265320
     20      -0.015408   0.005636   0.059848   0.065385  -0.057229   0.114032
     21       0.054291  -0.022123   0.007828  -0.029758  -0.000023  -0.000160
     22      -0.016927  -0.356190  -0.370897   0.147999  -0.000095   0.000166
     23       0.026630   0.176682   0.189794  -0.084738   0.000035  -0.000103
     24      -0.176836   0.175564  -0.144731   0.034672   0.469091  -0.614016
     25      -0.459107   0.078868  -0.243687  -0.283597  -0.100288   0.133291
     26       0.133417   0.010131   0.057536   0.114245   0.143667  -0.188829
     27      -0.054174   0.341276  -0.247777  -0.038741  -0.497870  -0.040218
     28      -0.117126  -0.315501   0.163861  -0.178362  -0.482435  -0.043788
     29       0.032279   0.196341  -0.120453   0.059106   0.070560   0.007610
     30      -0.179248  -0.122614   0.201477  -0.026284   0.110398   0.206627
     31      -0.432174  -0.196965   0.354435   0.306262  -0.024723  -0.046417
     32       0.121186   0.046296  -0.087881  -0.120824   0.033873   0.063371
     33      -0.404685  -0.048478   0.022873  -0.372914  -0.104576  -0.146206
     34      -0.173434  -0.161676   0.150490  -0.070527   0.419624   0.579918
     35      -0.025299   0.052393  -0.052268  -0.056833  -0.182877  -0.253100
     36      -0.003819  -0.009561  -0.021651   0.009228  -0.000007   0.000056
     37       0.041247   0.235730   0.218474  -0.112398   0.000045   0.000011
     38      -0.022356  -0.123790  -0.119452   0.060812  -0.000011   0.000004
     39      -0.007001  -0.007194  -0.007234   0.008384  -0.000054   0.000030
     40      -0.006121  -0.002675  -0.002385   0.005129  -0.000011  -0.000041
     41       0.000521  -0.003332  -0.002637   0.000534  -0.000018   0.000021
     42      -0.001427  -0.008640  -0.002908  -0.001975  -0.000011  -0.000046
     43       0.005042   0.019168   0.028601  -0.011747  -0.000047  -0.000116
     44      -0.003190  -0.014334  -0.018119   0.006094   0.000019   0.000031
     45      -0.001219   0.001923   0.001423  -0.000151   0.000024   0.000024
     46      -0.001919  -0.000363  -0.001683   0.002165  -0.000006   0.000011
     47       0.001435   0.002602   0.004705  -0.001973  -0.000005  -0.000003
     48       0.000550   0.000290   0.001052  -0.000194  -0.000013  -0.000003
     49       0.000007  -0.000397  -0.001104  -0.000177   0.000012   0.000005
     50      -0.001130  -0.001816  -0.003579   0.000964   0.000016   0.000002
                 48         49         50    
      0      -0.024405  -0.038117   0.013711
      1       0.008404   0.006241  -0.003171
      2      -0.008672  -0.010999   0.004308
      3       0.009199  -0.014734   0.003754
      4      -0.031048   0.065927  -0.015009
      5       0.013604  -0.027812   0.006416
      6      -0.042357  -0.010549   0.013438
      7      -0.040393  -0.012652   0.011631
      8       0.005746   0.002413  -0.001378
      9      -0.001051   0.002824  -0.000320
     10      -0.000602  -0.001104  -0.002622
     11       0.000003   0.001038   0.000958
     12      -0.024300  -0.023832  -0.071629
     13       0.007260   0.004755   0.014793
     14      -0.008133  -0.007072  -0.021475
     15       0.011669   0.001253  -0.006369
     16      -0.034711   0.001609   0.032299
     17       0.015816  -0.000326  -0.013710
     18      -0.093049   0.182479  -0.041439
     19       0.366169  -0.740682   0.166225
     20      -0.157244   0.316766  -0.071209
     21      -0.000045  -0.000410  -0.000573
     22      -0.000065   0.000578   0.000180
     23       0.000008  -0.000327  -0.000242
     24       0.283045   0.410778  -0.148916
     25      -0.065088  -0.087186   0.032737
     26       0.088412   0.125603  -0.045967
     27       0.470837   0.126168  -0.135984
     28       0.455643   0.125417  -0.130117
     29      -0.066536  -0.019001   0.018651
     30       0.294328   0.274171   0.810435
     31      -0.066153  -0.058962  -0.174481
     32       0.090384   0.083040   0.245910
     33      -0.104035   0.001374   0.085370
     34       0.398042  -0.013124  -0.344933
     35      -0.174567   0.005293   0.150196
     36      -0.000063   0.000166   0.000039
     37      -0.000026  -0.000000   0.000048
     38      -0.000007   0.000056  -0.000013
     39      -0.000030   0.000025   0.000093
     40       0.000007  -0.000080   0.000024
     41      -0.000003   0.000024   0.000019
     42      -0.000021  -0.000174  -0.000004
     43      -0.000135  -0.000208  -0.000317
     44       0.000055   0.000041   0.000124
     45       0.000015   0.000035   0.000013
     46      -0.000002   0.000011   0.000022
     47      -0.000016  -0.000009  -0.000007
     48      -0.000027  -0.000018  -0.000000
     49       0.000002   0.000003  -0.000011
     50       0.000025   0.000011  -0.000007
# -----------------------------------------------------------
$ THERMOCHEMISTRY_Energies
   description: The Thermochemistry energies
   geom. index: 11
   prop. index: 1
        Temperature (Kelvin)           :        298.1500000000
        Pressure (atm)                 :          1.0000000000
        Total Mass (AMU)               :        183.1810000000
        Spin Degeneracy                :          1.0000000000
        Electronic Energy (Hartree)    :       -948.1754822308
        Translational Energy (Hartree) :          0.0014162714
        Rotational Energy (Hartree)    :          0.0014162714
        Vibrational Energy (Hartree)   :          0.0069588787
        Number of frequencies          :     51      
        Scaling Factor for frequencies :          1.0000000000
        Vibrational frequencies        :     
                  0    
      0       0.000000
      1       0.000000
      2       0.000000
      3       0.000000
      4       0.000000
      5       0.000000
      6      36.323125
      7      75.930305
      8     135.131511
      9     158.972423
     10     267.931000
     11     288.962458
     12     317.371432
     13     403.263185
     14     409.092782
     15     435.262956
     16     468.379881
     17     485.657346
     18     631.828552
     19     635.143101
     20     653.584504
     21     681.306314
     22     693.579908
     23     711.443674
     24     772.014197
     25     851.974781
     26     889.574501
     27     930.324375
     28     937.185445
     29     985.330885
     30     1003.182149
     31     1021.472966
     32     1043.969191
     33     1073.698454
     34     1109.883966
     35     1183.872514
     36     1201.831573
     37     1210.647273
     38     1322.476604
     39     1345.092772
     40     1362.572417
     41     1474.626982
     42     1521.061878
     43     1600.305704
     44     1629.034753
     45     1637.673099
     46     3173.523769
     47     3182.362380
     48     3190.509989
     49     3199.102291
     50     3203.130117
        Zero Point Energy (Hartree)    :          0.1128731809
        Inner Energy (Hartree)         :       -948.0528176284
        Enthalpy (Hartree)             :       -948.0518734193
        Electronic entropy             :          0.0000000000
        Rotational entropy             :          0.0146880206
        Vibrational entropy            :          0.0117708587
        Translational entropy          :          0.0146880206
        Entropy                        :          0.0461873970
        Gibbs Energy (Hartree)         :       -948.0980608163
        Is Linear                      :                 false
# -------------------------------------------------------------
----------------------- !GEOMETRIES! ------------------------
# -------------------------------------------------------------
------------------------ !GEOMETRY! -------------------------
    Number of atoms:    17 
    Geometry Index:     1 
    Coordinates:
               0 C      0.053471005055    0.075389213115   -0.108727816624
               1 C      1.052830948759    1.036599629200   -0.247192157018
               2 C      0.346956867511   -1.171179075368    0.461535715532
               3 C      2.361738036490    0.752767595844    0.186617621194
               4 C      2.656765258834   -0.497089239837    0.755988460470
               5 C      1.647946443564   -1.453388497618    0.892115779343
               6 H      0.837163658096    2.002446843270   -0.688820091116
               7 C      3.407823312283    1.761712955412    0.044035377602
               8 H     -0.953535089321    0.296332721128   -0.445709687047
               9 H     -0.434421509456   -1.916401892544    0.567899822841
              10 H      3.666883941981   -0.707868052178    1.084479568793
              11 H      1.878398020929   -2.417197872117    1.333073097718
              12 N      3.217077035974    2.933592280854   -0.479589202650
              13 O      4.370589899345    3.743609951478   -0.492798742900
              14 O      4.677437678297    1.419534029652    0.517897815100
              15 S      5.930803795953    2.712319646496    0.014739465713
              16 O      6.656470695705    2.225819763212   -1.324845026952
------------------------ !GEOMETRY! -------------------------
    Number of atoms:    17 
    Geometry Index:     2 
    Coordinates:
               0 C      0.073318747514    0.084317092638   -0.109109880211
               1 C      1.067881026679    1.041922442249   -0.248968304304
               2 C      0.365745494490   -1.157781109234    0.458848578708
               3 C      2.373239263388    0.757854434921    0.182199656286
               4 C      2.667363389606   -0.488257437449    0.750642709842
               5 C      1.661407309261   -1.439739392577    0.886670968346
               6 H      0.848961781257    2.008473432400   -0.690502252495
               7 C      3.419128250476    1.765906908453    0.040209542102
               8 H     -0.934979391181    0.305737199297   -0.445031380642
               9 H     -0.416478787800   -1.903218468888    0.566027538770
              10 H      3.677853875594   -0.703442884722    1.079834482655
              11 H      1.891830435891   -2.404534289736    1.327683486550
              12 N      3.232062415191    2.924468284761   -0.482597740382
              13 O      4.372460324395    3.698132787456   -0.486478001259
              14 O      4.667336371811    1.428657005274    0.511223569827
              15 S      5.863333732051    2.677143800416    0.004161625474
              16 O      6.543935761377    2.201360194739   -1.274114599266
------------------------ !GEOMETRY! -------------------------
    Number of atoms:    17 
    Geometry Index:     3 
    Coordinates:
               0 C      0.084800318464    0.087422230523   -0.108665751707
               1 C      1.075921136159    1.044351281521   -0.251905595260
               2 C      0.378054842234   -1.151798285335    0.458406347796
               3 C      2.381191964743    0.763311550678    0.174977279427
               4 C      2.675607736726   -0.480497612737    0.743222096513
               5 C      1.671924756836   -1.431069207930    0.882097455714
               6 H      0.851165755683    2.009995997703   -0.693109096661
               7 C      3.429014603028    1.773879928101    0.031139073557
               8 H     -0.925192947688    0.308107239447   -0.441913347255
               9 H     -0.403710549863   -1.898030911844    0.568234475906
              10 H      3.685724362397   -0.700380255886    1.071907514231
              11 H      1.904751809479   -2.395747799706    1.323507466750
              12 N      3.256668282910    2.926826680062   -0.492539695806
              13 O      4.411185485153    3.656719568139   -0.472514166080
              14 O      4.671471814575    1.461322623190    0.500572436006
              15 S      5.804535316866    2.645737004225   -0.007262289946
              16 O      6.421285312299    2.176849969850   -1.215454203184
------------------------ !GEOMETRY! -------------------------
    Number of atoms:    17 
    Geometry Index:     4 
    Coordinates:
               0 C      0.084541917179    0.084217211152   -0.114737565831
               1 C      1.074429028483    1.044350463897   -0.253207878844
               2 C      0.378964123516   -1.155339555470    0.453381786770
               3 C      2.378855709198    0.765973769835    0.179346554670
               4 C      2.674797336432   -0.477348902935    0.748732573047
               5 C      1.672756671370   -1.431439134078    0.882997657489
               6 H      0.849062089306    2.010000390890   -0.694089547399
               7 C      3.423376764020    1.778375811203    0.041797779103
               8 H     -0.924461882687    0.302545063770   -0.451924630666
               9 H     -0.401144187162   -1.903628651993    0.559463376603
              10 H      3.684170133946   -0.694376414981    1.081619744301
              11 H      1.906561976640   -2.395459933037    1.324909863306
              12 N      3.254983009686    2.932664260488   -0.488759018878
              13 O      4.419639865805    3.668066110691   -0.449924455290
              14 O      4.668429336411    1.473523122547    0.527030382366
              15 S      5.816166016389    2.643511246519   -0.015401505323
              16 O      6.413272091467    2.151365141501   -1.260535115424
------------------------ !GEOMETRY! -------------------------
    Number of atoms:    17 
    Geometry Index:     5 
    Coordinates:
               0 C      0.084532720809    0.083742995291   -0.114406082932
               1 C      1.072501189110    1.046288396832   -0.251657146836
               2 C      0.381771633042   -1.156402318226    0.451780651303
               3 C      2.377688754725    0.769025942057    0.179344850510
               4 C      2.676960880515   -0.474476614412    0.746503395644
               5 C      1.676669030761   -1.430768054447    0.880330242286
               6 H      0.844362601259    2.012340381765   -0.690276070853
               7 C      3.419226291155    1.782232590336    0.043075493246
               8 H     -0.925036824220    0.300755445360   -0.450504108955
               9 H     -0.396814709085   -1.906293756819    0.557099730263
              10 H      3.686880339838   -0.691178374217    1.077948734965
              11 H      1.912948264127   -2.394929604133    1.320436712548
              12 N      3.256883436082    2.934283141400   -0.498812084408
              13 O      4.435639603498    3.664435547881   -0.447937972988
              14 O      4.664698881350    1.487472882479    0.541813669446
              15 S      5.807505042497    2.640956248216   -0.015426360250
              16 O      6.397982864535    2.129515150638   -1.258613652988
------------------------ !GEOMETRY! -------------------------
    Number of atoms:    17 
    Geometry Index:     6 
    Coordinates:
               0 C      0.082927427402    0.084639483125   -0.109478630976
               1 C      1.068434618927    1.049816747631   -0.246749950443
               2 C      0.384927165377   -1.157006814981    0.451410764516
               3 C      2.375759073274    0.772542693813    0.178193172689
               4 C      2.680231692376   -0.472166116187    0.740180384205
               5 C      1.682084741808   -1.430742475671    0.874432569618
               6 H      0.836129911163    2.017095083589   -0.680338346703
               7 C      3.413925007285    1.785865655317    0.039776688910
               8 H     -0.928323437505    0.300922613346   -0.440733516745
               9 H     -0.391919511750   -1.908588568958    0.557071647030
              10 H      3.691698900991   -0.689269454822    1.066216407716
              11 H      1.922007195577   -2.395919826076    1.310129418842
              12 N      3.257968178974    2.929905419071   -0.524388925101
              13 O      4.452086648969    3.657204296155   -0.458991620525
              14 O      4.656346259253    1.502628424140    0.559835940302
              15 S      5.796116748102    2.644553629062   -0.008615240667
              16 O      6.393999379777    2.105519211448   -1.237250762670
------------------------ !GEOMETRY! -------------------------
    Number of atoms:    17 
    Geometry Index:     7 
    Coordinates:
               0 C      0.082159465967    0.085455525109   -0.106529238678
               1 C      1.067091904309    1.051182968626   -0.244135965908
               2 C      0.385830375972   -1.156977998447    0.451557793084
               3 C      2.375537078831    0.773250851815    0.177203995313
               4 C      2.681619282436   -0.472338729253    0.736571914472
               5 C      1.683883778835   -1.431220353449    0.871444516196
               6 H      0.833375075300    2.019400044908   -0.674815692679
               7 C      3.413317989230    1.786810118341    0.037072020485
               8 H     -0.929994305526    0.302108397346   -0.434771443757
               9 H     -0.390684216930   -1.908835645708    0.557823899005
              10 H      3.693840574819   -0.689793557760    1.059853789333
              11 H      1.924863193121   -2.397042257968    1.305125463639
              12 N      3.258539794796    2.925151131182   -0.539039262116
              13 O      4.454108025408    3.655926835475   -0.465728288329
              14 O      4.651078985505    1.508641328646    0.569504658465
              15 S      5.794055558020    2.648717618238   -0.005080700609
              16 O      6.395777439907    2.096563722898   -1.225357457916
------------------------ !GEOMETRY! -------------------------
    Number of atoms:    17 
    Geometry Index:     8 
    Coordinates:
               0 C      0.078646918070    0.088286073565   -0.095683529491
               1 C      1.062797986237    1.054607474423   -0.235279062970
               2 C      0.386485426273   -1.156859478965    0.453548616048
               3 C      2.374622505446    0.773764309525    0.173678023567
               4 C      2.684601000242   -0.474741363247    0.724531102039
               5 C      1.687410165656   -1.433679602326    0.862455720688
               6 H      0.825626377239    2.025935014153   -0.656930431715
               7 C      3.412787278799    1.787913308661    0.028065882818
               8 H     -0.936253297700    0.307068015747   -0.413915370464
               9 H     -0.389555759950   -1.908916346775    0.562287119484
              10 H      3.699384707933   -0.693931903105    1.038305898029
              11 H      1.931111094692   -2.401727650064    1.289644280572
              12 N      3.260436109878    2.908686995693   -0.582177518250
              13 O      4.455412504456    3.651040435535   -0.496046800976
              14 O      4.636712096092    1.523638571033    0.590629718951
              15 S      5.787833010682    2.665661123811    0.008646400559
              16 O      6.416341875954    2.080255022336   -1.181060048889
------------------------ !GEOMETRY! -------------------------
    Number of atoms:    17 
    Geometry Index:     9 
    Coordinates:
               0 C      0.078233997226    0.088972533077   -0.093618573561
               1 C      1.062378749465    1.055324524857   -0.233358237296
               2 C      0.386679876376   -1.156855245101    0.453658205896
               3 C      2.374689628619    0.773767668480    0.173018447543
               4 C      2.685216013618   -0.475264472356    0.722080166613
               5 C      1.688164480926   -1.434268597053    0.860352524640
               6 H      0.824746700242    2.027435362880   -0.652985346091
               7 C      3.413531280626    1.788093433556    0.026741471915
               8 H     -0.937151091399    0.308363057851   -0.409883981015
               9 H     -0.389306981661   -1.908910966507    0.562795459712
              10 H      3.700563758053   -0.694735618028    1.034035460694
              11 H      1.932317586248   -2.402807375547    1.286181193523
              12 N      3.261934094217    2.904263192057   -0.591850152787
              13 O      4.454439561997    3.649600362045   -0.501392735484
              14 O      4.633315331916    1.529549431959    0.597340490068
              15 S      5.787000099119    2.669055040459    0.010984119261
              16 O      6.417646914412    2.075417667372   -1.173398513631
------------------------ !GEOMETRY! -------------------------
    Number of atoms:    17 
    Geometry Index:     10 
    Coordinates:
               0 C      0.077209170819    0.089753966420   -0.090708211874
               1 C      1.061358814553    1.056080911201   -0.231022326146
               2 C      0.386397488602   -1.156897437395    0.454318914137
               3 C      2.374279246259    0.773548745013    0.172073277340
               4 C      2.685593467122   -0.476122244645    0.718962089620
               5 C      1.688664719238   -1.435117360282    0.858082986353
               6 H      0.823186081983    2.029021212007   -0.648450302590
               7 C      3.413750020623    1.787677343561    0.024899013972
               8 H     -0.938785444848    0.309915143623   -0.404462272603
               9 H     -0.389549784408   -1.908884377909    0.564153851093
              10 H      3.701663545714   -0.696020367651    1.028456221888
              11 H      1.933408944027   -2.404239091379    1.282250051122
              12 N      3.263087467641    2.899742549860   -0.601637994085
              13 O      4.453510105780    3.647347771562   -0.510918414460
              14 O      4.630587973616    1.534171761010    0.601459538849
              15 S      5.785317604680    2.673442531961    0.015036862783
              16 O      6.424720578597    2.073578943043   -1.161793285400
------------------------ !GEOMETRY! -------------------------
    Number of atoms:    17 
    Geometry Index:     11 
    Coordinates:
               0 C      0.076732836983    0.090099097149   -0.089333623590
               1 C      1.060715771015    1.056594163301   -0.229882780497
               2 C      0.386439817609   -1.156953071238    0.454518464749
               3 C      2.373944320108    0.773676922602    0.171663366886
               4 C      2.685844830223   -0.476308181126    0.717470004586
               5 C      1.689115060760   -1.435455064608    0.856893998204
               6 H      0.822151005299    2.029920126734   -0.646183759918
               7 C      3.413537168285    1.787561697117    0.024122287563
               8 H     -0.939586969243    0.310525036048   -0.401842718475
               9 H     -0.389395963490   -1.909008721103    0.564625007499
              10 H      3.702277077362   -0.696287985025    1.025774426550
              11 H      1.934245858739   -2.404867339885    1.280169292491
              12 N      3.263828706590    2.897683603293   -0.606413953094
              13 O      4.453234319498    3.646073184752   -0.515622832889
              14 O      4.629245426862    1.536945627975    0.604014882990
              15 S      5.784519713038    2.674804660147    0.017100517337
              16 O      6.427551020361    2.071996243868   -1.156372580392
