-------------------------------------------------------------
----------------------- !PROPERTIES! ------------------------
-------------------------------------------------------------
# -----------------------------------------------------------
$ PAL_Flags
   description: The PAL Flags
   geom. index: 1
   prop. index: 1
        Diskflag:     2
# -----------------------------------------------------------
$ SCF_Energy
   description: The SCF energy
   geom. index: 1
   prop. index: 1
        SCF Energy:    -1152.0907094165
# -----------------------------------------------------------
$ DFT_Energy
   description: The DFT energy
   geom. index: 1
   prop. index: 1
   Number of Alpha Electrons                 57.9999686491 
   Number of Beta  Electrons                 57.9999686491 
   Total number of  Electrons               115.9999372982 
   Exchange energy                         -118.2586633047 
   Correlation energy                        -4.0548879149 
   Correlation energy NL                      0.0000000000 
   Exchange-Correlation energy             -122.3135512196 
   Embedding correction                       0.0000000000 
   Total DFT Energy (No VdW correction)   -1152.0907094165 
# -----------------------------------------------------------
$ VdW_Correction
   description: The Van der Waals Correction
   geom. index: 1
   prop. index: 1
        Van der Waals Correction:       -0.0083903831
# -----------------------------------------------------------
$ PAL_Flags
   description: The PAL Flags
   geom. index: 2
   prop. index: 1
        Diskflag:     2
# -----------------------------------------------------------
$ SCF_Energy
   description: The SCF energy
   geom. index: 2
   prop. index: 1
        SCF Energy:    -1152.2966340438
# -----------------------------------------------------------
$ DFT_Energy
   description: The DFT energy
   geom. index: 2
   prop. index: 1
   Number of Alpha Electrons                 57.9999674228 
   Number of Beta  Electrons                 57.9999674228 
   Total number of  Electrons               115.9999348456 
   Exchange energy                         -118.0722247268 
   Correlation energy                        -4.0458728927 
   Correlation energy NL                      0.0000000000 
   Exchange-Correlation energy             -122.1180976195 
   Embedding correction                       0.0000000000 
   Total DFT Energy (No VdW correction)   -1152.2966340438 
# -----------------------------------------------------------
$ VdW_Correction
   description: The Van der Waals Correction
   geom. index: 2
   prop. index: 1
        Van der Waals Correction:       -0.0083538140
# -----------------------------------------------------------
$ PAL_Flags
   description: The PAL Flags
   geom. index: 3
   prop. index: 1
        Diskflag:     2
# -----------------------------------------------------------
$ SCF_Energy
   description: The SCF energy
   geom. index: 3
   prop. index: 1
        SCF Energy:    -1152.4404415797
# -----------------------------------------------------------
$ DFT_Energy
   description: The DFT energy
   geom. index: 3
   prop. index: 1
   Number of Alpha Electrons                 57.9999649784 
   Number of Beta  Electrons                 57.9999649784 
   Total number of  Electrons               115.9999299568 
   Exchange energy                         -117.9183708204 
   Correlation energy                        -4.0379167103 
   Correlation energy NL                      0.0000000000 
   Exchange-Correlation energy             -121.9562875306 
   Embedding correction                       0.0000000000 
   Total DFT Energy (No VdW correction)   -1152.4404415797 
# -----------------------------------------------------------
$ VdW_Correction
   description: The Van der Waals Correction
   geom. index: 3
   prop. index: 1
        Van der Waals Correction:       -0.0083985785
# -----------------------------------------------------------
$ PAL_Flags
   description: The PAL Flags
   geom. index: 4
   prop. index: 1
        Diskflag:     2
# -----------------------------------------------------------
$ SCF_Energy
   description: The SCF energy
   geom. index: 4
   prop. index: 1
        SCF Energy:    -1152.5399439826
# -----------------------------------------------------------
$ DFT_Energy
   description: The DFT energy
   geom. index: 4
   prop. index: 1
   Number of Alpha Electrons                 57.9999664815 
   Number of Beta  Electrons                 57.9999664815 
   Total number of  Electrons               115.9999329631 
   Exchange energy                         -117.7935903675 
   Correlation energy                        -4.0311212916 
   Correlation energy NL                      0.0000000000 
   Exchange-Correlation energy             -121.8247116591 
   Embedding correction                       0.0000000000 
   Total DFT Energy (No VdW correction)   -1152.5399439826 
# -----------------------------------------------------------
$ VdW_Correction
   description: The Van der Waals Correction
   geom. index: 4
   prop. index: 1
        Van der Waals Correction:       -0.0083865852
# -----------------------------------------------------------
$ PAL_Flags
   description: The PAL Flags
   geom. index: 5
   prop. index: 1
        Diskflag:     2
# -----------------------------------------------------------
$ SCF_Energy
   description: The SCF energy
   geom. index: 5
   prop. index: 1
        SCF Energy:    -1152.6071919038
# -----------------------------------------------------------
$ DFT_Energy
   description: The DFT energy
   geom. index: 5
   prop. index: 1
   Number of Alpha Electrons                 57.9999682947 
   Number of Beta  Electrons                 57.9999682947 
   Total number of  Electrons               115.9999365893 
   Exchange energy                         -117.6999801016 
   Correlation energy                        -4.0255209186 
   Correlation energy NL                      0.0000000000 
   Exchange-Correlation energy             -121.7255010202 
   Embedding correction                       0.0000000000 
   Total DFT Energy (No VdW correction)   -1152.6071919038 
# -----------------------------------------------------------
$ VdW_Correction
   description: The Van der Waals Correction
   geom. index: 5
   prop. index: 1
        Van der Waals Correction:       -0.0083514012
# -----------------------------------------------------------
$ PAL_Flags
   description: The PAL Flags
   geom. index: 6
   prop. index: 1
        Diskflag:     2
# -----------------------------------------------------------
$ SCF_Energy
   description: The SCF energy
   geom. index: 6
   prop. index: 1
        SCF Energy:    -1152.6502969321
# -----------------------------------------------------------
$ DFT_Energy
   description: The DFT energy
   geom. index: 6
   prop. index: 1
   Number of Alpha Electrons                 57.9999658616 
   Number of Beta  Electrons                 57.9999658616 
   Total number of  Electrons               115.9999317233 
   Exchange energy                         -117.6342082151 
   Correlation energy                        -4.0209554752 
   Correlation energy NL                      0.0000000000 
   Exchange-Correlation energy             -121.6551636903 
   Embedding correction                       0.0000000000 
   Total DFT Energy (No VdW correction)   -1152.6502969321 
# -----------------------------------------------------------
$ VdW_Correction
   description: The Van der Waals Correction
   geom. index: 6
   prop. index: 1
        Van der Waals Correction:       -0.0083272545
# -----------------------------------------------------------
$ PAL_Flags
   description: The PAL Flags
   geom. index: 7
   prop. index: 1
        Diskflag:     2
# -----------------------------------------------------------
$ SCF_Energy
   description: The SCF energy
   geom. index: 7
   prop. index: 1
        SCF Energy:    -1152.6729592805
# -----------------------------------------------------------
$ DFT_Energy
   description: The DFT energy
   geom. index: 7
   prop. index: 1
   Number of Alpha Electrons                 57.9999654860 
   Number of Beta  Electrons                 57.9999654860 
   Total number of  Electrons               115.9999309720 
   Exchange energy                         -117.5765375738 
   Correlation energy                        -4.0165254980 
   Correlation energy NL                      0.0000000000 
   Exchange-Correlation energy             -121.5930630717 
   Embedding correction                       0.0000000000 
   Total DFT Energy (No VdW correction)   -1152.6729592805 
# -----------------------------------------------------------
$ VdW_Correction
   description: The Van der Waals Correction
   geom. index: 7
   prop. index: 1
        Van der Waals Correction:       -0.0083041829
# -----------------------------------------------------------
$ PAL_Flags
   description: The PAL Flags
   geom. index: 8
   prop. index: 1
        Diskflag:     2
# -----------------------------------------------------------
$ SCF_Energy
   description: The SCF energy
   geom. index: 8
   prop. index: 1
        SCF Energy:    -1152.6788204139
# -----------------------------------------------------------
$ DFT_Energy
   description: The DFT energy
   geom. index: 8
   prop. index: 1
   Number of Alpha Electrons                 57.9999669710 
   Number of Beta  Electrons                 57.9999669710 
   Total number of  Electrons               115.9999339420 
   Exchange energy                         -117.4796882789 
   Correlation energy                        -4.0110338453 
   Correlation energy NL                      0.0000000000 
   Exchange-Correlation energy             -121.4907221242 
   Embedding correction                       0.0000000000 
   Total DFT Energy (No VdW correction)   -1152.6788204139 
# -----------------------------------------------------------
$ VdW_Correction
   description: The Van der Waals Correction
   geom. index: 8
   prop. index: 1
        Van der Waals Correction:       -0.0082692611
# -----------------------------------------------------------
$ PAL_Flags
   description: The PAL Flags
   geom. index: 9
   prop. index: 1
        Diskflag:     2
# -----------------------------------------------------------
$ SCF_Energy
   description: The SCF energy
   geom. index: 9
   prop. index: 1
        SCF Energy:    -1152.6799482180
# -----------------------------------------------------------
$ DFT_Energy
   description: The DFT energy
   geom. index: 9
   prop. index: 1
   Number of Alpha Electrons                 57.9999676860 
   Number of Beta  Electrons                 57.9999676860 
   Total number of  Electrons               115.9999353720 
   Exchange energy                         -117.4938617421 
   Correlation energy                        -4.0109426985 
   Correlation energy NL                      0.0000000000 
   Exchange-Correlation energy             -121.5048044406 
   Embedding correction                       0.0000000000 
   Total DFT Energy (No VdW correction)   -1152.6799482180 
# -----------------------------------------------------------
$ VdW_Correction
   description: The Van der Waals Correction
   geom. index: 9
   prop. index: 1
        Van der Waals Correction:       -0.0082699439
# -----------------------------------------------------------
$ PAL_Flags
   description: The PAL Flags
   geom. index: 10
   prop. index: 1
        Diskflag:     2
# -----------------------------------------------------------
$ SCF_Energy
   description: The SCF energy
   geom. index: 10
   prop. index: 1
        SCF Energy:    -1152.6804920297
# -----------------------------------------------------------
$ DFT_Energy
   description: The DFT energy
   geom. index: 10
   prop. index: 1
   Number of Alpha Electrons                 57.9999671680 
   Number of Beta  Electrons                 57.9999671680 
   Total number of  Electrons               115.9999343361 
   Exchange energy                         -117.4906675507 
   Correlation energy                        -4.0110548163 
   Correlation energy NL                      0.0000000000 
   Exchange-Correlation energy             -121.5017223670 
   Embedding correction                       0.0000000000 
   Total DFT Energy (No VdW correction)   -1152.6804920297 
# -----------------------------------------------------------
$ VdW_Correction
   description: The Van der Waals Correction
   geom. index: 10
   prop. index: 1
        Van der Waals Correction:       -0.0082688262
# -----------------------------------------------------------
$ PAL_Flags
   description: The PAL Flags
   geom. index: 11
   prop. index: 1
        Diskflag:     2
# -----------------------------------------------------------
$ SCF_Energy
   description: The SCF energy
   geom. index: 11
   prop. index: 1
        SCF Energy:    -1152.6807659012
# -----------------------------------------------------------
$ DFT_Energy
   description: The DFT energy
   geom. index: 11
   prop. index: 1
   Number of Alpha Electrons                 57.9999668335 
   Number of Beta  Electrons                 57.9999668335 
   Total number of  Electrons               115.9999336670 
   Exchange energy                         -117.4925896716 
   Correlation energy                        -4.0112041126 
   Correlation energy NL                      0.0000000000 
   Exchange-Correlation energy             -121.5037937842 
   Embedding correction                       0.0000000000 
   Total DFT Energy (No VdW correction)   -1152.6807659012 
# -----------------------------------------------------------
$ VdW_Correction
   description: The Van der Waals Correction
   geom. index: 11
   prop. index: 1
        Van der Waals Correction:       -0.0082675156
# -----------------------------------------------------------
$ PAL_Flags
   description: The PAL Flags
   geom. index: 12
   prop. index: 1
        Diskflag:     2
# -----------------------------------------------------------
$ SCF_Energy
   description: The SCF energy
   geom. index: 12
   prop. index: 1
        SCF Energy:    -1152.6809963338
# -----------------------------------------------------------
$ DFT_Energy
   description: The DFT energy
   geom. index: 12
   prop. index: 1
   Number of Alpha Electrons                 57.9999663415 
   Number of Beta  Electrons                 57.9999663415 
   Total number of  Electrons               115.9999326830 
   Exchange energy                         -117.4969275795 
   Correlation energy                        -4.0113780711 
   Correlation energy NL                      0.0000000000 
   Exchange-Correlation energy             -121.5083056506 
   Embedding correction                       0.0000000000 
   Total DFT Energy (No VdW correction)   -1152.6809963338 
# -----------------------------------------------------------
$ VdW_Correction
   description: The Van der Waals Correction
   geom. index: 12
   prop. index: 1
        Van der Waals Correction:       -0.0082642021
# -----------------------------------------------------------
$ PAL_Flags
   description: The PAL Flags
   geom. index: 13
   prop. index: 1
        Diskflag:     2
# -----------------------------------------------------------
$ SCF_Energy
   description: The SCF energy
   geom. index: 13
   prop. index: 1
        SCF Energy:    -1152.6810115151
# -----------------------------------------------------------
$ DFT_Energy
   description: The DFT energy
   geom. index: 13
   prop. index: 1
   Number of Alpha Electrons                 57.9999664146 
   Number of Beta  Electrons                 57.9999664146 
   Total number of  Electrons               115.9999328291 
   Exchange energy                         -117.4969830940 
   Correlation energy                        -4.0113132563 
   Correlation energy NL                      0.0000000000 
   Exchange-Correlation energy             -121.5082963503 
   Embedding correction                       0.0000000000 
   Total DFT Energy (No VdW correction)   -1152.6810115151 
# -----------------------------------------------------------
$ VdW_Correction
   description: The Van der Waals Correction
   geom. index: 13
   prop. index: 1
        Van der Waals Correction:       -0.0082627467
# -----------------------------------------------------------
$ PAL_Flags
   description: The PAL Flags
   geom. index: 14
   prop. index: 1
        Diskflag:     2
# -----------------------------------------------------------
$ SCF_Energy
   description: The SCF energy
   geom. index: 14
   prop. index: 1
        SCF Energy:    -1152.6810118944
# -----------------------------------------------------------
$ DFT_Energy
   description: The DFT energy
   geom. index: 14
   prop. index: 1
   Number of Alpha Electrons                 57.9999665427 
   Number of Beta  Electrons                 57.9999665427 
   Total number of  Electrons               115.9999330854 
   Exchange energy                         -117.4966860500 
   Correlation energy                        -4.0112553379 
   Correlation energy NL                      0.0000000000 
   Exchange-Correlation energy             -121.5079413879 
   Embedding correction                       0.0000000000 
   Total DFT Energy (No VdW correction)   -1152.6810118944 
# -----------------------------------------------------------
$ VdW_Correction
   description: The Van der Waals Correction
   geom. index: 14
   prop. index: 1
        Van der Waals Correction:       -0.0082618603
# -----------------------------------------------------------
$ PAL_Flags
   description: The PAL Flags
   geom. index: 15
   prop. index: 1
        Diskflag:     2
# -----------------------------------------------------------
$ SCF_Energy
   description: The SCF energy
   geom. index: 15
   prop. index: 1
        SCF Energy:    -1152.6810103971
# -----------------------------------------------------------
$ DFT_Energy
   description: The DFT energy
   geom. index: 15
   prop. index: 1
   Number of Alpha Electrons                 57.9999666125 
   Number of Beta  Electrons                 57.9999666125 
   Total number of  Electrons               115.9999332249 
   Exchange energy                         -117.4965953979 
   Correlation energy                        -4.0112420369 
   Correlation energy NL                      0.0000000000 
   Exchange-Correlation energy             -121.5078374348 
   Embedding correction                       0.0000000000 
   Total DFT Energy (No VdW correction)   -1152.6810103971 
# -----------------------------------------------------------
$ VdW_Correction
   description: The Van der Waals Correction
   geom. index: 15
   prop. index: 1
        Van der Waals Correction:       -0.0082615947
# -----------------------------------------------------------
$ SCF_Electric_Properties
   description: The SCF Calculated Electric Properties
   geom. index: 15
   prop. index: 1
       Filename                          : mol.scfp 
       Do Dipole Moment Calculation      : true 
       Do Quadrupole Moment Calculation  : false 
       Do Polarizability Calculation     : false 
** Dipole moment part of electric properties **
        Magnitude of dipole moment (Debye) :        4.8682906817
        Electronic Contribution:
                  0    
      0       4.363618
      1       6.239066
      2      -1.351913
        Nuclear Contribution:
                  0    
      0      -3.253321
      1      -7.148767
      2       2.619996
        Total Dipole moment:
                  0    
      0       1.110297
      1      -0.909701
      2       1.268083
# -----------------------------------------------------------
$ PAL_Flags
   description: The PAL Flags
   geom. index: 16
   prop. index: 1
        Diskflag:     2
# -----------------------------------------------------------
$ SCF_Energy
   description: The SCF energy
   geom. index: 16
   prop. index: 1
        SCF Energy:    -1152.6810103936
# -----------------------------------------------------------
$ DFT_Energy
   description: The DFT energy
   geom. index: 16
   prop. index: 1
   Number of Alpha Electrons                 57.9999666125 
   Number of Beta  Electrons                 57.9999666125 
   Total number of  Electrons               115.9999332249 
   Exchange energy                         -117.4966039996 
   Correlation energy                        -4.0112420357 
   Correlation energy NL                      0.0000000000 
   Exchange-Correlation energy             -121.5078460352 
   Embedding correction                       0.0000000000 
   Total DFT Energy (No VdW correction)   -1152.6810103936 
# -----------------------------------------------------------
$ VdW_Correction
   description: The Van der Waals Correction
   geom. index: 16
   prop. index: 1
        Van der Waals Correction:       -0.0082615947
# -----------------------------------------------------------
$ THERMOCHEMISTRY_Energies
   description: The Thermochemistry energies
   geom. index: 16
   prop. index: 1
        Temperature (Kelvin)           :        298.1500000000
        Pressure (atm)                 :          1.0000000000
        Total Mass (AMU)               :        227.9840924101
        Spin Degeneracy                :          1.0000000000
        Electronic Energy (Hartree)    :      -1152.6639091965
        Translational Energy (Hartree) :          0.0014162714
        Rotational Energy (Hartree)    :          0.0014162714
        Vibrational Energy (Hartree)   :          0.0095275368
        Number of frequencies          :     57      
        Scaling Factor for frequencies :          1.0000000000
        Vibrational frequencies        :     
                  0    
      0       0.000000
      1       0.000000
      2       0.000000
      3       0.000000
      4       0.000000
      5       0.000000
      6      25.921607
      7      44.773539
      8      77.727436
      9     101.326734
     10     143.937079
     11     174.593893
     12     227.939248
     13     273.097163
     14     288.821993
     15     304.343288
     16     391.302223
     17     418.525930
     18     425.879934
     19     436.428825
     20     470.393458
     21     500.272571
     22     549.832741
     23     637.705020
     24     651.910499
     25     671.455210
     26     676.768140
     27     690.555903
     28     755.937287
     29     757.619002
     30     821.925713
     31     881.383073
     32     907.310438
     33     932.703145
     34     947.491183
     35     950.068588
     36     995.741319
     37     1024.326079
     38     1094.071768
     39     1115.318915
     40     1118.188912
     41     1198.173484
     42     1236.099942
     43     1304.393679
     44     1334.172402
     45     1360.222221
     46     1372.837631
     47     1467.949234
     48     1508.809375
     49     1586.056499
     50     1604.303855
     51     1634.059761
     52     1654.494237
     53     3188.030960
     54     3205.523485
     55     3222.472398
     56     3224.711366
        Zero Point Energy (Hartree)    :          0.1152477353
        Inner Energy (Hartree)         :      -1152.5363013815
        Enthalpy (Hartree)             :      -1152.5353571725
        Electronic entropy             :          0.0000000000
        Rotational entropy             :          0.0154934050
        Vibrational entropy            :          0.0166474693
        Translational entropy          :          0.0154934050
        Entropy                        :          0.0521792738
        Gibbs Energy (Hartree)         :      -1152.5875364463
        Is Linear                      :                 false
# -------------------------------------------------------------
----------------------- !GEOMETRIES! ------------------------
# -------------------------------------------------------------
------------------------ !GEOMETRY! -------------------------
    Number of atoms:    19 
    Geometry Index:     1 
    Coordinates:
               0 C      0.086900000000    0.113280000000   -0.101510000000
               1 C      1.080050000000    1.065980000000   -0.236810000000
               2 C      0.410790000000   -1.118100000000    0.459280000000
               3 C      2.387590000000    0.779910000000    0.182780000000
               4 C      2.690020000000   -0.466370000000    0.742740000000
               5 C      1.695890000000   -1.423170000000    0.883800000000
               6 H      0.854920000000    2.035490000000   -0.667650000000
               7 C      3.430850000000    1.789620000000    0.039940000000
               8 N     -0.930220000000    0.308610000000   -0.419240000000
               9 H     -0.650780000000   -2.136540000000    0.607790000000
              10 H      3.701990000000   -0.685960000000    1.063430000000
              11 H      1.904540000000   -2.395440000000    1.313600000000
              12 N      3.262650000000    2.916110000000   -0.553900000000
              13 O      4.443350000000    3.654950000000   -0.497800000000
              14 O      4.660090000000    1.519210000000    0.578050000000
              15 S      5.804700000000    2.670890000000   -0.020560000000
              16 O      6.417500000000    2.103200000000   -1.221920000000
              17 O     -1.163320000000    1.178720000000   -0.816510000000
              18 O     -1.621430000000   -0.383980000000   -0.310710000000
------------------------ !GEOMETRY! -------------------------
    Number of atoms:    19 
    Geometry Index:     2 
    Coordinates:
               0 C      0.088021608899    0.109226426981   -0.099378014559
               1 C      1.088157158694    1.062949215869   -0.233507760304
               2 C      0.420377505944   -1.125244367792    0.464454567661
               3 C      2.395188773122    0.777499910713    0.185463756804
               4 C      2.699428775096   -0.467699332236    0.745258922299
               5 C      1.706287642740   -1.425801537301    0.887144126968
               6 H      0.864726311479    2.032483607469   -0.663819826249
               7 C      3.437535761558    1.788323774666    0.041863527005
               8 N     -0.966586168738    0.313121391548   -0.429156805616
               9 H     -0.618430354805   -2.131814037694    0.613778022077
              10 H      3.712135416404   -0.685705428209    1.065303258054
              11 H      1.918273858094   -2.397301973427    1.317301004601
              12 N      3.268445768704    2.914541022170   -0.551937011492
              13 O      4.448906828110    3.654337045717   -0.496315854731
              14 O      4.667252473147    1.518794632430    0.579555580974
              15 S      5.810865333243    2.671215777864   -0.019595077221
              16 O      6.423732228568    2.103695127022   -1.221144538563
              17 O     -1.207283211612    1.226534454718   -0.845117545928
              18 O     -1.690955708647   -0.412745710509   -0.315350331780
------------------------ !GEOMETRY! -------------------------
    Number of atoms:    19 
    Geometry Index:     3 
    Coordinates:
               0 C      0.090429152279    0.103245423528   -0.096213443226
               1 C      1.097062686715    1.058191231852   -0.229339410917
               2 C      0.430232116004   -1.133736633297    0.470194061393
               3 C      2.402916913194    0.773933146825    0.188657933899
               4 C      2.709162515651   -0.470147706250    0.748333700637
               5 C      1.716261858610   -1.429367863983    0.890769691657
               6 H      0.874342137376    2.027519508513   -0.659282857978
               7 C      3.443907318918    1.786467859014    0.043938852163
               8 N     -1.010997118692    0.318507040098   -0.441359372164
               9 H     -0.574133260445   -2.113700378214    0.617273594430
              10 H      3.722639799870   -0.686556538869    1.067755589216
              11 H      1.931741938302   -2.400047089952    1.321306102755
              12 N      3.273553912997    2.912194956067   -0.549869772783
              13 O      4.453642694353    3.653272472837   -0.494864616973
              14 O      4.674130604196    1.518068804871    0.581178985996
              15 S      5.816407071825    2.671513405395   -0.018740453214
              16 O      6.429393355035    2.104146880501   -1.220428580074
              17 O     -1.252800494686    1.270485629847   -0.872605037616
              18 O     -1.761813201502   -0.437580148784   -0.321904967200
------------------------ !GEOMETRY! -------------------------
    Number of atoms:    19 
    Geometry Index:     4 
    Coordinates:
               0 C      0.094690561162    0.095901453376   -0.092143646816
               1 C      1.104902661537    1.051993596464   -0.224948890589
               2 C      0.438389597375   -1.142194258767    0.475493282655
               3 C      2.409583007796    0.769443527155    0.191924894693
               4 C      2.717808572153   -0.473688008824    0.751589993464
               5 C      1.724378491433   -1.433484218878    0.894182569849
               6 H      0.881200386816    2.020869640993   -0.654858677208
               7 C      3.448924018733    1.784079731053    0.045881578428
               8 N     -1.053050726835    0.323033918914   -0.452735961920
               9 H     -0.522310672277   -2.080948070996    0.616791595505
              10 H      3.731926880886   -0.688734112616    1.070491620286
              11 H      1.942985029263   -2.403442561981    1.325088332908
              12 N      3.277078796734    2.909207525036   -0.547999989526
              13 O      4.456718416889    3.651764163733   -0.493595270116
              14 O      4.679639072400    1.516981938623    0.582726460126
              15 S      5.820374085515    2.671661463566   -0.018034881409
              16 O      6.433602159544    2.104447957516   -1.219763390703
              17 O     -1.293102013195    1.312056878869   -0.898025898817
              18 O     -1.827658325929   -0.462540563237   -0.327263720810
------------------------ !GEOMETRY! -------------------------
    Number of atoms:    19 
    Geometry Index:     5 
    Coordinates:
               0 C      0.100631281464    0.087319783952   -0.087243159364
               1 C      1.111097553246    1.044902412393   -0.220570201874
               2 C      0.444092551968   -1.151211749348    0.480345062080
               3 C      2.414800222270    0.764256886328    0.195184520012
               4 C      2.724932532465   -0.478200072221    0.754914845666
               5 C      1.730559185059   -1.438150786154    0.897328327631
               6 H      0.884833095783    2.013067226089   -0.650704860350
               7 C      3.452386112216    1.781120303091    0.047748011440
               8 N     -1.092424514008    0.326581901384   -0.463183678137
               9 H     -0.460793681146   -2.032487824670    0.612262432040
              10 H      3.739571488257   -0.692021836830    1.073350736474
              11 H      1.952278663794   -2.407420051347    1.328591424013
              12 N      3.279043774486    2.905626540158   -0.546271167975
              13 O      4.458308464951    3.649580525050   -0.492383032489
              14 O      4.683519576888    1.515230531759    0.584269078671
              15 S      5.822747573116    2.671149219470   -0.017359970972
              16 O      6.436227946575    2.103980721927   -1.219033268200
              17 O     -1.328469031656    1.349407966099   -0.920676271772
              18 O     -1.887262795727   -0.486321697130   -0.331768826896
------------------------ !GEOMETRY! -------------------------
    Number of atoms:    19 
    Geometry Index:     6 
    Coordinates:
               0 C      0.108811536352    0.077830365150   -0.081488643460
               1 C      1.115489126287    1.037789329714   -0.216578568625
               2 C      0.446666537490   -1.161325217138    0.484766405953
               3 C      2.418627397398    0.758977628330    0.198188734456
               4 C      2.730372081947   -0.483172720954    0.758027127332
               5 C      1.734954371560   -1.442986574140    0.900032934834
               6 H      0.884920651436    2.004901540457   -0.647171320998
               7 C      3.454565322616    1.777905867131    0.049452845125
               8 N     -1.128440494823    0.329403544362   -0.472555359171
               9 H     -0.393034046864   -1.973293490978    0.604806003182
              10 H      3.745401657271   -0.695845016467    1.076018479903
              11 H      1.960238918886   -2.411507813201    1.331700217981
              12 N      3.279979320463    2.901833457854   -0.544789276013
              13 O      4.459080227852    3.646874447404   -0.491176525127
              14 O      4.685961948720    1.512917868414    0.585830661621
              15 S      5.823980153042    2.669904773745   -0.016553600611
              16 O      6.437758135139    2.102553315891   -1.218007732453
              17 O     -1.359190377263    1.382274317455   -0.940385767565
              18 O     -1.940062467507   -0.508625623028   -0.335316616363
------------------------ !GEOMETRY! -------------------------
    Number of atoms:    19 
    Geometry Index:     7 
    Coordinates:
               0 C      0.122929037629    0.067445998586   -0.073918897222
               1 C      1.119867697514    1.032023677296   -0.213009844974
               2 C      0.446629327717   -1.173748196632    0.489405489743
               3 C      2.422863412940    0.754820908436    0.200945857324
               4 C      2.735489513102   -0.487551709049    0.760890125669
               5 C      1.739072125883   -1.447037738489    0.902324079566
               6 H      0.882029680981    1.997299392727   -0.644406932380
               7 C      3.457289834941    1.775559599983    0.050931040775
               8 N     -1.163445597941    0.333083512576   -0.481912059886
               9 H     -0.335906794809   -1.921944333861    0.597729146665
              10 H      3.750782852334   -0.699094539018    1.078409612104
              11 H      1.969528244856   -2.414515764833    1.334587325103
              12 N      3.281640308692    2.898804966397   -0.543892290425
              13 O      4.460754321421    3.644752653303   -0.490264362140
              14 O      4.688805101090    1.511300370271    0.587397545122
              15 S      5.825788446002    2.669280307414   -0.015863531583
              16 O      6.439938042003    2.101281520965   -1.216817941227
              17 O     -1.387779543031    1.415451534635   -0.959499678825
              18 O     -1.990196011324   -0.530802160707   -0.338234683408
------------------------ !GEOMETRY! -------------------------
    Number of atoms:    19 
    Geometry Index:     8 
    Coordinates:
               0 C      0.147271514832    0.059787571011   -0.064620633794
               1 C      1.128737194494    1.032062062964   -0.210172768156
               2 C      0.450558830556   -1.184541860926    0.494241724102
               3 C      2.432150778686    0.756399982230    0.203008910281
               4 C      2.745046065739   -0.486632779713    0.762869931431
               5 C      1.748467635630   -1.446315931279    0.903870704020
               6 H      0.880087989897    1.994328575421   -0.642497160782
               7 C      3.465308031758    1.778464584888    0.051393989861
               8 N     -1.196591510872    0.341241568352   -0.491930052329
               9 H     -0.363335661037   -1.952494258808    0.602413948547
              10 H      3.760600869130   -0.696908928065    1.079744994289
              11 H      1.986347237861   -2.412314940629    1.336820245438
              12 N      3.289138561484    2.900039464583   -0.546108268060
              13 O      4.468141119472    3.647154670467   -0.491605697599
              14 O      4.696528012062    1.515487933922    0.589137223266
              15 S      5.832886770450    2.673784304958   -0.015946857463
              16 O      6.447789155333    2.103323074524   -1.215333745401
              17 O     -1.414993536579    1.454258679314   -0.979451231616
              18 O     -2.038059058898   -0.550713773211   -0.341035256035
------------------------ !GEOMETRY! -------------------------
    Number of atoms:    19 
    Geometry Index:     9 
    Coordinates:
               0 C      0.154202311504    0.055483484913   -0.060957288516
               1 C      1.125739426642    1.032518968464   -0.210356118641
               2 C      0.448039348535   -1.189632159209    0.494683500118
               3 C      2.430492398631    0.755942416463    0.202988418210
               4 C      2.742083746456   -0.488269080626    0.762231235086
               5 C      1.747284427149   -1.449204682886    0.903507743800
               6 H      0.871296043453    1.993108713697   -0.642578336905
               7 C      3.464478746156    1.776791174498    0.051635891323
               8 N     -1.204838657918    0.339904222411   -0.492189296902
               9 H     -0.321742493744   -1.911767433768    0.594875938807
              10 H      3.757510257953   -0.698699461826    1.078871548977
              11 H      1.988189625426   -2.414745697467    1.336270654305
              12 N      3.289637942368    2.897069774324   -0.548900144526
              13 O      4.468732632723    3.644197777488   -0.492733330497
              14 O      4.694591724165    1.514499993632    0.592135147390
              15 S      5.832237958108    2.671526169199   -0.013698821434
              16 O      6.448521482514    2.097966939838   -1.210873377754
              17 O     -1.424437595677    1.454561499573   -0.979505295936
              18 O     -2.045939324444   -0.554842618719   -0.340608066906
------------------------ !GEOMETRY! -------------------------
    Number of atoms:    19 
    Geometry Index:     10 
    Coordinates:
               0 C      0.155641532818    0.056373509620   -0.060665317867
               1 C      1.125706705105    1.034555117244   -0.210856168085
               2 C      0.449101402139   -1.188836142559    0.494253144240
               3 C      2.430926428515    0.757469902814    0.202299036219
               4 C      2.742224210079   -0.486920193190    0.761165373997
               5 C      1.748375974677   -1.448800318027    0.902913451711
               6 H      0.870316825041    1.994926555512   -0.642757854034
               7 C      3.465344054284    1.777661561195    0.051029249530
               8 N     -1.204217523262    0.340234120062   -0.491209938664
               9 H     -0.336291381394   -1.925774419743    0.596412878454
              10 H      3.757805718782   -0.697290742301    1.077580122591
              11 H      1.990050897067   -2.414200531433    1.335440228695
              12 N      3.291157693444    2.897030348069   -0.551533966325
              13 O      4.470119783987    3.644383596663   -0.494980139288
              14 O      4.694706688555    1.516398613981    0.593606458808
              15 S      5.833027836404    2.672629774456   -0.012652224460
              16 O      6.450960256061    2.096981523418   -1.207972875252
              17 O     -1.425487146086    1.451880871506   -0.977125749663
              18 O     -2.043389956218   -0.552293147287   -0.340145710609
------------------------ !GEOMETRY! -------------------------
    Number of atoms:    19 
    Geometry Index:     11 
    Coordinates:
               0 C      0.159552924199    0.055968181074   -0.059034787125
               1 C      1.124960152950    1.036901833580   -0.211442534891
               2 C      0.449353003515   -1.189701337984    0.494001019871
               3 C      2.431039204643    0.758913222851    0.201312519443
               4 C      2.741617029230   -0.485938236471    0.759396589217
               5 C      1.749371730063   -1.449409170159    0.901995444302
               6 H      0.866689904325    1.996562527475   -0.642878498072
               7 C      3.466176626394    1.778016506417    0.050222083263
               8 N     -1.206796342212    0.340435119163   -0.490073652319
               9 H     -0.340460486404   -1.929249524062    0.595971695625
              10 H      3.757460235039   -0.696201731011    1.075287680442
              11 H      1.993160213755   -2.414424885886    1.334117308044
              12 N      3.293129704013    2.895554920883   -0.556309012309
              13 O      4.471793148888    3.643520189804   -0.498733626483
              14 O      4.694126021441    1.518756508913    0.596683942168
              15 S      5.833585387515    2.673752903475   -0.010284089191
              16 O      6.454764442153    2.094258948415   -1.202060116396
              17 O     -1.430276549171    1.448348507277   -0.973922523438
              18 O     -2.043166350336   -0.549654483754   -0.339449442154
------------------------ !GEOMETRY! -------------------------
    Number of atoms:    19 
    Geometry Index:     12 
    Coordinates:
               0 C      0.167139891539    0.054479827833   -0.055648772757
               1 C      1.124049911931    1.040111565441   -0.212028821269
               2 C      0.449587989989   -1.191983547736    0.493907429569
               3 C      2.431511260878    0.760759109622    0.199720262842
               4 C      2.740996437980   -0.484873855171    0.756308171062
               5 C      1.751265423535   -1.450944703082    0.900377774362
               6 H      0.860380881595    1.998532712952   -0.642609360584
               7 C      3.467716715634    1.778329225600    0.048818388846
               8 N     -1.214252446067    0.341207206495   -0.488675841947
               9 H     -0.342565221421   -1.929817867378    0.594549116152
              10 H      3.757354025354   -0.694910906528    1.071018384267
              11 H      1.999138645232   -2.415248224185    1.331697590746
              12 N      3.296553169603    2.892083559985   -0.565553493203
              13 O      4.474465636023    3.641634850078   -0.505908671680
              14 O      4.692962439003    1.523369670649    0.602727245867
              15 S      5.834320783813    2.676218246762   -0.005800012934
              16 O      6.461765392860    2.089400965465   -1.190703163213
              17 O     -1.440673945141    1.443114935084   -0.968813431217
              18 O     -2.045636992340   -0.545052771888   -0.338582794908
------------------------ !GEOMETRY! -------------------------
    Number of atoms:    19 
    Geometry Index:     13 
    Coordinates:
               0 C      0.168188085180    0.053971203413   -0.054980801249
               1 C      1.124298796324    1.039876323840   -0.211709170453
               2 C      0.449774278437   -1.192536291510    0.494098580437
               3 C      2.431866879661    0.760572699785    0.199558172769
               4 C      2.741524896114   -0.485158218540    0.755849749329
               5 C      1.751813772812   -1.451329890829    0.900065595478
               6 H      0.859957845315    1.998283687610   -0.642067268883
               7 C      3.468008298682    1.778294030452    0.048466063792
               8 N     -1.217431272667    0.341724923611   -0.488873468575
               9 H     -0.340900887129   -1.928045433375    0.594326354753
              10 H      3.758006093185   -0.695152490733    1.070149500226
              11 H      2.000293164247   -2.415591043489    1.331172121074
              12 N      3.297055591576    2.891056276681   -0.567771803213
              13 O      4.474719916258    3.641195601593   -0.507701113610
              14 O      4.692645975373    1.524543521476    0.604067947165
              15 S      5.834248970230    2.677106719208   -0.004799878108
              16 O      6.463356671814    2.088730005327   -1.188058221892
              17 O     -1.443403030093    1.443298211929   -0.968361497758
              18 O     -2.047944045318   -0.544429836446   -0.338630861280
------------------------ !GEOMETRY! -------------------------
    Number of atoms:    19 
    Geometry Index:     14 
    Coordinates:
               0 C      0.167920947865    0.053827733927   -0.054885348009
               1 C      1.124639681535    1.039208973156   -0.211243548961
               2 C      0.450126205421   -1.192544023283    0.494203205195
               3 C      2.432148957628    0.760176517971    0.199594090998
               4 C      2.742252989355   -0.485545578951    0.755752185368
               5 C      1.752203851064   -1.451418457806    0.899878091032
               6 H      0.860546601254    1.997871645165   -0.641403049855
               7 C      3.468024321572    1.778292179114    0.048226924958
               8 N     -1.219606685119    0.342165966579   -0.489199033530
               9 H     -0.339467317353   -1.926962397996    0.594414441768
              10 H      3.758797795399   -0.695529808404    1.069770304403
              11 H      2.000563936208   -2.415792989843    1.330834743080
              12 N      3.297119606989    2.890423572233   -0.569109515917
              13 O      4.474631151220    3.640973869324   -0.508772888692
              14 O      4.692318651055    1.525299338867    0.604798409672
              15 S      5.834019514240    2.677718187155   -0.004304837445
              16 O      6.464066526315    2.088495362703   -1.186653390968
              17 O     -1.444617166473    1.444005547027   -0.968310785574
              18 O     -2.049609568174   -0.544255636938   -0.338789997525
------------------------ !GEOMETRY! -------------------------
    Number of atoms:    19 
    Geometry Index:     15 
    Coordinates:
               0 C      0.167418113736    0.053892636160   -0.054979901666
               1 C      1.124776614667    1.038798297167   -0.210946808843
               2 C      0.450425580582   -1.192338070957    0.494174934474
               3 C      2.432259986454    0.759956557336    0.199610611107
               4 C      2.742711410123   -0.485745885859    0.755692121787
               5 C      1.752423927924   -1.451372763830    0.899722138707
               6 H      0.861069439728    1.997700921568   -0.640938404623
               7 C      3.467927009849    1.778332700851    0.048032693430
               8 N     -1.220561273622    0.342390075034   -0.489302956431
               9 H     -0.338923357585   -1.926859851081    0.594565969218
              10 H      3.759287830089   -0.695733008057    1.069554940323
              11 H      2.000479196882   -2.415874736194    1.330575524214
              12 N      3.297100427027    2.890082407000   -0.569977203078
              13 O      4.474544013721    3.640852202763   -0.509464344799
              14 O      4.692004059768    1.525773002388    0.605233763108
              15 S      5.833804871074    2.678059210875   -0.004016875473
              16 O      6.464416347154    2.088285289986   -1.185794972198
              17 O     -1.444892256667    1.444416604151   -0.968114229366
              18 O     -2.050191940905   -0.544205589302   -0.338826999892
------------------------ !GEOMETRY! -------------------------
    Number of atoms:    19 
    Geometry Index:     16 
    Coordinates:
               0 C      0.167418113736    0.053892636160   -0.054979901666
               1 C      1.124776614667    1.038798297167   -0.210946808843
               2 C      0.450425580582   -1.192338070957    0.494174934474
               3 C      2.432259986454    0.759956557336    0.199610611107
               4 C      2.742711410123   -0.485745885859    0.755692121787
               5 C      1.752423927924   -1.451372763830    0.899722138707
               6 H      0.861069439728    1.997700921568   -0.640938404623
               7 C      3.467927009849    1.778332700851    0.048032693430
               8 N     -1.220561273622    0.342390075034   -0.489302956431
               9 H     -0.338923357585   -1.926859851081    0.594565969218
              10 H      3.759287830089   -0.695733008057    1.069554940323
              11 H      2.000479196882   -2.415874736194    1.330575524214
              12 N      3.297100427027    2.890082407000   -0.569977203078
              13 O      4.474544013721    3.640852202763   -0.509464344799
              14 O      4.692004059768    1.525773002388    0.605233763108
              15 S      5.833804871074    2.678059210875   -0.004016875473
              16 O      6.464416347154    2.088285289986   -1.185794972198
              17 O     -1.444892256667    1.444416604151   -0.968114229366
              18 O     -2.050191940905   -0.544205589302   -0.338826999892
