3
Coordinates from ORCA-job orca
  S   0.00000000000000     -0.00000009812509      0.38922766369216
  O   0.00000000000000      1.25619760504369     -0.37619785758664
  O   0.00000000000000     -1.25619750691860     -0.37619780610552
