14
C7H5NO optimized with ADF in AMS.
 C        1.80878680700750      -0.42989978425836       0.36639826616297
 C        2.88831176402533       0.37182329689083       0.02630283555202
 C        1.99513470552040      -1.77582633500969       0.65956426144689
 C        4.16749575650955      -0.17758193530888      -0.02133736665698
 C        4.36218667207212      -1.52963594033449       0.27143392723742
 C        3.27451336938715      -2.31995107148437       0.60990061335202
 H        2.76121382322911       1.42179387923915      -0.20480582280193
 C        6.41864225226916       0.56130357626025      -0.49431964057661
 H        0.81608188940850       0.00278217089862       0.40222713288255
 H        1.14950274606797      -2.39811157055537       0.92504081215936
 H        5.36139202939398      -1.94894114798722       0.23135905652508
 H        3.42894408727780      -3.36844295084626       0.83668234849529
 N        5.22591018588521       0.65650736214863      -0.36493411902478
 O        7.57548391184622       0.60478045034716      -0.65251230495330
