 14
 Energy -399.28214979546  Dipole 3.482769  ZPE 0.100383  G(298.15) 42.06  HoF 52.30 kcal  Edisp -8.99  Gsolv(benzene) -3.96
 C   -1.76841524  -0.01142558   0.49263026  
 C   -0.77032462   0.91788042   0.21191504  
 C   -1.50028627  -1.38193867   0.42191178  
 C    0.52353582   0.48170656  -0.14721915  
 C    0.78657598  -0.90366516  -0.21654082  
 C   -0.22127893  -1.82156008   0.06687704  
 H   -0.97650344   1.98898183   0.26623738  
 C    1.54662171   1.42387397  -0.43514210  
 H   -2.76624459   0.33814986   0.76963341  
 H   -2.28746973  -2.10683294   0.64334820  
 H    1.78655026  -1.24376939  -0.49420988  
 H   -0.00577782  -2.89156731   0.00995950  
 N    2.39254161   2.20474284  -0.67273426  
 O    3.26047527   3.00542367  -0.91666638  
