 3
 Energy -548.35738024431  Dipole 1.611640  ZPE 0.006463  G(298.15) -11.58  Edisp -0.86  Gsolv(benzene) -2.32
 O   -0.41697985   1.22952817  -0.05598419  
 S   -0.22155053  -0.15706826   0.41772255  
 O    0.63853038  -1.07245992  -0.36173835  
