16
Coordinates from ORCA-job mol
  C   1.85480492282918     -0.50041379790737      0.37527366195354
  C   2.91187454915316      0.32983496643397      0.03584241323104
  C   2.01698188459909     -1.84692433400259      0.66976710833353
  C   4.19199587551206     -0.21871947639894     -0.00982736290643
  C   4.38629574055224     -1.57488404041447      0.28235648630111
  C   3.30253812497367     -2.37496936148939      0.61827139635328
  H   2.74407321255165      1.37606022932632     -0.18714018452650
  C   6.44581542528931      0.49570798893260     -0.48427790763885
  N   0.49346387090317      0.08194032363478      0.42430279602095
  H   1.15761505028921     -2.45168057298580      0.92914212534845
  H   5.38821886824991     -1.99336784751147      0.24391296190361
  H   3.46232294056499     -3.42476328285978      0.84288834812140
  N   5.24944657043899      0.62261857365545     -0.35200899492476
  O   7.60316188990039      0.51279791988724     -0.64699138629848
  O   0.37711426101932      1.27092307472364      0.16031367361174
  O   -0.42759318682637     -0.66499036302418      0.72601486511634
