! r2scan-3c D4 TightSCF Opt freq Mass2016
%geom maxiter 300 end
%maxcore 4000 
%pal nprocs 28
end

*xyz 0 1
C        0.075844000      0.093870000     -0.072419000
C        1.053062000      1.065735000     -0.213877000
C        0.401919000     -1.154575000      0.450605000
C        2.365148000      0.783989000      0.169622000
C        2.693399000     -0.463044000      0.696512000
C        1.707776000     -1.431033000      0.835008000
H        0.807612000      2.041291000     -0.614503000
C        3.408326000      1.803989000      0.009048000
H       -0.943833000      0.310004000     -0.367850000
H        3.713463000     -0.674235000      0.990437000
H        1.962860000     -2.402005000      1.242189000
N        3.296194000      2.868928000     -0.684474000
O        4.504013000      3.597954000     -0.540125000
O        4.596852000      1.608820000      0.646707000
S        5.727472000      2.666224000      0.029196000
O        6.369983000      1.992905000     -1.065447000
Cl      -0.851693767     -2.391261863      0.629380374
*