 $CONTRL SCFTYP=rhf RUNTYP=sadpoint d5=.t.
! dfttyp=pbe0
 mplevl=2
 maxit=100 icut=20 inttyp=hondo itol=30 gencon=.f. wide=1                                
 mult=1 icharg=0 exetyp=run fstint=.t. nzvar=0 $END                            
 $SYSTEM TIMLIM=100000 mwords=360 nojac=1  $END                                  
 $PCM SOLVNT=BENZENE $END
 $system mxbcst=-1 $end                                                         
 $p2p p2p=.t. dlb=.t. $end                                                      
 $smp                                                                           
  mkl64=21 smppar=1 mklnp=18 np=36 httnp=1 dianp=1                              
  pts=0x101                                                                     
 $end                                                                           
 $mpi mxgsum=0x40000 mnpdot=1d9 $end                                            
 $MOORTH nostf=1 nozero=1 syms=1 symden=1 symvec=1 tole=0 tolz=0 $end           
 $BASIS GBASIS=apvtzs extfil=.t. $END                                          
 $GUESS GUESS=huckel                                                            
 $END                                                                           
! $RIMP2 AUXBAS=cc-pvdz/C VERBOSE=.T. $END
 $MP2 method=1 $END
 $MP2GRD dblbf=0 fused=0 asysnc=1 tol1=1d-12 tol2=1d-12 $END
! $HESS HESS=READ $END
 $FORCE NVIB=2 VIBSIZ=0.005 $END
 $trans mptran=2 dirtrf=.t. mode=112 cuttrf=1d-20 $end
 $DATA
 C7NH5SO3
C1
CARBON      6.0  -2.3377083074  -0.7581826950  -0.5114283288
CARBON      6.0  -1.4675212060   0.3233416383  -0.5425688679
CARBON      6.0  -1.9354973870  -1.9706933591   0.0493956453
CARBON      6.0  -0.1793110978   0.1833729696  -0.0038172799
CARBON      6.0   0.2310486559  -1.0303835125   0.5604654491
CARBON      6.0  -0.6546116387  -2.1022294320   0.5820522597
HYDROGEN    1.0  -1.7667078600   1.2677537579  -0.9751839222
CARBON      6.0   0.7226933694   1.2920016791  -0.0315828150
HYDROGEN    1.0  -3.3305472868  -0.6542827867  -0.9261224565
HYDROGEN    1.0  -2.6183019066  -2.8085171837   0.0695534765
HYDROGEN    1.0   1.2277041179  -1.1157276597   0.9661725502
HYDROGEN    1.0  -0.3417010660  -3.0417237886   1.0152154621
NITROGEN    7.0   0.8706400970   2.4391923772  -0.4025340579
OXYGEN      8.0   1.7993323104   3.2899561105  -0.3378091205
OXYGEN      8.0   2.3397981341   1.0036053397   0.8845912713
SULFUR     16.0   3.3786423780   2.0268872189   0.4236283770
OXYGEN      8.0   4.0620486935   1.6556313260  -0.8200256426
 $END
 $HESS
ENERGY IS     -946.8206101899 E(NUC) IS      751.7395412887
 1  1  6.77238626500000000D-01  5.55595307700000000D-02  1.92930842710000000D-01 -2.08950396150000000D-01 -1.47338561815000000D-01
 1  2 -1.01716639935000000D-02 -1.33169726310000000D-01  7.21158759199999900D-02 -5.44144419150000000D-02 -3.90606224800000000D-02
 1  3 -2.19335125900000000D-02 -8.80546724049999900D-03 -7.85073198900000100D-04 -6.87273328299999900D-03  3.34467748605000000D-03
 1  4 -6.19073920150000000D-03  3.28810492600000000D-02 -1.41139090575000000D-02  9.40455377950000100D-03  9.77489573200000100D-03
 1  5 -5.26477363050000000D-04 -2.98637002345000000D-03  2.64390156385000000D-03 -4.72183159600000000D-03 -3.01282656100000000D-01
 1  6  2.35344740750000000D-02 -1.09598749405000000D-01  9.01382724350000000D-03 -1.89775578460000000D-02  9.09313426049999900D-03
 1  7  3.51495577200000000D-04 -3.24950909799999900D-04  7.43337876850000000D-04 -4.33747943300000000D-03 -5.88597725250000000D-04
 1  8 -4.58294986500000000D-03  1.88659615445000000D-03  8.71436866950000000D-04  9.17265465500000100D-04 -1.58444889305000000D-03
 1  9 -3.89083819450000000D-04 -4.45538550150000100D-04 -7.64808450000024400D-07 -5.71778731850000000D-04  3.97836326200000000D-04
 1 10  5.51411235850000400D-04 -5.05409315350000000D-04 -4.30789569249999900D-04 -1.00313402950000300D-04  1.49930708150000000D-04
 1 11  4.04148738100000100D-04
 2  1  5.55595307700000000D-02  6.40051334500000000D-01 -1.52274175090000000D-01 -1.08693062970000000D-01 -2.64436840549999900D-01
 2  2  2.97057464500000000D-02  3.14816967950000000D-02 -2.90456238000000000D-01  9.14228989650000000D-02 -4.04959933550000000D-02
 2  3  1.95466439655000000D-02 -2.10176561320000000D-02 -7.92322371650000000D-03 -3.70261484050000000D-02  8.29097457000000000D-03
 2  4  5.20459956750000000D-02  1.20450729295000000D-02  1.64642158445000000D-02 -1.82907987850000000D-02 -1.38284483390000000D-02
 2  5 -1.64424062427000000D-03  3.47524177920000000D-03  9.84938877950000000D-03  2.84860477850000000D-04  2.32606645950000000D-02
 2  6 -5.84378970400000100D-02  1.66131648970000000D-02  9.96571998500000000D-03 -1.48472344415000000D-02  9.42060070049999900D-03
 2  7 -4.89823699450000000D-04 -1.60988201179500000D-03 -7.25841385200000200D-05 -6.97054051899999900D-04  2.30744807610000000D-03
 2  8  1.69550785617500000D-03  8.73136664999999700D-06 -3.57332833700000000D-03  9.00466176650000000D-04  6.79248075500000000D-04
 2  9  1.38993161950000000D-04  1.87357903400000000D-04  5.91396315300000000D-04  9.59988608000000300D-05  6.12949416999999700D-05
 2 10 -4.52110139949999900D-04  2.32089823000000000D-04  1.90158207000000000D-05 -2.18743206000000400D-05  1.38877895000006400D-06
 2 11 -3.34320083000001300D-05
 3  1  1.92930842710000000D-01 -1.52274175090000000D-01  2.48454811700000000D-01 -2.32101812050000000D-02  1.48611087500000000D-02
 3  2 -6.65282831150000000D-02 -4.07550245849999900D-02  1.06928924360000000D-01 -1.05544802155000000D-01 -2.51700980425000000D-03
 3  3 -1.39171651395000000D-02  6.89389244450000000D-03  3.66064168515000000D-03  8.75098235700000000D-03 -4.90914201450000000D-03
 3  4 -2.05835477630000000D-02  9.12664714250000000D-03 -9.04144513650000100D-03  8.94688945799999900D-03  9.12873243500000000D-03
 3  5  2.52143390665000000D-03 -4.82714178050000000D-03  2.11835218600000000D-04  5.09239417700000000D-03 -1.09479765695000000D-01
 3  6  1.67266833615000000D-02 -8.29816072699999900D-02 -6.19678130355000000D-04 -1.63758661470000000D-03  2.19055347625000000D-03
 3  7  7.89708068000000000D-04 -2.74395593500000700D-05 -1.01928450855000000D-03 -4.53197360050000000D-03  1.72034075777000000D-03
 3  8  5.86732234650000000D-03  1.01483188020000000D-03  9.23323991450000000D-04 -1.11379526130000000D-03 -8.47084759400000000D-04
 3  9 -1.35396363950000000D-04 -6.87423790999999100D-05 -3.21195641200000000D-04 -1.82146623750000000D-04  4.23247192999999200D-05
 3 10  4.22418516399999900D-04 -2.74564107599999900D-04 -1.16987153999999700D-05 -5.40057745500001500D-05  5.23350741500000800D-05
 3 11  1.31274236349999900D-04
 4  1 -2.08950396150000000D-01 -1.08693062970000000D-01 -2.32101812050000000D-02  6.10274670800000000D-01  5.36760202100000100D-02
 4  2  1.68969761895000000D-01  3.62745201200000000D-02 -2.46908937500000000D-02  2.13294102550000000D-02 -2.80977272000000000D-01
 4  3  1.47947112110000000D-02 -9.05267147249999800D-02 -5.87940152649999900D-03  4.44040308750000000D-02 -1.95672847180000000D-02
 4  4 -3.31705064600000000D-02 -1.38533392620000000D-02 -6.80624524000000000D-03 -7.67357675700000000D-02  7.01529399299999900D-02
 4  5 -3.99851007900000100D-02 -3.24332145050000000D-02 -2.53514128650000100D-02 -3.85373021550000000D-03 -1.28346284710000000D-02
 4  6 -2.32945413400000000D-02  2.28855851050000000D-03  1.38576743925000000D-03  1.78012728410000000D-03 -3.09852654950000000D-03
 4  7  2.03189837530000000D-03  5.57029254300000000D-04 -1.83392964855000000D-03 -1.53827235560000000D-03 -6.87043867100000000D-04
 4  8  1.98164242999999900D-04  1.72177109080000000D-03  1.26368876405000000D-02 -5.14958200699999900D-03 -1.46401728330000000D-03
 4  9 -8.15484834540000000D-04  3.69502586650000000D-04  2.09952588250000000D-03  3.52911400650000000D-04  6.63794677510000000D-04
 4 10  1.12493453750000400D-04 -1.11913937955000000D-03  2.37334946100000000D-04  1.97741111349999700D-04  8.76704608000000800D-05
 4 11  1.41036046999999800D-05
 5  1 -1.47338561815000000D-01 -2.64436840549999900D-01  1.48611087500000000D-02  5.36760202100000100D-02  6.96462791300000000D-01
 5  2 -1.73144358730000000D-01 -4.10337011500000000D-03 -4.58114492200000100D-02  1.45117880990000000D-02  3.84167074000000000D-02
 5  3 -1.04478535400000000D-01  3.05140411900000000D-02  3.05557820100000000D-02  9.71450079349999900D-03  1.05412460860000000D-02
 5  4 -1.44087256560000000D-02 -5.43879321600000000D-03 -4.74129164400000100D-03  6.81459308450000100D-02 -2.78635275250000000D-01
 5  5  1.08456568890000000D-01 -3.12800328200000000D-02 -7.97692784800000000D-03 -9.20063749200000100D-03  5.31887006950000000D-03
 5  6  5.56235738350000000D-03  7.36515524400000100D-04  1.74015529295000000D-03 -3.12750503650000000D-03  4.38498508800000000D-03
 5  7  5.89336343200000100D-04 -4.30954045400000000D-03  3.78056202950000000D-03 -6.72258067150000000D-04  3.33544151425000100D-04
 5  8 -8.30766688100000100D-04  4.32925173500000000D-03  7.54838802450000100D-03  2.37598365945000000D-04 -6.36410229949999900D-03
 5  9 -2.86395438790000000D-03 -1.74483926890000000D-03  3.71212171049999900D-04 -9.26330507150000100D-04  1.52113923310000000D-03
 5 10  1.34474503965000000D-03 -2.24540296235000000D-03 -8.70206318550000100D-04 -2.55379081320000500D-04  6.07090975900000200D-04
 5 11  9.88948274900000000D-04
 6  1 -1.01716639935000000D-02  2.97057464500000000D-02 -6.65282831150000000D-02  1.68969761895000000D-01 -1.73144358730000000D-01
 6  2  2.43666790600000000D-01  1.43898688665000000D-02  6.70260036000000000D-03  5.33948536200000100D-03 -9.82892262200000000D-02
 6  3  2.18003151200000000D-02 -1.01719170465000000D-01 -1.49930248150000000D-02  1.56440351900000000D-02 -4.68289740600000000D-03
 6  4 -6.56959215800000100D-03 -4.52098671985000000D-03 -4.12281012450000000D-03 -3.93094941500000000D-02  1.09145514860000000D-01
 6  5 -8.59081464000000000D-02 -1.93420218445000000D-03 -7.03093295600000000D-03  1.89141755290000000D-03 -7.32189488649999900D-03
 6  6 -1.02366686455000000D-02  2.28744384350000000D-03 -3.09003261190000000D-03  4.38456119950000000D-03  5.28932085300000100D-03
 6  7 -1.78533640860000000D-03  3.78653464700000000D-03  4.36956928950000000D-03  1.82484830500000000D-04 -8.36468151699999900D-04
 6  8 -1.07132068615000000D-03 -2.20240959780000000D-03  3.65880980810000000D-03  1.38564666733500000D-03  2.25220011945000000D-03
 6  9  1.77194975150000000D-04 -7.77216440100000100D-04  2.11217742650000100D-04  4.41378181300000000D-04  5.74173171350000000D-04
 6 10 -4.05303649200000300D-04  4.12282584199999700D-04  2.60001978800000100D-04  1.00490336899999500D-04 -1.16004954450000100D-04
 6 11 -2.51787508750000000D-04
 7  1 -1.33169726310000000D-01  3.14816967950000000D-02 -4.07550245849999900D-02  3.62745201200000000D-02 -4.10337011500000000D-03
 7  2  1.43898688665000000D-02  6.47386233100000000D-01  8.90302454700000100D-02  1.69865222455000000D-01 -1.98794195990000000D-02
 7  3  1.72673601720000000D-02 -1.19899951145000000D-02 -3.71093983100000000D-02 -3.98722105900000000D-02 -1.54536013500000000D-03
 7  4 -3.12994349850000000D-01  3.43302635850000100D-02 -1.10288985740000000D-01 -1.39240373320000000D-03 -4.36747003050000000D-03
 7  5 -2.23957385645000000D-03 -1.46763036465000000D-03  1.87023163105000000D-03 -6.43531814300000000D-04 -3.55952682090000000D-03
 7  6  2.62457614500000000D-02 -1.08628968080000000D-02 -1.71687790605000000D-01 -1.44737948485000000D-01 -3.52194698400000000D-03
 7  7  2.27333089425000000D-04 -4.10150760950000000D-03 -1.63077555565000000D-03 -3.18135116150000000D-03 -2.52675401005000000D-03
 7  8 -1.09560358895000000D-03  7.28627500049999900D-04 -2.69385090149999400D-05  2.49968035670000000D-04 -1.53010486595000000D-04
 7  9 -3.53787214950000000D-04  2.81415825400000100D-05 -5.48357320800001500D-05 -3.68020886100000000D-04  1.21838568278000000D-04
 7 10  8.19157829700003900D-05  2.02618978204999900D-04 -8.43599953199999900D-05 -4.71581657400001600D-05  2.37325206100002800D-05
 7 11  2.44220462949999900D-05
 8  1  7.21158759199999900D-02 -2.90456238000000000D-01  1.06928924360000000D-01 -2.46908937500000000D-02 -4.58114492200000100D-02
 8  2  6.70260036000000000D-03  8.90302454700000100D-02  6.72550131800000000D-01 -1.50018514845000000D-01  1.91671224585000000D-02
 8  3 -1.03712100860000000D-02  9.58781374850000000D-03 -1.98995284505000000D-02  2.64847888250000000D-02 -1.57853539725000000D-02
 8  4 -6.10107031000000000D-03 -1.18054704630000000D-01  1.91488843240000000D-02 -4.36052982450000100D-03 -1.49524412730500000D-03
 8  5  1.61395998474000000D-03  1.87640551749999900D-04 -3.04201497597200000D-03  6.41504889100000000D-04 -2.56428096155000000D-03
 8  6  2.17429372300000000D-03 -1.11601169870000000D-03 -1.44713356140000000D-01 -2.31001056800000000D-01  1.02891913520000000D-02
 8  7 -3.61179924600000000D-03 -2.93423369955000000D-03  2.30222440935000000D-03  2.63769893700000000D-02  1.64651422208500000D-03
 8  8  1.01383518560000000D-02 -3.19304163450000000D-04  1.03707973885000000D-03 -5.24924186500000100D-04 -3.55376471600000000D-04
 8  9 -6.16293647549999900D-04  8.95464274999999400D-05 -3.76207636899999800D-04 -2.11551157900000000D-04  4.64191704000000100D-05
 8 10  1.28248227999999800D-04  6.39665167999999900D-05 -4.76208402499998900D-05 -1.67597032000000100D-05  3.14541846500002300D-05
 8 11 -1.32037298500001200D-05
 9  1 -5.44144419150000000D-02  9.14228989650000000D-02 -1.05544802155000000D-01  2.13294102550000000D-02  1.45117880990000000D-02
 9  2  5.33948536200000100D-03  1.69865222455000000D-01 -1.50018514845000000D-01  2.39328923500000000D-01 -1.26233402115000000D-02
 9  3  8.82471116800000000D-03 -1.14773472270000000D-02 -8.27757088100000000D-03 -2.33901856300000000D-02  6.72689521950000000D-03
 9  4 -9.68549437900000100D-02  3.45755058599999900D-02 -1.02348806575000000D-01 -2.23067244650000000D-03  1.62657099775000000D-03
 9  5  6.89200329000000000D-03 -6.17611648499999900D-05  1.22050940945000000D-03 -1.89912461820000000D-03 -1.17710285140000000D-03
 9  6  9.90280112300000000D-03 -1.98625001005000000D-03 -3.50616355800000000D-03  1.03009931610000000D-02 -4.02156021250000000D-02
 9  7 -1.76645852550000000D-03  2.13186353970000000D-03  6.75826184600000000D-03 -1.07333775425000000D-02 -8.93993826635000000D-04
 9  8 -1.95046239118000000D-03  3.91295915250000000D-04 -3.16214475050000000D-04  2.76603223450000000D-04  1.90333714000000200D-05
 9  9  1.01757756450000000D-04  6.76549263499999200D-05  8.37960521500000300D-05 -9.74352754500000100D-05  4.73669547499999300D-05
 9 10 -5.41379260000001900D-06  7.65970059000000200D-05 -3.53957953999999200D-05 -9.12986285000005600D-06  5.41025684999980800D-06
 9 11  1.48148469999999800D-05
10  1 -3.90606224800000000D-02 -4.04959933550000000D-02 -2.51700980425000000D-03 -2.80977272000000000D-01  3.84167074000000000D-02
10  2 -9.82892262200000000D-02 -1.98794195990000000D-02  1.91671224585000000D-02 -1.26233402115000000D-02  6.01466027600000000D-01
10  3  4.54047738050000100D-02  1.65180502110000000D-01 -1.28195752415000000D-01  4.77376678200000000D-02 -4.33332570700000100D-02
10  4  3.25153028000000000D-02 -6.76911541349999900D-03  1.36543399470000000D-02 -5.35539466999999900D-03 -3.57892768750000000D-03
10  5 -1.47846373885000000D-03 -1.56106405780000000D-01 -1.18139923930000000D-01 -4.25228448550000000D-03  2.04659780319999900D-04
10  6 -4.63243983400000000D-03 -1.44842067045000000D-03 -6.54496081410000000D-04  1.37138986815000000D-03 -2.14299743810000000D-04
10  7 -3.77523736800000000D-03  2.49501054300000000D-02 -1.06401064030000000D-02 -1.15203424845000000D-03 -4.25414234900000000D-03
10  8 -2.06169915479500000D-03  1.02931583925000000D-02  7.21013884549999900D-03  2.35551109795000000D-03 -1.13940909815000000D-03
10  9 -9.44860747550000000D-04 -2.24053637445000000D-03 -9.51475424950000100D-03 -7.55029541900000000D-03  1.14614270115000000D-03
10 10  7.71188239799999900D-04  2.00723365145000000D-03 -3.93452316800000000D-03  5.82553645750000500D-04  5.50668443000001400D-05
10 11  7.35594382000000000D-04
11  1 -2.19335125900000000D-02  1.95466439655000000D-02 -1.39171651395000000D-02  1.47947112110000000D-02 -1.04478535400000000D-01
11  2  2.18003151200000000D-02  1.72673601720000000D-02 -1.03712100860000000D-02  8.82471116800000000D-03  4.54047738050000100D-02
11  3  6.28626894300000100D-01 -1.50829944430000000D-01  7.26691646050000000D-02 -2.66073526850000000D-01  9.77470753100000000D-02
11  4 -2.30868196150000000D-02 -4.65123843000000000D-02  7.68482431199999900D-03  2.48210594550000000D-02  2.28990762160000000D-04
11  5  9.92925762200000000D-03 -9.89913556900000000D-02 -1.78749081825000000D-01  9.27788121800000000D-03 -3.80300923815000000D-03
11  6 -2.66829448700000000D-03  2.13751081765000000D-03  1.41273279040000000D-03  4.68496666900000000D-05  1.02494263860000000D-04
11  7 -1.77936497415000000D-03  9.15988426300000000D-04 -1.16059280170000000D-04 -4.74446069350000000D-03 -1.37020042450000000D-03
11  8  1.37772255530000000D-03 -2.77250322300000000D-02 -5.16144088350000000D-02  6.02482088999999900D-03  1.05918022470000000D-02
11  9  8.51380134499999900D-03  2.83266480255000000D-03 -2.08694143930000000D-03  7.38447313250000100D-04 -2.46562513150000000D-03
11 10 -2.70892505900000000D-03  3.75021661900000000D-03  3.90596212000000000D-04 -1.06694998719999700D-04 -5.30897284100000000D-04
11 11 -8.03112208400000100D-04
12  1 -8.80546724049999900D-03 -2.10176561320000000D-02  6.89389244450000000D-03 -9.05267147249999800D-02  3.05140411900000000D-02
12  2 -1.01719170465000000D-01 -1.19899951145000000D-02  9.58781374850000000D-03 -1.14773472270000000D-02  1.65180502110000000D-01
12  3 -1.50829944430000000D-01  2.43271592500000000D-01 -5.18022983800000000D-02  8.86292198249999900D-02 -1.06148963505000000D-01
12  4  1.92650569775000000D-02  1.38410580640000000D-02  5.17556566950000100D-03 -1.09904530540000000D-02 -8.51002863449999900D-04
12  5 -2.31108094220000000D-03 -1.20406597525000000D-02 -5.79505791000000100D-05 -4.44762902850000000D-02 -1.72271807018500000D-03
12  6  1.84025772880000000D-03  6.78265620800000000D-03 -2.43977157900000000D-04  8.20004820000000300D-05 -1.38942503000000000D-03
12  7 -1.73692372155000000D-03  9.87571617100000000D-03 -1.74068891230000000D-03 -1.90659674610000000D-03  1.49245516135000000D-03
12  8  6.80951137950000100D-03  1.62154086580000000D-02  2.21489420650000000D-02 -4.68331034620000100D-03 -7.12687820200000000D-03
12  9 -1.64571804835000000D-03  4.04526484630000000D-03 -2.75162515775000000D-03 -3.94328935050000000D-03  1.35259835325000000D-03
12 10  1.19324812339999900D-03 -6.42100662350000000D-04 -7.61757517280000000D-04 -1.81345021549999800D-04  9.50068952660000000D-04
12 11  3.83615075150000100D-04
13  1 -7.85073198900000100D-04 -7.92322371650000000D-03  3.66064168515000000D-03 -5.87940152649999900D-03  3.05557820100000000D-02
13  2 -1.49930248150000000D-02 -3.71093983100000000D-02 -1.98995284505000000D-02 -8.27757088100000000D-03 -1.28195752415000000D-01
13  3  7.26691646050000000D-02 -5.18022983800000000D-02  6.86726278500000000D-01  6.56732551750000000D-02  1.91310841425000000D-01
13  4 -2.11896262100000000D-01 -1.44951651375000000D-01 -1.14661127245000000D-02 -4.27796254650000000D-03 -4.07977579250000000D-04
13  5 -3.97099863800000000D-03  1.05081779245000000D-02 -1.74462731515000000D-02  9.77404227749999900D-03  5.59247590900000000D-04
13  6 -1.97263025539999900D-04  8.61841023555000000D-04 -3.91063800000000000D-03  5.64233410150000000D-04 -4.83033003100000000D-03
13  7 -3.08431449500000000D-01  1.97454302045000000D-02 -1.09810579115000000D-01  8.79407027250000100D-03  9.88861041600000100D-03
13  8 -6.00463512750000000D-04 -4.08872216700000000D-03 -6.16705229300000000D-03  6.94609522850000000D-04 -1.20261882800000000D-03
13  9 -1.00987767045000000D-03 -6.02302846250000100D-04 -2.47384035849999900D-04 -2.20319318500000000D-04  2.18311734850000100D-04
13 10 -4.01140496049999800D-04 -1.44477299384000000D-03 -7.69215058450000000D-04 -1.77183968400000100D-04  5.74804446050000000D-04
13 11  6.00043241050000100D-04
14  1 -6.87273328299999900D-03 -3.70261484050000000D-02  8.75098235700000000D-03  4.44040308750000000D-02  9.71450079349999900D-03
14  2  1.56440351900000000D-02 -3.98722105900000000D-02  2.64847888250000000D-02 -2.33901856300000000D-02  4.77376678200000000D-02
14  3 -2.66073526850000000D-01  8.86292198249999900D-02  6.56732551750000000D-02  6.33696117600000000D-01 -1.45430456620000000D-01
14  4 -1.07618961950000000D-01 -2.59377913300000000D-01  2.76745077000000000D-02 -9.05290964850000000D-04  2.35224761135000000D-03
14  5  1.02785915490000000D-03 -7.44850682450000000D-03 -3.95681284200000000D-02  1.06526690785000000D-02 -2.03976739450000000D-04
14  6 -1.72612392915000000D-03 -6.79487529000000300D-06  6.10560756520000100D-04  2.01249903180000000D-03  2.33185875000000000D-03
14  7  2.27092898250000000D-02 -5.67683156850000000D-02  1.57301252370000000D-02 -1.87725302940000000D-02 -1.54337082885000000D-02
14  8 -1.44908210005000000D-03 -2.87160754600000000D-04  4.11813796749999900D-03 -1.75792856785000000D-03  1.84693138294500000D-04
14  9  8.78369506649999700D-05  5.94358392550000000D-04  2.99710158940000100D-04 -1.81831588605000000D-03  8.05947712449999900D-04
14 10  4.60660938300000300D-04 -7.26515856400000100D-04 -6.35303484549999900D-05 -6.50906465550004700D-05  1.30850147900000000D-04
14 11  2.85053287465000000D-04
15  1  3.34467748605000000D-03  8.29097457000000000D-03 -4.90914201450000000D-03 -1.95672847180000000D-02  1.05412460860000000D-02
15  2 -4.68289740600000000D-03 -1.54536013500000000D-03 -1.57853539725000000D-02  6.72689521950000000D-03 -4.33332570700000100D-02
15  3  9.77470753100000000D-02 -1.06148963505000000D-01  1.91310841425000000D-01 -1.45430456620000000D-01  2.46490571500000000D-01
15  4 -2.40073128950000000D-02  1.34736378970000000D-02 -6.78504114200000100D-02 -3.78066551805000000D-03  1.21283605914500000D-03
15  5  4.59904422850000000D-03  6.53993994900000000D-03  6.84113575600000000D-03  1.34187352400000000D-04  8.61673322299999900D-04
15  6 -8.86298310000004200D-06 -1.17821039305000000D-03 -4.83693727150000100D-03  2.29746717410750000D-03  5.64121132499999900D-03
15  7 -1.10881407270000000D-01  1.46727873940000000D-02 -8.22267693500000100D-02  8.97596454549999900D-03  9.47797997500000000D-03
15  8  1.93328425713500000D-03 -1.33684395775500000D-03 -3.84771096770000000D-03  5.80324357000000000D-04 -1.10475730710000000D-03
15  9  4.36101128000000200D-05  1.10065503920000000D-03 -3.73259608850000100D-04  6.52436125550000000D-04 -1.42300009000000000D-04
15 10 -9.36678750000000100D-05 -4.31051217800000200D-04 -3.49010134050000000D-04 -1.74899346999999800D-04  2.15129601999999800D-04
15 11  2.59724192499999800D-04
16  1 -6.19073920150000000D-03  5.20459956750000000D-02 -2.05835477630000000D-02 -3.31705064600000000D-02 -1.44087256560000000D-02
16  2 -6.56959215800000100D-03 -3.12994349850000000D-01 -6.10107031000000000D-03 -9.68549437900000100D-02  3.25153028000000000D-02
16  3 -2.30868196150000000D-02  1.92650569775000000D-02 -2.11896262100000000D-01 -1.07618961950000000D-01 -2.40073128950000000D-02
16  4  6.31020802100000000D-01  4.25963400800000000D-02  1.78648096205000000D-01 -1.30455542315000000D-03 -8.81185424100000000D-04
16  5  3.02468644575000000D-04  2.38022231825000000D-03  4.38024394400000000D-03 -3.34256496380000000D-03  2.15872101125000000D-03
16  6  6.95037906199999900D-04 -2.44065638225000000D-03 -1.20809730135000000D-02  5.37769132100000000D-03 -7.16495593549999900D-03
16  7 -1.00823670010000000D-02 -2.25625386600000000D-02  2.77100612450000000D-03 -7.99069353350000000D-02  7.11123507550000000D-02
16  8 -4.04737181000000000D-02  1.76909742300000000D-04 -7.45127201399999900D-04  6.49566903000000400D-05  1.02435991700000000D-04
16  9 -3.50873223085000000D-04  4.33728786665000000D-04 -6.84159554990000100D-04 -9.58356103250000000D-04  2.51311039850000000D-04
16 10  3.75848039999961900D-06  4.91568346808500300D-04 -2.64278501299999900D-04  1.32931900499998400D-05 -6.39640942499999900D-05
16 11 -1.40036104999998900D-05
17  1  3.28810492600000000D-02  1.20450729295000000D-02  9.12664714250000000D-03 -1.38533392620000000D-02 -5.43879321600000000D-03
17  2 -4.52098671985000000D-03  3.43302635850000100D-02 -1.18054704630000000D-01  3.45755058599999900D-02 -6.76911541349999900D-03
17  3 -4.65123843000000000D-02  1.38410580640000000D-02 -1.44951651375000000D-01 -2.59377913300000000D-01  1.34736378970000000D-02
17  4  4.25963400800000000D-02  6.87752064700000100D-01 -1.72218299950000000D-01 -6.39501680300000000D-04  1.10336687700000000D-04
17  5 -7.22233965450000000D-04  4.74266377300000000D-03 -1.19652308210000000D-03  4.62323960470000000D-03  8.22345149249999900D-04
17  6 -4.12570949940000000D-03  4.38014393450000000D-03 -2.35818921050000000D-02  5.98261155250000000D-03 -1.03493126135000000D-02
17  7  4.77409471900000000D-03  6.44257111500000000D-03  4.13621610100000000D-04  7.13835575949999900D-02 -2.76503256700000000D-01
17  8  1.07605502875000000D-01 -1.49619159800000000D-03 -1.64828277855000000D-03  3.11283902500000100D-04 -4.58857687500000000D-04
17  9  7.58983092000000300D-05 -5.11510662500000100D-04  3.36506231500000000D-04  1.03206717216150000D-03 -1.77116868500000100D-04
17 10 -5.53264594999997300D-05 -8.05767767800000100D-04 -6.26028714999999700D-05 -2.72313374999998100D-05  1.98830182999999900D-04
17 11  2.13344299500000000D-04
18  1 -1.41139090575000000D-02  1.64642158445000000D-02 -9.04144513650000100D-03 -6.80624524000000000D-03 -4.74129164400000100D-03
18  2 -4.12281012450000000D-03 -1.10288985740000000D-01  1.91488843240000000D-02 -1.02348806575000000D-01  1.36543399470000000D-02
18  3  7.68482431199999900D-03  5.17556566950000100D-03 -1.14661127245000000D-02  2.76745077000000000D-02 -6.78504114200000100D-02
18  4  1.78648096205000000D-01 -1.72218299950000000D-01  2.50392570000000000D-01  2.16019015550000000D-04 -8.09292622950000000D-04
18  5 -9.39218525300000000D-04 -3.43893924849999900D-03  4.62632438445000100D-03  4.22995795150000000D-03 -2.49583333765000000D-03
18  6  4.31725108350000000D-03  5.55500154600000000D-03  2.53491536590000000D-03  7.10346407150000000D-04  2.69617265225000000D-03
18  7 -6.31601485250000000D-03 -9.92411201000000000D-03  3.24937723400000000D-03 -4.06174262300000000D-02  1.07525971425000000D-01
18  8 -8.72630550999999900D-02  1.58893190250000000D-04  2.15854474200000000D-04  7.51818430899999900D-04  6.79254724200000000D-04
18  9 -3.91496291700000000D-04 -6.50494497299999900D-04 -3.18432701250000100D-04 -7.09090047600000000D-04  2.79883436800000100D-04
18 10 -8.19366269999983000D-06  4.41053959550000200D-04 -1.60140237249999900D-04  7.21128149999997000D-06 -5.42179377999999100D-05
18 11  3.00674232999998700D-05
19  1  9.40455377950000100D-03 -1.82907987850000000D-02  8.94688945799999900D-03 -7.67357675700000000D-02  6.81459308450000100D-02
19  2 -3.93094941500000000D-02 -1.39240373320000000D-03 -4.36052982450000100D-03 -2.23067244650000000D-03 -5.35539466999999900D-03
19  3  2.48210594550000000D-02 -1.09904530540000000D-02 -4.27796254650000000D-03 -9.05290964850000000D-04 -3.78066551805000000D-03
19  4 -1.30455542315000000D-03 -6.39501680300000000D-04  2.16019015550000000D-04  7.84604667000000000D-02 -7.20916395350000000D-02
19  5  4.49484998550000000D-02  1.83247120450000000D-04  2.84758007070000000D-03  3.15088393420000000D-04  3.48005408865000000D-04
19  6  9.31141759850000100D-04  1.34013047210000000D-03  3.77839281469000000D-04 -1.00678035352500000D-03  4.70430299210000000D-04
19  7 -6.77390043999999900D-05  1.26543869395000000D-03 -7.20513887600000100D-04 -2.23520677999999900D-05  1.77684605795000000D-04
19  8  3.69308180997000000D-04  3.03958197735000000D-04 -2.88713721555000000D-04  2.34409399514999900D-04 -1.90263822745000000D-04
19  9 -4.42515141905000000D-04 -2.00151057499999500D-05  1.22321471399999900D-04 -1.90546588555000000D-04  1.05307073150000000D-04
19 10  3.80818892500001200D-05  1.38842093000000100D-04  3.35421211455000000D-04  1.05579122450000300D-04 -9.99321638999998100D-05
19 11 -2.39363700119999900D-04
20  1  9.77489573200000100D-03 -1.38284483390000000D-02  9.12873243500000000D-03  7.01529399299999900D-02 -2.78635275250000000D-01
20  2  1.09145514860000000D-01 -4.36747003050000000D-03 -1.49524412730500000D-03  1.62657099775000000D-03 -3.57892768750000000D-03
20  3  2.28990762160000000D-04 -8.51002863449999900D-04 -4.07977579250000000D-04  2.35224761135000000D-03  1.21283605914500000D-03
20  4 -8.81185424100000000D-04  1.10336687700000000D-04 -8.09292622950000000D-04 -7.20916395350000000D-02  2.90385636300000000D-01
20  5 -1.17124848590000000D-01  2.18841580350000000D-04  6.75814155449999900D-04 -1.28680897231000000D-03  4.44744304250000000D-04
20  6  5.45212348100000000D-04 -1.36158451119000000D-03  5.43595685074000000D-04 -7.93799827050000100D-04  4.78425959949999900D-04
20  7 -2.45104755200000000D-04  5.99504931999999900D-05  1.28638576305000000D-04  1.88284664450000000D-04 -1.48165167650000000D-04
20  8 -2.72516817350000000D-04  2.55960927499999900D-04  6.40560568649999900D-04 -8.05896849999999600D-05 -1.05883654550000000D-04
20  9 -1.71930720200000000D-04  6.57087488000001300D-05  1.57518635750000100D-04  7.64978609499999800D-05 -9.46351339999992400D-06
20 10 -9.41515135500000800D-05 -2.29327179999997900D-05  6.89250445000002600D-06  8.75218494999967400D-06 -1.42955035999998000D-05
20 11 -6.86850935000000600D-06
21  1 -5.26477363050000000D-04 -1.64424062427000000D-03  2.52143390665000000D-03 -3.99851007900000100D-02  1.08456568890000000D-01
21  2 -8.59081464000000000D-02 -2.23957385645000000D-03  1.61395998474000000D-03  6.89200329000000000D-03 -1.47846373885000000D-03
21  3  9.92925762200000000D-03 -2.31108094220000000D-03 -3.97099863800000000D-03  1.02785915490000000D-03  4.59904422850000000D-03
21  4  3.02468644575000000D-04 -7.22233965450000000D-04 -9.39218525300000000D-04  4.49484998550000000D-02 -1.17124848590000000D-01
21  5  8.10833528300000100D-02  1.23332462975000000D-03 -2.73228828530000000D-04 -2.73859845325000000D-03  1.51216546240000000D-03
21  6 -1.15993440130000000D-03 -3.01638852500000000D-03 -4.16628978999999900D-05 -1.07371143400000000D-04  3.83558312000000000D-05
21  7 -2.08576299250000000D-04  7.02254496890000000D-04  3.78180566210000000D-04  3.67059915450000000D-04 -2.71201259855000000D-04
21  8 -9.23865070750000000D-04  8.53230279000000000D-05 -2.42173735100000000D-04  2.21555935700000000D-04 -1.27744062900000000D-04
21  9 -6.26458525500000100D-05  1.46487362050000100D-04  5.73247432000000300D-05 -1.09184413650000000D-04  2.93409883999999900D-05
21 10 -2.34096283999998200D-05  1.12974888600000300D-04  6.64501962999999400D-05  7.86097517999996900D-05 -9.71802118000002700D-05
21 11 -1.20730354850000100D-04
22  1 -2.98637002345000000D-03  3.47524177920000000D-03 -4.82714178050000000D-03 -3.24332145050000000D-02 -3.12800328200000000D-02
22  2 -1.93420218445000000D-03 -1.46763036465000000D-03  1.87640551749999900D-04 -6.17611648499999900D-05 -1.56106405780000000D-01
22  3 -9.89913556900000000D-02 -1.20406597525000000D-02  1.05081779245000000D-02 -7.44850682450000000D-03  6.53993994900000000D-03
22  4  2.38022231825000000D-03  4.74266377300000000D-03 -3.43893924849999900D-03  1.83247120450000000D-04  2.18841580350000000D-04
22  5  1.23332462975000000D-03  2.18329713700000000D-01  3.42288531400000000D-01 -7.64567920750000000D-02 -4.98084147150000000D-04
22  6 -9.77024499350000100D-04 -2.11553311550000000D-04 -2.97429758800000000D-04  6.25092909000000200D-05  3.58183172740000000D-04
22  7 -9.55749221499999900D-05  3.11121633855000100D-03  2.64256597200000000D-04  8.28553135750000000D-04  6.93965078700000000D-04
22  8 -1.47714962349999900D-04 -2.75289418150000000D-02 -1.47652437670000000D-01  6.53068765700000100D-02 -6.48378896950000100D-02
22  9 -2.92094452500000000D-02 -1.95926882045000000D-02  9.22294736799999900D-02  2.88370390300000000D-02  2.20595127960000000D-02
22 10 -4.39227542650000000D-02 -7.29859031050000000D-02  2.45418894250000000D-02  5.64369129050000000D-03  4.93878634950000100D-03
22 11 -1.62746311910000000D-03
23  1  2.64390156385000000D-03  9.84938877950000000D-03  2.11835218600000000D-04 -2.53514128650000100D-02 -7.97692784800000000D-03
23  2 -7.03093295600000000D-03  1.87023163105000000D-03 -3.04201497597200000D-03  1.22050940945000000D-03 -1.18139923930000000D-01
23  3 -1.78749081825000000D-01 -5.79505791000000100D-05 -1.74462731515000000D-02 -3.95681284200000000D-02  6.84113575600000000D-03
23  4  4.38024394400000000D-03 -1.19652308210000000D-03  4.62632438445000100D-03  2.84758007070000000D-03  6.75814155449999900D-04
23  5 -2.73228828530000000D-04  3.42288531400000000D-01  9.81233862400000100D-01 -1.94979134245000000D-01  1.61243369300000000D-04
23  6  5.71623201100000000D-04  1.54397965099999900D-04  2.18593657200000000D-04 -2.15192402500000100D-04 -3.06125388220000100D-04
23  7  3.91407244400000000D-04  9.71921304000000400D-05 -1.18299934060000000D-03 -4.84222376249999900D-04 -3.33926560600000000D-04
23  8  1.07900346750000000D-04 -1.67960607345000000D-01 -6.47705953750000000D-01  1.58267557740000000D-01 -2.14766352095000000D-02
23  9 -8.48066604350000000D-02  2.82675115300000000D-02 -1.72272764835000000D-02 -3.54767838400000000D-02  1.00916483095000000D-02
23 10  7.84123070800000000D-03  9.29481016525000200D-03  3.69207638370000000D-03  5.52857829450000000D-03 -2.58028103365000000D-03
23 11 -9.55119081300000000D-03
24  1 -4.72183159600000000D-03  2.84860477850000000D-04  5.09239417700000000D-03 -3.85373021550000000D-03 -9.20063749200000100D-03
24  2  1.89141755290000000D-03 -6.43531814300000000D-04  6.41504889100000000D-04 -1.89912461820000000D-03 -4.25228448550000000D-03
24  3  9.27788121800000000D-03 -4.44762902850000000D-02  9.77404227749999900D-03  1.06526690785000000D-02  1.34187352400000000D-04
24  4 -3.34256496380000000D-03  4.62323960470000000D-03  4.22995795150000000D-03  3.15088393420000000D-04 -1.28680897231000000D-03
24  5 -2.73859845325000000D-03 -7.64567920750000000D-02 -1.94979134245000000D-01  1.19601856810000000D-01 -5.81833227150000000D-04
24  6 -2.97481585550500000D-04  6.93363614734999900D-04  3.01290936299999900D-04 -3.38323682950000000D-04 -1.05511272565000000D-03
24  7  1.19952253498500000D-03  8.33790382999999300D-05 -3.02230111805000000D-03  2.45715310500000000D-04  5.51490157850000100D-04
24  8  4.92181634249999900D-04  7.36221350550000100D-02  1.62310315420000000D-01 -7.56829174950000000D-02 -2.45436079050000000D-02
24  9  2.74123689100000000D-02 -6.22471393045000100D-03  5.56600419000000000D-02  2.39771241200000000D-02 -1.19200753745000000D-02
24 10 -2.36933724950000000D-02 -3.64295565700000000D-02  1.19323905335000000D-02  9.02317994300000100D-04  2.70789987270000000D-03
24 11  2.90144282635000000D-03
25  1 -3.01282656100000000D-01  2.32606645950000000D-02 -1.09479765695000000D-01 -1.28346284710000000D-02  5.31887006950000000D-03
25  2 -7.32189488649999900D-03 -3.55952682090000000D-03 -2.56428096155000000D-03 -1.17710285140000000D-03  2.04659780319999900D-04
25  3 -3.80300923815000000D-03 -1.72271807018500000D-03  5.59247590900000000D-04 -2.03976739450000000D-04  8.61673322299999900D-04
25  4  2.15872101125000000D-03  8.22345149249999900D-04 -2.49583333765000000D-03  3.48005408865000000D-04  4.44744304250000000D-04
25  5  1.51216546240000000D-03 -4.98084147150000000D-04  1.61243369300000000D-04 -5.81833227150000000D-04  3.15134989100000000D-01
25  6 -2.38255013900000000D-02  1.18718658855000000D-01  2.34595074300000000D-04  6.14984775399999900D-04  1.27088390985000000D-03
25  7 -1.91694858650000100D-04  1.31957897050000000D-04  2.85394509600000000D-04 -2.43586122350000000D-04 -1.74092558100000000D-04
25  8 -7.06882280500000100D-05  2.85423457000000000D-04  2.07603286250000000D-04  1.36466198900000200D-04 -4.27442432300000000D-04
25  9 -2.28865911200000000D-04 -8.96256130000001000D-05 -1.43676219499999500D-05 -1.23901329900000000D-04  1.62138329600000000D-04
25 10  1.28492749250000000D-04 -7.02370067999998800D-05 -1.30347918900000100D-04 -4.28052044999999800D-05  4.74465206499999800D-05
25 11  1.01730558900000000D-04
26  1  2.35344740750000000D-02 -5.84378970400000100D-02  1.67266833615000000D-02 -2.32945413400000000D-02  5.56235738350000000D-03
26  2 -1.02366686455000000D-02  2.62457614500000000D-02  2.17429372300000000D-03  9.90280112300000000D-03 -4.63243983400000000D-03
26  3 -2.66829448700000000D-03  1.84025772880000000D-03 -1.97263025539999900D-04 -1.72612392915000000D-03 -8.86298310000004200D-06
26  4  6.95037906199999900D-04 -4.12570949940000000D-03  4.31725108350000000D-03  9.31141759850000100D-04  5.45212348100000000D-04
26  5 -1.15993440130000000D-03 -9.77024499350000100D-04  5.71623201100000000D-04 -2.97481585550500000D-04 -2.38255013900000000D-02
26  6  5.77197310700000000D-02 -1.98808351280000000D-02  9.71982199999999000D-06  6.73561583550000000D-04 -1.43865990855000000D-03
26  7  1.24407468995000000D-04  1.36158555500000100D-05 -3.10462412084500000D-04  1.37393617155000000D-03  1.47664026500000400D-05
26  8  5.44852606050000000D-04  4.40877301165000100D-04 -5.99291464999998500D-06  6.52437782000000300D-05 -4.07321109464999900D-04
26  9 -1.21976552890000000D-04 -6.51942579500001000D-05 -1.27958538574999900D-04 -1.69955053580000000D-04  5.12567431500001100D-05
26 10  1.28617846125000100D-04 -6.96880245999997900D-05 -1.44183725569999900D-04 -3.22191842000002500D-05  4.54139707000001800D-05
26 11  9.48403202500000100D-05
27  1 -1.09598749405000000D-01  1.66131648970000000D-02 -8.29816072699999900D-02  2.28855851050000000D-03  7.36515524400000100D-04
27  2  2.28744384350000000D-03 -1.08628968080000000D-02 -1.11601169870000000D-03 -1.98625001005000000D-03 -1.44842067045000000D-03
27  3  2.13751081765000000D-03  6.78265620800000000D-03  8.61841023555000000D-04 -6.79487529000000300D-06 -1.17821039305000000D-03
27  4 -2.44065638225000000D-03  4.38014393450000000D-03  5.55500154600000000D-03  1.34013047210000000D-03 -1.36158451119000000D-03
27  5 -3.01638852500000000D-03 -2.11553311550000000D-04  1.54397965099999900D-04  6.93363614734999900D-04  1.18718658855000000D-01
27  6 -1.98808351280000000D-02  7.77452437500000000D-02  1.47431994920000000D-03 -1.20833226786000000D-03 -2.66065716575000000D-03
27  7  2.89538711600000100D-04 -3.08436156700000000D-04 -8.46436196245000200D-04 -5.89718436695000000D-04 -4.45120792499999500D-05
27  8 -1.34601675850000000D-04  1.03249503550000000D-04 -1.49153571499999800D-05 -2.24605344550000000D-04 -7.88116094500000400D-05
27  9 -4.00721048500000300D-05  4.04723896499998900D-05  1.16928614699999900D-04  2.53701079999999900D-06 -7.58478523500000800D-05
27 10  1.59789764999996400D-06 -1.29518299000001500D-05  3.15300581499999800D-05  4.95676169999992300D-06 -7.72391110000008200D-06
27 11 -2.03312596500000300D-05
28  1  9.01382724350000000D-03  9.96571998500000000D-03 -6.19678130355000000D-04  1.38576743925000000D-03  1.74015529295000000D-03
28  2 -3.09003261190000000D-03 -1.71687790605000000D-01 -1.44713356140000000D-01 -3.50616355800000000D-03 -6.54496081410000000D-04
28  3  1.41273279040000000D-03 -2.43977157900000000D-04 -3.91063800000000000D-03  6.10560756520000100D-04 -4.83693727150000100D-03
28  4 -1.20809730135000000D-02 -2.35818921050000000D-02  2.53491536590000000D-03  3.77839281469000000D-04  5.43595685074000000D-04
28  5 -4.16628978999999900D-05 -2.97429758800000000D-04  2.18593657200000000D-04  3.01290936299999900D-04  2.34595074300000000D-04
28  6  9.71982199999999000D-06  1.47431994920000000D-03  1.77421649300000000D-01  1.54565960590000000D-01  6.31994440300000000D-03
28  7 -5.30089200050000100D-04 -1.17946983145000000D-03  1.87664373755000000D-04  6.01308109624999900D-04  7.07167066895000000D-04
28  8  1.41493294405000000D-03  1.20875377600000000D-04 -1.40223500100000000D-04  2.97167744499999900D-05 -5.30620412999999900D-05
28  9 -2.60463124499999900D-05 -2.42213713500000600D-05 -3.09421622500000400D-05 -2.01753241100000000D-04  9.65881266499999400D-05
28 10  1.01470504599999400D-04  7.68705262500000800D-05 -7.01766875499999900D-05 -3.52104022500001200D-05  2.98570010000009600D-06
28 11  5.12441950000001300D-05
29  1 -1.89775578460000000D-02 -1.48472344415000000D-02 -1.63758661470000000D-03  1.78012728410000000D-03 -3.12750503650000000D-03
29  2  4.38456119950000000D-03 -1.44737948485000000D-01 -2.31001056800000000D-01  1.03009931610000000D-02  1.37138986815000000D-03
29  3  4.68496666900000000D-05  8.20004820000000300D-05  5.64233410150000000D-04  2.01249903180000000D-03  2.29746717410750000D-03
29  4  5.37769132100000000D-03  5.98261155250000000D-03  7.10346407150000000D-04 -1.00678035352500000D-03 -7.93799827050000100D-04
29  5 -1.07371143400000000D-04  6.25092909000000200D-05 -2.15192402500000100D-04 -3.38323682950000000D-04  6.14984775399999900D-04
29  6  6.73561583550000000D-04 -1.20833226786000000D-03  1.54565960590000000D-01  2.40658145600000000D-01 -1.32292069790000000D-02
29  7  3.17333412550000000D-04  2.23909441400000000D-04  4.41798868280000100D-05  1.10841607400000000D-04  3.16911786100000000D-04
29  8 -1.31860456565000000D-03  2.85628837499999900D-05  6.43932750500000100D-05  3.66093036500000100D-05 -7.29800587500000100D-05
29  9  1.24524464499999800D-05 -8.58675984999987700D-06 -3.86157364000000600D-05 -2.79129474999999900D-05  1.04193639999999200D-05
29 10  3.76507970000000900D-05  9.00651544999991100D-06 -5.85343649500000200D-05 -1.98690951499998700D-05  8.46454269999988800D-06
29 11  2.96590676500000000D-05
30  1  9.09313426049999900D-03  9.42060070049999900D-03  2.19055347625000000D-03 -3.09852654950000000D-03  4.38498508800000000D-03
30  2  5.28932085300000100D-03 -3.52194698400000000D-03  1.02891913520000000D-02 -4.02156021250000000D-02 -2.14299743810000000D-04
30  3  1.02494263860000000D-04 -1.38942503000000000D-03 -4.83033003100000000D-03  2.33185875000000000D-03  5.64121132499999900D-03
30  4 -7.16495593549999900D-03 -1.03493126135000000D-02  2.69617265225000000D-03  4.70430299210000000D-04  4.78425959949999900D-04
30  5  3.83558312000000000D-05  3.58183172740000000D-04 -3.06125388220000100D-04 -1.05511272565000000D-03  1.27088390985000000D-03
30  6 -1.43865990855000000D-03 -2.66065716575000000D-03  6.31994440300000000D-03 -1.32292069790000000D-02  3.20082787000000000D-02
30  7 -3.13203122494999900D-04 -5.27575789880000000D-04  5.76156465400000000D-05  1.61527332050000000D-03 -1.08343978445000000D-03
30  8 -2.76390301880000000D-03 -2.39536916000000200D-05  3.41059130000006200D-06  1.48048232915000000D-04 -6.03013334999997900D-06
30  9 -1.67243699999998700D-06  4.43677639999999500D-05  1.65940372999999400D-05 -6.33258427000000100D-05  1.44984960499999400D-05
30 10 -3.30225450000498500D-07  3.38620624499999300D-05 -7.64827385000003600D-06  9.22887349999959300D-06 -2.63493728499997300D-05
30 11 -1.95820457500001200D-05
31  1  3.51495577200000000D-04 -4.89823699450000000D-04  7.89708068000000000D-04  2.03189837530000000D-03  5.89336343200000100D-04
31  2 -1.78533640860000000D-03  2.27333089425000000D-04 -3.61179924600000000D-03 -1.76645852550000000D-03 -3.77523736800000000D-03
31  3 -1.77936497415000000D-03 -1.73692372155000000D-03 -3.08431449500000000D-01  2.27092898250000000D-02 -1.10881407270000000D-01
31  4 -1.00823670010000000D-02  4.77409471900000000D-03 -6.31601485250000000D-03 -6.77390043999999900D-05 -2.45104755200000000D-04
31  5 -2.08576299250000000D-04 -9.55749221499999900D-05  3.91407244400000000D-04  1.19952253498500000D-03 -1.91694858650000100D-04
31  6  1.24407468995000000D-04  2.89538711600000100D-04 -5.30089200050000100D-04  3.17333412550000000D-04 -3.13203122494999900D-04
31  7  3.21751038700000000D-01 -2.07622422890000000D-02  1.19213180500000000D-01  3.58462132100000000D-04  4.58245301900000000D-04
31  8  1.45313581304000000D-03 -5.54201158999999700D-05  2.18004092950000100D-04 -1.77997644350000000D-04 -2.09395532700000000D-04
31  9 -2.33028841650000000D-04 -5.60127716000000100D-05 -9.20841774149999900D-04 -1.56581590830000000D-03  9.53022530500000000D-05
31 10 -3.69640617750000100D-04 -9.95955100750000100D-04  1.47445002100000000D-04 -1.06500592999999200D-05  1.62543239500000200D-04
31 11  3.39127531500000000D-05
32  1 -3.24950909799999900D-04 -1.60988201179500000D-03 -2.74395593500000700D-05  5.57029254300000000D-04 -4.30954045400000000D-03
32  2  3.78653464700000000D-03 -4.10150760950000000D-03 -2.93423369955000000D-03  2.13186353970000000D-03  2.49501054300000000D-02
32  3  9.15988426300000000D-04  9.87571617100000000D-03  1.97454302045000000D-02 -5.67683156850000000D-02  1.46727873940000000D-02
32  4 -2.25625386600000000D-02  6.44257111500000000D-03 -9.92411201000000000D-03  1.26543869395000000D-03  5.99504931999999900D-05
32  5  7.02254496890000000D-04  3.11121633855000100D-03  9.71921304000000400D-05  8.33790382999999300D-05  1.31957897050000000D-04
32  6  1.36158555500000100D-05 -3.08436156700000000D-04 -1.17946983145000000D-03  2.23909441400000000D-04 -5.27575789880000000D-04
32  7 -2.07622422890000000D-02  5.76422478900000000D-02 -1.85440357310000000D-02  9.81769892145000200D-04  6.05825617645000000D-04
32  8 -1.13253163650000000D-03 -1.19011172650000000D-04  7.23131770390000100D-04 -2.86407234750000100D-04 -5.18336361479999900D-04
32  9 -1.64753828750000000D-04 -8.91126703000000400D-05 -4.92004444895000000D-04  1.28274069100000000D-04 -7.77043465850000100D-04
32 10 -1.05940491790000000D-03 -1.06368216890000000D-03  9.71206193700000000D-04  3.62898609970000400D-04 -4.84948829999991600D-06
32 11 -6.04895648830000000D-04
33  1  7.43337876850000000D-04 -7.25841385200000200D-05 -1.01928450855000000D-03 -1.83392964855000000D-03  3.78056202950000000D-03
33  2  4.36956928950000000D-03 -1.63077555565000000D-03  2.30222440935000000D-03  6.75826184600000000D-03 -1.06401064030000000D-02
33  3 -1.16059280170000000D-04 -1.74068891230000000D-03 -1.09810579115000000D-01  1.57301252370000000D-02 -8.22267693500000100D-02
33  4  2.77100612450000000D-03  4.13621610100000000D-04  3.24937723400000000D-03 -7.20513887600000100D-04  1.28638576305000000D-04
33  5  3.78180566210000000D-04  2.64256597200000000D-04 -1.18299934060000000D-03 -3.02230111805000000D-03  2.85394509600000000D-04
33  6 -3.10462412084500000D-04 -8.46436196245000200D-04  1.87664373755000000D-04  4.41798868280000100D-05  5.76156465400000000D-05
33  7  1.19213180500000000D-01 -1.85440357310000000D-02  7.68053832500000000D-02  1.29314157820000000D-03 -1.32766573655000000D-03
33  8 -2.97289978275000000D-03  6.77565743099999900D-05  1.55247850820000000D-04  9.23472365299999600D-05 -5.76421715400000600D-05
33  9 -6.93856533900000200D-05  1.46013357860000100D-04 -1.78013330370000100D-04 -9.02266599594999900D-04  6.48888972049998600D-05
33 10 -3.76237913899997500D-05  1.35246437464999900D-04  3.66406256835000500D-05  6.03040011499998100D-05 -1.24909811229999800D-04
33 11 -1.17937382285000000D-04
34  1 -4.33747943300000000D-03 -6.97054051899999900D-04 -4.53197360050000000D-03 -1.53827235560000000D-03 -6.72258067150000000D-04
34  2  1.82484830500000000D-04 -3.18135116150000000D-03  2.63769893700000000D-02 -1.07333775425000000D-02 -1.15203424845000000D-03
34  3 -4.74446069350000000D-03 -1.90659674610000000D-03  8.79407027250000100D-03 -1.87725302940000000D-02  8.97596454549999900D-03
34  4 -7.99069353350000000D-02  7.13835575949999900D-02 -4.06174262300000000D-02 -2.23520677999999900D-05  1.88284664450000000D-04
34  5  3.67059915450000000D-04  8.28553135750000000D-04 -4.84222376249999900D-04  2.45715310500000000D-04 -2.43586122350000000D-04
34  6  1.37393617155000000D-03 -5.89718436695000000D-04  6.01308109624999900D-04  1.10841607400000000D-04  1.61527332050000000D-03
34  7  3.58462132100000000D-04  9.81769892145000200D-04  1.29314157820000000D-03  8.01686852300000100D-02 -7.44785301500000000D-02
34  8  4.55793878400000000D-02 -2.68996049350000000D-04 -5.56548598099999900D-04  7.89113111499999700D-05 -1.57980028550000000D-04
34  9  2.21844248000000200D-05  9.00838150000106300D-07  4.17004282500000200D-05  5.33486916000000000D-05  2.62313760500001000D-05
34 10  4.54274192000002600D-05 -1.14674811300000200D-04 -6.36560457999999600D-05 -3.33466821500004500D-05  5.06277406000000600D-05
34 11  6.44726927000001600D-05
35  1 -5.88597725250000000D-04  2.30744807610000000D-03  1.72034075777000000D-03 -6.87043867100000000D-04  3.33544151425000100D-04
35  2 -8.36468151699999900D-04 -2.52675401005000000D-03  1.64651422208500000D-03 -8.93993826635000000D-04 -4.25414234900000000D-03
35  3 -1.37020042450000000D-03  1.49245516135000000D-03  9.88861041600000100D-03 -1.54337082885000000D-02  9.47797997500000000D-03
35  4  7.11123507550000000D-02 -2.76503256700000000D-01  1.07525971425000000D-01  1.77684605795000000D-04 -1.48165167650000000D-04
35  5 -2.71201259855000000D-04  6.93965078700000000D-04 -3.33926560600000000D-04  5.51490157850000100D-04 -1.74092558100000000D-04
35  6  1.47664026500000400D-05 -4.45120792499999500D-05  7.07167066895000000D-04  3.16911786100000000D-04 -1.08343978445000000D-03
35  7  4.58245301900000000D-04  6.05825617645000000D-04 -1.32766573655000000D-03 -7.44785301500000000D-02  2.89123949700000000D-01
35  8 -1.16366876130000000D-01 -6.52606499500000100D-05 -3.88899946800000000D-04  1.04473670750000000D-04 -3.22817189549999900D-04
35  9 -1.54893387250000000D-04 -9.06856031500000100D-05  1.14127446999999600D-05  7.40306564999996100D-06  3.87818651500001800D-05
35 10  8.78927023499998100D-05 -1.21504832050000100D-04 -8.22841881999999200D-05 -5.18403073000002200D-05  6.29667896000000600D-05
35 11  8.52709937499999600D-05
36  1 -4.58294986500000000D-03  1.69550785617500000D-03  5.86732234650000000D-03  1.98164242999999900D-04 -8.30766688100000100D-04
36  2 -1.07132068615000000D-03 -1.09560358895000000D-03  1.01383518560000000D-02 -1.95046239118000000D-03 -2.06169915479500000D-03
36  3  1.37772255530000000D-03  6.80951137950000100D-03 -6.00463512750000000D-04 -1.44908210005000000D-03  1.93328425713500000D-03
36  4 -4.04737181000000000D-02  1.07605502875000000D-01 -8.72630550999999900D-02  3.69308180997000000D-04 -2.72516817350000000D-04
36  5 -9.23865070750000000D-04 -1.47714962349999900D-04  1.07900346750000000D-04  4.92181634249999900D-04 -7.06882280500000100D-05
36  6  5.44852606050000000D-04 -1.34601675850000000D-04  1.41493294405000000D-03 -1.31860456565000000D-03 -2.76390301880000000D-03
36  7  1.45313581304000000D-03 -1.13253163650000000D-03 -2.97289978275000000D-03  4.55793878400000000D-02 -1.16366876130000000D-01
36  8  8.20916171799999900D-02 -1.15482846050000000D-04 -1.07705880900000000D-04  3.31515184999997900D-06  1.25664579600000000D-04
36  9  3.35001182999999900D-05 -9.15427354499999800D-05  3.31479240000000200D-05  4.49998840000000000D-05 -3.86917022000000600D-05
36 10 -6.68515455000002900D-05 -6.78629855000006900D-06  6.85806045999999600D-05  2.06110654999999800D-05 -3.04139030000000500D-05
36 11 -4.13474339499999000D-05
37  1  1.88659615445000000D-03  8.73136664999999700D-06  1.01483188020000000D-03  1.72177109080000000D-03  4.32925173500000000D-03
37  2 -2.20240959780000000D-03  7.28627500049999900D-04 -3.19304163450000000D-04  3.91295915250000000D-04  1.02931583925000000D-02
37  3 -2.77250322300000000D-02  1.62154086580000000D-02 -4.08872216700000000D-03 -2.87160754600000000D-04 -1.33684395775500000D-03
37  4  1.76909742300000000D-04 -1.49619159800000000D-03  1.58893190250000000D-04  3.03958197735000000D-04  2.55960927499999900D-04
37  5  8.53230279000000000D-05 -2.75289418150000000D-02 -1.67960607345000000D-01  7.36221350550000100D-02  2.85423457000000000D-04
37  6  4.40877301165000100D-04  1.03249503550000000D-04  1.20875377600000000D-04  2.85628837499999900D-05 -2.39536916000000200D-05
37  7 -5.54201158999999700D-05 -1.19011172650000000D-04  6.77565743099999900D-05 -2.68996049350000000D-04 -6.52606499500000100D-05
37  8 -1.15482846050000000D-04  3.47883390800000000D-01  3.47852804450000000D-01 -1.97402313160000000D-02 -1.98776363535000000D-01
37  9 -1.96240186745000000D-01  6.27864191435000000D-03 -7.99463374899999900D-02 -9.53147999449999900D-03 -2.72524815000000000D-02
37 10 -5.04713950100000000D-02  5.00622965950000000D-02 -6.57836452449999900D-02 -2.33183733480000000D-03  9.67817904050000100D-04
37 11  1.84605261135000000D-02
38  1  8.71436866950000000D-04 -3.57332833700000000D-03  9.23323991450000000D-04  1.26368876405000000D-02  7.54838802450000100D-03
38  2  3.65880980810000000D-03 -2.69385090149999400D-05  1.03707973885000000D-03 -3.16214475050000000D-04  7.21013884549999900D-03
38  3 -5.16144088350000000D-02  2.21489420650000000D-02 -6.16705229300000000D-03  4.11813796749999900D-03 -3.84771096770000000D-03
38  4 -7.45127201399999900D-04 -1.64828277855000000D-03  2.15854474200000000D-04 -2.88713721555000000D-04  6.40560568649999900D-04
38  5 -2.42173735100000000D-04 -1.47652437670000000D-01 -6.47705953750000000D-01  1.62310315420000000D-01  2.07603286250000000D-04
38  6 -5.99291464999998500D-06 -1.49153571499999800D-05 -1.40223500100000000D-04  6.43932750500000100D-05  3.41059130000006200D-06
38  7  2.18004092950000100D-04  7.23131770390000100D-04  1.55247850820000000D-04 -5.56548598099999900D-04 -3.88899946800000000D-04
38  8 -1.07705880900000000D-04  3.47852804450000000D-01  9.63012356700000000D-01 -1.92592431875000000D-01 -2.41121894750000000D-01
38  9 -2.62035561900000000D-01 -1.80249992290000000D-02  5.67134204800000100D-02 -6.41050128000000000D-03  2.35903667390000000D-02
38 10 -2.47478039505000000D-02 -5.05130522950000000D-03 -1.26106292675000000D-02 -4.45506242900000000D-03  1.31891191180000000D-03
38 11  1.46011263315000000D-02
39  1  9.17265465500000100D-04  9.00466176650000000D-04 -1.11379526130000000D-03 -5.14958200699999900D-03  2.37598365945000000D-04
39  2  1.38564666733500000D-03  2.49968035670000000D-04 -5.24924186500000100D-04  2.76603223450000000D-04  2.35551109795000000D-03
39  3  6.02482088999999900D-03 -4.68331034620000100D-03  6.94609522850000000D-04 -1.75792856785000000D-03  5.80324357000000000D-04
39  4  6.49566903000000400D-05  3.11283902500000100D-04  7.51818430899999900D-04  2.34409399514999900D-04 -8.05896849999999600D-05
39  5  2.21555935700000000D-04  6.53068765700000100D-02  1.58267557740000000D-01 -7.56829174950000000D-02  1.36466198900000200D-04
39  6  6.52437782000000300D-05 -2.24605344550000000D-04  2.97167744499999900D-05  3.66093036500000100D-05  1.48048232915000000D-04
39  7 -1.77997644350000000D-04 -2.86407234750000100D-04  9.23472365299999600D-05  7.89113111499999700D-05  1.04473670750000000D-04
39  8  3.31515184999997900D-06 -1.97402313160000000D-02 -1.92592431875000000D-01  1.34500608200000000D-01  2.77527314350000000D-02
39  9  8.53131180125000000D-04 -3.28031362550000000D-02 -5.89613767200000000D-02  1.74380096490000000D-03 -1.45139115715000000D-02
39 10 -1.24193938535000000D-02  2.86631230370000000D-02 -1.25763752300000000D-02 -1.32069682660000000D-03 -1.90929975100000000D-03
39 11  3.69165665490500000D-03
40  1 -1.58444889305000000D-03  6.79248075500000000D-04 -8.47084759400000000D-04 -1.46401728330000000D-03 -6.36410229949999900D-03
40  2  2.25220011945000000D-03 -1.53010486595000000D-04 -3.55376471600000000D-04  1.90333714000000200D-05 -1.13940909815000000D-03
40  3  1.05918022470000000D-02 -7.12687820200000000D-03 -1.20261882800000000D-03  1.84693138294500000D-04 -1.10475730710000000D-03
40  4  1.02435991700000000D-04 -4.58857687500000000D-04  6.79254724200000000D-04 -1.90263822745000000D-04 -1.05883654550000000D-04
40  5 -1.27744062900000000D-04 -6.48378896950000100D-02 -2.14766352095000000D-02 -2.45436079050000000D-02 -4.27442432300000000D-04
40  6 -4.07321109464999900D-04 -7.88116094500000400D-05 -5.30620412999999900D-05 -7.29800587500000100D-05 -6.03013334999997900D-06
40  7 -2.09395532700000000D-04 -5.18336361479999900D-04 -5.76421715400000600D-05 -1.57980028550000000D-04 -3.22817189549999900D-04
40  8  1.25664579600000000D-04 -1.98776363535000000D-01 -2.41121894750000000D-01  2.77527314350000000D-02  2.32677784700000000D-01
40  9  2.56958823050000000D-01 -1.97707921690000000D-02  3.57229666700000000D-02  1.70479224385000000D-02  3.21442527880000000D-03
40 10 -4.36113538690000000D-03 -1.49960456695000000D-02  4.16472886050000000D-02  6.12690158049999900D-03  5.62880613000000300D-04
40 11 -2.19808059345000000D-02
41  1 -3.89083819450000000D-04  1.38993161950000000D-04 -1.35396363950000000D-04 -8.15484834540000000D-04 -2.86395438790000000D-03
41  2  1.77194975150000000D-04 -3.53787214950000000D-04 -6.16293647549999900D-04  1.01757756450000000D-04 -9.44860747550000000D-04
41  3  8.51380134499999900D-03 -1.64571804835000000D-03 -1.00987767045000000D-03  8.78369506649999700D-05  4.36101128000000200D-05
41  4 -3.50873223085000000D-04  7.58983092000000300D-05 -3.91496291700000000D-04 -4.42515141905000000D-04 -1.71930720200000000D-04
41  5 -6.26458525500000100D-05 -2.92094452500000000D-02 -8.48066604350000000D-02  2.74123689100000000D-02 -2.28865911200000000D-04
41  6 -1.21976552890000000D-04 -4.00721048500000300D-05 -2.60463124499999900D-05  1.24524464499999800D-05 -1.67243699999998700D-06
41  7 -2.33028841650000000D-04 -1.64753828750000000D-04 -6.93856533900000200D-05  2.21844248000000200D-05 -1.54893387250000000D-04
41  8  3.35001182999999900D-05 -1.96240186745000000D-01 -2.62035561900000000D-01  8.53131180125000000D-04  2.56958823050000000D-01
41  9  3.64197039000000000D-01 -1.35018533490000000D-02 -2.81651973900000000D-02 -7.49489811150000000D-03 -5.74738861220000000D-03
41 10 -2.80296362165000000D-03 -1.66128319605000000D-02 -1.29337699325000000D-02  4.28906681800000000D-03  1.94598627585000000D-03
41 11  5.94377315550000000D-03
42  1 -4.45538550150000100D-04  1.87357903400000000D-04 -6.87423790999999100D-05  3.69502586650000000D-04 -1.74483926890000000D-03
42  2 -7.77216440100000100D-04  2.81415825400000100D-05  8.95464274999999400D-05  6.76549263499999200D-05 -2.24053637445000000D-03
42  3  2.83266480255000000D-03  4.04526484630000000D-03 -6.02302846250000100D-04  5.94358392550000000D-04  1.10065503920000000D-03
42  4  4.33728786665000000D-04 -5.11510662500000100D-04 -6.50494497299999900D-04 -2.00151057499999500D-05  6.57087488000001300D-05
42  5  1.46487362050000100D-04 -1.95926882045000000D-02  2.82675115300000000D-02 -6.22471393045000100D-03 -8.96256130000001000D-05
42  6 -6.51942579500001000D-05  4.04723896499998900D-05 -2.42213713500000600D-05 -8.58675984999987700D-06  4.43677639999999500D-05
42  7 -5.60127716000000100D-05 -8.91126703000000400D-05  1.46013357860000100D-04  9.00838150000106300D-07 -9.06856031500000100D-05
42  8 -9.15427354499999800D-05  6.27864191435000000D-03 -1.80249992290000000D-02 -3.28031362550000000D-02 -1.97707921690000000D-02
42  9 -1.35018533490000000D-02  3.81543994200000100D-02  2.00654056770000000D-02  1.25969622325000000D-02  8.36709483600000000D-03
42 10  4.14886079065000000D-03 -5.39949919745000000D-03 -8.08841211600000100D-03  1.15257816600000000D-02 -5.22878988340000000D-03
42 11 -3.41452742445000000D-03
43  1 -7.64808450000024400D-07  5.91396315300000000D-04 -3.21195641200000000D-04  2.09952588250000000D-03  3.71212171049999900D-04
43  2  2.11217742650000100D-04 -5.48357320800001500D-05 -3.76207636899999800D-04  8.37960521500000300D-05 -9.51475424950000100D-03
43  3 -2.08694143930000000D-03 -2.75162515775000000D-03 -2.47384035849999900D-04  2.99710158940000100D-04 -3.73259608850000100D-04
43  4 -6.84159554990000100D-04  3.36506231500000000D-04 -3.18432701250000100D-04  1.22321471399999900D-04  1.57518635750000100D-04
43  5  5.73247432000000300D-05  9.22294736799999900D-02 -1.72272764835000000D-02  5.56600419000000000D-02 -1.43676219499999500D-05
43  6 -1.27958538574999900D-04  1.16928614699999900D-04 -3.09421622500000400D-05 -3.86157364000000600D-05  1.65940372999999400D-05
43  7 -9.20841774149999900D-04 -4.92004444895000000D-04 -1.78013330370000100D-04  4.17004282500000200D-05  1.14127446999999600D-05
43  8  3.31479240000000200D-05 -7.99463374899999900D-02  5.67134204800000100D-02 -5.89613767200000000D-02  3.57229666700000000D-02
43  9 -2.81651973900000000D-02  2.00654056770000000D-02  1.48035227150000000D-01  1.20809521675000000D-01 -8.78061285500000000D-02
43 10 -1.80262122620000000D-01 -1.16673629220000000D-01  6.93283954950000000D-02 -6.67600204060000000D-03 -1.41383257075000000D-02
43 11  5.12031531430000000D-03
44  1 -5.71778731850000000D-04  9.59988608000000300D-05 -1.82146623750000000D-04  3.52911400650000000D-04 -9.26330507150000100D-04
44  2  4.41378181300000000D-04 -3.68020886100000000D-04 -2.11551157900000000D-04 -9.74352754500000100D-05 -7.55029541900000000D-03
44  3  7.38447313250000100D-04 -3.94328935050000000D-03 -2.20319318500000000D-04 -1.81831588605000000D-03  6.52436125550000000D-04
44  4 -9.58356103250000000D-04  1.03206717216150000D-03 -7.09090047600000000D-04 -1.90546588555000000D-04  7.64978609499999800D-05
44  5 -1.09184413650000000D-04  2.88370390300000000D-02 -3.54767838400000000D-02  2.39771241200000000D-02 -1.23901329900000000D-04
44  6 -1.69955053580000000D-04  2.53701079999999900D-06 -2.01753241100000000D-04 -2.79129474999999900D-05 -6.33258427000000100D-05
44  7 -1.56581590830000000D-03  1.28274069100000000D-04 -9.02266599594999900D-04  5.33486916000000000D-05  7.40306564999996100D-06
44  8  4.49998840000000000D-05 -9.53147999449999900D-03 -6.41050128000000000D-03  1.74380096490000000D-03  1.70479224385000000D-02
44  9 -7.49489811150000000D-03  1.25969622325000000D-02  1.20809521675000000D-01  2.29526987900000000D-01 -1.02134242115000000D-01
44 10 -1.50005229125000000D-01 -1.94333332490000000D-01  6.83020611750000100D-02  4.12255386900000000D-03  1.51700011860000000D-02
44 11  3.92735821050000000D-04
45  1  3.97836326200000000D-04  6.12949416999999700D-05  4.23247192999999200D-05  6.63794677510000000D-04  1.52113923310000000D-03
45  2  5.74173171350000000D-04  1.21838568278000000D-04  4.64191704000000100D-05  4.73669547499999300D-05  1.14614270115000000D-03
45  3 -2.46562513150000000D-03  1.35259835325000000D-03  2.18311734850000100D-04  8.05947712449999900D-04 -1.42300009000000000D-04
45  4  2.51311039850000000D-04 -1.77116868500000100D-04  2.79883436800000100D-04  1.05307073150000000D-04 -9.46351339999992400D-06
45  5  2.93409883999999900D-05  2.20595127960000000D-02  1.00916483095000000D-02 -1.19200753745000000D-02  1.62138329600000000D-04
45  6  5.12567431500001100D-05 -7.58478523500000800D-05  9.65881266499999400D-05  1.04193639999999200D-05  1.44984960499999400D-05
45  7  9.53022530500000000D-05 -7.77043465850000100D-04  6.48888972049998600D-05  2.62313760500001000D-05  3.87818651500001800D-05
45  8 -3.86917022000000600D-05 -2.72524815000000000D-02  2.35903667390000000D-02 -1.45139115715000000D-02  3.21442527880000000D-03
45  9 -5.74738861220000000D-03  8.36709483600000000D-03 -8.78061285500000000D-02 -1.02134242115000000D-01  1.08309150330000000D-01
45 10  5.54857785200000000D-02  4.95295263150000000D-02 -8.56600109550000000D-02  3.10206237915000000D-02  2.55765938760000000D-02
45 11 -6.77760246749999900D-03
46  1  5.51411235850000400D-04 -4.52110139949999900D-04  4.22418516399999900D-04  1.12493453750000400D-04  1.34474503965000000D-03
46  2 -4.05303649200000300D-04  8.19157829700003900D-05  1.28248227999999800D-04 -5.41379260000001900D-06  7.71188239799999900D-04
46  3 -2.70892505900000000D-03  1.19324812339999900D-03 -4.01140496049999800D-04  4.60660938300000300D-04 -9.36678750000000100D-05
46  4  3.75848039999961900D-06 -5.53264594999997300D-05 -8.19366269999983000D-06  3.80818892500001200D-05 -9.41515135500000800D-05
46  5 -2.34096283999998200D-05 -4.39227542650000000D-02  7.84123070800000000D-03 -2.36933724950000000D-02  1.28492749250000000D-04
46  6  1.28617846125000100D-04  1.59789764999996400D-06  1.01470504599999400D-04  3.76507970000000900D-05 -3.30225450000498500D-07
46  7 -3.69640617750000100D-04 -1.05940491790000000D-03 -3.76237913899997500D-05  4.54274192000002600D-05  8.78927023499998100D-05
46  8 -6.68515455000002900D-05 -5.04713950100000000D-02 -2.47478039505000000D-02 -1.24193938535000000D-02 -4.36113538690000000D-03
46  9 -2.80296362165000000D-03  4.14886079065000000D-03 -1.80262122620000000D-01 -1.50005229125000000D-01  5.54857785200000000D-02
46 10  4.42013913800000000D-01  1.10355730860000000D-01 -2.55903517850000000D-01 -1.63902921705000000D-01  6.15607464750000000D-02
46 11  2.31464607150000000D-01
47  1 -5.05409315350000000D-04  2.32089823000000000D-04 -2.74564107599999900D-04 -1.11913937955000000D-03 -2.24540296235000000D-03
47  2  4.12282584199999700D-04  2.02618978204999900D-04  6.39665167999999900D-05  7.65970059000000200D-05  2.00723365145000000D-03
47  3  3.75021661900000000D-03 -6.42100662350000000D-04 -1.44477299384000000D-03 -7.26515856400000100D-04 -4.31051217800000200D-04
47  4  4.91568346808500300D-04 -8.05767767800000100D-04  4.41053959550000200D-04  1.38842093000000100D-04 -2.29327179999997900D-05
47  5  1.12974888600000300D-04 -7.29859031050000000D-02  9.29481016525000200D-03 -3.64295565700000000D-02 -7.02370067999998800D-05
47  6 -6.96880245999997900D-05 -1.29518299000001500D-05  7.68705262500000800D-05  9.00651544999991100D-06  3.38620624499999300D-05
47  7 -9.95955100750000100D-04 -1.06368216890000000D-03  1.35246437464999900D-04 -1.14674811300000200D-04 -1.21504832050000100D-04
47  8 -6.78629855000006900D-06  5.00622965950000000D-02 -5.05130522950000000D-03  2.86631230370000000D-02 -1.49960456695000000D-02
47  9 -1.66128319605000000D-02 -5.39949919745000000D-03 -1.16673629220000000D-01 -1.94333332490000000D-01  4.95295263150000000D-02
47 10  1.10355730860000000D-01  2.93774138400000000D-01  9.46211980499999900D-02  4.56206529000000000D-02 -8.59524732100000000D-02
47 11 -1.30870651490000000D-01
48  1 -4.30789569249999900D-04  1.90158207000000000D-05 -1.16987153999999700D-05  2.37334946100000000D-04 -8.70206318550000100D-04
48  2  2.60001978800000100D-04 -8.43599953199999900D-05 -4.76208402499998900D-05 -3.53957953999999200D-05 -3.93452316800000000D-03
48  3  3.90596212000000000D-04 -7.61757517280000000D-04 -7.69215058450000000D-04 -6.35303484549999900D-05 -3.49010134050000000D-04
48  4 -2.64278501299999900D-04 -6.26028714999999700D-05 -1.60140237249999900D-04  3.35421211455000000D-04  6.89250445000002600D-06
48  5  6.64501962999999400D-05  2.45418894250000000D-02  3.69207638370000000D-03  1.19323905335000000D-02 -1.30347918900000100D-04
48  6 -1.44183725569999900D-04  3.15300581499999800D-05 -7.01766875499999900D-05 -5.85343649500000200D-05 -7.64827385000003600D-06
48  7  1.47445002100000000D-04  9.71206193700000000D-04  3.66406256835000500D-05 -6.36560457999999600D-05 -8.22841881999999200D-05
48  8  6.85806045999999600D-05 -6.57836452449999900D-02 -1.26106292675000000D-02 -1.25763752300000000D-02  4.16472886050000000D-02
48  9 -1.29337699325000000D-02 -8.08841211600000100D-03  6.93283954950000000D-02  6.83020611750000100D-02 -8.56600109550000000D-02
48 10 -2.55903517850000000D-01  9.46211980499999900D-02  5.29698045200000000D-01  1.91088217450000000D-01 -1.41100443125000000D-01
48 11 -4.34453351400000000D-01
49  1 -1.00313402950000300D-04 -2.18743206000000400D-05 -5.40057745500001500D-05  1.97741111349999700D-04 -2.55379081320000500D-04
49  2  1.00490336899999500D-04 -4.71581657400001600D-05 -1.67597032000000100D-05 -9.12986285000005600D-06  5.82553645750000500D-04
49  3 -1.06694998719999700D-04 -1.81345021549999800D-04 -1.77183968400000100D-04 -6.50906465550004700D-05 -1.74899346999999800D-04
49  4  1.32931900499998400D-05 -2.72313374999998100D-05  7.21128149999997000D-06  1.05579122450000300D-04  8.75218494999967400D-06
49  5  7.86097517999996900D-05  5.64369129050000000D-03  5.52857829450000000D-03  9.02317994300000100D-04 -4.28052044999999800D-05
49  6 -3.22191842000002500D-05  4.95676169999992300D-06 -3.52104022500001200D-05 -1.98690951499998700D-05  9.22887349999959300D-06
49  7 -1.06500592999999200D-05  3.62898609970000400D-04  6.03040011499998100D-05 -3.33466821500004500D-05 -5.18403073000002200D-05
49  8  2.06110654999999800D-05 -2.33183733480000000D-03 -4.45506242900000000D-03 -1.32069682660000000D-03  6.12690158049999900D-03
49  9  4.28906681800000000D-03  1.15257816600000000D-02 -6.67600204060000000D-03  4.12255386900000000D-03  3.10206237915000000D-02
49 10 -1.63902921705000000D-01  4.56206529000000000D-02  1.91088217450000000D-01  1.60604643140000000D-01 -5.48645911950000000D-02
49 11 -2.33126785300000000D-01
50  1  1.49930708150000000D-04  1.38877895000006400D-06  5.23350741500000800D-05  8.76704608000000800D-05  6.07090975900000200D-04
50  2 -1.16004954450000100D-04  2.37325206100002800D-05  3.14541846500002300D-05  5.41025684999980800D-06  5.50668443000001400D-05
50  3 -5.30897284100000000D-04  9.50068952660000000D-04  5.74804446050000000D-04  1.30850147900000000D-04  2.15129601999999800D-04
50  4 -6.39640942499999900D-05  1.98830182999999900D-04 -5.42179377999999100D-05 -9.99321638999998100D-05 -1.42955035999998000D-05
50  5 -9.71802118000002700D-05  4.93878634950000100D-03 -2.58028103365000000D-03  2.70789987270000000D-03  4.74465206499999800D-05
50  6  4.54139707000001800D-05 -7.72391110000008200D-06  2.98570010000009600D-06  8.46454269999988800D-06 -2.63493728499997300D-05
50  7  1.62543239500000200D-04 -4.84948829999991600D-06 -1.24909811229999800D-04  5.06277406000000600D-05  6.29667896000000600D-05
50  8 -3.04139030000000500D-05  9.67817904050000100D-04  1.31891191180000000D-03 -1.90929975100000000D-03  5.62880613000000300D-04
50  9  1.94598627585000000D-03 -5.22878988340000000D-03 -1.41383257075000000D-02  1.51700011860000000D-02  2.55765938760000000D-02
50 10  6.15607464750000000D-02 -8.59524732100000000D-02 -1.41100443125000000D-01 -5.48645911950000000D-02  6.95115513700000100D-02
50 11  1.19208784015000000D-01
51  1  4.04148738100000100D-04 -3.34320083000001300D-05  1.31274236349999900D-04  1.41036046999999800D-05  9.88948274900000000D-04
51  2 -2.51787508750000000D-04  2.44220462949999900D-05 -1.32037298500001200D-05  1.48148469999999800D-05  7.35594382000000000D-04
51  3 -8.03112208400000100D-04  3.83615075150000100D-04  6.00043241050000100D-04  2.85053287465000000D-04  2.59724192499999800D-04
51  4 -1.40036104999998900D-05  2.13344299500000000D-04  3.00674232999998700D-05 -2.39363700119999900D-04 -6.86850935000000600D-06
51  5 -1.20730354850000100D-04 -1.62746311910000000D-03 -9.55119081300000000D-03  2.90144282635000000D-03  1.01730558900000000D-04
51  6  9.48403202500000100D-05 -2.03312596500000300D-05  5.12441950000001300D-05  2.96590676500000000D-05 -1.95820457500001200D-05
51  7  3.39127531500000000D-05 -6.04895648830000000D-04 -1.17937382285000000D-04  6.44726927000001600D-05  8.52709937499999600D-05
51  8 -4.13474339499999000D-05  1.84605261135000000D-02  1.46011263315000000D-02  3.69165665490500000D-03 -2.19808059345000000D-02
51  9  5.94377315550000000D-03 -3.41452742445000000D-03  5.12031531430000000D-03  3.92735821050000000D-04 -6.77760246749999900D-03
51 10  2.31464607150000000D-01 -1.30870651490000000D-01 -4.34453351400000000D-01 -2.33126785300000000D-01  1.19208784015000000D-01
51 11  4.37852269200000000D-01
 $END
