 $CONTRL SCFTYP=rhf RUNTYP=hessian d5=.t.
! dfttyp=pbe0
 mplevl=2
 maxit=100 icut=20 inttyp=hondo itol=30 gencon=.f. wide=1                                
 mult=1 icharg=0 exetyp=run fstint=.t. nzvar=0 $END                            
 $SYSTEM TIMLIM=100000 mwords=360 nojac=1  $END                                  
 $PCM SOLVNT=BENZENE $END
 $system mxbcst=-1 $end                                                         
 $p2p p2p=.t. dlb=.t. $end                                                      
 $smp                                                                           
  mkl64=21 smppar=1 mklnp=18 np=36 httnp=1 dianp=1                              
  pts=0x101                                                                     
 $end                                                                           
 $mpi mxgsum=0x40000 mnpdot=1d9 $end                                            
 $MOORTH nostf=1 nozero=1 syms=1 symden=1 symvec=1 tole=0 tolz=0 $end           
 $BASIS GBASIS=apvtzs extfil=.t. $END                                          
 $GUESS GUESS=huckel                                                            
 $END                                                                           
! $RIMP2 AUXBAS=cc-pvdz/C VERBOSE=.T. $END
 $MP2 method=1 $END
 $MP2GRD dblbf=0 fused=0 asysnc=1 tol1=1d-12 tol2=1d-12 $END
 $FORCE NVIB=2 VIBSIZ=0.005 $END
 $trans mptran=2 dirtrf=.t. mode=112 cuttrf=1d-20 $end
 $DATA
 C7NH5SO3
C1
CARBON      6.0  -2.3654248990  -0.7479562598  -0.4518920030
CARBON      6.0  -1.4956792740   0.3327760609  -0.5134988786
CARBON      6.0  -1.9378352806  -1.9687140832   0.0716669892
CARBON      6.0  -0.1813019027   0.1785707386  -0.0458540135
CARBON      6.0   0.2559565400  -1.0424787838   0.4818756926
CARBON      6.0  -0.6314581760  -2.1116506341   0.5359306434
HYDROGEN    1.0  -1.8151402871   1.2837668308  -0.9155646242
CARBON      6.0   0.7212977008   1.2840354624  -0.1104774481
HYDROGEN    1.0  -3.3781385583  -0.6359105373  -0.8111932527
HYDROGEN    1.0  -2.6214435194  -2.8039525403   0.1175067481
HYDROGEN    1.0   1.2711327113  -1.1370646189   0.8359174868
HYDROGEN    1.0  -0.3002447331  -3.0568333145   0.9406842249
NITROGEN    7.0   0.9132488350   2.3953518882  -0.5618385405
OXYGEN      8.0   1.8426954750   3.2519099753  -0.4699969518
OXYGEN      8.0   2.2602072505   1.0829136249   0.9694915004
SULFUR     16.0   3.3298207767   2.0797502913   0.5337044071
OXYGEN      8.0   4.1323073410   1.6154878995  -0.6064599801
 $END
 $VIB   
         IVIB=   0 IATOM=   0 ICOORD=   0 E=     -946.8246743722
 3.243438858E-06-7.927871469E-08 1.023639944E-06-1.979453833E-06-2.879656706E-06
 1.144875016E-06 2.277765927E-06-6.591669437E-07 5.420472722E-07-6.951807168E-07
-1.908586998E-06-1.669945338E-06 2.407304472E-06 2.300585507E-08 3.522251964E-07
-7.867363701E-07-1.551575129E-06 6.791954578E-08-1.580520819E-06 3.156327326E-06
-5.801110622E-07 9.443969172E-06 1.581185777E-06-5.432367602E-06-5.748225249E-06
 7.315529486E-07-1.439791963E-06-6.599033809E-07-1.184464199E-06-4.183430274E-07
-2.087788218E-06 1.344235149E-06 4.100170931E-07-7.175559635E-07 4.883502223E-07
-1.109173219E-07-4.128200388E-06 9.162667958E-06-1.990836317E-06-4.482153768E-06
-7.197259188E-06-1.411105444E-06 1.361160604E-05 6.789888501E-06 1.874729967E-06
-2.075127185E-06-6.189779419E-06 8.677896486E-06-6.043238577E-06-1.627446441E-06
-1.039932446E-06
-5.130974719E+00-3.212951742E+00 1.274593693E+00
 $END
