17
Coordinates from ORCA-job mol E -1407.729004328996
  C      -0.067811      0.068589     -0.187767
  C       0.678106      1.225882     -0.347697
  C       0.476346     -1.078248      0.381689
  C       2.014795      1.228392      0.079583
  C       2.581912      0.080608      0.657443
  C       1.803926     -1.058224      0.800147
  H       0.239504      2.111051     -0.793257
  C       2.805475      2.393251     -0.067049
  Cl     -1.735271      0.055976     -0.716091
  H      -0.130880     -1.969557      0.494431
  H       3.615626      0.105218      0.983864
  H       2.234976     -1.949326      1.245627
  N       3.515329      3.307224     -0.162140
  O       4.288222      4.237697     -0.235113
  O       5.477172      1.947180      1.472113
  S       6.414186      2.958840      0.937905
  O       7.173020      2.586278     -0.266138
17
Coordinates from ORCA-job mol E -1407.729049971568
  C      -0.069971      0.072644     -0.186446
  C       0.685662      1.222651     -0.353269
  C       0.463337     -1.077126      0.387974
  C       2.022618      1.213816      0.072983
  C       2.580040      0.063155      0.655211
  C       1.791726     -1.067976      0.804655
  H       0.255396      2.110280     -0.802847
  C       2.822997      2.371345     -0.081377
  Cl     -1.739392      0.073315     -0.713513
  H      -0.151867     -1.962658      0.505866
  H       3.614647      0.077984      0.979293
  H       2.214969     -1.961149      1.253576
  N       3.516431      3.298299     -0.160648
  O       4.275717      4.243736     -0.218113
  O       5.498922      1.947849      1.457747
  S       6.418269      2.985066      0.942329
  O       7.185130      2.639599     -0.265869
17
Coordinates from ORCA-job mol E -1407.728891427545
  C      -0.064361      0.077151     -0.191507
  C       0.690721      1.231266     -0.329522
  C       0.459244     -1.086621      0.365064
  C       2.022774      1.208949      0.111317
  C       2.574149      0.045542      0.675251
  C       1.783785     -1.088637      0.795387
  H       0.267808      2.130153     -0.765727
  C       2.820579      2.373029     -0.010830
  Cl     -1.732997      0.090971     -0.737320
  H      -0.157070     -1.975273      0.459537
  H       3.606169      0.047277      1.007720
  H       2.201427     -1.991499      1.230222
  N       3.511375      3.290010     -0.160101
  O       4.285502      4.223171     -0.305267
  O       5.518524      2.044927      1.511098
  S       6.429494      3.041673      0.908598
  O       7.167507      2.588743     -0.286370
17
Coordinates from ORCA-job mol E -1407.729097584784
  C      -0.068961      0.076207     -0.187504
  C       0.690493      1.224949     -0.343676
  C       0.456001     -1.080794      0.379753
  C       2.025917      1.205474      0.087686
  C       2.576560      0.048272      0.662688
  C       1.783160     -1.081029      0.801167
  H       0.266655      2.118389     -0.787733
  C       2.829584      2.362432     -0.055212
  Cl     -1.738390      0.088077     -0.721039
  H      -0.162812     -1.964918      0.489147
  H       3.610236      0.053669      0.990135
  H       2.200837     -1.979425      1.244737
  N       3.518437      3.289056     -0.165091
  O       4.277684      4.235238     -0.251786
  O       5.513394      1.992045      1.477466
  S       6.422620      3.021704      0.930172
  O       7.183216      2.641485     -0.273361
17
Coordinates from ORCA-job mol E -1407.729103855456
  C      -0.069422      0.077120     -0.186690
  C       0.691822      1.224366     -0.344604
  C       0.454142     -1.080155      0.380995
  C       2.027871      1.202828      0.085194
  C       2.576881      0.045537      0.660936
  C       1.781685     -1.082246      0.801181
  H       0.269054      2.118180     -0.788720
  C       2.833462      2.358065     -0.058692
  Cl     -1.739228      0.091249     -0.718191
  H      -0.166093     -1.963006      0.491917
  H       3.610730      0.049655      0.988067
  H       2.198193     -1.980874      1.245355
  N       3.519834      3.287060     -0.165804
  O       4.277649      4.233884     -0.249210
  O       5.513617      1.991983      1.475778
  S       6.420324      3.025581      0.931695
  O       7.184108      2.651603     -0.271656
17
Coordinates from ORCA-job mol E -1407.729111043449
  C      -0.070310      0.079298     -0.185021
  C       0.694277      1.224111     -0.343581
  C       0.450102     -1.079844      0.381503
  C       2.031107      1.197670      0.084323
  C       2.576831      0.038741      0.659033
  C       1.778149     -1.086519      0.800008
  H       0.274034      2.119586     -0.786554
  C       2.840490      2.349953     -0.059319
  Cl     -1.740719      0.098790     -0.714013
  H      -0.172835     -1.960645      0.493016
  H       3.610955      0.039244      0.985519
  H       2.192219     -1.986625      1.243440
  N       3.522941      3.281610     -0.169875
  O       4.279522      4.228759     -0.253010
  O       5.515732      2.000651      1.478129
  S       6.416738      3.038574      0.932556
  O       7.185396      2.667474     -0.268605
17
Coordinates from ORCA-job mol E -1407.729114473671
  C      -0.071260      0.080841     -0.183529
  C       0.695521      1.224179     -0.341787
  C       0.447215     -1.080022      0.381338
  C       2.032832      1.194254      0.084632
  C       2.576574      0.033653      0.657665
  C       1.775637     -1.090078      0.798470
  H       0.276891      2.121057     -0.783437
  C       2.844822      2.344667     -0.058679
  Cl     -1.742173      0.104271     -0.710750
  H      -0.177510     -1.959581      0.492640
  H       3.611016      0.031442      0.983165
  H       2.188200     -1.991516      1.240578
  N       3.524775      3.277605     -0.173835
  O       4.281849      4.224188     -0.259651
  O       5.518365      2.009846      1.482896
  S       6.415093      3.049507      0.933267
  O       7.186782      2.676515     -0.265433
17
Coordinates from ORCA-job mol E -1407.729116911009
  C      -0.072636      0.081896     -0.181714
  C       0.695564      1.224320     -0.339755
  C       0.445096     -1.080371      0.381197
  C       2.033386      1.192054      0.084718
  C       2.576348      0.029944      0.655650
  C       1.774042     -1.092841      0.796434
  H       0.277599      2.122290     -0.779903
  C       2.847102      2.341263     -0.058760
  Cl     -1.744207      0.108185     -0.706615
  H      -0.180784     -1.959162      0.492346
  H       3.611292      0.025894      0.979501
  H       2.185960     -1.995359      1.236931
  N       3.526199      3.274137     -0.178909
  O       4.284625      4.219719     -0.267708
  O       5.521194      2.018132      1.489243
  S       6.414577      3.058574      0.935307
  O       7.189273      2.682155     -0.260414
17
Coordinates from ORCA-job mol E -1407.729118611915
  C      -0.074219      0.082380     -0.179725
  C       0.694593      1.224361     -0.338354
  C       0.443924     -1.080593      0.381569
  C       2.033062      1.191057      0.083587
  C       2.576374      0.028091      0.652810
  C       1.773576     -1.094226      0.794388
  H       0.276326      2.122853     -0.777249
  C       2.847506      2.339687     -0.060927
  Cl     -1.746607      0.110128     -0.701670
  H      -0.182449     -1.959004      0.493218
  H       3.611955      0.023319      0.974576
  H       2.185702     -1.997291      1.233576
  N       3.527255      3.271677     -0.183740
  O       4.287219      4.216155     -0.274449
  O       5.523347      2.022976      1.495120
  S       6.414655      3.064058      0.938880
  O       7.192410      2.685203     -0.254060
17
Coordinates from ORCA-job mol E -1407.729120218713
  C      -0.076164      0.082569     -0.177175
  C       0.692730      1.224360     -0.337347
  C       0.443272     -1.080649      0.382542
  C       2.032143      1.190731      0.081071
  C       2.576697      0.027351      0.648639
  C       1.773946     -1.094721      0.791985
  H       0.273401      2.123014     -0.774973
  C       2.846666      2.339117     -0.065345
  Cl     -1.749721      0.110976     -0.694945
  H      -0.183170     -1.958875      0.495470
  H       3.613129      0.022521      0.967647
  H       2.186947     -1.997994      1.229936
  N       3.528668      3.269262     -0.189237
  O       4.290283      4.212489     -0.280963
  O       5.524761      2.025631      1.501195
  S       6.414645      3.067638      0.944441
  O       7.196398      2.687411     -0.245391
17
Coordinates from ORCA-job mol E -1407.729121586134
  C      -0.078059      0.082590     -0.174431
  C       0.690478      1.224382     -0.336810
  C       0.443065     -1.080512      0.383917
  C       2.031015      1.190859      0.077674
  C       2.577256      0.027497      0.643861
  C       1.774908     -1.094491      0.789598
  H       0.269723      2.122926     -0.773305
  C       2.845141      2.339235     -0.071113
  Cl     -1.752985      0.111019     -0.687505
  H      -0.183106     -1.958699      0.498669
  H       3.614590      0.022972      0.959962
  H       2.189143     -1.997703      1.226522
  N       3.530539      3.266935     -0.194405
  O       4.293574      4.208956     -0.286436
  O       5.524951      2.026254      1.506397
  S       6.414098      3.069438      0.950900
  O       7.200298      2.689171     -0.235947
17
Coordinates from ORCA-job mol E -1407.729122405579
  C      -0.079181      0.082589     -0.172515
  C       0.688862      1.224477     -0.336652
  C       0.443120     -1.080309      0.384989
  C       2.030256      1.191108      0.075093
  C       2.577745      0.027973      0.640466
  C       1.775799     -1.094036      0.788037
  H       0.267099      2.122867     -0.772439
  C       2.843902      2.339583     -0.075441
  Cl     -1.755157      0.110766     -0.682267
  H      -0.182679     -1.958553      0.501196
  H       3.615666      0.023652      0.954669
  H       2.190972     -1.997108      1.224360
  N       3.532347      3.265188     -0.197537
  O       4.296108      4.206460     -0.289592
  O       5.524045      2.025802      1.509113
  S       6.413120      3.069920      0.955502
  O       7.202604      2.690451     -0.229432
17
Coordinates from ORCA-job mol E -1407.729122707988
  C      -0.079404      0.082649     -0.171890
  C       0.688379      1.224593     -0.336598
  C       0.443148     -1.080215      0.385313
  C       2.030095      1.191171      0.074327
  C       2.577915      0.028161      0.639437
  C       1.776092     -1.093881      0.787566
  H       0.266412      2.122978     -0.772142
  C       2.843555      2.339694     -0.076761
  Cl     -1.755787      0.110719     -0.680614
  H      -0.182455     -1.958516      0.501999
  H       3.615985      0.023714      0.953162
  H       2.191539     -1.996922      1.223684
  N       3.533386      3.264358     -0.198292
  O       4.297268      4.205399     -0.290545
  O       5.523066      2.025622      1.509450
  S       6.412366      3.070078      0.956906
  O       7.203070      2.691227     -0.227453
