-------------------------------------------------------------
----------------------- !PROPERTIES! ------------------------
-------------------------------------------------------------
# -----------------------------------------------------------
$ PAL_Flags
   description: The PAL Flags
   geom. index: 1
   prop. index: 1
        Diskflag:     2
# -----------------------------------------------------------
$ SCF_Energy
   description: The SCF energy
   geom. index: 1
   prop. index: 1
        SCF Energy:     -399.5647800180
# -----------------------------------------------------------
$ DFT_Energy
   description: The DFT energy
   geom. index: 1
   prop. index: 1
   Number of Alpha Electrons                 31.0000016919 
   Number of Beta  Electrons                 31.0000016919 
   Total number of  Electrons                62.0000033839 
   Exchange energy                          -53.0895876157 
   Correlation energy                        -2.0282960535 
   Correlation energy NL                      0.0000000000 
   Exchange-Correlation energy              -55.1178836692 
   Embedding correction                       0.0000000000 
   Total DFT Energy (No VdW correction)    -399.5647800180 
# -----------------------------------------------------------
$ Solvation_Details
   description: Details concerning solvation
   geom. index: 1
   prop. index: 1
     Epsilon:                2.2800000000
     Refrac:                 1.5010000000
     RSolv:                  1.3000000000
     Surface Type:                      2
     Number of Points:                847
     Surface Area:         579.2668388312
     Dielectric Energy:     -0.0049659257
# -----------------------------------------------------------
$ Mayer_Pop
   description: The Mayer population analysis
   geom. index: 1
   prop. index: 1
     Number of atoms                     : 14
     Threshold for printing              : 0.1000000
     Number of bond orders printed       : 15
  NA   - Mulliken gross atomic population
  ZA   - Total nuclear charge
  QA   - Mulliken gross atomic charge
  VA   - Mayer's total valence
  BVA  - Mayer's bonded valence
  FA   - Mayer's free valence
  ATOM       NA         ZA         QA         VA         BVA        FA
  0   0     6.1824     6.0000    -0.1824     3.8147     3.8147    -0.0000
  1   0     6.1834     6.0000    -0.1834     3.8042     3.8042     0.0000
  2   0     6.1290     6.0000    -0.1290     3.7773     3.7773     0.0000
  3   0     6.0441     6.0000    -0.0441     3.8775     3.8775     0.0000
  4   0     6.1858     6.0000    -0.1858     3.8076     3.8076    -0.0000
  5   0     6.1812     6.0000    -0.1812     3.8140     3.8140     0.0000
  6   0     0.8276     1.0000     0.1724     0.9619     0.9619     0.0000
  7   0     5.8307     6.0000     0.1693     3.8374     3.8374     0.0000
  8   0     0.8337     1.0000     0.1663     0.9636     0.9636    -0.0000
  9   0     0.8321     1.0000     0.1679     0.9622     0.9622    -0.0000
 10   0     0.8275     1.0000     0.1725     0.9619     0.9619    -0.0000
 11   0     0.8336     1.0000     0.1664     0.9636     0.9636     0.0000
 12   0     6.6844     7.0000     0.3156     3.9719     3.9719     0.0000
 13   0     8.4245     8.0000    -0.4245     2.1043     2.1043     0.0000
      Bond orders larger than 0.1000000
           Atom A     A.N. of A          Atom B    A.N. of B              Bond order
                0             6               1            6                1.421665
                0             6               2            6                1.393577
                0             6               8            1                0.953215
                1             6               3            6                1.363223
                1             6               6            1                0.954297
                2             6               5            6                1.392931
                2             6               9            1                0.945776
                3             6               4            6                1.365390
                3             6               7            6                1.193187
                4             6               5            6                1.422476
                4             6              10            1                0.954221
                5             6              11            1                0.953155
                7             6              12            7                2.351702
                7             6              13            8                0.381585
               12             7              13            8                1.588043
# -----------------------------------------------------------
$ VdW_Correction
   description: The Van der Waals Correction
   geom. index: 1
   prop. index: 1
        Van der Waals Correction:       -0.0045612351
# -----------------------------------------------------------
$ Hessian
   description: Details about the Hessian
   geom. index: 1
   prop. index: 1
Normal modes:
Number of Rows: 42 Number of Columns: 42
                  0          1          2          3          4          5    
      0       0.000000   0.000000   0.000000   0.000000   0.000000   0.000000
      1       0.000000   0.000000   0.000000   0.000000   0.000000   0.000000
      2       0.000000   0.000000   0.000000   0.000000   0.000000   0.000000
      3       0.000000   0.000000   0.000000   0.000000   0.000000   0.000000
      4       0.000000   0.000000   0.000000   0.000000   0.000000   0.000000
      5       0.000000   0.000000   0.000000   0.000000   0.000000   0.000000
      6       0.000000   0.000000   0.000000   0.000000   0.000000   0.000000
      7       0.000000   0.000000   0.000000   0.000000   0.000000   0.000000
      8       0.000000   0.000000   0.000000   0.000000   0.000000   0.000000
      9       0.000000   0.000000   0.000000   0.000000   0.000000   0.000000
     10       0.000000   0.000000   0.000000   0.000000   0.000000   0.000000
     11       0.000000   0.000000   0.000000   0.000000   0.000000   0.000000
     12       0.000000   0.000000   0.000000   0.000000   0.000000   0.000000
     13       0.000000   0.000000   0.000000   0.000000   0.000000   0.000000
     14       0.000000   0.000000   0.000000   0.000000   0.000000   0.000000
     15       0.000000   0.000000   0.000000   0.000000   0.000000   0.000000
     16       0.000000   0.000000   0.000000   0.000000   0.000000   0.000000
     17       0.000000   0.000000   0.000000   0.000000   0.000000   0.000000
     18       0.000000   0.000000   0.000000   0.000000   0.000000   0.000000
     19       0.000000   0.000000   0.000000   0.000000   0.000000   0.000000
     20       0.000000   0.000000   0.000000   0.000000   0.000000   0.000000
     21       0.000000   0.000000   0.000000   0.000000   0.000000   0.000000
     22       0.000000   0.000000   0.000000   0.000000   0.000000   0.000000
     23       0.000000   0.000000   0.000000   0.000000   0.000000   0.000000
     24       0.000000   0.000000   0.000000   0.000000   0.000000   0.000000
     25       0.000000   0.000000   0.000000   0.000000   0.000000   0.000000
     26       0.000000   0.000000   0.000000   0.000000   0.000000   0.000000
     27       0.000000   0.000000   0.000000   0.000000   0.000000   0.000000
     28       0.000000   0.000000   0.000000   0.000000   0.000000   0.000000
     29       0.000000   0.000000   0.000000   0.000000   0.000000   0.000000
     30       0.000000   0.000000   0.000000   0.000000   0.000000   0.000000
     31       0.000000   0.000000   0.000000   0.000000   0.000000   0.000000
     32       0.000000   0.000000   0.000000   0.000000   0.000000   0.000000
     33       0.000000   0.000000   0.000000   0.000000   0.000000   0.000000
     34       0.000000   0.000000   0.000000   0.000000   0.000000   0.000000
     35       0.000000   0.000000   0.000000   0.000000   0.000000   0.000000
     36       0.000000   0.000000   0.000000   0.000000   0.000000   0.000000
     37       0.000000   0.000000   0.000000   0.000000   0.000000   0.000000
     38       0.000000   0.000000   0.000000   0.000000   0.000000   0.000000
     39       0.000000   0.000000   0.000000   0.000000   0.000000   0.000000
     40       0.000000   0.000000   0.000000   0.000000   0.000000   0.000000
     41       0.000000   0.000000   0.000000   0.000000   0.000000   0.000000
                  6          7          8          9         10         11    
      0      -0.055026   0.010472  -0.003826   0.018312   0.090332  -0.034027
      1      -0.156226   0.000525  -0.000583  -0.001341   0.244631  -0.015672
      2      -0.002015  -0.112385   0.037373  -0.209821   0.006720  -0.007032
      3      -0.195948  -0.013120  -0.021283  -0.015673   0.117530  -0.202795
      4      -0.041940   0.002465   0.001120   0.000693   0.144386   0.136805
      5      -0.013868   0.170740   0.243793   0.207355   0.008528  -0.013824
      6       0.113928   0.023361   0.020643  -0.001042   0.173439   0.140475
      7      -0.090062  -0.001026  -0.003127  -0.000007   0.275195   0.036036
      8       0.009469  -0.269648  -0.251733  -0.000466   0.011767   0.011124
      9      -0.170212  -0.022282  -0.009895   0.001709   0.023603  -0.187823
     10       0.139587   0.002582   0.000623  -0.001111  -0.120398   0.113458
     11      -0.014744   0.275917   0.113804  -0.000260   0.001758  -0.017536
     12       0.001079  -0.014139  -0.021442   0.018392   0.214796  -0.057175
     13       0.203403   0.001597   0.001346  -0.003724  -0.018936   0.213178
     14      -0.002949   0.174913   0.243432  -0.207024   0.019453  -0.010893
     15       0.142491   0.009429  -0.003909  -0.019059   0.154615   0.141848
     16       0.089597  -0.000349  -0.000407   0.000838   0.075116   0.113374
     17       0.009306  -0.107895   0.036233   0.210282   0.012338   0.015969
     18      -0.329501  -0.021112  -0.028267  -0.036037   0.342601  -0.293340
     19      -0.093065   0.003521   0.001622   0.003148   0.227704   0.102187
     20      -0.022862   0.271341   0.320991   0.457626   0.027031  -0.015431
     21      -0.283267  -0.029882   0.036461  -0.002760  -0.292794   0.265828
     22       0.231731   0.003336  -0.004288   0.002929  -0.084225  -0.333745
     23      -0.024852   0.370667  -0.435743  -0.000087  -0.024509   0.025935
     24      -0.077297   0.019989  -0.001031   0.038869   0.084336  -0.065478
     25      -0.297888   0.000104  -0.000587  -0.001561   0.193258  -0.213580
     26      -0.001729  -0.222953   0.005177  -0.447270   0.008036  -0.012824
     27       0.224701   0.043654   0.050721  -0.001735   0.142477   0.212355
     28      -0.179542  -0.002785  -0.006154   0.000560   0.300669  -0.021871
     29       0.018803  -0.511644  -0.603375  -0.000684   0.008056   0.017164
     30       0.022354  -0.023090  -0.028113   0.039422   0.227867  -0.025299
     31       0.344630   0.001994   0.001517  -0.007603   0.083786   0.433802
     32      -0.003478   0.278601   0.320565  -0.455722   0.021186  -0.015038
     33       0.275926   0.018047  -0.000923  -0.040561  -0.018541   0.246267
     34       0.141584  -0.001465  -0.000632   0.002396   0.008536   0.156487
     35       0.018554  -0.214945   0.003122   0.448697  -0.001924   0.030055
     36       0.044573   0.000036   0.012695  -0.001421  -0.277452   0.160542
     37      -0.039467  -0.001347  -0.000070   0.001985  -0.158044  -0.268613
     38       0.004214  -0.016799  -0.137836  -0.000670  -0.031678   0.011824
     39       0.289201   0.024754  -0.008195   0.001338  -0.167650  -0.195045
     40      -0.242481  -0.005762   0.004319  -0.000252  -0.300123   0.008607
     41       0.025495  -0.337217   0.127386   0.000436  -0.003264  -0.013409
                 12         13         14         15         16         17    
      0       0.000345  -0.011542  -0.027187   0.356517   0.014327  -0.270175
      1       0.004626   0.001075   0.031056   0.054604  -0.001279   0.083704
      2       0.006724   0.136689  -0.001911   0.030153  -0.169011  -0.023226
      3      -0.000184  -0.001097   0.076175   0.005801  -0.009316  -0.251761
      4       0.004133   0.000099  -0.074059   0.305065   0.001104   0.080283
      5      -0.004006   0.014582   0.006606  -0.002292   0.106295  -0.022127
      6       0.006521   0.016983  -0.052663   0.106582  -0.008983   0.169574
      7       0.005683  -0.001850   0.035523  -0.087712   0.001184   0.211050
      8      -0.018547  -0.199591  -0.005519   0.009631   0.108680   0.012750
      9      -0.003841   0.029502   0.072276  -0.103296   0.010414  -0.138548
     10      -0.001635  -0.002965  -0.053806   0.085155  -0.001333  -0.172125
     11       0.021958  -0.345996   0.005218  -0.009238  -0.125828  -0.010370
     12       0.004053  -0.001559   0.082807  -0.296979  -0.009092   0.130954
     13       0.000994   0.000246  -0.057868  -0.069458   0.000722  -0.230291
     14      -0.004718   0.015379   0.008127  -0.024806   0.106488   0.013083
     15       0.003797  -0.011690  -0.042198   0.021527   0.014649   0.138855
     16       0.002130   0.001144   0.018934  -0.360331  -0.001758  -0.248874
     17       0.008645   0.136023  -0.003477   0.005075  -0.168990   0.014502
     18       0.010124  -0.029655   0.153901  -0.140062  -0.043553  -0.045106
     19       0.004896   0.002845  -0.044654   0.248428   0.004519   0.166171
     20      -0.079818   0.348766   0.013644  -0.014445   0.509669  -0.006974
     21       0.032796  -0.009073  -0.405343  -0.088831   0.001340   0.013816
     22      -0.010824   0.001254   0.337438   0.073312  -0.000242   0.025401
     23      -0.430444   0.115973  -0.037245  -0.008285  -0.016419   0.003657
     24       0.002089  -0.040203  -0.012766   0.333060  -0.008025  -0.332395
     25       0.000824   0.003937   0.117208  -0.098428   0.000419  -0.296307
     26      -0.019862   0.472569   0.000212   0.029354   0.091919  -0.028110
     27       0.011518   0.025473  -0.045201  -0.239421  -0.050394   0.166548
     28       0.005130  -0.002653   0.029498   0.191945   0.005432   0.209122
     29      -0.075787  -0.299702  -0.005089  -0.022608   0.591563   0.009073
     30       0.011293  -0.030172   0.069410  -0.273297  -0.043404   0.170477
     31       0.005043   0.003086  -0.148909   0.083511   0.004516  -0.009674
     32      -0.081945   0.349723   0.009919  -0.024378   0.508168   0.013361
     33       0.003104  -0.040163  -0.117295   0.167796  -0.007947  -0.217589
     34       0.000871   0.004040  -0.011545  -0.303816   0.000326  -0.391260
     35      -0.016383   0.471369  -0.008476   0.016761   0.092122  -0.017250
     36      -0.068788  -0.004289   0.539441   0.019385  -0.000834   0.062406
     37       0.006989   0.001138  -0.442240  -0.016278   0.000226   0.075329
     38       0.805239   0.044713   0.050893   0.001782   0.011167   0.003922
     39       0.025174   0.002331  -0.252987  -0.008392   0.000376   0.117239
     40      -0.011010  -0.000957   0.212769   0.006111   0.000047   0.142657
     41      -0.372130  -0.028444  -0.024028  -0.000774  -0.003565   0.007258
                 18         19         20         21         22         23    
      0      -0.000077  -0.005441   0.000949  -0.008153  -0.006715  -0.009704
      1      -0.000006   0.000527  -0.000081   0.000794   0.000702   0.012272
      2       0.003847   0.064019  -0.011678   0.095806   0.077948  -0.001115
      3      -0.007440  -0.007008  -0.008115   0.006897   0.002229  -0.133165
      4       0.000675   0.000704   0.000768  -0.000661  -0.000169   0.360386
      5       0.090369   0.082335   0.095417  -0.080991  -0.026000  -0.014222
      6      -0.009640   0.000012   0.008437  -0.000028   0.008065  -0.258277
      7       0.000782  -0.000032  -0.000830   0.000001  -0.000926  -0.321659
      8       0.111654  -0.000081  -0.098649   0.000023  -0.095712  -0.019192
      9       0.013943  -0.000004   0.004375  -0.000004   0.000634   0.030565
     10      -0.001342   0.000044  -0.000507   0.000003  -0.000061   0.038512
     11      -0.162971  -0.000210  -0.051635  -0.000078  -0.007443   0.001980
     12      -0.007923   0.006968  -0.008190  -0.006923   0.002294   0.379238
     13       0.001022  -0.000696   0.000843   0.000674  -0.000186  -0.054156
     14       0.090182  -0.081737   0.095347   0.081598  -0.025758   0.032951
     15      -0.000437   0.005499   0.000962   0.008205  -0.006527   0.014278
     16       0.000187  -0.000528  -0.000149  -0.000818   0.000621  -0.006677
     17       0.003988  -0.064352  -0.010818  -0.096164   0.077320   0.001206
     18       0.016295   0.045577   0.048490  -0.037533  -0.019519  -0.150362
     19      -0.001673  -0.004378  -0.004635   0.003562   0.001964   0.375132
     20      -0.189128  -0.533848  -0.566350   0.437939   0.229578  -0.016390
     21      -0.002104   0.000004  -0.001115  -0.000009   0.000329   0.004942
     22       0.000335   0.000002   0.000206   0.000004  -0.000066   0.005388
     23       0.025595   0.000054   0.013694   0.000048  -0.004035   0.000134
     24       0.046991   0.038324  -0.008783   0.045625   0.043419  -0.017693
     25      -0.004220  -0.003692   0.000860  -0.004419  -0.003949   0.087688
     26      -0.546794  -0.448519   0.102323  -0.534061  -0.508946  -0.001549
     27       0.044040  -0.000038  -0.046915   0.000038  -0.050929  -0.269740
     28      -0.004613  -0.000038   0.004818  -0.000015   0.005122  -0.336515
     29      -0.516286   0.000754   0.547372  -0.000572   0.592157  -0.020882
     30       0.015970  -0.045516   0.048521   0.037985  -0.019470   0.397084
     31      -0.001388   0.004396  -0.004586  -0.003665   0.002054  -0.068975
     32      -0.189024   0.531174  -0.566818  -0.442788   0.228670   0.034226
     33       0.047054  -0.038453  -0.008253  -0.046036   0.043577   0.089915
     34      -0.004303   0.003812   0.000773   0.004444  -0.004172   0.001894
     35      -0.547273   0.450188   0.097432   0.536593  -0.505303   0.008039
     36      -0.000717  -0.000007  -0.000135   0.000001  -0.000053  -0.004762
     37       0.000063   0.000005   0.000043  -0.000002   0.000004  -0.005942
     38       0.008378   0.000001   0.001852   0.000004   0.000599  -0.000378
     39       0.000163  -0.000009   0.000061   0.000005  -0.000002  -0.019859
     40      -0.000276  -0.000026  -0.000051   0.000010  -0.000004  -0.024104
     41      -0.004169  -0.000006  -0.001081  -0.000002  -0.000040  -0.001195
                 24         25         26         27         28         29    
      0       0.187782   0.081073   0.131858   0.004846   0.009518  -0.000561
      1      -0.101119   0.005711   0.031956   0.041109   0.053292   0.129158
      2       0.016919   0.006854   0.010991   0.000063   0.000352  -0.001118
      3      -0.099205  -0.022282   0.026044  -0.003429  -0.049654  -0.092861
      4       0.041396  -0.111262  -0.006042   0.003541  -0.024211   0.011478
      5      -0.008735  -0.000942   0.002213  -0.000317  -0.004025  -0.007981
      6       0.061965  -0.073465  -0.056768   0.048438   0.005349   0.057136
      7       0.077255   0.059029  -0.071157  -0.039486   0.005762  -0.046176
      8       0.004543  -0.006754  -0.004239   0.004428   0.000410   0.005277
      9      -0.028749  -0.051404  -0.247508  -0.006158  -0.002872   0.224496
     10      -0.035415   0.041155  -0.309216   0.004717  -0.003425  -0.182168
     11      -0.002247  -0.004745  -0.018190  -0.000569  -0.000261   0.020735
     12       0.061666   0.103609  -0.011987  -0.003963  -0.013213  -0.030463
     13      -0.088457   0.045683   0.024516   0.003679  -0.054080   0.088534
     14       0.006038   0.008434  -0.001314  -0.000375  -0.000645  -0.003435
     15      -0.138529   0.012142   0.002648  -0.039538   0.049037  -0.126067
     16       0.162272  -0.080596   0.135965  -0.013817   0.020539  -0.026960
     17      -0.013098   0.001734  -0.000927  -0.003231   0.004001  -0.010562
     18      -0.422004  -0.403318   0.453917  -0.157168  -0.456792  -0.518411
     19      -0.084388  -0.266225   0.142741  -0.055407  -0.181367  -0.145790
     20      -0.035449  -0.032353   0.037437  -0.012977  -0.037544  -0.043003
     21      -0.009565   0.013238  -0.083236  -0.000853  -0.007331  -0.012327
     22      -0.011226  -0.011194  -0.098283   0.000688  -0.008852   0.011357
     23      -0.000412   0.001238  -0.004447  -0.000077  -0.000403  -0.001150
     24       0.139840   0.128661   0.183578   0.073088   0.080313  -0.081907
     25      -0.472393   0.262026   0.319600   0.478453   0.499452  -0.362409
     26       0.015482   0.008957   0.013101   0.002250   0.002798  -0.004053
     27       0.071317  -0.431014  -0.056054   0.524494   0.010230   0.012815
     28       0.088757   0.347999  -0.069000  -0.424268   0.002121  -0.010373
     29       0.005864  -0.039994  -0.004449   0.048664   0.000794   0.001190
     30       0.008482   0.172911   0.040594   0.021674  -0.078574   0.031489
     31      -0.430579   0.452647   0.471586   0.174656  -0.483487   0.538713
     32       0.004318   0.011111  -0.000554   0.000417  -0.002766  -0.001796
     33      -0.491299  -0.225562   0.275804  -0.457386   0.462414   0.335025
     34       0.035366  -0.181325   0.249713  -0.176670   0.182889   0.157658
     35      -0.042842  -0.017730   0.021661  -0.037722   0.038069   0.027433
     36      -0.000153   0.001475  -0.012517   0.000210  -0.002990  -0.002065
     37      -0.000205  -0.001379  -0.015031  -0.000178  -0.003646   0.002659
     38      -0.000004   0.000137  -0.000545   0.000020  -0.000196  -0.000208
     39       0.017289  -0.000744   0.133779   0.000012   0.008390   0.001203
     40       0.021005   0.001095   0.162343   0.000035   0.010197  -0.002436
     41       0.001061  -0.000079   0.008190   0.000001   0.000515   0.000132
                 30         31         32         33         34         35    
      0      -0.023511  -0.069909   0.089174   0.008517  -0.127941  -0.118406
      1      -0.070791   0.049369   0.140090  -0.150451   0.172547  -0.269465
      2      -0.001396  -0.006352   0.006434   0.002000  -0.012379  -0.007832
      3       0.151805   0.127244  -0.014670  -0.116641   0.198193   0.229268
      4       0.073929   0.030130  -0.113828   0.004625  -0.025468   0.178189
      5       0.012327   0.010633  -0.000297  -0.009956   0.017078   0.018030
      6      -0.126366  -0.025940  -0.069649   0.065062   0.290996   0.092731
      7       0.102106  -0.033297   0.057080   0.078149  -0.236391   0.114128
      8      -0.011670  -0.001939  -0.006460   0.004891   0.026881   0.006945
      9      -0.025768   0.104974  -0.110509   0.119565  -0.187859  -0.119027
     10       0.020805   0.129954   0.089985   0.147832   0.150677  -0.146260
     11      -0.002380   0.007414  -0.010212   0.008706  -0.017330  -0.008769
     12      -0.039678   0.003519   0.107835   0.028590   0.065941   0.125149
     13      -0.164368   0.132392   0.036750  -0.114565  -0.189170   0.261403
     14      -0.001978  -0.000812   0.008917   0.003446   0.007287   0.008428
     15       0.063925   0.059428  -0.119115  -0.148650  -0.192435  -0.238012
     16       0.038119  -0.059708  -0.117180  -0.022049   0.089970  -0.173099
     17       0.005132   0.005606  -0.009163  -0.012504  -0.017209  -0.018855
     18      -0.507811  -0.385556   0.207550   0.398471  -0.240069  -0.378535
     19      -0.177391  -0.163852  -0.048609   0.217463  -0.201859  -0.045221
     20      -0.041984  -0.031790   0.018109   0.032166  -0.018855  -0.031934
     21      -0.005758  -0.198229   0.012567  -0.057015   0.007562   0.020585
     22       0.004222  -0.243082  -0.009562  -0.070024  -0.005082   0.025203
     23      -0.000524  -0.013201   0.001154  -0.003905   0.000690   0.001356
     24      -0.055858  -0.147400   0.010548   0.110964  -0.196257  -0.025821
     25      -0.267664  -0.378576  -0.457132   0.449694  -0.132409   0.372607
     26      -0.002479  -0.009397   0.004678   0.005707  -0.015558  -0.005257
     27       0.321039  -0.032462   0.476765   0.072735  -0.440220   0.101596
     28      -0.259503  -0.044806  -0.384383   0.098262   0.354368   0.128356
     29       0.029716  -0.002401   0.044124   0.005393  -0.040733   0.007567
     30       0.063928  -0.075789   0.093424   0.126170   0.143444   0.038259
     31       0.537193  -0.413808  -0.185572   0.442209   0.277919  -0.380021
     32       0.000997  -0.003078   0.009521   0.007023   0.009894   0.006488
     33       0.247559  -0.327711   0.452351   0.409896   0.080677   0.368154
     34       0.111399  -0.222065   0.090196   0.205284   0.218410   0.055149
     35       0.020115  -0.026105   0.037922   0.033314   0.005017   0.031068
     36      -0.000750  -0.147809   0.002017  -0.051198   0.002217   0.015185
     37       0.000298  -0.179838  -0.001298  -0.062343  -0.001018   0.018506
     38      -0.000065  -0.009186   0.000182  -0.003234   0.000196   0.001007
     39       0.000334   0.189636  -0.001580   0.049873  -0.001717  -0.014036
     40       0.000246   0.230184   0.000665   0.060516   0.000573  -0.017013
     41       0.000023   0.011614  -0.000136   0.003061  -0.000143  -0.000858
                 36         37         38         39         40         41    
      0      -0.003319   0.043544  -0.053314   0.020418   0.030681  -0.035198
      1      -0.006899  -0.006076   0.008841  -0.006526  -0.002811   0.005389
      2      -0.000217   0.003768  -0.004626   0.001797   0.002643  -0.003052
      3       0.014299  -0.006299   0.010776  -0.015363   0.018967  -0.014323
      4       0.008925   0.013814  -0.024524   0.036680  -0.053848   0.040448
      5       0.001132  -0.000650   0.001119  -0.001611   0.002061  -0.001555
      6       0.002534  -0.032741   0.001796   0.037649  -0.000265  -0.021759
      7       0.003115  -0.040780  -0.002250   0.046789   0.003771  -0.026923
      8       0.000199  -0.002448   0.000174   0.002816  -0.000055  -0.001628
      9       0.053282   0.000252  -0.000547   0.001181  -0.002876   0.001504
     10       0.066958   0.000292   0.000407   0.001359   0.002193   0.002152
     11       0.004084   0.000017  -0.000050   0.000086  -0.000264   0.000105
     12       0.005788   0.014293   0.025366   0.037251   0.053582   0.048055
     13       0.015951  -0.003133  -0.005178  -0.007012  -0.006783  -0.006094
     14       0.000352   0.001250   0.002216   0.003249   0.004645   0.004168
     15      -0.006126  -0.015061  -0.020044  -0.011366   0.007491   0.013451
     16      -0.004740   0.041036   0.050688   0.020529  -0.025115  -0.035700
     17      -0.000477  -0.001632  -0.002139  -0.001144   0.000852   0.001450
     18      -0.011919   0.066367  -0.115260   0.165257  -0.228036   0.169226
     19       0.001081  -0.171219   0.297950  -0.428864   0.603517  -0.448001
     20      -0.001011   0.007077  -0.012296   0.017641  -0.024440   0.018138
     21      -0.450038   0.000270   0.000069  -0.000024   0.000227  -0.000199
     22      -0.549771   0.000330  -0.000049  -0.000028  -0.000164  -0.000270
     23      -0.029154   0.000018   0.000007  -0.000002   0.000021  -0.000013
     24      -0.009059  -0.514189   0.618294  -0.234253  -0.334197   0.383014
     25       0.004080   0.080131  -0.097790   0.040934   0.050377  -0.060597
     26      -0.000791  -0.044564   0.053598  -0.020340  -0.028948   0.033201
     27       0.004366   0.388820   0.001896  -0.424847  -0.016493   0.236000
     28       0.005400   0.484391   0.007766  -0.529165  -0.025853   0.293773
     29       0.000321   0.029079   0.000094  -0.031773  -0.001187   0.017652
     30       0.004021  -0.175036  -0.305524  -0.433591  -0.604938  -0.535868
     31      -0.011551   0.027518   0.047805   0.067369   0.089817   0.079428
     32       0.000421  -0.015218  -0.026558  -0.037687  -0.052542  -0.046544
     33       0.005980   0.186117   0.228416   0.097968  -0.101472  -0.150076
     34      -0.007988  -0.482760  -0.588705  -0.242158   0.268509   0.387275
     35       0.000602   0.019969   0.024477   0.010414  -0.010932  -0.016087
     36       0.432804  -0.000308   0.000001  -0.000135   0.000055   0.000033
     37       0.526620  -0.000374   0.000008  -0.000161  -0.000033   0.000036
     38       0.027153  -0.000020   0.000000  -0.000009   0.000005   0.000001
     39      -0.090532   0.000093  -0.000006   0.000018  -0.000014  -0.000117
     40      -0.110298   0.000113   0.000000   0.000023   0.000013  -0.000137
     41      -0.005664   0.000006  -0.000000   0.000001  -0.000001  -0.000007
# -----------------------------------------------------------
$ THERMOCHEMISTRY_Energies
   description: The Thermochemistry energies
   geom. index: 1
   prop. index: 1
        Temperature (Kelvin)           :        298.1500000000
        Pressure (atm)                 :          1.0000000000
        Total Mass (AMU)               :        119.1230000000
        Spin Degeneracy                :          1.0000000000
        Electronic Energy (Hartree)    :       -399.5647668392
        Translational Energy (Hartree) :          0.0014162714
        Rotational Energy (Hartree)    :          0.0014162714
        Vibrational Energy (Hartree)   :          0.0045295512
        Number of frequencies          :     42      
        Scaling Factor for frequencies :          1.0000000000
        Vibrational frequencies        :     
                  0    
      0       0.000000
      1       0.000000
      2       0.000000
      3       0.000000
      4       0.000000
      5       0.000000
      6      51.821846
      7      80.264090
      8     263.330621
      9     405.309014
     10     410.989113
     11     413.472169
     12     450.375358
     13     485.030859
     14     490.839850
     15     637.502167
     16     693.822340
     17     735.836807
     18     754.244298
     19     849.001706
     20     926.320312
     21     981.212838
     22     999.524144
     23     1018.439978
     24     1046.557378
     25     1102.361364
     26     1119.540910
     27     1183.361866
     28     1200.731470
     29     1320.317675
     30     1356.087740
     31     1426.771401
     32     1469.519522
     33     1522.354342
     34     1600.766416
     35     1628.696660
     36     2426.539435
     37     3173.601581
     38     3180.543122
     39     3189.528369
     40     3196.339061
     41     3199.806766
        Zero Point Energy (Hartree)    :          0.1024964990
        Inner Energy (Hartree)         :       -399.4549082462
        Enthalpy (Hartree)             :       -399.4539640372
        Electronic entropy             :          0.0000000000
        Rotational entropy             :          0.0137156510
        Vibrational entropy            :          0.0074555595
        Translational entropy          :          0.0137156510
        Entropy                        :          0.0402902808
        Gibbs Energy (Hartree)         :       -399.4942543180
        Is Linear                      :                 false
# -----------------------------------------------------------
$ PAL_Flags
   description: The PAL Flags
   geom. index: 2
   prop. index: 1
        Diskflag:     2
# -----------------------------------------------------------
$ SCF_Energy
   description: The SCF energy
   geom. index: 2
   prop. index: 1
        SCF Energy:     -399.5647810205
# -----------------------------------------------------------
$ DFT_Energy
   description: The DFT energy
   geom. index: 2
   prop. index: 1
   Number of Alpha Electrons                 31.0000015753 
   Number of Beta  Electrons                 31.0000015753 
   Total number of  Electrons                62.0000031507 
   Exchange energy                          -53.0890980294 
   Correlation energy                        -2.0282753781 
   Correlation energy NL                      0.0000000000 
   Exchange-Correlation energy              -55.1173734074 
   Embedding correction                       0.0000000000 
   Total DFT Energy (No VdW correction)    -399.5647810205 
# -----------------------------------------------------------
$ Solvation_Details
   description: Details concerning solvation
   geom. index: 2
   prop. index: 1
     Epsilon:                2.2800000000
     Refrac:                 1.5010000000
     RSolv:                  1.3000000000
     Surface Type:                      2
     Number of Points:                842
     Surface Area:         579.1011778859
     Dielectric Energy:     -0.0049646491
# -----------------------------------------------------------
$ VdW_Correction
   description: The Van der Waals Correction
   geom. index: 2
   prop. index: 1
        Van der Waals Correction:       -0.0045609816
# -----------------------------------------------------------
$ PAL_Flags
   description: The PAL Flags
   geom. index: 3
   prop. index: 1
        Diskflag:     2
# -----------------------------------------------------------
$ SCF_Energy
   description: The SCF energy
   geom. index: 3
   prop. index: 1
        SCF Energy:     -399.5647819580
# -----------------------------------------------------------
$ DFT_Energy
   description: The DFT energy
   geom. index: 3
   prop. index: 1
   Number of Alpha Electrons                 31.0000015625 
   Number of Beta  Electrons                 31.0000015625 
   Total number of  Electrons                62.0000031251 
   Exchange energy                          -53.0890428527 
   Correlation energy                        -2.0282730635 
   Correlation energy NL                      0.0000000000 
   Exchange-Correlation energy              -55.1173159162 
   Embedding correction                       0.0000000000 
   Total DFT Energy (No VdW correction)    -399.5647819580 
# -----------------------------------------------------------
$ Solvation_Details
   description: Details concerning solvation
   geom. index: 3
   prop. index: 1
     Epsilon:                2.2800000000
     Refrac:                 1.5010000000
     RSolv:                  1.3000000000
     Surface Type:                      2
     Number of Points:                843
     Surface Area:         579.1058868735
     Dielectric Energy:     -0.0049645260
# -----------------------------------------------------------
$ VdW_Correction
   description: The Van der Waals Correction
   geom. index: 3
   prop. index: 1
        Van der Waals Correction:       -0.0045609471
# -----------------------------------------------------------
$ PAL_Flags
   description: The PAL Flags
   geom. index: 4
   prop. index: 1
        Diskflag:     2
# -----------------------------------------------------------
$ SCF_Energy
   description: The SCF energy
   geom. index: 4
   prop. index: 1
        SCF Energy:     -399.5647819929
# -----------------------------------------------------------
$ DFT_Energy
   description: The DFT energy
   geom. index: 4
   prop. index: 1
   Number of Alpha Electrons                 31.0000015581 
   Number of Beta  Electrons                 31.0000015581 
   Total number of  Electrons                62.0000031163 
   Exchange energy                          -53.0890860524 
   Correlation energy                        -2.0282750238 
   Correlation energy NL                      0.0000000000 
   Exchange-Correlation energy              -55.1173610762 
   Embedding correction                       0.0000000000 
   Total DFT Energy (No VdW correction)    -399.5647819929 
# -----------------------------------------------------------
$ Solvation_Details
   description: Details concerning solvation
   geom. index: 4
   prop. index: 1
     Epsilon:                2.2800000000
     Refrac:                 1.5010000000
     RSolv:                  1.3000000000
     Surface Type:                      2
     Number of Points:                843
     Surface Area:         579.0983261863
     Dielectric Energy:     -0.0049646269
# -----------------------------------------------------------
$ VdW_Correction
   description: The Van der Waals Correction
   geom. index: 4
   prop. index: 1
        Van der Waals Correction:       -0.0045609690
# -----------------------------------------------------------
$ PAL_Flags
   description: The PAL Flags
   geom. index: 5
   prop. index: 1
        Diskflag:     2
# -----------------------------------------------------------
$ SCF_Energy
   description: The SCF energy
   geom. index: 5
   prop. index: 1
        SCF Energy:     -399.5647820176
# -----------------------------------------------------------
$ DFT_Energy
   description: The DFT energy
   geom. index: 5
   prop. index: 1
   Number of Alpha Electrons                 31.0000015613 
   Number of Beta  Electrons                 31.0000015613 
   Total number of  Electrons                62.0000031227 
   Exchange energy                          -53.0890968716 
   Correlation energy                        -2.0282756766 
   Correlation energy NL                      0.0000000000 
   Exchange-Correlation energy              -55.1173725482 
   Embedding correction                       0.0000000000 
   Total DFT Energy (No VdW correction)    -399.5647820176 
# -----------------------------------------------------------
$ Solvation_Details
   description: Details concerning solvation
   geom. index: 5
   prop. index: 1
     Epsilon:                2.2800000000
     Refrac:                 1.5010000000
     RSolv:                  1.3000000000
     Surface Type:                      2
     Number of Points:                843
     Surface Area:         579.1005067033
     Dielectric Energy:     -0.0049645162
# -----------------------------------------------------------
$ Mayer_Pop
   description: The Mayer population analysis
   geom. index: 5
   prop. index: 1
     Number of atoms                     : 14
     Threshold for printing              : 0.1000000
     Number of bond orders printed       : 15
  NA   - Mulliken gross atomic population
  ZA   - Total nuclear charge
  QA   - Mulliken gross atomic charge
  VA   - Mayer's total valence
  BVA  - Mayer's bonded valence
  FA   - Mayer's free valence
  ATOM       NA         ZA         QA         VA         BVA        FA
  0   0     6.1820     6.0000    -0.1820     3.8148     3.8148    -0.0000
  1   0     6.1845     6.0000    -0.1845     3.8058     3.8058    -0.0000
  2   0     6.1291     6.0000    -0.1291     3.7774     3.7774     0.0000
  3   0     6.0445     6.0000    -0.0445     3.8776     3.8776    -0.0000
  4   0     6.1848     6.0000    -0.1848     3.8061     3.8061    -0.0000
  5   0     6.1815     6.0000    -0.1815     3.8139     3.8139    -0.0000
  6   0     0.8276     1.0000     0.1724     0.9619     0.9619    -0.0000
  7   0     5.8304     6.0000     0.1696     3.8371     3.8371    -0.0000
  8   0     0.8336     1.0000     0.1664     0.9636     0.9636    -0.0000
  9   0     0.8320     1.0000     0.1680     0.9622     0.9622    -0.0000
 10   0     0.8275     1.0000     0.1725     0.9619     0.9619    -0.0000
 11   0     0.8336     1.0000     0.1664     0.9636     0.9636    -0.0000
 12   0     6.6846     7.0000     0.3154     3.9720     3.9720     0.0000
 13   0     8.4244     8.0000    -0.4244     2.1045     2.1045    -0.0000
      Bond orders larger than 0.1000000
           Atom A     A.N. of A          Atom B    A.N. of B              Bond order
                0             6               1            6                1.422261
                0             6               2            6                1.393428
                0             6               8            1                0.953130
                1             6               3            6                1.363942
                1             6               6            1                0.954220
                2             6               5            6                1.393179
                2             6               9            1                0.945737
                3             6               4            6                1.364621
                3             6               7            6                1.193140
                4             6               5            6                1.422060
                4             6              10            1                0.954243
                5             6              11            1                0.953117
                7             6              12            7                2.351616
                7             6              13            8                0.381485
               12             7              13            8                1.588205
# -----------------------------------------------------------
$ VdW_Correction
   description: The Van der Waals Correction
   geom. index: 5
   prop. index: 1
        Van der Waals Correction:       -0.0045609765
# -----------------------------------------------------------
$ SCF_Electric_Properties
   description: The SCF Calculated Electric Properties
   geom. index: 5
   prop. index: 1
       Filename                          : opt.scfp 
       Do Dipole Moment Calculation      : true 
       Do Quadrupole Moment Calculation  : false 
       Do Polarizability Calculation     : false 
** Dipole moment part of electric properties **
        Magnitude of dipole moment (Debye) :        4.9044693984
        Electronic Contribution:
                  0    
      0       4.398012
      1       5.452969
      2       0.313913
        Nuclear Contribution:
                  0    
      0      -5.607997
      1      -6.953518
      2      -0.399747
        Total Dipole moment:
                  0    
      0      -1.209985
      1      -1.500549
      2      -0.085834
# -----------------------------------------------------------
$ Hessian
   description: Details about the Hessian
   geom. index: 5
   prop. index: 1
Normal modes:
Number of Rows: 42 Number of Columns: 42
                  0          1          2          3          4          5    
      0       0.000000   0.000000   0.000000   0.000000   0.000000   0.000000
      1       0.000000   0.000000   0.000000   0.000000   0.000000   0.000000
      2       0.000000   0.000000   0.000000   0.000000   0.000000   0.000000
      3       0.000000   0.000000   0.000000   0.000000   0.000000   0.000000
      4       0.000000   0.000000   0.000000   0.000000   0.000000   0.000000
      5       0.000000   0.000000   0.000000   0.000000   0.000000   0.000000
      6       0.000000   0.000000   0.000000   0.000000   0.000000   0.000000
      7       0.000000   0.000000   0.000000   0.000000   0.000000   0.000000
      8       0.000000   0.000000   0.000000   0.000000   0.000000   0.000000
      9       0.000000   0.000000   0.000000   0.000000   0.000000   0.000000
     10       0.000000   0.000000   0.000000   0.000000   0.000000   0.000000
     11       0.000000   0.000000   0.000000   0.000000   0.000000   0.000000
     12       0.000000   0.000000   0.000000   0.000000   0.000000   0.000000
     13       0.000000   0.000000   0.000000   0.000000   0.000000   0.000000
     14       0.000000   0.000000   0.000000   0.000000   0.000000   0.000000
     15       0.000000   0.000000   0.000000   0.000000   0.000000   0.000000
     16       0.000000   0.000000   0.000000   0.000000   0.000000   0.000000
     17       0.000000   0.000000   0.000000   0.000000   0.000000   0.000000
     18       0.000000   0.000000   0.000000   0.000000   0.000000   0.000000
     19       0.000000   0.000000   0.000000   0.000000   0.000000   0.000000
     20       0.000000   0.000000   0.000000   0.000000   0.000000   0.000000
     21       0.000000   0.000000   0.000000   0.000000   0.000000   0.000000
     22       0.000000   0.000000   0.000000   0.000000   0.000000   0.000000
     23       0.000000   0.000000   0.000000   0.000000   0.000000   0.000000
     24       0.000000   0.000000   0.000000   0.000000   0.000000   0.000000
     25       0.000000   0.000000   0.000000   0.000000   0.000000   0.000000
     26       0.000000   0.000000   0.000000   0.000000   0.000000   0.000000
     27       0.000000   0.000000   0.000000   0.000000   0.000000   0.000000
     28       0.000000   0.000000   0.000000   0.000000   0.000000   0.000000
     29       0.000000   0.000000   0.000000   0.000000   0.000000   0.000000
     30       0.000000   0.000000   0.000000   0.000000   0.000000   0.000000
     31       0.000000   0.000000   0.000000   0.000000   0.000000   0.000000
     32       0.000000   0.000000   0.000000   0.000000   0.000000   0.000000
     33       0.000000   0.000000   0.000000   0.000000   0.000000   0.000000
     34       0.000000   0.000000   0.000000   0.000000   0.000000   0.000000
     35       0.000000   0.000000   0.000000   0.000000   0.000000   0.000000
     36       0.000000   0.000000   0.000000   0.000000   0.000000   0.000000
     37       0.000000   0.000000   0.000000   0.000000   0.000000   0.000000
     38       0.000000   0.000000   0.000000   0.000000   0.000000   0.000000
     39       0.000000   0.000000   0.000000   0.000000   0.000000   0.000000
     40       0.000000   0.000000   0.000000   0.000000   0.000000   0.000000
     41       0.000000   0.000000   0.000000   0.000000   0.000000   0.000000
                  6          7          8          9         10         11    
      0      -0.056271   0.009123  -0.003178   0.017535   0.070709  -0.062199
      1      -0.157324  -0.001507   0.000290  -0.002607   0.222992  -0.098257
      2      -0.002595  -0.110321   0.036866  -0.210060   0.001835  -0.004878
      3      -0.196870  -0.015147  -0.020359  -0.017080   0.024888  -0.224423
      4      -0.042713   0.001699   0.002222   0.001351   0.193021   0.075715
      5      -0.016512   0.172760   0.243739   0.207149   0.002136  -0.018710
      6       0.112660   0.023220   0.020931  -0.000793   0.222770   0.068298
      7      -0.091479  -0.002857  -0.002650  -0.000738   0.273434  -0.062087
      8       0.011273  -0.269778  -0.251580  -0.000168   0.016031   0.006055
      9      -0.170744  -0.023759  -0.009372   0.000504  -0.057708  -0.178473
     10       0.138802   0.003286   0.001095  -0.000040  -0.064762   0.146288
     11      -0.016731   0.275847   0.113758  -0.000226  -0.004399  -0.016584
     12       0.000494  -0.014377  -0.020516   0.017050   0.178249  -0.125994
     13       0.202214   0.002529   0.002270  -0.002638   0.072350   0.202126
     14      -0.002768   0.173034   0.243554  -0.207293   0.012426  -0.013313
     15       0.141549   0.009874  -0.003332  -0.018432   0.205525   0.076694
     16       0.088155  -0.000652   0.000288   0.001594   0.118588   0.078015
     17       0.011347  -0.109920   0.036975   0.210203   0.018083   0.006584
     18      -0.330434  -0.024110  -0.026982  -0.038433   0.198204  -0.384670
     19      -0.093615   0.002576   0.002968   0.003744   0.256319   0.015604
     20      -0.027319   0.274797   0.321021   0.456978   0.018651  -0.030425
     21      -0.283537  -0.032146   0.036556  -0.000060  -0.165409   0.344269
     22       0.230525   0.004508  -0.004241   0.001116  -0.218133  -0.274408
     23      -0.027678   0.369754  -0.436042   0.000111  -0.009881   0.031883
     24      -0.078832   0.018217  -0.000384   0.037667   0.051625  -0.089496
     25      -0.298979  -0.003098   0.000210  -0.004225   0.091284  -0.260583
     26      -0.002566  -0.219246   0.004195  -0.447732  -0.000557  -0.006247
     27       0.223130   0.044016   0.050496  -0.000955   0.224266   0.144472
     28      -0.181174  -0.005629  -0.006173  -0.000621   0.272657  -0.123893
     29       0.022247  -0.511940  -0.603173   0.000024   0.016195   0.012770
     30       0.022034  -0.022896  -0.027041   0.037907   0.204539  -0.101443
     31       0.343417   0.004077   0.002716  -0.005885   0.261982   0.367622
     32      -0.002926   0.275110   0.320525  -0.456254   0.010655  -0.013793
     33       0.274934   0.019451  -0.000610  -0.038374   0.086836   0.232533
     34       0.139912  -0.001581  -0.000054   0.004025   0.074465   0.140115
     35       0.022366  -0.218580   0.004407   0.448559   0.010852   0.020050
     36       0.045838   0.001330   0.011748   0.000267  -0.199517   0.242852
     37      -0.037273  -0.000446  -0.001240   0.001054  -0.256885  -0.190939
     38       0.004350  -0.016381  -0.138368   0.000089  -0.019286   0.021825
     39       0.292758   0.029092  -0.010550   0.000862  -0.233172  -0.123657
     40      -0.238076  -0.004639   0.001653   0.000738  -0.283933   0.107823
     41       0.028228  -0.336867   0.127736   0.000036  -0.013830  -0.011269
                 12         13         14         15         16         17    
      0      -0.000107  -0.011397  -0.027167   0.356179   0.014345  -0.270803
      1       0.002168   0.001377   0.034212   0.054348  -0.001671   0.084047
      2       0.007706   0.136599  -0.001949   0.029536  -0.169048  -0.023561
      3       0.000309  -0.001262   0.075125   0.005791  -0.008992  -0.251896
      4       0.001917   0.000278  -0.071773   0.305422   0.001207   0.080410
      5      -0.004408   0.014801   0.006958  -0.002742   0.106429  -0.021615
      6       0.003848   0.016870  -0.049110   0.107083  -0.009066   0.169946
      7       0.002460  -0.002007   0.039926  -0.087101   0.001086   0.210774
      8      -0.018779  -0.199663  -0.005423   0.009684   0.108781   0.012538
      9      -0.002593   0.029004   0.070208  -0.103917   0.010495  -0.138683
     10      -0.000290  -0.003534  -0.056630   0.084465  -0.001262  -0.172039
     11       0.021914  -0.346065   0.004676  -0.009293  -0.126054  -0.010383
     12       0.001968  -0.001381   0.085713  -0.296658  -0.009055   0.130933
     13       0.000772   0.000158  -0.058484  -0.069423   0.001069  -0.230354
     14      -0.004303   0.015265   0.007909  -0.024304   0.106664   0.013595
     15       0.001432  -0.011398  -0.039068   0.021322   0.014259   0.138522
     16       0.001223   0.001315   0.019716  -0.360778  -0.001799  -0.248291
     17       0.007822   0.136212  -0.002934   0.005600  -0.169102   0.014171
     18       0.008286  -0.029433   0.156277  -0.139276  -0.043070  -0.044953
     19       0.001712   0.003606  -0.041264   0.249444   0.005191   0.165935
     20      -0.081011   0.349141   0.015147  -0.014306   0.509597  -0.006325
     21       0.035147  -0.009268  -0.410079  -0.089424   0.001388   0.017530
     22      -0.006925   0.000827   0.333036   0.072708  -0.000192   0.022404
     23      -0.431128   0.115958  -0.037115  -0.008304  -0.016409   0.001452
     24       0.001812  -0.039684  -0.012977   0.332182  -0.007630  -0.333941
     25       0.000380   0.004605   0.117450  -0.099679   0.000786  -0.295636
     26      -0.017828   0.472311   0.000198   0.029196   0.091636  -0.027247
     27       0.008763   0.025238  -0.041578  -0.238351  -0.049817   0.167766
     28       0.001822  -0.002958   0.033834   0.193236   0.006057   0.208088
     29      -0.076182  -0.299947  -0.005017  -0.022484   0.591536   0.010172
     30       0.008707  -0.029501   0.072605  -0.272476  -0.042875   0.170885
     31       0.002065   0.003566  -0.145976   0.084441   0.005087  -0.009996
     32      -0.080900   0.349330   0.009623  -0.024314   0.508369   0.013962
     33       0.002488  -0.039579  -0.117164   0.166781  -0.007647  -0.218275
     34       0.000560   0.004692  -0.011690  -0.304914   0.000822  -0.389975
     35      -0.017826   0.471558  -0.007457   0.016744   0.091606  -0.016319
     36      -0.069085  -0.004559   0.540916   0.019744  -0.000936   0.061464
     37       0.005987   0.001115  -0.439867  -0.015994   0.000109   0.076083
     38       0.805194   0.044656   0.050331   0.001794   0.011192   0.004325
     39       0.028558   0.002726  -0.256170  -0.008045   0.000295   0.115965
     40      -0.006649  -0.000637   0.207923   0.006553  -0.000053   0.143624
     41      -0.371504  -0.028409  -0.023922  -0.000748  -0.003578   0.008199
                 18         19         20         21         22         23    
      0      -0.000073  -0.005346   0.000953  -0.008054  -0.006626  -0.010147
      1      -0.000017   0.000631  -0.000100   0.000971   0.000831   0.012566
      2       0.003970   0.064039  -0.011705   0.095986   0.077732  -0.001026
      3      -0.007357  -0.006922  -0.007986   0.006809   0.002190  -0.132356
      4       0.000840   0.000861   0.000936  -0.000846  -0.000255   0.360577
      5       0.090330   0.082359   0.095367  -0.080989  -0.025875  -0.014688
      6      -0.009512   0.000040   0.008286   0.000017   0.007987  -0.258950
      7       0.000928  -0.000040  -0.001022   0.000020  -0.001027  -0.321340
      8       0.111587  -0.000248  -0.098712  -0.000248  -0.095646  -0.018488
      9       0.013772  -0.000008   0.004333   0.000011   0.000645   0.031150
     10      -0.001526   0.000044  -0.000561   0.000009  -0.000047   0.038651
     11      -0.162795  -0.000156  -0.051640  -0.000157  -0.007420   0.002163
     12      -0.007756   0.006830  -0.008057  -0.006848   0.002226   0.378919
     13       0.001129  -0.000812   0.001001   0.000827  -0.000236  -0.054528
     14       0.090020  -0.081719   0.095378   0.081593  -0.025994   0.032452
     15      -0.000457   0.005422   0.000925   0.008063  -0.006447   0.014414
     16       0.000211  -0.000656  -0.000154  -0.001005   0.000725  -0.007167
     17       0.004028  -0.064366  -0.010663  -0.095977   0.077571   0.001251
     18       0.016082   0.045024   0.047931  -0.037124  -0.019264  -0.148881
     19      -0.002020  -0.005282  -0.005584   0.004258   0.002292   0.375633
     20      -0.189886  -0.534164  -0.566114   0.438305   0.228928  -0.016417
     21      -0.002169  -0.000005  -0.001157   0.000001   0.000348   0.004663
     22       0.000259   0.000009   0.000153  -0.000002  -0.000041   0.005741
     23       0.025568   0.000041   0.013681   0.000048  -0.004038   0.000315
     24       0.046384   0.037801  -0.008662   0.045137   0.042718  -0.017871
     25      -0.005097  -0.004408   0.001086  -0.005171  -0.004746   0.088347
     26      -0.546917  -0.448208   0.102575  -0.535368  -0.507815  -0.002256
     27       0.043374  -0.000120  -0.046241  -0.000101  -0.050039  -0.270474
     28      -0.005422  -0.000011   0.005600   0.000034   0.006037  -0.336214
     29      -0.516662   0.001527   0.547715   0.001157   0.591780  -0.019836
     30       0.015706  -0.044790   0.047768   0.037332  -0.019324   0.396782
     31      -0.001711   0.005115  -0.005282  -0.004139   0.002301  -0.069097
     32      -0.188782   0.530945  -0.567006  -0.442552   0.229948   0.033696
     33       0.046302  -0.037874  -0.008018  -0.045265   0.043030   0.090706
     34      -0.005153   0.004518   0.000941   0.005241  -0.005021   0.001488
     35      -0.546882   0.450580   0.096374   0.535351  -0.506784   0.007910
     36      -0.000747   0.000002  -0.000150  -0.000002  -0.000054  -0.004799
     37       0.000024  -0.000003   0.000025   0.000000   0.000003  -0.005952
     38       0.008373   0.000003   0.001853   0.000006   0.000599  -0.000339
     39       0.000253  -0.000013   0.000096   0.000003  -0.000014  -0.019755
     40      -0.000168  -0.000021  -0.000008   0.000005  -0.000019  -0.024480
     41      -0.004158  -0.000008  -0.001077  -0.000002  -0.000041  -0.001384
                 24         25         26         27         28         29    
      0       0.187563   0.081061   0.131967   0.004985   0.009690  -0.000154
      1      -0.101575   0.005332   0.031598   0.041189   0.053304   0.130068
      2       0.016841   0.006733   0.010795  -0.000002   0.000261  -0.001307
      3      -0.099353  -0.022633   0.026161  -0.003515  -0.049823  -0.094228
      4       0.042038  -0.111174  -0.006343   0.003421  -0.024187   0.011134
      5      -0.008716  -0.000748   0.002215  -0.000318  -0.003934  -0.008023
      6       0.062005  -0.073336  -0.057436   0.048410   0.005289   0.058060
      7       0.076842   0.059407  -0.070970  -0.039540   0.005724  -0.047038
      8       0.004326  -0.006747  -0.004117   0.004433   0.000395   0.005358
      9      -0.028713  -0.051092  -0.248553  -0.006081  -0.002819   0.225768
     10      -0.035484   0.041675  -0.308421   0.004812  -0.003431  -0.183192
     11      -0.002093  -0.004720  -0.017663  -0.000561  -0.000214   0.020843
     12       0.061684   0.103902  -0.011312  -0.003869  -0.013300  -0.030338
     13      -0.088681   0.045421   0.024527   0.003733  -0.053977   0.090142
     14       0.006100   0.008232  -0.001254  -0.000379  -0.000545  -0.003505
     15      -0.138236   0.011847   0.003203  -0.039666   0.049144  -0.127035
     16       0.162764  -0.080776   0.135838  -0.013829   0.020430  -0.027148
     17      -0.013161   0.001830  -0.001097  -0.003167   0.003908  -0.010422
     18      -0.421920  -0.404339   0.452012  -0.157966  -0.457450  -0.517284
     19      -0.082877  -0.265474   0.140674  -0.055445  -0.180582  -0.144194
     20      -0.034864  -0.031618   0.036833  -0.012818  -0.036846  -0.042176
     21      -0.009216   0.013507  -0.081018  -0.000826  -0.007169  -0.012933
     22      -0.011516  -0.010897  -0.100029   0.000703  -0.008962   0.010678
     23      -0.000641   0.001254  -0.005783  -0.000075  -0.000495  -0.001190
     24       0.138702   0.128993   0.184652   0.074244   0.081516  -0.082850
     25      -0.473029   0.260030   0.320876   0.478401   0.499327  -0.362555
     26       0.015859   0.008480   0.012237   0.001573   0.002054  -0.003374
     27       0.071673  -0.430724  -0.057199   0.523424   0.009613   0.010345
     28       0.088069   0.349431  -0.068470  -0.425040   0.002515  -0.008324
     29       0.005762  -0.039906  -0.004171   0.048495   0.000726   0.000936
     30       0.007681   0.174020   0.042656   0.022146  -0.079577   0.032297
     31      -0.431159   0.451452   0.473806   0.174577  -0.482984   0.538245
     32       0.004672   0.010440  -0.000872   0.000237  -0.002138  -0.002418
     33      -0.490750  -0.226668   0.274991  -0.457863   0.462838   0.335202
     34       0.036745  -0.181290   0.248388  -0.175885   0.181969   0.156882
     35      -0.042085  -0.017350   0.020726  -0.036925   0.037256   0.026703
     36      -0.000170   0.001563  -0.012239   0.000220  -0.002962  -0.002516
     37      -0.000186  -0.001278  -0.015148  -0.000168  -0.003654   0.002142
     38      -0.000005   0.000143  -0.000792   0.000021  -0.000205  -0.000235
     39       0.017085  -0.001055   0.132108  -0.000022   0.008273   0.001839
     40       0.021166   0.000722   0.163562  -0.000006   0.010256  -0.001691
     41       0.001202  -0.000098   0.009303  -0.000001   0.000582   0.000170
                 30         31         32         33         34         35    
      0      -0.023668  -0.070327   0.089099   0.008871  -0.128143  -0.118369
      1      -0.069825   0.047573   0.140485  -0.150577   0.170634  -0.269940
      2      -0.001279  -0.006378   0.006094   0.002249  -0.012481  -0.007253
      3       0.150972   0.127519  -0.013949  -0.116933   0.198607   0.228300
      4       0.073542   0.030696  -0.113542   0.004474  -0.024832   0.177859
      5       0.011973   0.010436  -0.000026  -0.009870   0.016942   0.017400
      6      -0.125404  -0.026103  -0.069752   0.063941   0.291107   0.091690
      7       0.101683  -0.033098   0.056825   0.079001  -0.235916   0.114967
      8      -0.011578  -0.001869  -0.006465   0.004585   0.026870   0.006554
      9      -0.024437   0.105059  -0.110365   0.119410  -0.187076  -0.117950
     10       0.019813   0.129734   0.090024   0.147889   0.151099  -0.147036
     11      -0.002253   0.007448  -0.010199   0.008501  -0.017260  -0.008397
     12      -0.039995   0.003054   0.107830   0.028567   0.066282   0.125240
     13      -0.163130   0.132017   0.037336  -0.114192  -0.188412   0.262061
     14      -0.001736  -0.001062   0.008701   0.003548   0.007465   0.007891
     15       0.063208   0.061017  -0.118741  -0.148309  -0.194002  -0.237380
     16       0.037660  -0.058843  -0.117000  -0.022362   0.089349  -0.172930
     17       0.004932   0.005727  -0.008804  -0.012248  -0.017222  -0.018225
     18      -0.509903  -0.386224   0.204285   0.400653  -0.241387  -0.377668
     19      -0.176654  -0.162327  -0.050364   0.216938  -0.200643  -0.043332
     20      -0.041282  -0.031018   0.017705   0.031608  -0.018361  -0.031410
     21      -0.005686  -0.196942   0.012065  -0.056785   0.007145   0.020463
     22       0.004396  -0.244068  -0.010161  -0.070268  -0.005576   0.025321
     23      -0.000521  -0.014019   0.001119  -0.004050   0.000661   0.001452
     24      -0.056738  -0.147703   0.008459   0.112684  -0.196245  -0.023900
     25      -0.268200  -0.372876  -0.459974   0.448468  -0.128417   0.373649
     26      -0.002133  -0.008715   0.005247   0.005034  -0.015157  -0.005684
     27       0.319436  -0.036068   0.475519   0.076032  -0.438860   0.103652
     28      -0.259344  -0.041812  -0.385656   0.095540   0.356473   0.126691
     29       0.029575  -0.002578   0.043984   0.005455  -0.040622   0.007460
     30       0.065028  -0.077597   0.092296   0.127154   0.144823   0.036474
     31       0.537177  -0.413942  -0.188740   0.440302   0.277468  -0.381406
     32       0.000222  -0.002420   0.009584   0.006403   0.009391   0.006802
     33       0.248138  -0.333224   0.450582   0.411538   0.084673   0.367966
     34       0.111037  -0.222999   0.088222   0.204089   0.219306   0.053571
     35       0.019729  -0.025812   0.037061   0.032617   0.004956   0.030463
     36      -0.000678  -0.146156   0.001694  -0.050669   0.001915   0.015029
     37       0.000405  -0.180971  -0.001699  -0.062756  -0.001388   0.018627
     38      -0.000061  -0.010217   0.000161  -0.003553   0.000177   0.001059
     39       0.000199   0.187294  -0.001114   0.049291  -0.001393  -0.013859
     40       0.000065   0.231911   0.001234   0.061019   0.000962  -0.017166
     41       0.000016   0.013179  -0.000105   0.003470  -0.000123  -0.000974
                 36         37         38         39         40         41    
      0      -0.003336   0.043740  -0.053238   0.019621   0.030949  -0.035227
      1      -0.006937  -0.006230   0.008956  -0.006459  -0.002932   0.005509
      2      -0.000203   0.003745  -0.004573   0.001716   0.002635  -0.003022
      3       0.014315  -0.006359   0.010773  -0.015415   0.018824  -0.014046
      4       0.008957   0.014039  -0.024690   0.037125  -0.053841   0.039990
      5       0.001114  -0.000675   0.001151  -0.001667   0.002121  -0.001582
      6       0.002519  -0.032518   0.001769   0.037800  -0.000068  -0.022210
      7       0.003134  -0.040326  -0.002274   0.046754   0.004012  -0.027355
      8       0.000191  -0.002329   0.000172   0.002709  -0.000046  -0.001593
      9       0.053717   0.000256  -0.000551   0.001200  -0.002867   0.001483
     10       0.066674   0.000298   0.000410   0.001369   0.002197   0.002148
     11       0.003835   0.000018  -0.000050   0.000086  -0.000263   0.000102
     12       0.005770   0.014457   0.025375   0.037393   0.053516   0.047930
     13       0.015952  -0.003202  -0.005234  -0.007106  -0.006898  -0.006169
     14       0.000332   0.001249   0.002189   0.003220   0.004576   0.004099
     15      -0.006103  -0.015087  -0.019934  -0.011142   0.007389   0.013463
     16      -0.004728   0.041277   0.050699   0.020069  -0.025013  -0.035869
     17      -0.000460  -0.001683  -0.002184  -0.001138   0.000873   0.001492
     18      -0.011999   0.066974  -0.115244   0.166022  -0.226533   0.166168
     19       0.001145  -0.173856   0.299784  -0.433652   0.603355  -0.442750
     20      -0.000990   0.007376  -0.012699   0.018310  -0.025100   0.018415
     21      -0.446149   0.000268   0.000069  -0.000029   0.000227  -0.000196
     22      -0.552679   0.000332  -0.000051  -0.000031  -0.000163  -0.000271
     23      -0.031633   0.000019   0.000007  -0.000003   0.000022  -0.000014
     24      -0.009056  -0.516396   0.617491  -0.225341  -0.337190   0.383388
     25       0.004149   0.081660  -0.099049   0.040047   0.051616  -0.061557
     26      -0.000802  -0.044300   0.052984  -0.019376  -0.028908   0.032896
     27       0.004379   0.386366   0.002138  -0.426684  -0.018683   0.241059
     28       0.005402   0.479235   0.008037  -0.529113  -0.028474   0.298752
     29       0.000318   0.027680   0.000098  -0.030569  -0.001284   0.017272
     30       0.003915  -0.176999  -0.305633  -0.435066  -0.604214  -0.534364
     31      -0.011512   0.028218   0.048485   0.068527   0.091031   0.080348
     32       0.000441  -0.015187  -0.026219  -0.037319  -0.051785  -0.045798
     33       0.005921   0.186138   0.227143   0.095378  -0.100447  -0.149981
     34      -0.008008  -0.485546  -0.588826  -0.236852   0.267446   0.389211
     35       0.000585   0.020528   0.025016   0.010402  -0.011132  -0.016522
     36       0.428197  -0.000306   0.000001  -0.000132   0.000053   0.000032
     37       0.530275  -0.000378   0.000008  -0.000159  -0.000037   0.000038
     38       0.030226  -0.000022   0.000000  -0.000009   0.000005   0.000003
     39      -0.089724   0.000093  -0.000006   0.000016  -0.000012  -0.000115
     40      -0.111130   0.000115   0.000001   0.000021   0.000015  -0.000138
     41      -0.006296   0.000007  -0.000000   0.000001  -0.000001  -0.000008
# -----------------------------------------------------------
$ THERMOCHEMISTRY_Energies
   description: The Thermochemistry energies
   geom. index: 5
   prop. index: 1
        Temperature (Kelvin)           :        298.1500000000
        Pressure (atm)                 :          1.0000000000
        Total Mass (AMU)               :        119.1230000000
        Spin Degeneracy                :          1.0000000000
        Electronic Energy (Hartree)    :       -399.5647689896
        Translational Energy (Hartree) :          0.0014162714
        Rotational Energy (Hartree)    :          0.0014162714
        Vibrational Energy (Hartree)   :          0.0045245103
        Number of frequencies          :     42      
        Scaling Factor for frequencies :          1.0000000000
        Vibrational frequencies        :     
                  0    
      0       0.000000
      1       0.000000
      2       0.000000
      3       0.000000
      4       0.000000
      5       0.000000
      6      53.017349
      7      81.149695
      8     263.518108
      9     405.465672
     10     411.261005
     11     413.143599
     12     450.648055
     13     485.143074
     14     490.966441
     15     637.485504
     16     693.921325
     17     735.766202
     18     754.344959
     19     849.121753
     20     926.403258
     21     981.313377
     22     999.574966
     23     1018.301549
     24     1046.467032
     25     1102.244782
     26     1119.432491
     27     1183.298393
     28     1200.724344
     29     1320.037084
     30     1355.902549
     31     1426.787359
     32     1469.359825
     33     1522.254049
     34     1600.447689
     35     1628.439305
     36     2425.777324
     37     3173.359417
     38     3180.196177
     39     3189.280215
     40     3195.954857
     41     3199.474522
        Zero Point Energy (Hartree)    :          0.1024947236
        Inner Energy (Hartree)         :       -399.4549172128
        Enthalpy (Hartree)             :       -399.4539730038
        Electronic entropy             :          0.0000000000
        Rotational entropy             :          0.0137158096
        Vibrational entropy            :          0.0074428479
        Translational entropy          :          0.0137158096
        Entropy                        :          0.0402777279
        Gibbs Energy (Hartree)         :       -399.4942507317
        Is Linear                      :                 false
# -------------------------------------------------------------
----------------------- !GEOMETRIES! ------------------------
# -------------------------------------------------------------
------------------------ !GEOMETRY! -------------------------
    Number of atoms:    14 
    Geometry Index:     1 
    Coordinates:
               0 C     -0.070011000000   -0.064477000000    0.353451000000
               1 C      0.790463000000    1.022328000000    0.417736000000
               2 C      0.430226000000   -1.364123000000    0.407122000000
               3 C      2.174624000000    0.809409000000    0.537228000000
               4 C      2.677066000000   -0.502349000000    0.591715000000
               5 C      1.802309000000   -1.577563000000    0.526116000000
               6 H      0.406907000000    2.036617000000    0.376609000000
               7 C      3.061424000000    1.912690000000    0.602594000000
               8 H     -1.138734000000    0.104487000000    0.260883000000
               9 H     -0.248747000000   -2.210021000000    0.356343000000
              10 H      3.746414000000   -0.661821000000    0.684516000000
              11 H      2.194673000000   -2.589276000000    0.568175000000
              12 N      3.800741000000    2.809808000000    0.648216000000
              13 O      4.568944000000    3.742590000000    0.695297000000
------------------------ !GEOMETRY! -------------------------
    Number of atoms:    14 
    Geometry Index:     2 
    Coordinates:
               0 C     -0.068651294851   -0.063078851882    0.354611002404
               1 C      0.794150256013    1.022219043462    0.414180384931
               2 C      0.429026835670   -1.363710519084    0.410485093809
               3 C      2.178315555870    0.806934852962    0.531586722943
               4 C      2.678143159756   -0.505764792642    0.587883565452
               5 C      1.801028148378   -1.579449913988    0.526947940955
               6 H      0.412554529202    2.037220880147    0.371025763019
               7 C      3.066800666770    1.909099807828    0.592674982861
               8 H     -1.137227843728    0.108024811740    0.263818860771
               9 H     -0.251750651508   -2.208385193920    0.363381674190
              10 H      3.747397231827   -0.667307444539    0.678592221158
              11 H      2.191602638066   -2.591816059998    0.570812071288
              12 N      3.798267420473    2.812150200247    0.649958810000
              13 O      4.556642348063    3.752162179666    0.710041906219
------------------------ !GEOMETRY! -------------------------
    Number of atoms:    14 
    Geometry Index:     3 
    Coordinates:
               0 C     -0.068404011971   -0.062910504976    0.354180048565
               1 C      0.794478933569    1.022212888642    0.415817952937
               2 C      0.429048236122   -1.363685840745    0.409001907633
               3 C      2.178530143591    0.806616346284    0.534338382407
               4 C      2.678119449602   -0.506210614814    0.589493432346
               5 C      1.800918065251   -1.579722476951    0.526486061101
               6 H      0.413044972591    2.037313749828    0.373486780994
               7 C      3.066978416198    1.908691603880    0.597733157732
               8 H     -1.136870766652    0.108456722732    0.262575313444
               9 H     -0.251792420744   -2.208219701223    0.360274227832
              10 H      3.747272210094   -0.668005965684    0.681015266537
              11 H      2.191341678789   -2.592188093867    0.569540415460
              12 N      3.797167244905    2.813137197767    0.649464249205
              13 O      4.556466848656    3.752813689126    0.702593803807
------------------------ !GEOMETRY! -------------------------
    Number of atoms:    14 
    Geometry Index:     4 
    Coordinates:
               0 C     -0.068348989796   -0.062843284148    0.354132290573
               1 C      0.794571557751    1.022224573267    0.416050800477
               2 C      0.429045904427   -1.363640482486    0.408815843654
               3 C      2.178588602298    0.806532283083    0.534666544291
               4 C      2.678116592899   -0.506313725877    0.589724362299
               5 C      1.800879674131   -1.579771805721    0.526443045390
               6 H      0.413182234246    2.037339534321    0.373854110568
               7 C      3.067110251375    1.908535967177    0.598263107935
               8 H     -1.136796607408    0.108561544845    0.262431773282
               9 H     -0.251827178778   -2.208134829841    0.359867743246
              10 H      3.747252038619   -0.668150287808    0.681367146356
              11 H      2.191240759212   -2.592264093912    0.569379715172
              12 N      3.797425657291    2.812912996316    0.649094766409
              13 O      4.555858503731    3.753310610785    0.701909750349
------------------------ !GEOMETRY! -------------------------
    Number of atoms:    14 
    Geometry Index:     5 
    Coordinates:
               0 C     -0.068393608799   -0.062884915609    0.354178782328
               1 C      0.794489374671    1.022222801032    0.415874495799
               2 C      0.429061025183   -1.363651485835    0.408976045237
               3 C      2.178524134986    0.806596906432    0.534356806379
               4 C      2.678111759430   -0.506218797850    0.589554512339
               5 C      1.800912788756   -1.579717900186    0.526497859066
               6 H      0.413054901805    2.037315668563    0.373590898683
               7 C      3.067024197556    1.908633041952    0.597661339508
               8 H     -1.136856762408    0.108458656288    0.262566420042
               9 H     -0.251782988322   -2.208178889194    0.360199699752
              10 H      3.747262272802   -0.667995706737    0.681112210844
              11 H      2.191314049528   -2.592190574077    0.569521833120
              12 N      3.797374492328    2.812935305671    0.649184527325
              13 O      4.556203362484    3.752974889550    0.702725569579
