!DLPNO-CCSD(T) Extrapolate(3/4,cc) cc-pVQZ/C TightPNO TightSCF 
%geom maxiter 300 end
%maxcore 4000 
%pal nprocs 36
end

*xyz 0 1
6        0.608931000     -0.013902000     -0.477035000
6        1.316163000      1.086184000      0.003542000
6        1.060365000     -1.298377000     -0.233974000
6        2.507611000      0.914201000      0.741276000
6        2.954580000     -0.397770000      0.951138000
6        2.242762000     -1.486206000      0.479423000
7        0.769275000      2.404958000     -0.317715000
6        3.283255000      3.109348000      1.416163000
1       -0.296408000      0.167264000     -1.043572000
1        0.497773000     -2.147468000     -0.607120000
1        3.886379000     -0.529042000      1.490417000
1        2.618005000     -2.487884000      0.664668000
7        3.347517000      1.904120000      1.219073000
8        3.584886000      1.751483000     -2.036645000
8        3.476339000      4.219899000      1.703490000
16       4.901751000      1.850668000     -1.382881000
8        5.579445000      0.589535000     -1.041849000
8       -0.102702000      2.475794000     -1.167707000
8        1.207756000      3.380097000      0.298457000

*
