!DLPNO-CCSD(T) Extrapolate(3/4,cc) cc-pVQZ/C TightPNO TightSCF 
%geom maxiter 300 end
%maxcore 4000 
%pal nprocs 36
end

*xyz 0 1
6       -0.117464000     -0.068087000      0.349150000
6        0.756954000      1.001796000      0.414089000
6        0.394500000     -1.359569000      0.404336000
6        2.141372000      0.776808000      0.533948000
6        2.631719000     -0.541715000      0.587972000
6        1.756798000     -1.611120000      0.522704000
1        0.382492000      2.018740000      0.373174000
6        3.034342000      1.868711000      0.600155000
1       -1.186545000      0.081875000      0.256625000
7       -0.538015000     -2.500180000      0.335235000
1        3.698768000     -0.711658000      0.680834000
1        2.112142000     -2.633953000      0.561903000
7        3.781189000      2.762595000      0.647052000
8        4.547440000      3.683941000      0.696327000
8       -1.732111000     -2.247734000      0.234066000
8       -0.057513000     -3.625610000      0.383690000

*
