17
Coordinates from ORCA-job mol E -1407.711371440289
  C      -2.277403     -0.794912     -0.638205
  C      -1.412202      0.285239     -0.623581
  C      -1.923972     -1.960819      0.036982
  C      -0.200751      0.205778      0.085099
  C       0.139346     -0.975854      0.758190
  C      -0.721339     -2.061212      0.729416
  H      -1.668407      1.196957     -1.152819
  C       0.675329      1.322181      0.109956
  H      -3.216881     -0.739759     -1.177021
  Cl     -3.010802     -3.326058      0.005549
  H       1.081818     -1.035406      1.289386
  H      -0.464022     -2.980955      1.242840
  N       0.834323      2.503612     -0.056984
  O       1.749950      3.348537     -0.079850
  O       2.586223      0.852580      0.639434
  S       3.549815      1.930854      0.156646
  O       3.983364      1.779078     -1.243929
17
Coordinates from ORCA-job mol E -1407.709663230517
  C      -2.271110     -0.789126     -0.643832
  C      -1.408790      0.293314     -0.626610
  C      -1.910853     -1.958703      0.021359
  C      -0.192908      0.212035      0.074265
  C       0.153798     -0.972984      0.737908
  C      -0.704324     -2.060319      0.706839
  H      -1.670387      1.207954     -1.148111
  C       0.680352      1.330643      0.102300
  H      -3.213776     -0.732803     -1.176947
  Cl     -2.994406     -3.326329     -0.012510
  H       1.099378     -1.033515      1.263426
  H      -0.441812     -2.982626      1.212985
  N       0.834989      2.513969     -0.055158
  O       1.749070      3.360613     -0.078421
  O       2.662386      0.975790      0.885764
  S       3.553948      1.941625      0.113243
  O       3.778834      1.570301     -1.295390
17
Coordinates from ORCA-job mol E -1407.710689618703
  C      -2.221590     -0.809175     -0.716461
  C      -1.370473      0.280561     -0.665265
  C      -1.899855     -1.962253     -0.002548
  C      -0.222070      0.233011      0.146552
  C       0.105120     -0.946471      0.830049
  C      -0.740760     -2.041492      0.763619
  H      -1.603009      1.182830     -1.220589
  C       0.650506      1.343505      0.208015
  H      -3.128228     -0.770316     -1.310277
  Cl     -2.967690     -3.339533     -0.083972
  H       1.023487     -0.988901      1.406079
  H      -0.501238     -2.954597      1.297080
  N       0.859391      2.520667      0.107429
  O       1.754232      3.388142      0.094304
  O       2.832425      0.912640      0.776029
  S       3.583006      1.912918     -0.056044
  O       3.551137      1.588304     -1.492890
17
Coordinates from ORCA-job mol E -1407.711269515036
  C      -2.240426     -0.808177     -0.689661
  C      -1.380794      0.275628     -0.648062
  C      -1.915859     -1.964138      0.016871
  C      -0.212209      0.214865      0.131583
  C       0.107598     -0.962347      0.822382
  C      -0.746924     -2.051428      0.766645
  H      -1.614820      1.179905     -1.199751
  C       0.663397      1.329101      0.180654
  H      -3.154140     -0.763106     -1.272024
  Cl     -2.995000     -3.333783     -0.048934
  H       1.028556     -1.012807      1.391479
  H      -0.508550     -2.965309      1.299325
  N       0.838860      2.511017      0.052224
  O       1.746248      3.363974      0.037760
  O       2.705094      0.846072      0.638315
  S       3.580186      1.924839      0.025335
  O       3.803173      1.765535     -1.423033
17
Coordinates from ORCA-job mol E -1407.711388834507
  C      -2.243748     -0.809605     -0.683692
  C      -1.379584      0.270933     -0.646814
  C      -1.922182     -1.964332      0.025845
  C      -0.207643      0.206778      0.126849
  C       0.105163     -0.966756      0.826665
  C      -0.752724     -2.053244      0.774818
  H      -1.610201      1.173859     -1.202173
  C       0.671330      1.319507      0.172796
  H      -3.157356     -0.763668     -1.266164
  Cl     -3.006630     -3.329980     -0.032953
  H       1.025552     -1.018794      1.396658
  H      -0.517676     -2.965789      1.311266
  N       0.840456      2.503994      0.054831
  O       1.749091      3.354084      0.032304
  O       2.643314      0.816152      0.533371
  S       3.571272      1.919484      0.047002
  O       3.895956      1.857217     -1.389499
17
Coordinates from ORCA-job mol E -1407.712918630064
  C      -2.269056     -0.785586     -0.618390
  C      -1.396488      0.289378     -0.614990
  C      -1.912767     -1.953158      0.051289
  C      -0.168897      0.198014      0.061190
  C       0.166455     -0.979036      0.742473
  C      -0.700790     -2.059429      0.726631
  H      -1.653841      1.202099     -1.142217
  C       0.705476      1.320606      0.080226
  H      -3.214494     -0.725592     -1.146050
  Cl     -3.005231     -3.314256      0.033559
  H       1.109456     -1.042952      1.272318
  H      -0.444889     -2.977503      1.243720
  N       0.805467      2.513683     -0.102714
  O       1.748997      3.331047     -0.113182
  O       2.414194      0.834158      0.551687
  S       3.476037      1.901140      0.205306
  O       4.044764      1.797225     -1.149745
17
Coordinates from ORCA-job mol E -1407.711377561465
  C      -2.253032     -0.804180     -0.667226
  C      -1.388071      0.276159     -0.640852
  C      -1.919150     -1.961854      0.031599
  C      -0.198633      0.205953      0.104536
  C       0.122050     -0.967502      0.800826
  C      -0.736888     -2.053685      0.759852
  H      -1.627936      1.181184     -1.188895
  C       0.678435      1.321872      0.142913
  H      -3.176365     -0.756029     -1.233938
  Cl     -3.004732     -3.327205     -0.013155
  H       1.049528     -1.020976      1.358845
  H      -0.494296     -2.967201      1.291262
  N       0.828979      2.510529      0.018676
  O       1.746510      3.352623     -0.005974
  O       2.598868      0.820338      0.564694
  S       3.552092      1.914348      0.090350
  O       3.927034      1.825465     -1.332402
17
Coordinates from ORCA-job mol E -1407.711379996387
  C      -2.250270     -0.804957     -0.671201
  C      -1.385175      0.275185     -0.642851
  C      -1.919310     -1.962042      0.030053
  C      -0.198699      0.205354      0.107374
  C       0.119395     -0.967719      0.805707
  C      -0.739708     -2.053638      0.762754
  H      -1.622766      1.179787     -1.192569
  C       0.678208      1.320677      0.149234
  H      -3.171583     -0.757108     -1.241219
  Cl     -3.004833     -3.327256     -0.017930
  H       1.044773     -1.020354      1.367256
  H      -0.499434     -2.966672      1.296031
  N       0.833279      2.508577      0.027246
  O       1.749891      3.352260      0.003933
  O       2.607088      0.824253      0.564689
  S       3.554303      1.916633      0.080236
  O       3.909232      1.826860     -1.347631
17
Coordinates from ORCA-job mol E -1407.711374473129
  C      -2.248545     -0.804144     -0.671750
  C      -1.384512      0.276844     -0.643238
  C      -1.916367     -1.961169      0.029015
  C      -0.197200      0.207223      0.105580
  C       0.121436     -0.965244      0.804798
  C      -0.736639     -2.051918      0.761700
  H      -1.622869      1.181357     -1.192756
  C       0.677123      1.324273      0.150761
  H      -3.170013     -0.757024     -1.241580
  Cl     -3.000011     -3.327782     -0.020288
  H       1.046261     -1.016300      1.367445
  H      -0.495988     -2.964558      1.295478
  N       0.832137      2.511672      0.025838
  O       1.752841      3.351222      0.007062
  O       2.606221      0.819747      0.575054
  S       3.547981      1.911730      0.078978
  O       3.892533      1.813911     -1.350988
17
Coordinates from ORCA-job mol E -1407.711384759127
  C      -2.250193     -0.804720     -0.670717
  C      -1.385531      0.275794     -0.642861
  C      -1.918321     -1.961681      0.030288
  C      -0.198318      0.206195      0.106117
  C       0.120359     -0.966505      0.804843
  C      -0.738265     -2.052802      0.762353
  H      -1.623735      1.180283     -1.192499
  C       0.677961      1.322070      0.147936
  H      -3.171818     -0.757306     -1.240267
  Cl     -3.003260     -3.327363     -0.017108
  H       1.045910     -1.018570      1.366163
  H      -0.497442     -2.965664      1.295677
  N       0.831506      2.510296      0.026970
  O       1.750468      3.351482      0.003602
  O       2.603915      0.819180      0.563331
  S       3.551269      1.913562      0.082190
  O       3.909884      1.825590     -1.344908
17
Coordinates from ORCA-job mol E -1407.711385927965
  C      -2.249473     -0.805441     -0.672461
  C      -1.384802      0.275050     -0.643894
  C      -1.918836     -1.961954      0.029850
  C      -0.199024      0.205914      0.107374
  C       0.118478     -0.966413      0.807379
  C      -0.740030     -2.052721      0.764046
  H      -1.621901      1.179155     -1.194634
  C       0.677360      1.321511      0.150279
  H      -3.170136     -0.758397     -1.243597
  Cl     -3.003758     -3.327567     -0.018502
  H       1.043228     -1.018017      1.370061
  H      -0.500162     -2.965305      1.298275
  N       0.832580      2.509690      0.032002
  O       1.752156      3.350622      0.007945
  O       2.609017      0.818562      0.559619
  S       3.553373      1.914680      0.078076
  O       3.906322      1.830470     -1.350709
17
Coordinates from ORCA-job mol E -1407.711386629613
  C      -2.248827     -0.805674     -0.673249
  C      -1.384450      0.275050     -0.644337
  C      -1.918392     -1.961914      0.029602
  C      -0.199273      0.206394      0.107904
  C       0.118060     -0.965705      0.808429
  C      -0.740070     -2.052259      0.764674
  H      -1.621312      1.178949     -1.195515
  C       0.676961      1.321988      0.151240
  H      -3.169088     -0.759042     -1.245068
  Cl     -3.002910     -3.327800     -0.019206
  H       1.042479     -1.016832      1.371730
  H      -0.500374     -2.964682      1.299251
  N       0.832991      2.510153      0.034701
  O       1.753407      3.350213      0.010019
  O       2.608460      0.816782      0.557343
  S       3.552675      1.913102      0.076456
  O       3.904054      1.831116     -1.352863
