!DLPNO-CCSD(T) Extrapolate(3/4,cc) cc-pVQZ/C TightPNO TightSCF 
%geom maxiter 300 end
%maxcore 4000 
%pal nprocs 36
end

*xyz 0 1
16       0.000000000      0.000001489      0.375718171
8        0.000000000      1.259626759     -0.369442661
8        0.000000000     -1.259628248     -0.369443537

*
