18
Coordinates from ORCA-job mol
  C   0.03412315823258     -0.19527435584562      0.36187182063102
  C   0.90114486932702      0.89439353078912      0.42491511671269
  C   0.54376213501515     -1.49087807988726      0.41836374705422
  C   2.29528667593858      0.67196607793517      0.54610387048243
  C   2.78288077995910     -0.64105669181422      0.60134911329625
  C   1.91157278104984     -1.71938427229034      0.53764605766590
  O   0.52190017307622      2.19173782616251      0.37995886686010
  C   3.16998199283735      1.77888751581753      0.60970649472187
  H   -1.03507879039512     -0.04509631702664      0.26919024073975
  H   -0.14467719506855     -2.32939909079957      0.36797331867915
  H   3.85297901360257     -0.79535896662347      0.69479010393403
  H   2.29873805531206     -2.73204199241062      0.58103565691644
  N   3.83036624432934      2.73596084827005      0.65143675396812
  O   4.53712211127581      3.71726541635759      0.69887385765208
  C   -0.87685639609463      2.47797276838665      0.26409985732456
  H   -0.95156082620906      3.56561805205274      0.24820295311338
  H   -1.43010960024558      2.08180331757331      1.12407422905252
  H   -1.28632518194266      2.06602441335306     -0.66615205880452
