18
Coordinates from ORCA-job mol E -513.494022815629
  C      -0.079850     -0.050700      0.352730
  C       0.790790      1.025120      0.417570
  C       0.429680     -1.344550      0.407360
  C       2.175440      0.814630      0.536930
  C       2.666100     -0.501420      0.590590
  C       1.796390     -1.578170      0.525840
  O       0.405270      2.038240      0.376190
  C       3.064020      1.913010      0.602540
  H      -1.148310      0.110540      0.260350
  H      -0.313060     -2.385700      0.352600
  H       3.733490     -0.671410      0.683140
  H       2.174350     -2.593830      0.566760
  N       3.807010      2.809520      0.648640
  O       4.573100      3.736000      0.696380
  C      -0.516610      2.185830      0.296660
  H      -0.708460      3.238190      0.271390
  H      -1.020960      1.751350      1.134370
  H      -0.873140      1.736490     -0.606600
18
Coordinates from ORCA-job mol E -513.772196404817
  C      -0.063749     -0.061956      0.354201
  C       0.810091      1.021312      0.419246
  C       0.447170     -1.355758      0.408932
  C       2.198046      0.800170      0.538952
  C       2.684820     -0.516258      0.592269
  C       1.812642     -1.591679      0.527304
  O       0.449520      2.071607      0.379686
  C       3.090006      1.895093      0.604872
  H      -1.131636      0.094275      0.261932
  H      -0.289949     -2.382183      0.354538
  H       3.751982     -0.688226      0.684799
  H       2.189086     -2.607941      0.568090
  N       3.835777      2.789094      0.651235
  O       4.605777      3.714049      0.699341
  C      -0.586072      2.222888      0.290488
  H      -0.802365      3.278234      0.263137
  H      -1.097317      1.782672      1.133448
  H      -0.948578      1.767749     -0.619030
18
Coordinates from ORCA-job mol E -513.922264408551
  C      -0.048926     -0.087797      0.355679
  C       0.822741      1.012599      0.420384
  C       0.469717     -1.378685      0.411029
  C       2.218000      0.776806      0.540815
  C       2.704978     -0.537896      0.594126
  C       1.834075     -1.614492      0.529290
  O       0.468901      2.137616      0.380786
  C       3.110462      1.870041      0.606783
  H      -1.116498      0.052886      0.263595
  H      -0.248802     -2.370519      0.357958
  H       3.772716     -0.707656      0.686677
  H       2.212054     -2.630239      0.570201
  N       3.856310      2.763413      0.653184
  O       4.628663      3.690016      0.701547
  C      -0.650805      2.275614      0.284575
  H      -0.886516      3.332760      0.255591
  H      -1.170591      1.831777      1.131127
  H      -1.021230      1.816896     -0.629909
18
Coordinates from ORCA-job mol E -514.008490970546
  C      -0.031183     -0.106324      0.357356
  C       0.838544      0.999119      0.421813
  C       0.488459     -1.396194      0.412774
  C       2.236389      0.752595      0.542522
  C       2.723496     -0.559854      0.595836
  C       1.851697     -1.636067      0.530945
  O       0.497067      2.191468      0.382688
  C       3.127816      1.846179      0.608379
  H      -1.099230      0.026260      0.265319
  H      -0.208217     -2.331378      0.361134
  H       3.791802     -0.726853      0.688400
  H       2.229027     -2.652109      0.571811
  N       3.871482      2.740428      0.654659
  O       4.643761      3.670000      0.703170
  C      -0.710746      2.315994      0.279154
  H      -0.964869      3.374840      0.248606
  H      -1.239940      1.869959      1.128883
  H      -1.090105      1.855077     -0.640010
18
Coordinates from ORCA-job mol E -514.050862571309
  C      -0.011601     -0.128484      0.359204
  C       0.854057      0.976778      0.423228
  C       0.507201     -1.419065      0.414573
  C       2.252239      0.725209      0.543956
  C       2.742418     -0.584238      0.597568
  C       1.870487     -1.660971      0.532731
  O       0.519710      2.229949      0.384159
  C       3.139619      1.822489      0.609438
  H      -1.080554     -0.003393      0.267203
  H      -0.165225     -2.284971      0.364536
  H       3.811748     -0.745120      0.690182
  H       2.248550     -2.676810      0.573715
  N       3.877640      2.720763      0.655355
  O       4.645559      3.655542      0.703808
  C      -0.768250      2.359723      0.273885
  H      -1.022352      3.422231      0.243312
  H      -1.307917      1.919184      1.124423
  H      -1.158079      1.904323     -0.647835
18
Coordinates from ORCA-job mol E -514.066074746610
  C       0.010336     -0.150208      0.361210
  C       0.871773      0.949920      0.424732
  C       0.526543     -1.443497      0.416440
  C       2.268624      0.703070      0.545220
  C       2.762902     -0.604037      0.599323
  C       1.891321     -1.682204      0.534644
  O       0.532744      2.249240      0.384799
  C       3.149659      1.806533      0.610193
  H      -1.060460     -0.028853      0.269179
  H      -0.163553     -2.293091      0.365067
  H       3.833290     -0.757088      0.692049
  H       2.272183     -2.697131      0.576031
  N       3.879198      2.711382      0.655618
  O       4.639156      3.653047      0.703923
  C      -0.819919      2.405349      0.269076
  H      -1.052495      3.473623      0.240255
  H      -1.367811      1.976017      1.120399
  H      -1.218239      1.961070     -0.654717
18
Coordinates from ORCA-job mol E -514.070078792174
  C       0.022636     -0.166534      0.362253
  C       0.883566      0.926530      0.425664
  C       0.537530     -1.461650      0.417516
  C       2.278558      0.690792      0.545883
  C       2.773795     -0.616782      0.600249
  C       1.902656     -1.696191      0.535751
  O       0.530693      2.244336      0.384400
  C       3.155205      1.798320      0.610493
  H      -1.048978     -0.042146      0.270186
  H      -0.150541     -2.289349      0.366420
  H       3.844493     -0.766035      0.693064
  H       2.286366     -2.710163      0.577582
  N       3.878210      2.708356      0.655563
  O       4.631618      3.654723      0.703809
  C      -0.855531      2.434524      0.265816
  H      -1.054003      3.508558      0.239861
  H      -1.405240      2.015395      1.119235
  H      -1.255784      2.000456     -0.660305
18
Coordinates from ORCA-job mol E -514.071351832391
  C       0.030254     -0.179296      0.362998
  C       0.892197      0.909718      0.426388
  C       0.545402     -1.475332      0.418363
  C       2.286242      0.685638      0.546507
  C       2.781470     -0.623057      0.600914
  C       1.911573     -1.703844      0.536574
  O       0.523581      2.232815      0.383679
  C       3.159205      1.795557      0.610719
  H      -1.041107     -0.049707      0.270949
  H      -0.154780     -2.313438      0.366485
  H       3.852418     -0.770621      0.693672
  H       2.299090     -2.716458      0.578716
  N       3.876722      2.709928      0.655426
  O       4.624770      3.660118      0.703589
  C      -0.880353      2.457044      0.263478
  H      -1.040503      3.536729      0.240685
  H      -1.430269      2.046188      1.119892
  H      -1.280661      2.031157     -0.665595
18
Coordinates from ORCA-job mol E -514.071876897430
  C       0.031261     -0.188358      0.363142
  C       0.894979      0.899096      0.426600
  C       0.547507     -1.483912      0.418644
  C       2.288675      0.683763      0.546692
  C       2.783147     -0.626341      0.601077
  C       1.914604     -1.708016      0.536903
  O       0.513896      2.216641      0.382830
  C       3.159370      1.794454      0.610628
  H      -1.039482     -0.052493      0.271100
  H      -0.142230     -2.315885      0.367639
  H       3.854089     -0.774363      0.693809
  H       2.305106     -2.719512      0.579290
  N       3.873169      2.711799      0.655088
  O       4.617743      3.664439      0.703230
  C      -0.893156      2.468391      0.262283
  H      -1.018451      3.551937      0.242371
  H      -1.442345      2.063316      1.121041
  H      -1.292634      2.048186     -0.668929
18
Coordinates from ORCA-job mol E -514.072153547020
  C       0.030315     -0.193976      0.362982
  C       0.894780      0.894941      0.426460
  C       0.547768     -1.488253      0.418663
  C       2.288862      0.684289      0.546591
  C       2.783061     -0.626690      0.601078
  C       1.916079     -1.709023      0.537115
  O       0.506316      2.202928      0.382163
  C       3.157940      1.795187      0.610348
  H      -1.039785     -0.052846      0.270942
  H      -0.138002     -2.326560      0.368089
  H       3.853949     -0.775664      0.693902
  H       2.308901     -2.719606      0.579818
  N       3.868803      2.714876      0.654639
  O       4.610943      3.669486      0.702805
  C      -0.896865      2.473907      0.261968
  H      -0.994368      3.559948      0.244399
  H      -1.446544      2.072669      1.121966
  H      -1.296905      2.057526     -0.670489
18
Coordinates from ORCA-job mol E -514.072259826230
  C       0.029061     -0.196430      0.362753
  C       0.892859      0.895194      0.426158
  C       0.546930     -1.489356      0.418571
  C       2.287531      0.684889      0.546391
  C       2.781989     -0.626287      0.601027
  C       1.916153     -1.708952      0.537198
  O       0.502803      2.194204      0.381818
  C       3.155853      1.795920      0.610033
  H      -1.040714     -0.051878      0.270671
  H      -0.135517     -2.332420      0.368303
  H       3.852826     -0.775921      0.693936
  H       2.309869     -2.719148      0.580089
  N       3.864407      2.717446      0.654185
  O       4.604885      3.673595      0.702366
  C      -0.894606      2.474558      0.262210
  H      -0.975873      3.561771      0.246026
  H      -1.446283      2.075541      1.121968
  H      -1.296923      2.060414     -0.670263
18
Coordinates from ORCA-job mol E -514.072276340185
  C       0.029300     -0.196502      0.362716
  C       0.892166      0.896295      0.426028
  C       0.546760     -1.489148      0.418551
  C       2.287046      0.684455      0.546325
  C       2.781790     -0.626492      0.601029
  C       1.916114     -1.709193      0.537229
  O       0.503586      2.193221      0.381808
  C       3.155426      1.795655      0.609943
  H      -1.040519     -0.051386      0.270592
  H      -0.135710     -2.332737      0.368277
  H       3.852641     -0.775966      0.693959
  H       2.309512     -2.719492      0.580138
  N       3.862781      2.718121      0.654027
  O       4.602441      3.675032      0.702213
  C      -0.892785      2.473992      0.262390
  H      -0.972221      3.561342      0.246353
  H      -1.446085      2.075542      1.121432
  H      -1.296993      2.060401     -0.669571
18
Coordinates from ORCA-job mol E -514.072286480481
  C       0.030148     -0.196447      0.362719
  C       0.891977      0.897281      0.425917
  C       0.546938     -1.489089      0.418565
  C       2.287009      0.683486      0.546293
  C       2.781942     -0.627166      0.601063
  C       1.916242     -1.709879      0.537283
  O       0.505281      2.193143      0.381811
  C       3.155702      1.794804      0.609896
  H      -1.039764     -0.051059      0.270543
  H      -0.136316     -2.332130      0.368227
  H       3.852831     -0.776245      0.694012
  H       2.309061     -2.720389      0.580195
  N       3.861291      2.718623      0.653888
  O       4.599741      3.676563      0.702091
  C      -0.891648      2.473779      0.262509
  H      -0.970490      3.561184      0.246500
  H      -1.446702      2.075931      1.120730
  H      -1.297995      2.060749     -0.668801
18
Coordinates from ORCA-job mol E -514.072290406705
  C       0.030846     -0.196427      0.362717
  C       0.892312      0.897547      0.425856
  C       0.547197     -1.489250      0.418586
  C       2.287389      0.682678      0.546286
  C       2.782203     -0.627882      0.601094
  C       1.916357     -1.710546      0.537330
  O       0.506564      2.193199      0.381773
  C       3.156456      1.793900      0.609892
  H      -1.039098     -0.050983      0.270511
  H      -0.136795     -2.331507      0.368202
  H       3.853113     -0.776745      0.694068
  H       2.308767     -2.721211      0.580257
  N       3.860372      2.719006      0.653807
  O       4.597646      3.677866      0.702035
  C      -0.891634      2.474061      0.262525
  H      -0.970123      3.561489      0.246520
  H      -1.447361      2.076588      1.120453
  H      -1.298962      2.061355     -0.668471
18
Coordinates from ORCA-job mol E -514.072292307930
  C       0.031217     -0.196287      0.362690
  C       0.892828      0.897554      0.425811
  C       0.547288     -1.489333      0.418594
  C       2.287897      0.682128      0.546283
  C       2.782368     -0.628503      0.601114
  C       1.916287     -1.711029      0.537358
  O       0.507524      2.193222      0.381702
  C       3.157368      1.793079      0.609901
  H      -1.038719     -0.050895      0.270465
  H      -0.137229     -2.330994      0.368186
  H       3.853270     -0.777412      0.694112
  H       2.308394     -2.721812      0.580306
  N       3.859600      2.719474      0.653743
  O       4.595683      3.679229      0.701994
  C      -0.891797      2.474328      0.262526
  H      -0.970177      3.561756      0.246502
  H      -1.447349      2.076965      1.120560
  H      -1.299202      2.061672     -0.668405
18
Coordinates from ORCA-job mol E -514.072293771680
  C       0.031375     -0.195967      0.362636
  C       0.893434      0.897558      0.425760
  C       0.547159     -1.489248      0.418583
  C       2.288463      0.681668      0.546280
  C       2.782414     -0.629143      0.601126
  C       1.915992     -1.711418      0.537371
  O       0.508499      2.193234      0.381602
  C       3.158407      1.792214      0.609908
  H      -1.038533     -0.050651      0.270388
  H      -0.137768     -2.330488      0.368162
  H       3.853278     -0.778333      0.694152
  H       2.307781     -2.722323      0.580341
  N       3.858564      2.720197      0.653659
  O       4.593183      3.681043      0.701921
  C      -0.891657      2.474418      0.262557
  H      -0.970202      3.561822      0.246486
  H      -1.446510      2.076963      1.120936
  H      -1.298627      2.061593     -0.668428
18
Coordinates from ORCA-job mol E -514.072295371185
  C       0.031452     -0.195409      0.362546
  C       0.894257      0.897611      0.425684
  C       0.546753     -1.488986      0.418547
  C       2.289204      0.681054      0.546273
  C       2.782366     -0.630061      0.601140
  C       1.915396     -1.711898      0.537376
  O       0.509886      2.193252      0.381448
  C       3.159795      1.791015      0.609909
  H      -1.038404     -0.050111      0.270259
  H      -0.138615     -2.329862      0.368116
  H       3.853151     -0.779829      0.694205
  H       2.306713     -2.722984      0.580376
  N       3.856696      2.721473      0.653506
  O       4.589028      3.684033      0.701760
  C      -0.890911      2.474348      0.262651
  H      -0.969874      3.561702      0.246497
  H      -1.444576      2.076637      1.121599
  H      -1.297068      2.061154     -0.668451
18
Coordinates from ORCA-job mol E -514.072296839351
  C       0.031525     -0.194855      0.362445
  C       0.895101      0.897644      0.425597
  C       0.546179     -1.488709      0.418499
  C       2.289940      0.680296      0.546263
  C       2.782267     -0.631148      0.601154
  C       1.914676     -1.712466      0.537379
  O       0.511417      2.193258      0.381273
  C       3.161162      1.789701      0.609895
  H      -1.038268     -0.049380      0.270109
  H      -0.139566     -2.329349      0.368062
  H       3.852951     -0.781636      0.694262
  H       2.305456     -2.723757      0.580410
  N       3.854159      2.723103      0.653298
  O       4.583747      3.687727      0.701511
  C      -0.889553      2.474238      0.262802
  H      -0.968893      3.561546      0.246566
  H      -1.442071      2.076263      1.122309
  H      -1.294980      2.060663     -0.668395
18
Coordinates from ORCA-job mol E -514.072298407673
  C       0.031725     -0.194413      0.362332
  C       0.896086      0.897525      0.425488
  C       0.545483     -1.488570      0.418443
  C       2.290781      0.679183      0.546248
  C       2.782188     -0.632614      0.601177
  C       1.913866     -1.713320      0.537391
  O       0.513267      2.193205      0.381057
  C       3.162658      1.788060      0.609864
  H      -1.037982     -0.048443      0.269934
  H      -0.140667     -2.328993      0.368004
  H       3.852750     -0.783953      0.694337
  H       2.303995     -2.724863      0.580463
  N       3.850564      2.725260      0.653007
  O       4.576563      3.692571      0.701133
  C      -0.887492      2.474296      0.263020
  H      -0.966902      3.561582      0.246728
  H      -1.439100      2.076173      1.123009
  H      -1.292532      2.060453     -0.668194
18
Coordinates from ORCA-job mol E -514.072300328891
  C       0.032150     -0.194238      0.362206
  C       0.897298      0.897104      0.425353
  C       0.544759     -1.488741      0.418388
  C       2.291825      0.677556      0.546229
  C       2.782189     -0.634608      0.601217
  C       1.913024     -1.714604      0.537425
  O       0.515510      2.193029      0.380787
  C       3.164423      1.785906      0.609819
  H      -1.037443     -0.047367      0.269727
  H      -0.141865     -2.328863      0.367952
  H       3.852604     -0.786898      0.694443
  H       2.302359     -2.726439      0.580555
  N       3.845654      2.728031      0.652610
  O       4.566955      3.698838      0.700589
  C      -0.884705      2.474742      0.263308
  H      -0.963583      3.562061      0.247017
  H      -1.435901      2.076729      1.123616
  H      -1.290003      2.060902     -0.667800
18
Coordinates from ORCA-job mol E -514.072302787020
  C       0.032996     -0.194406      0.362032
  C       0.899138      0.896117      0.425149
  C       0.543962     -1.489430      0.418335
  C       2.293439      0.674914      0.546193
  C       2.782367     -0.637720      0.601287
  C       1.912047     -1.716774      0.537506
  O       0.518763      2.192603      0.380384
  C       3.167052      1.782571      0.609756
  H      -1.036413     -0.045968      0.269437
  H      -0.143439     -2.328961      0.367906
  H       3.852593     -0.791220      0.694618
  H       2.300255     -2.729035      0.580740
  N       3.838089      2.732078      0.652006
  O       4.552235      3.708122      0.699733
  C      -0.880616      2.475915      0.263727
  H      -0.957973      3.563345      0.247532
  H      -1.432059      2.078450      1.124171
  H      -1.287184      2.062539     -0.667072
18
Coordinates from ORCA-job mol E -514.072304402440
  C       0.033791     -0.194880      0.361906
  C       0.900603      0.895026      0.424980
  C       0.543640     -1.490322      0.418331
  C       2.294763      0.672753      0.546141
  C       2.782665     -0.640190      0.601337
  C       1.911553     -1.718633      0.537595
  O       0.521169      2.192091      0.380068
  C       3.169156      1.779891      0.609715
  H      -1.035468     -0.045141      0.269238
  H      -0.144458     -2.329218      0.367923
  H       3.852776     -0.794412      0.694752
  H       2.298947     -2.731203      0.580933
  N       3.832242      2.735054      0.651559
  O       4.540841      3.715075      0.699079
  C      -0.877666      2.477241      0.264024
  H      -0.953291      3.564806      0.247993
  H      -1.430039      2.080546      1.124284
  H      -1.285975      2.064657     -0.666418
18
Coordinates from ORCA-job mol E -514.072304999955
  C       0.034123     -0.195274      0.361872
  C       0.901145      0.894394      0.424915
  C       0.543762     -1.490878      0.418364
  C       2.295287      0.671966      0.546104
  C       2.782881     -0.641057      0.601349
  C       1.911573     -1.719384      0.537646
  O       0.521900      2.191738      0.379959
  C       3.169982      1.778888      0.609706
  H      -1.035079     -0.045096      0.269190
  H      -0.144677     -2.329399      0.367973
  H       3.852979     -0.795359      0.694790
  H       2.298738     -2.732042      0.581036
  N       3.830366      2.735961      0.651437
  O       4.537122      3.717265      0.698874
  C      -0.876856      2.477973      0.264100
  H      -0.951561      3.565618      0.248203
  H      -1.430110      2.081803      1.124074
  H      -1.286325      2.066024     -0.666152
