 14
  Energy -399.564502063095  Dipole 4.90449  G(298) 44.07
 C   -3.96233900   0.52462200   0.40136700
 C   -2.97296500   1.45604000   0.11988200
 C   -3.68727600  -0.83971200   0.33050100
 C   -1.68588300   1.01944400  -0.23838400
 C   -1.41073600  -0.35726800  -0.30987600
 C   -2.41187500  -1.27488600  -0.02511300
 H   -3.18096400   2.51975500   0.17343000
 C   -0.66908300   1.96325200  -0.52667400
 H   -4.95524600   0.86652600   0.67799600
 H   -4.46608200  -1.56322300   0.55208600
 H   -0.41578600  -0.69002200  -0.58735700
 H   -2.19471700  -2.33743900  -0.08134000
 N    0.18691000   2.71581400  -0.75979200
 O    1.06964800   3.50678500  -0.99974600
