14
Coordinates from ORCA-job ./PhNCO E -399.656189338254
  C      -2.542622     -0.945496     -1.453397
  C      -2.047722      0.102072     -0.686959
  C      -2.694820     -2.217091     -0.902277
  C      -1.699077     -0.129579      0.647234
  C      -1.855405     -1.396774      1.209039
  C      -2.352150     -2.435898      0.429679
  H      -1.913085      1.090942     -1.116644
  C      -0.798462      2.022523      1.297495
  H      -2.809410     -0.764924     -2.490879
  H      -3.081693     -3.031043     -1.507870
  H      -1.578564     -1.556286      2.246410
  H      -2.470764     -3.422559      0.868122
  N      -1.173395      0.886111      1.452559
  O      -0.406244      3.128462      1.299660
14
Coordinates from ORCA-job ./PhNCO E -399.656244498156
  C      -2.539097     -0.947174     -1.454882
  C      -2.028925      0.096202     -0.692630
  C      -2.704019     -2.215088     -0.899963
  C      -1.677384     -0.135442      0.641179
  C      -1.843936     -1.400658      1.205401
  C      -2.355747     -2.435386      0.430118
  H      -1.898723      1.086156     -1.121282
  C      -0.808944      2.028324      1.302780
  H      -2.810914     -0.765513     -2.490797
  H      -3.102955     -3.025746     -1.501920
  H      -1.570009     -1.560132      2.243425
  H      -2.483137     -3.419738      0.870996
  N      -1.163437      0.884228      1.451228
  O      -0.436187      3.140429      1.308521
14
Coordinates from ORCA-job ./PhNCO E -399.656259111839
  C      -2.537859     -0.947378     -1.455178
  C      -2.021357      0.093895     -0.694287
  C      -2.708750     -2.213638     -0.898726
  C      -1.670561     -0.137462      0.639831
  C      -1.839918     -1.402354      1.204302
  C      -2.357927     -2.434928      0.430441
  H      -1.890122      1.083645     -1.123194
  C      -0.813883      2.030485      1.304795
  H      -2.809684     -0.765569     -2.491030
  H      -3.112908     -3.022727     -1.499299
  H      -1.565032     -1.562750      2.241915
  H      -2.488184     -3.418603      0.871961
  N      -1.154311      0.881639      1.449822
  O      -0.452919      3.146205      1.310818
14
Coordinates from ORCA-job ./PhNCO E -399.656278304589
  C      -2.536434     -0.947093     -1.455248
  C      -2.009281      0.090453     -0.696550
  C      -2.716377     -2.211003     -0.896637
  C      -1.658514     -0.141102      0.637478
  C      -1.833973     -1.404951      1.202833
  C      -2.362732     -2.433745      0.431471
  H      -1.872411      1.078860     -1.126980
  C      -0.822834      2.033350      1.307991
  H      -2.807774     -0.764976     -2.491127
  H      -3.129459     -3.017322     -1.494892
  H      -1.556190     -1.567308      2.239377
  H      -2.498291     -3.416157      0.874244
  N      -1.131558      0.874664      1.445051
  O      -0.487584      3.156791      1.315161
14
Coordinates from ORCA-job ./PhNCO E -399.656283812345
  C      -2.536293     -0.946735     -1.455044
  C      -2.005709      0.089676     -0.697189
  C      -2.718695     -2.210173     -0.895922
  C      -1.654121     -0.142462      0.636429
  C      -1.832476     -1.405554      1.202511
  C      -2.364726     -2.433264      0.432079
  H      -1.864457      1.076922     -1.128873
  C      -0.826127      2.033860      1.308812
  H      -2.808021     -0.764266     -2.490763
  H      -3.134453     -3.015649     -1.493478
  H      -1.553490     -1.568463      2.238653
  H      -2.502611     -3.415082      0.875489
  N      -1.119614      0.870828      1.441686
  O      -0.502621      3.160822      1.317782
14
Coordinates from ORCA-job ./PhNCO E -399.656285416496
  C      -2.536496     -0.946573     -1.454842
  C      -2.005361      0.089799     -0.697337
  C      -2.718957     -2.210143     -0.895776
  C      -1.653060     -0.142845      0.635982
  C      -1.832513     -1.405485      1.202522
  C      -2.365292     -2.433210      0.432357
  H      -1.861747      1.076374     -1.129708
  C      -0.826920      2.033798      1.308608
  H      -2.808983     -0.763785     -2.490326
  H      -3.134726     -3.015612     -1.493333
  H      -1.553364     -1.568256      2.238644
  H      -2.503993     -3.414809      0.876011
  N      -1.114910      0.869262      1.439921
  O      -0.507092      3.161944      1.319450
14
Coordinates from ORCA-job ./PhNCO E -399.656285765535
  C      -2.536601     -0.946633     -1.454805
  C      -2.005496      0.089893     -0.697506
  C      -2.718902     -2.210258     -0.895748
  C      -1.652964     -0.142894      0.635758
  C      -1.832612     -1.405363      1.202491
  C      -2.365326     -2.433253      0.432434
  H      -1.861377      1.076298     -1.130051
  C      -0.826991      2.033830      1.308372
  H      -2.809520     -0.763744     -2.490171
  H      -3.134362     -3.015842     -1.493361
  H      -1.553576     -1.567891      2.238684
  H      -2.504175     -3.414797      0.876151
  N      -1.114164      0.869050      1.439407
  O      -0.507347      3.162065      1.320515
14
Coordinates from ORCA-job ./PhNCO E -399.656285911202
  C      -2.536633     -0.946768     -1.454849
  C      -2.005395      0.089841     -0.697769
  C      -2.719005     -2.210324     -0.895686
  C      -1.652811     -0.142922      0.635525
  C      -1.832524     -1.405294      1.202391
  C      -2.365349     -2.433255      0.432484
  H      -1.861237      1.076206     -1.130371
  C      -0.827129      2.033976      1.308291
  H      -2.809737     -0.763895     -2.490177
  H      -3.134447     -3.015948     -1.493250
  H      -1.553518     -1.567639      2.238621
  H      -2.504273     -3.414758      0.876254
  N      -1.113982      0.869067      1.439135
  O      -0.507373      3.162172      1.321573
