28
Coordinates from ORCA-job ./Products_b E -1159.346934111964
  C      -2.881417     -1.135140     -1.700638
  C      -2.354108     -0.179090     -0.833541
  C      -3.593060     -2.232874     -1.206533
  C      -2.541164     -0.323249      0.551878
  C      -3.253948     -1.423176      1.051323
  C      -3.775853     -2.371162      0.171826
  H      -1.793127      0.677658     -1.217846
  C      -1.406003      1.639456      1.468943
  H      -2.733606     -1.017192     -2.777430
  H      -4.003927     -2.976381     -1.893861
  H      -3.390544     -1.518720      2.130807
  H      -4.331170     -3.224661      0.569277
  N      -2.034450      0.603482      1.463175
  O      -0.125158      2.267504     -1.745910
  O      -0.806358      2.643123      1.621379
  S       0.922534      3.284290     -1.368727
  N       2.226161      2.867521     -0.623504
  C       2.657802      1.623949     -0.176122
  C       1.953369      0.413384     -0.373395
  C       2.478021     -0.778000      0.118657
  C       3.696665     -0.789135      0.807133
  C       4.399682      0.404920      1.004063
  C       3.887995      1.602502      0.516861
  H       1.006081      0.434854     -0.912993
  H       1.928757     -1.710406     -0.034993
  H       4.098890     -1.730268      1.190681
  H       5.351462      0.398779      1.541129
  H       4.416473      2.548034      0.658362
28
Coordinates from ORCA-job ./Products_b E -1159.348461510694
  C      -2.858473     -1.125778     -1.698384
  C      -2.317541     -0.171646     -0.845040
  C      -3.556449     -2.220058     -1.187676
  C      -2.463414     -0.322558      0.538058
  C      -3.162170     -1.415640      1.057254
  C      -3.707573     -2.357402      0.191322
  H      -1.777171      0.688205     -1.227387
  C      -1.226577      1.589918      1.395177
  H      -2.739427     -1.006182     -2.771596
  H      -3.981173     -2.958833     -1.860515
  H      -3.263430     -1.516205      2.133542
  H      -4.249008     -3.206135      0.599007
  N      -1.895136      0.587945      1.428813
  O      -0.141581      2.286222     -1.761619
  O      -0.582058      2.565401      1.510855
  S       0.893305      3.308875     -1.372741
  N       2.173984      2.873780     -0.602800
  C       2.584621      1.624074     -0.160993
  C       1.878747      0.421820     -0.383114
  C       2.388080     -0.770935      0.107861
  C       3.590151     -0.791723      0.817287
  C       4.292969      0.393943      1.037266
  C       3.798026      1.594187      0.552901
  H       0.946099      0.445950     -0.933609
  H       1.841908     -1.694174     -0.062498
  H       3.978787     -1.731692      1.197954
  H       5.228422      0.379023      1.588529
  H       4.326081      2.529619      0.712144
28
Coordinates from ORCA-job ./Products_b E -1159.348866883684
  C      -2.840960     -1.103394     -1.698752
  C      -2.277153     -0.158225     -0.852929
  C      -3.514529     -2.206220     -1.177591
  C      -2.372417     -0.330659      0.530627
  C      -3.050798     -1.427942      1.061370
  C      -3.621510     -2.359166      0.202281
  H      -1.755987      0.711147     -1.237746
  C      -1.092254      1.562484      1.362862
  H      -2.758470     -0.971025     -2.772639
  H      -3.956126     -2.939468     -1.843598
  H      -3.117158     -1.542270      2.137691
  H      -4.147701     -3.212803      0.616415
  N      -1.774676      0.572629      1.413737
  O      -0.154023      2.326224     -1.796227
  O      -0.431320      2.526818      1.465410
  S       0.885362      3.340022     -1.401060
  N       2.149171      2.876429     -0.623561
  C       2.524322      1.621346     -0.168610
  C       1.802075      0.429913     -0.393001
  C       2.284459     -0.764225      0.117195
  C       3.472914     -0.797855      0.845894
  C       4.191465      0.376305      1.065784
  C       3.725293      1.578636      0.563110
  H       0.879797      0.454785     -0.958095
  H       1.727331     -1.679383     -0.053879
  H       3.839172     -1.739504      1.240990
  H       5.116692      0.350918      1.631438
  H       4.267029      2.504483      0.722886
28
Coordinates from ORCA-job ./Products_b E -1159.349249924303
  C      -2.830631     -1.065537     -1.695024
  C      -2.234261     -0.134660     -0.856721
  C      -3.461180     -2.189668     -1.167637
  C      -2.261248     -0.342294      0.525429
  C      -2.896749     -1.459697      1.063187
  C      -3.495700     -2.378017      0.210110
  H      -1.738223      0.746931     -1.248978
  C      -0.997363      1.565316      1.356573
  H      -2.802503     -0.908450     -2.768108
  H      -3.924767     -2.913857     -1.828268
  H      -2.914978     -1.598661      2.138083
  H      -3.991714     -3.247429      0.628156
  N      -1.657933      0.561343      1.409797
  O      -0.158922      2.395878     -1.855422
  O      -0.354062      2.540240      1.464109
  S       0.910688      3.377930     -1.463685
  N       2.147496      2.870819     -0.673284
  C       2.470590      1.610152     -0.195610
  C       1.719386      0.435559     -0.411544
  C       2.158234     -0.759319      0.133959
  C       3.328773     -0.811525      0.888391
  C       4.075573      0.345232      1.098924
  C       3.654670      1.548489      0.561413
  H       0.809271      0.461121     -0.994487
  H       1.578851     -1.661774     -0.029804
  H       3.658993     -1.754462      1.310757
  H       4.987522      0.305866      1.684687
  H       4.220186      2.460471      0.714999
28
Coordinates from ORCA-job ./Products_b E -1159.349636772005
  C      -2.815810     -1.015343     -1.682735
  C      -2.181789     -0.094423     -0.859767
  C      -3.382559     -2.170099     -1.147619
  C      -2.116068     -0.340012      0.515505
  C      -2.680016     -1.491831      1.061161
  C      -3.311739     -2.402616      0.221999
  H      -1.723060      0.803292     -1.263758
  C      -0.881871      1.596952      1.330219
  H      -2.864466     -0.828046     -2.751289
  H      -3.875306     -2.886564     -1.797326
  H      -2.624090     -1.662079      2.131067
  H      -3.754998     -3.298762      0.645748
  N      -1.498533      0.564044      1.392471
  O      -0.182870      2.473752     -1.923989
  O      -0.272458      2.594339      1.435059
  S       0.933946      3.405113     -1.539134
  N       2.133043      2.855540     -0.721130
  C       2.395970      1.591064     -0.217981
  C       1.611798      0.439897     -0.436422
  C       1.993336     -0.760269      0.142756
  C       3.137843     -0.840595      0.934377
  C       3.918398      0.293667      1.147499
  C       3.555343      1.501006      0.575449
  H       0.718070      0.475454     -1.045007
  H       1.386357     -1.645357     -0.023613
  H       3.421253     -1.787684      1.383387
  H       4.811367      0.233890      1.762113
  H       4.148911      2.395671      0.730963
28
Coordinates from ORCA-job ./Products_b E -1159.349807889701
  C      -2.796852     -0.965274     -1.660617
  C      -2.141581     -0.042851     -0.853294
  C      -3.278034     -2.160295     -1.127511
  C      -1.984476     -0.320782      0.509618
  C      -2.453255     -1.518264      1.051068
  C      -3.096690     -2.434846      0.224909
  H      -1.729834      0.872713     -1.271002
  C      -0.881825      1.691039      1.335966
  H      -2.923407     -0.750039     -2.718668
  H      -3.787017     -2.876836     -1.766524
  H      -2.323198     -1.716018      2.110804
  H      -3.467187     -3.365688      0.646738
  N      -1.391661      0.598565      1.387001
  O      -0.201608      2.569038     -1.984023
  O      -0.363825      2.738202      1.455493
  S       0.981398      3.422081     -1.610822
  N       2.149047      2.818928     -0.784173
  C       2.345132      1.555220     -0.248306
  C       1.516233      0.435897     -0.458692
  C       1.830970     -0.769558      0.153149
  C       2.953036     -0.885220      0.973354
  C       3.780838      0.218351      1.178578
  C       3.484573      1.428274      0.570919
  H       0.637397      0.489618     -1.088692
  H       1.185232     -1.629346     -0.008602
  H       3.182304     -1.834901      1.449649
  H       4.658134      0.132790      1.814330
  H       4.116157      2.299199      0.719351
28
Coordinates from ORCA-job ./Products_b E -1159.350010663139
  C      -2.797934     -0.981394     -1.663477
  C      -2.158398     -0.050179     -0.853414
  C      -3.293866     -2.168716     -1.126433
  C      -2.021954     -0.314468      0.514376
  C      -2.507888     -1.504039      1.059802
  C      -3.141469     -2.426920      0.233410
  H      -1.744041      0.863788     -1.271941
  C      -0.882650      1.681087      1.321285
  H      -2.905962     -0.776115     -2.725344
  H      -3.794248     -2.889888     -1.766590
  H      -2.391661     -1.692022      2.122889
  H      -3.521691     -3.351857      0.658887
  N      -1.413594      0.599561      1.382860
  O      -0.202172      2.550442     -1.967943
  O      -0.345090      2.719938      1.426110
  S       0.968252      3.417850     -1.588827
  N       2.141663      2.830510     -0.757654
  C       2.356209      1.564927     -0.231980
  C       1.542570      0.437062     -0.459477
  C       1.873059     -0.773676      0.133128
  C       2.996415     -0.885570      0.952280
  C       3.807822      0.227092      1.176628
  C       3.495655      1.441996      0.587649
  H       0.662917      0.494811     -1.088923
  H       1.239032     -1.639232     -0.041930
  H       3.239161     -1.838915      1.413772
  H       4.685413      0.144149      1.811850
  H       4.114449      2.319777      0.749007
28
Coordinates from ORCA-job ./Products_b E -1159.350142855210
  C      -2.780153     -0.980792     -1.654667
  C      -2.152219     -0.037490     -0.849553
  C      -3.254740     -2.174618     -1.113386
  C      -1.998327     -0.297848      0.516887
  C      -2.465924     -1.493505      1.066300
  C      -3.092718     -2.426455      0.246988
  H      -1.759784      0.883465     -1.272957
  C      -0.865146      1.705870      1.300229
  H      -2.898547     -0.778047     -2.715519
  H      -3.748156     -2.903712     -1.749195
  H      -2.336104     -1.678197      2.128169
  H      -3.455757     -3.355750      0.676792
  N      -1.379421      0.617419      1.372785
  O      -0.211934      2.566497     -1.965014
  O      -0.339970      2.752172      1.389383
  S       0.967753      3.421656     -1.587647
  N       2.134196      2.827333     -0.750959
  C       2.337533      1.559887     -0.225141
  C       1.521635      0.438024     -0.473460
  C       1.839107     -0.780850      0.108903
  C       2.951650     -0.905171      0.940669
  C       3.764025      0.202395      1.187820
  C       3.465278      1.424398      0.607741
  H       0.650096      0.510959     -1.112766
  H       1.203847     -1.641106     -0.083951
  H       3.185649     -1.863961      1.394306
  H       4.632800      0.109352      1.832912
  H       4.085332      2.298073      0.784333
28
Coordinates from ORCA-job ./Products_b E -1159.350288749801
  C      -2.758265     -0.989368     -1.640015
  C      -2.162777     -0.021237     -0.839994
  C      -3.196157     -2.193899     -1.092830
  C      -1.997580     -0.267021      0.527491
  C      -2.433215     -1.473019      1.082265
  C      -3.031557     -2.429528      0.270711
  H      -1.806446      0.910256     -1.271477
  C      -0.920351      1.770505      1.285328
  H      -2.881737     -0.795989     -2.701544
  H      -3.664788     -2.941714     -1.724668
  H      -2.295901     -1.645221      2.145074
  H      -3.367040     -3.365292      0.707393
  N      -1.389623      0.663423      1.369506
  O      -0.205047      2.601481     -1.949086
  O      -0.435712      2.837098      1.354539
  S       0.990066      3.434386     -1.572296
  N       2.150328      2.821085     -0.739401
  C       2.338262      1.548364     -0.219656
  C       1.519530      0.436154     -0.501600
  C       1.818742     -0.796011      0.060666
  C       2.915566     -0.940728      0.909297
  C       3.728413      0.158027      1.193007
  C       3.449056      1.392008      0.630707
  H       0.660950      0.535896     -1.154216
  H       1.182823     -1.647974     -0.161142
  H       3.138055     -1.908694      1.347739
  H       4.584195      0.047961      1.851739
  H       4.070213      2.259053      0.832467
28
Coordinates from ORCA-job ./Products_b E -1159.350437476314
  C      -2.717198     -0.975751     -1.618001
  C      -2.135520      0.009732     -0.829531
  C      -3.089590     -2.200124     -1.067586
  C      -1.916680     -0.237906      0.529973
  C      -2.287909     -1.463885      1.087423
  C      -2.873484     -2.437539      0.288260
  H      -1.833054      0.956911     -1.267524
  C      -0.896659      1.833928      1.268680
  H      -2.881312     -0.779888     -2.673289
  H      -3.546572     -2.961986     -1.690651
  H      -2.109955     -1.636694      2.143930
  H      -3.158931     -3.387838      0.728473
  N      -1.313950      0.707009      1.359486
  O      -0.210706      2.656545     -1.952948
  O      -0.457305      2.920034      1.327488
  S       1.013637      3.451706     -1.590553
  N       2.154029      2.801833     -0.758465
  C       2.294076      1.525942     -0.231614
  C       1.451816      0.438338     -0.537695
  C       1.699690     -0.802629      0.028731
  C       2.768005     -0.978530      0.906843
  C       3.603747      0.096021      1.214601
  C       3.377133      1.337884      0.646716
  H       0.615239      0.567586     -1.212593
  H       1.045561     -1.635135     -0.212099
  H       2.951404     -1.952460      1.349584
  H       4.437160     -0.039429      1.896518
  H       4.017329      2.186325      0.865845
28
Coordinates from ORCA-job ./Products_b E -1159.350578355915
  C      -2.698998     -0.977257     -1.606740
  C      -2.131522      0.020591     -0.823920
  C      -3.036048     -2.210369     -1.053055
  C      -1.895103     -0.222321      0.533347
  C      -2.231658     -1.455884      1.094523
  C      -2.800992     -2.442890      0.299991
  H      -1.858841      0.976007     -1.263019
  C      -0.911603      1.871782      1.266165
  H      -2.878148     -0.784912     -2.660371
  H      -3.479144     -2.983762     -1.672248
  H      -2.041381     -1.624060      2.149697
  H      -3.061523     -3.399292      0.742948
  N      -1.312858      0.739277      1.361847
  O      -0.197158      2.688364     -1.944048
  O      -0.489405      2.964820      1.321279
  S       1.036919      3.469446     -1.585334
  N       2.170257      2.795812     -0.763553
  C       2.285925      1.514813     -0.243368
  C       1.432250      0.440765     -0.565243
  C       1.651914     -0.803788      0.004109
  C       2.703375     -0.996727      0.898774
  C       3.551653      0.063326      1.219397
  C       3.353942      1.309373      0.649367
  H       0.609169      0.585892     -1.252874
  H       0.988250     -1.626038     -0.246572
  H       2.864451     -1.973530      1.344386
  H       4.372110     -0.086445      1.914284
  H       4.004167      2.147008      0.880232
28
Coordinates from ORCA-job ./Products_b E -1159.350709791142
  C      -2.692400     -0.988133     -1.599616
  C      -2.141502      0.022726     -0.821555
  C      -3.002963     -2.226213     -1.040256
  C      -1.901776     -0.211987      0.536590
  C      -2.211408     -1.448623      1.104625
  C      -2.760639     -2.449986      0.312355
  H      -1.892219      0.984633     -1.260681
  C      -0.929914      1.894033      1.267108
  H      -2.878021     -0.803163     -2.653887
  H      -3.430978     -3.011409     -1.656081
  H      -2.018609     -1.609985      2.160603
  H      -3.002630     -3.410318      0.758639
  N      -1.348178      0.767640      1.368643
  O      -0.171821      2.717919     -1.934303
  O      -0.498086      2.983678      1.323464
  S       1.064588      3.493142     -1.570459
  N       2.195227      2.800176     -0.761699
  C       2.292227      1.511873     -0.255345
  C       1.432311      0.447936     -0.593890
  C       1.630049     -0.799217     -0.021802
  C       2.665830     -1.005952      0.888428
  C       3.523243      0.042489      1.220854
  C       3.347793      1.292221      0.649644
  H       0.622888      0.604337     -1.295080
  H       0.960755     -1.614576     -0.282055
  H       2.807958     -1.985146      1.336453
  H       4.332704     -0.118932      1.926767
  H       4.005572      2.120837      0.892535
28
Coordinates from ORCA-job ./Products_b E -1159.350763184725
  C      -2.675614     -0.991458     -1.587978
  C      -2.140527      0.032822     -0.815970
  C      -2.950628     -2.236635     -1.025025
  C      -1.882572     -0.196066      0.539918
  C      -2.156818     -1.439219      1.112165
  C      -2.689412     -2.454291      0.325037
  H      -1.920652      1.000907     -1.257669
  C      -0.923344      1.920451      1.260199
  H      -2.876908     -0.811694     -2.640386
  H      -3.367094     -3.031847     -1.636133
  H      -1.949700     -1.596135      2.166114
  H      -2.903175     -3.420475      0.773422
  N      -1.346033      0.796107      1.368191
  O      -0.161291      2.749245     -1.936903
  O      -0.490656      3.010096      1.314894
  S       1.085692      3.507314     -1.571488
  N       2.207242      2.797572     -0.763215
  C       2.279841      1.505290     -0.261311
  C       1.411132      0.455000     -0.618375
  C       1.581482     -0.797184     -0.047931
  C       2.598465     -1.022175      0.879264
  C       3.465805      0.012835      1.229467
  C       3.317918      1.267087      0.659451
  H       0.617731      0.627821     -1.333868
  H       0.905120     -1.602241     -0.322371
  H       2.718223     -2.004814      1.326511
  H       4.261441     -0.163014      1.947701
  H       3.984334      2.084701      0.916290
28
Coordinates from ORCA-job ./Products_b E -1159.350809046462
  C      -2.659231     -0.999048     -1.577378
  C      -2.144366      0.039337     -0.810254
  C      -2.904179     -2.248551     -1.010061
  C      -1.876039     -0.180280      0.545040
  C      -2.122692     -1.426978      1.122591
  C      -2.634776     -2.456385      0.340021
  H      -1.948890      1.011010     -1.254992
  C      -0.913090      1.939585      1.251741
  H      -2.868182     -0.827457     -2.629593
  H      -3.305839     -3.054104     -1.617393
  H      -1.908561     -1.576941      2.176021
  H      -2.824990     -3.425997      0.791349
  N      -1.357198      0.824412      1.367715
  O      -0.150183      2.777148     -1.940658
  O      -0.465725      3.023517      1.304331
  S       1.103095      3.521404     -1.567700
  N       2.216819      2.799105     -0.757503
  C       2.269901      1.502416     -0.263019
  C       1.396202      0.463515     -0.640370
  C       1.545990     -0.794738     -0.077241
  C       2.546043     -1.036515      0.863922
  C       3.418288     -0.012303      1.234913
  C       3.291523      1.247071      0.671326
  H       0.617135      0.650967     -1.368113
  H       0.866628     -1.591339     -0.368160
  H       2.648598     -2.023466      1.305622
  H       4.201211     -0.201075      1.963575
  H       3.962508      2.055692      0.944266
28
Coordinates from ORCA-job ./Products_b E -1159.350830943979
  C      -2.643431     -1.003747     -1.569456
  C      -2.144575      0.044426     -0.805071
  C      -2.867772     -2.255778     -0.999518
  C      -1.869195     -0.168078      0.549898
  C      -2.096859     -1.417300      1.130206
  C      -2.593763     -2.456403      0.350913
  H      -1.964654      1.017796     -1.252504
  C      -0.903643      1.953722      1.247838
  H      -2.856682     -0.837932     -2.621675
  H      -3.257856     -3.068468     -1.604739
  H      -1.878572     -1.562068      2.183493
  H      -2.767755     -3.427959      0.804359
  N      -1.363748      0.845681      1.367914
  O      -0.143251      2.798283     -1.948149
  O      -0.445508      3.033197      1.299653
  S       1.114772      3.530557     -1.568185
  N       2.219986      2.798689     -0.753339
  C       2.258930      1.499497     -0.263266
  C       1.382104      0.468510     -0.654943
  C       1.518406     -0.794208     -0.098289
  C       2.506923     -1.047776      0.851711
  C       3.381608     -0.031046      1.237921
  C       3.268817      1.232007      0.680135
  H       0.612074      0.665235     -1.389881
  H       0.837224     -1.584688     -0.401090
  H       2.598475     -2.038060      1.288128
  H       4.155659     -0.228717      1.973532
  H       3.942286      2.034625      0.964405
28
Coordinates from ORCA-job ./Products_b E -1159.350846889487
  C      -2.624577     -1.008484     -1.562997
  C      -2.143181      0.048795     -0.800122
  C      -2.833707     -2.261623     -0.990027
  C      -1.867182     -0.155335      0.555961
  C      -2.081265     -1.405710      1.139135
  C      -2.561798     -2.453863      0.362254
  H      -1.974040      1.022760     -1.250343
  C      -0.905322      1.970677      1.247347
  H      -2.836701     -0.848899     -2.616374
  H      -3.210451     -3.081370     -1.594083
  H      -1.863804     -1.544131      2.193498
  H      -2.724251     -3.426032      0.818511
  N      -1.376261      0.867713      1.369783
  O      -0.137679      2.814208     -1.953057
  O      -0.440911      3.047526      1.297701
  S       1.122281      3.537780     -1.564401
  N       2.220262      2.797154     -0.747070
  C       2.249615      1.495537     -0.262910
  C       1.371319      0.470797     -0.667702
  C       1.498861     -0.796423     -0.119248
  C       2.479098     -1.060140      0.836429
  C       3.354200     -0.049275      1.236694
  C       3.250727      1.217768      0.686597
  H       0.607250      0.675142     -1.406845
  H       0.817164     -1.582074     -0.432992
  H       2.563802     -2.053948      1.266088
  H       4.121627     -0.254602      1.977078
  H       3.924922      2.016056      0.981094
28
Coordinates from ORCA-job ./Products_b E -1159.350863649238
  C      -2.597271     -1.011810     -1.555085
  C      -2.137327      0.055561     -0.793274
  C      -2.787565     -2.266587     -0.979251
  C      -1.860452     -0.139626      0.563938
  C      -2.057184     -1.391618      1.149664
  C      -2.517746     -2.449774      0.374893
  H      -1.980547      1.030413     -1.246248
  C      -0.908557      1.993392      1.249992
  H      -2.808115     -0.858689     -2.609668
  H      -3.147778     -3.094375     -1.582374
  H      -1.840181     -1.523054      2.205108
  H      -2.665982     -3.422864      0.833952
  N      -1.386604      0.893945      1.373385
  O      -0.132745      2.836011     -1.961238
  O      -0.441214      3.069081      1.298530
  S       1.130620      3.546434     -1.561240
  N       2.217731      2.792156     -0.741964
  C       2.235098      1.487925     -0.264719
  C       1.354289      0.470946     -0.683522
  C       1.470020     -0.800685     -0.142621
  C       2.440485     -1.076121      0.819646
  C       3.317310     -0.072856      1.234423
  C       3.226021      1.198271      0.691771
  H       0.596691      0.683067     -1.427001
  H       0.786311     -1.580009     -0.467471
  H       2.516130     -2.073359      1.243013
  H       4.076827     -0.287011      1.980443
  H       3.901733      1.991235      0.996919
28
Coordinates from ORCA-job ./Products_b E -1159.350877257043
  C      -2.579540     -1.014045     -1.551805
  C      -2.132144      0.058132     -0.789516
  C      -2.767188     -2.268115     -0.973385
  C      -1.862636     -0.131463      0.569958
  C      -2.057637     -1.382391      1.158147
  C      -2.507078     -2.445182      0.383488
  H      -1.976113      1.032547     -1.243859
  C      -0.916530      2.005449      1.254064
  H      -2.783129     -0.865012     -2.608407
  H      -3.117438     -3.100059     -1.576673
  H      -1.846888     -1.509036      2.215493
  H      -2.653996     -3.417383      0.844897
  N      -1.396876      0.907287      1.377423
  O      -0.131321      2.843215     -1.965990
  O      -0.448283      3.080923      1.299608
  S       1.129825      3.550729     -1.554890
  N       2.211263      2.790660     -0.734705
  C       2.228026      1.484188     -0.264599
  C       1.349969      0.468563     -0.692413
  C       1.465228     -0.805892     -0.158023
  C       2.432675     -1.085509      0.806122
  C       3.306497     -0.083644      1.229799
  C       3.215735      1.190505      0.694028
  H       0.593453      0.682479     -1.436468
  H       0.783402     -1.583983     -0.489672
  H       2.508269     -2.085035      1.224151
  H       4.063473     -0.300929      1.977543
  H       3.888984      1.983001      1.005684
28
Coordinates from ORCA-job ./Products_b E -1159.350891823866
  C      -2.555784     -1.012800     -1.545689
  C      -2.120466      0.064192     -0.783306
  C      -2.734526     -2.267694     -0.965808
  C      -1.853012     -0.121713      0.577102
  C      -2.039546     -1.372929      1.166959
  C      -2.477721     -2.440425      0.392131
  H      -1.970442      1.039408     -1.238210
  C      -0.923280      2.023380      1.259594
  H      -2.757067     -0.866668     -2.603167
  H      -3.075174     -3.103769     -1.568951
  H      -1.830484     -1.495977      2.225068
  H      -2.618344     -3.413066      0.854709
  N      -1.395185      0.921824      1.383408
  O      -0.130784      2.852783     -1.973885
  O      -0.462684      3.102420      1.300754
  S       1.130819      3.553890     -1.552917
  N       2.204283      2.785114     -0.731891
  C       2.215417      1.476775     -0.267459
  C       1.338625      0.465129     -0.706364
  C       1.446428     -0.811747     -0.176133
  C       2.406206     -1.097750      0.793885
  C       3.279570     -0.099940      1.227819
  C       3.195937      1.176871      0.696787
  H       0.587261      0.683663     -1.454158
  H       0.764345     -1.586383     -0.515457
  H       2.476257     -2.098983      1.208887
  H       4.030669     -0.322293      1.980061
  H       3.868680      1.966689      1.016234
28
Coordinates from ORCA-job ./Products_b E -1159.350907474441
  C      -2.547134     -1.009865     -1.542829
  C      -2.111696      0.066047     -0.779006
  C      -2.730763     -2.264351     -0.963128
  C      -1.849824     -0.121429      0.582222
  C      -2.040904     -1.371520      1.172448
  C      -2.479296     -2.437821      0.395461
  H      -1.957861      1.041429     -1.232399
  C      -0.925949      2.025821      1.265523
  H      -2.744378     -0.863156     -2.601012
  H      -3.071250     -3.099880     -1.567197
  H      -1.835322     -1.495135      2.231088
  H      -2.624040     -3.410211      0.857421
  N      -1.388546      0.920434      1.389904
  O      -0.131584      2.851027     -1.983363
  O      -0.471604      3.107747      1.302356
  S       1.126260      3.553965     -1.552913
  N       2.196824      2.784423     -0.730293
  C       2.211082      1.474669     -0.270024
  C       1.340561      0.460683     -0.715524
  C       1.449724     -0.816513     -0.186204
  C       2.405574     -1.100879      0.788169
  C       3.273633     -0.100874      1.227829
  C       3.188185      1.176677      0.698531
  H       0.591703      0.677603     -1.466296
  H       0.771504     -1.592825     -0.529572
  H       2.476704     -2.102221      1.202777
  H       4.021895     -0.322126      1.983259
  H       3.856504      1.968284      1.022770
28
Coordinates from ORCA-job ./Products_b E -1159.350927321977
  C      -2.531322     -1.005751     -1.533614
  C      -2.097769      0.070723     -0.769439
  C      -2.711071     -2.261132     -0.954322
  C      -1.835387     -0.118070      0.591365
  C      -2.022535     -1.368331      1.182025
  C      -2.458877     -2.435185      0.403822
  H      -1.948124      1.047631     -1.220875
  C      -0.924837      2.034782      1.271896
  H      -2.729743     -0.858947     -2.591572
  H      -3.049937     -3.097244     -1.558539
  H      -1.815934     -1.492505      2.240274
  H      -2.600930     -3.408470      0.864787
  N      -1.373000      0.923754      1.399502
  O      -0.127285      2.853048     -2.000698
  O      -0.481294      3.121415      1.302717
  S       1.127444      3.555039     -1.558062
  N       2.191255      2.782339     -0.730229
  C       2.200892      1.470501     -0.275049
  C       1.338145      0.457593     -0.737183
  C       1.440049     -0.821294     -0.210495
  C       2.381322     -1.108404      0.777076
  C       3.242635     -0.109366      1.232682
  C       3.164382      1.169921      0.706355
  H       0.600600      0.678226     -1.498023
  H       0.767124     -1.596832     -0.565876
  H       2.446554     -2.110773      1.190141
  H       3.979978     -0.333123      1.998038
  H       3.827664      1.960457      1.043296
28
Coordinates from ORCA-job ./Products_b E -1159.350958929821
  C      -2.516914     -0.997873     -1.517723
  C      -2.078565      0.075829     -0.752336
  C      -2.693412     -2.255140     -0.941350
  C      -1.810735     -0.118535      0.606329
  C      -1.993963     -1.370040      1.195008
  C      -2.434489     -2.434312      0.414701
  H      -1.932457      1.055424     -1.198961
  C      -0.909193      2.037581      1.280100
  H      -2.721014     -0.848040     -2.574174
  H      -3.035954     -3.089192     -1.546368
  H      -1.781806     -1.498700      2.251472
  H      -2.573961     -3.409533      0.872333
  N      -1.339993      0.920214      1.414882
  O      -0.116250      2.856174     -2.036207
  O      -0.477143      3.129035      1.301807
  S       1.131452      3.557770     -1.572256
  N       2.184526      2.782319     -0.733011
  C       2.186553      1.467698     -0.284060
  C       1.339862      0.453888     -0.773290
  C       1.431336     -0.826463     -0.248158
  C       2.345761     -1.114269      0.763851
  C       3.191776     -0.114245      1.246066
  C       3.124333      1.166374      0.721719
  H       0.622984      0.676381     -1.553312
  H       0.770321     -1.602909     -0.623342
  H       2.401971     -2.117517      1.176007
  H       3.908645     -0.338860      2.030339
  H       3.776327      1.956943      1.079933
28
Coordinates from ORCA-job ./Products_b E -1159.350998821291
  C      -2.498702     -0.985380     -1.490460
  C      -2.049056      0.082516     -0.723637
  C      -2.669005     -2.246086     -0.919819
  C      -1.766344     -0.120999      0.630418
  C      -1.942822     -1.375646      1.213854
  C      -2.393791     -2.434630      0.431819
  H      -1.908042      1.066040     -1.163138
  C      -0.872028      2.037143      1.291214
  H      -2.715808     -0.829421     -2.543416
  H      -3.020238     -3.075792     -1.525817
  H      -1.717971     -1.512413      2.266601
  H      -2.528307     -3.413017      0.884038
  N      -1.281687      0.912730      1.438384
  O      -0.092990      2.857848     -2.095978
  O      -0.453166      3.133725      1.299898
  S       1.140773      3.561528     -1.599917
  N       2.175182      2.784145     -0.738281
  C       2.162125      1.466087     -0.297536
  C       1.343861      0.451060     -0.831613
  C       1.417803     -0.831807     -0.309804
  C       2.283920     -1.120763      0.743198
  C       3.101268     -0.119332      1.270445
  C       3.053152      1.163279      0.749294
  H       0.663029      0.675623     -1.643143
  H       0.778865     -1.609646     -0.718709
  H       2.324671     -2.125823      1.152640
  H       3.780983     -0.345001      2.086773
  H       3.684323      1.954031      1.142690
28
Coordinates from ORCA-job ./Products_b E -1159.351028247884
  C      -2.509680     -0.971034     -1.472676
  C      -2.034293      0.083854     -0.703615
  C      -2.685576     -2.234857     -0.910898
  C      -1.733049     -0.134152      0.644235
  C      -1.913404     -1.392714      1.217907
  C      -2.389145     -2.439322      0.434237
  H      -1.886399      1.069371     -1.136362
  C      -0.832165      2.018196      1.297956
  H      -2.742143     -0.803308     -2.520538
  H      -3.057013     -3.054472     -1.518566
  H      -1.672863     -1.542362      2.265536
  H      -2.526885     -3.420475      0.879364
  N      -1.224533      0.887835      1.452961
  O      -0.078132      2.852059     -2.145028
  O      -0.422307      3.117906      1.299751
  S       1.144952      3.559355     -1.629780
  N       2.169128      2.787858     -0.749214
  C       2.151032      1.470164     -0.306866
  C       1.359473      0.447287     -0.866007
  C       1.429084     -0.834532     -0.340879
  C       2.260940     -1.114342      0.741618
  C       3.050081     -0.104696      1.295286
  C       3.008775      1.176248      0.769734
  H       0.703131      0.663603     -1.699665
  H       0.811859     -1.619043     -0.769865
  H       2.296585     -2.118736      1.153182
  H       3.703097     -0.322660      2.135141
  H       3.619452      1.972968      1.183051
28
Coordinates from ORCA-job ./Products_b E -1159.351041383723
  C      -2.520479     -0.965513     -1.465466
  C      -2.035732      0.084450     -0.695876
  C      -2.694867     -2.231345     -0.907904
  C      -1.721987     -0.138603      0.648480
  C      -1.900782     -1.399919      1.216734
  C      -2.386139     -2.441928      0.433733
  H      -1.886977      1.070461     -1.127147
  C      -0.819770      2.011969      1.299373
  H      -2.761622     -0.792379     -2.510457
  H      -3.073503     -3.047299     -1.515981
  H      -1.651078     -1.554087      2.261720
  H      -2.522400     -3.424357      0.876426
  N      -1.206601      0.879708      1.457169
  O      -0.070985      2.845402     -2.160508
  O      -0.413222      3.112658      1.299897
  S       1.150081      3.554619     -1.644271
  N       2.171619      2.787922     -0.755621
  C       2.150367      1.472130     -0.308755
  C       1.368636      0.447398     -0.877003
  C       1.435828     -0.834356     -0.351699
  C       2.253999     -1.111297      0.742043
  C       3.031867     -0.099070      1.306278
  C       2.994599      1.181444      0.779108
  H       0.722357      0.662496     -1.718424
  H       0.827917     -1.621002     -0.789797
  H       2.287600     -2.115818      1.153468
  H       3.673726     -0.314243      2.155400
  H       3.597549      1.980558      1.199081
28
Coordinates from ORCA-job ./Products_b E -1159.351046640177
  C      -2.526170     -0.961604     -1.462034
  C      -2.037623      0.085624     -0.691447
  C      -2.699311     -2.228896     -0.907201
  C      -1.716865     -0.140804      0.650745
  C      -1.894373     -1.403720      1.215689
  C      -2.384231     -2.443064      0.432392
  H      -1.887146      1.071906     -1.121614
  C      -0.809761      2.007255      1.300901
  H      -2.771469     -0.784937     -2.505447
  H      -3.080931     -3.042963     -1.515908
  H      -1.639498     -1.560334      2.259136
  H      -2.519383     -3.426351      0.873528
  N      -1.197731      0.875424      1.459628
  O      -0.068189      2.844025     -2.168521
  O      -0.401822      3.107339      1.300477
  S       1.150843      3.553942     -1.649583
  N       2.170601      2.787337     -0.759410
  C       2.149118      1.472157     -0.311309
  C       1.373295      0.445244     -0.883780
  C       1.439227     -0.835599     -0.356042
  C       2.250169     -1.109338      0.743944
  C       3.021872     -0.095049      1.312158
  C       2.986296      1.184699      0.782823
  H       0.731752      0.656416     -1.730032
  H       0.836469     -1.624127     -0.797794
  H       2.282742     -2.113285      1.156852
  H       3.657752     -0.307388      2.166486
  H       3.584367      1.986091      1.205364
28
Coordinates from ORCA-job ./Products_b E -1159.351049615507
  C      -2.528335     -0.960048     -1.460735
  C      -2.042512      0.088319     -0.690078
  C      -2.694316     -2.228908     -0.907065
  C      -1.715728     -0.138331      0.650645
  C      -1.886231     -1.402837      1.214274
  C      -2.374000     -2.443220      0.431211
  H      -1.895697      1.075137     -1.120410
  C      -0.811465      2.011127      1.300737
  H      -2.777279     -0.782560     -2.503153
  H      -3.073925     -3.043952     -1.515735
  H      -1.626921     -1.559018      2.256739
  H      -2.503474     -3.427509      0.871896
  N      -1.198660      0.879042      1.459249
  O      -0.067534      2.845430     -2.166609
  O      -0.405206      3.111841      1.300153
  S       1.154602      3.552575     -1.651103
  N       2.173495      2.783983     -0.762247
  C       2.149549      1.469597     -0.312140
  C       1.372941      0.443878     -0.885301
  C       1.435137     -0.836738     -0.356547
  C       2.243440     -1.110942      0.745377
  C       3.016110     -0.097787      1.314044
  C       2.984427      1.181733      0.783606
  H       0.733568      0.655852     -1.732904
  H       0.831674     -1.624370     -0.798968
  H       2.273155     -2.114551      1.159386
  H       3.650010     -0.310490      2.169797
  H       3.583175      1.982749      1.205880
28
Coordinates from ORCA-job ./Products_b E -1159.351052099765
  C      -2.533947     -0.957962     -1.460482
  C      -2.046073      0.089693     -0.690085
  C      -2.698732     -2.227337     -0.907496
  C      -1.715312     -0.138669      0.649363
  C      -1.884533     -1.403587      1.212500
  C      -2.374822     -2.443026      0.429602
  H      -1.899052      1.076570     -1.120276
  C      -0.810068      2.010310      1.299843
  H      -2.785500     -0.779115     -2.502056
  H      -3.080148     -3.041779     -1.515872
  H      -1.622182     -1.560477      2.254085
  H      -2.503271     -3.427690      0.869822
  N      -1.195820      0.877680      1.457929
  O      -0.068896      2.842072     -2.164940
  O      -0.405354      3.111622      1.298927
  S       1.153057      3.550838     -1.651041
  N       2.172543      2.783275     -0.762674
  C       2.150263      1.469012     -0.311899
  C       1.376505      0.441656     -0.886132
  C       1.439950     -0.838600     -0.356565
  C       2.246640     -1.110695      0.747078
  C       3.016685     -0.095986      1.316445
  C       2.983951      1.183264      0.785303
  H       0.738388      0.651801     -1.735225
  H       0.838414     -1.627501     -0.799396
  H       2.277096     -2.113905      1.162052
  H       3.649617     -0.307152      2.173324
  H       3.580601      1.985687      1.207863
28
Coordinates from ORCA-job ./Products_b E -1159.351054755806
  C      -2.533868     -0.953258     -1.455097
  C      -2.045316      0.095109     -0.685874
  C      -2.690384     -2.224204     -0.903265
  C      -1.704913     -0.135233      0.650752
  C      -1.865779     -1.401532      1.213267
  C      -2.357383     -2.441290      0.431253
  H      -1.903612      1.083027     -1.115490
  C      -0.802550      2.015417      1.299347
  H      -2.792531     -0.773233     -2.494743
  H      -3.072691     -3.039024     -1.510617
  H      -1.595847     -1.559108      2.252752
  H      -2.479255     -3.427286      0.870429
  N      -1.183088      0.881140      1.458235
  O      -0.068308      2.840252     -2.168628
  O      -0.403080      3.118686      1.296440
  S       1.153468      3.548762     -1.653605
  N       2.169936      2.779752     -0.763806
  C       2.144021      1.465126     -0.313514
  C       1.377082      0.437537     -0.896592
  C       1.436530     -0.843135     -0.367431
  C       2.231526     -1.115017      0.744671
  C       2.994743     -0.099975      1.322678
  C       2.966834      1.179560      0.791863
  H       0.747948      0.647653     -1.752512
  H       0.840435     -1.632464     -0.816814
  H       2.258359     -2.118298      1.159751
  H       3.619139     -0.311212      2.185800
  H       3.558585      1.982251      1.220750
28
Coordinates from ORCA-job ./Products_b E -1159.351056849684
  C      -2.546254     -0.951387     -1.458783
  C      -2.053963      0.096658     -0.691125
  C      -2.702247     -2.222207     -0.906748
  C      -1.709640     -0.135130      0.644185
  C      -1.869630     -1.401339      1.207376
  C      -2.365028     -2.440366      0.426480
  H      -1.913046      1.084396     -1.121342
  C      -0.804734      2.014822      1.294422
  H      -2.808314     -0.770835     -2.497496
  H      -3.087767     -3.036404     -1.512935
  H      -1.596463     -1.559567      2.245849
  H      -2.486272     -3.426496      0.865542
  N      -1.184606      0.880134      1.451258
  O      -0.077751      2.835231     -2.157463
  O      -0.406879      3.118748      1.293455
  S       1.146856      3.544376     -1.648868
  N       2.168875      2.778178     -0.763025
  C       2.147811      1.464168     -0.310245
  C       1.381941      0.433724     -0.889211
  C       1.447520     -0.846264     -0.359072
  C       2.247398     -1.114516      0.750378
  C       3.009595     -0.096370      1.324527
  C       2.975596      1.182452      0.792379
  H       0.750363      0.640969     -1.743866
  H       0.852742     -1.638177     -0.805655
  H       2.279155     -2.117231      1.166470
  H       3.638074     -0.304867      2.185339
  H       3.566669      1.987301      1.218175
28
Coordinates from ORCA-job ./Products_b E -1159.351059295910
  C      -2.543460     -0.950181     -1.455958
  C      -2.050028      0.097582     -0.688687
  C      -2.699356     -2.220952     -0.903979
  C      -1.705330     -0.134113      0.646516
  C      -1.865292     -1.400347      1.209547
  C      -2.361345     -2.439278      0.429101
  H      -1.910160      1.085520     -1.118724
  C      -0.801927      2.016501      1.295800
  H      -2.806302     -0.769808     -2.494488
  H      -3.085478     -3.034970     -1.509992
  H      -1.591747     -1.558990      2.247865
  H      -2.482689     -3.425401      0.868068
  N      -1.179767      0.881201      1.453157
  O      -0.076254      2.832978     -2.161807
  O      -0.405753      3.120998      1.294649
  S       1.145891      3.543825     -1.650410
  N       2.166777      2.778315     -0.762238
  C       2.144773      1.463667     -0.311246
  C       1.383159      0.432848     -0.895322
  C       1.448187     -0.847692     -0.366526
  C       2.242781     -1.116286      0.746584
  C       3.000298     -0.097714      1.326139
  C       2.967151      1.181614      0.795295
  H       0.755355      0.640114     -1.752862
  H       0.857191     -1.640042     -0.817294
  H       2.274087     -2.119577      1.161260
  H       3.624330     -0.306383      2.190100
  H       3.554910      1.986570      1.225451
28
Coordinates from ORCA-job ./Products_b E -1159.351061240306
  C      -2.540623     -0.947515     -1.452476
  C      -2.046437      0.100437     -0.686009
  C      -2.693532     -2.218731     -0.900893
  C      -1.699024     -0.130923      0.648521
  C      -1.856034     -1.397760      1.210908
  C      -2.352203     -2.437147      0.431468
  H      -1.910461      1.088952     -1.115987
  C      -0.798385      2.021161      1.297060
  H      -2.806283     -0.767432     -2.490327
  H      -3.079913     -3.032924     -1.506477
  H      -1.580193     -1.556888      2.248578
  H      -2.471354     -3.423632      0.870130
  N      -1.173516      0.884987      1.454148
  O      -0.077281      2.831073     -2.165052
  O      -0.405167      3.126699      1.296895
  S       1.143708      3.541950     -1.651855
  N       2.163836      2.776298     -0.762189
  C       2.139971      1.461184     -0.312502
  C       1.383939      0.429788     -0.902725
  C       1.447938     -0.851250     -0.375088
  C       2.235341     -1.119910      0.743076
  C       2.986998     -0.100701      1.329053
  C       2.955319      1.179014      0.799149
  H       0.761392      0.636433     -1.764256
  H       0.861922     -1.644253     -0.831132
  H       2.265818     -2.123777      1.156372
  H       3.605169     -0.309287      2.197202
  H       3.539055      1.984155      1.234410
28
Coordinates from ORCA-job ./Products_b E -1159.351061700773
  C      -2.541653     -0.946783     -1.452882
  C      -2.047171      0.101193     -0.686671
  C      -2.694184     -2.218054     -0.901275
  C      -1.699305     -0.129954      0.647794
  C      -1.855982     -1.396860      1.210119
  C      -2.352287     -2.436345      0.430981
  H      -1.912104      1.089765     -1.116846
  C      -0.798879      2.022314      1.297108
  H      -2.807830     -0.766786     -2.490617
  H      -3.080713     -3.032281     -1.506713
  H      -1.579786     -1.555985      2.247713
  H      -2.471195     -3.422823      0.869726
  N      -1.173939      0.886040      1.453191
  O      -0.079589      2.829285     -2.162935
  O      -0.406206      3.128067      1.298209
  S       1.141604      3.540643     -1.651046
  N       2.162850      2.775497     -0.762097
  C       2.139849      1.460410     -0.312271
  C       1.384849      0.428327     -0.902530
  C       1.449949     -0.852639     -0.374869
  C       2.237499     -1.120603      0.743378
  C       2.988194     -0.100726      1.329372
  C       2.955406      1.178953      0.799409
  H       0.762130      0.634127     -1.764113
  H       0.864691     -1.646146     -0.831008
  H       2.268792     -2.124454      1.156657
  H       3.606512     -0.308746      2.197553
  H       3.538497      1.984564      1.234663
28
Coordinates from ORCA-job ./Products_b E -1159.351061898107
  C      -2.542780     -0.945869     -1.453374
  C      -2.047850      0.101870     -0.687175
  C      -2.694947     -2.217361     -0.902044
  C      -1.699175     -0.129520      0.647071
  C      -1.855475     -1.396639      1.209050
  C      -2.352203     -2.435928      0.429937
  H      -1.913283      1.090556     -1.117302
  C      -0.798543      2.022624      1.297404
  H      -2.809602     -0.765530     -2.490888
  H      -3.081820     -3.031427     -1.507483
  H      -1.578631     -1.555985      2.246450
  H      -2.470801     -3.422513      0.868552
  N      -1.173530      0.886219      1.452384
  O      -0.081672      2.827927     -2.161386
  O      -0.406268      3.128541      1.299737
  S       1.140092      3.539447     -1.651080
  N       2.162136      2.774609     -0.762829
  C       2.139722      1.459746     -0.312321
  C       1.385201      0.427020     -0.901994
  C       1.450986     -0.853687     -0.373764
  C       2.238803     -1.120732      0.744543
  C       2.989118     -0.100239      1.329876
  C       2.955693      1.179202      0.799301
  H       0.762063      0.631856     -1.763486
  H       0.865949     -1.647617     -0.829457
  H       2.270502     -2.124368      1.158330
  H       3.607780     -0.307520      2.198001
  H       3.538534      1.985319      1.233948
