 28
  Energy -1159.259900094564  Dipole 7.90207  G(298) 99.96
 C   -2.93676900  -0.22498900   0.96342800
 C   -2.16575000   0.91345400   0.78030700
 C   -2.95589100  -1.22560100  -0.00668000
 C   -1.40122900   1.05493000  -0.39034000
 C   -1.42389700   0.04743800  -1.36836500
 C   -2.20021500  -1.08480100  -1.16876600
 H   -2.14086700   1.69540100   1.53236000
 C   -0.59466500   2.20343900  -0.57618700
 H   -3.52581500  -0.33255400   1.86943200
 H   -3.56091300  -2.11503700   0.14272400
 H   -0.82604100   0.16044100  -2.26672400
 H   -2.21187700  -1.86457200  -1.92455700
 N    0.10406600   3.11673300  -0.74738100
 O    0.83956300   4.06527300  -0.90747100
 N    2.20720200   1.57411800   1.18549400
 S    3.17309800   2.65968300   0.62537600
 O    3.93537000   2.39675800  -0.64124100
 C    1.88361500   0.30980900   0.70693700
 C    2.33465300  -0.23432500  -0.51241700
 C    1.03166800  -0.44903400   1.53129600
 C    1.93738700  -1.51337000  -0.87549100
 C    0.64886300  -1.72603700   1.15487300
 C    1.10176900  -2.26332400  -0.04889100
 H    2.98547600   0.34427800  -1.15572100
 H    0.68602900  -0.01032700   2.46230400
 H    2.28639600  -1.93173800  -1.81538600
 H   -0.01034900  -2.30274100   1.79692000
 H    0.79912400  -3.26330400  -0.34583200
