28
Coordinates from ORCA-job ./TS1_b E -1159.234258146980
  C      -4.105487     -1.061205      0.174481
  C      -3.322492      0.083672      0.280192
  C      -3.722871     -2.245326      0.814417
  C      -2.134209      0.055606      1.043095
  C      -1.752918     -1.136750      1.688018
  C      -2.546520     -2.275750      1.567724
  H      -3.615053      1.009297     -0.220110
  C      -1.331654      1.233631      1.157237
  H      -5.024104     -1.029380     -0.416880
  H      -4.342043     -3.141306      0.725199
  H      -0.835258     -1.146063      2.277533
  H      -2.242624     -3.196450      2.072090
  N      -1.284399      2.420460      0.883971
  O      -0.512790      3.392027      0.997947
  O       0.352286      0.930726      2.076392
  S       1.403131      2.078727      1.891165
  N       2.451689      1.992926      0.750962
  C       2.638904      1.136296     -0.323186
  C       3.682176      1.464463     -1.216912
  C       3.952069      0.655058     -2.315485
  C       3.191639     -0.496560     -2.545810
  C       2.158105     -0.831405     -1.663783
  C       1.876400     -0.030110     -0.560924
  H       4.264475      2.367619     -1.020353
  H       4.761412      0.923500     -2.999430
  H       3.403469     -1.131569     -3.409643
  H       1.561797     -1.730935     -1.838442
  H       1.074871     -0.291200      0.130535
28
Coordinates from ORCA-job ./TS1_b E -1159.235813191711
  C      -3.875721     -1.088981      0.025012
  C      -3.137708      0.074401      0.174485
  C      -3.502894     -2.255028      0.693279
  C      -2.007827      0.078456      1.013804
  C      -1.633511     -1.092850      1.687519
  C      -2.382921     -2.250394      1.519638
  H      -3.420767      0.983317     -0.346353
  C      -1.259307      1.283715      1.164227
  H      -4.747933     -1.085955     -0.622031
  H      -4.085028     -3.163058      0.568611
  H      -0.764454     -1.086070      2.334357
  H      -2.088456     -3.154811      2.043514
  N      -1.234085      2.460178      0.876085
  O      -0.493433      3.451636      1.015328
  O       0.366864      1.016479      2.183186
  S       1.442138      2.124402      1.987682
  N       2.446029      1.980504      0.817793
  C       2.538383      1.110860     -0.257407
  C       3.579104      1.376323     -1.167181
  C       3.765825      0.563173     -2.273787
  C       2.923365     -0.525760     -2.494475
  C       1.891998     -0.795692     -1.595423
  C       1.691019      0.007623     -0.482463
  H       4.225306      2.228633     -0.981706
  H       4.571153      0.779204     -2.969783
  H       3.069151     -1.161570     -3.362595
  H       1.233859     -1.643611     -1.762578
  H       0.889851     -0.215123      0.211262
28
Coordinates from ORCA-job ./TS1_b E -1159.235877516433
  C      -3.698254     -1.089625     -0.128142
  C      -2.990137      0.083371      0.081132
  C      -3.373376     -2.248125      0.577319
  C      -1.942942      0.106168      1.021155
  C      -1.617483     -1.057774      1.732299
  C      -2.333220     -2.225942      1.502051
  H      -3.234074      0.985806     -0.469938
  C      -1.222308      1.320253      1.230203
  H      -4.507043     -1.100685     -0.852894
  H      -3.929843     -3.164302      0.404159
  H      -0.809053     -1.037968      2.453532
  H      -2.075752     -3.124867      2.054212
  N      -1.198488      2.499551      0.951390
  O      -0.458695      3.490571      1.106371
  O       0.384101      1.052880      2.276016
  S       1.479167      2.135390      2.045804
  N       2.439309      1.974697      0.841425
  C       2.484205      1.094072     -0.228831
  C       3.460772      1.367035     -1.205067
  C       3.591642      0.544499     -2.313132
  C       2.758260     -0.562695     -2.468029
  C       1.792885     -0.842500     -1.501020
  C       1.648089     -0.029107     -0.386847
  H       4.100705      2.233524     -1.070099
  H       4.346934      0.767573     -3.061128
  H       2.861232     -1.205413     -3.337239
  H       1.143651     -1.706075     -1.615273
  H       0.899717     -0.260310      0.360570
28
Coordinates from ORCA-job ./TS1_b E -1159.235944123021
  C      -3.544855     -1.100980     -0.258262
  C      -2.838801      0.067757     -0.019200
  C      -3.326796     -2.232332      0.527237
  C      -1.908527      0.114891      1.035158
  C      -1.690798     -1.021575      1.827164
  C      -2.398029     -2.187446      1.563659
  H      -2.996156      0.948304     -0.633485
  C      -1.192331      1.324826      1.279446
  H      -4.264972     -1.131179     -1.070611
  H      -3.878688     -3.146231      0.329247
  H      -0.969575     -0.983148      2.635061
  H      -2.224248     -3.065856      2.177912
  N      -1.165412      2.510355      1.025889
  O      -0.411118      3.488935      1.191347
  O       0.413555      1.023933      2.309280
  S       1.516709      2.099862      2.083767
  N       2.459186      1.940309      0.865248
  C       2.467914      1.073354     -0.217490
  C       3.361033      1.398320     -1.255226
  C       3.450690      0.590930     -2.378486
  C       2.662451     -0.554272     -2.484817
  C       1.784164     -0.887805     -1.454018
  C       1.678668     -0.088558     -0.325328
  H       3.968259      2.292750     -1.156636
  H       4.139509      0.854814     -3.175707
  H       2.734484     -1.185933     -3.365167
  H       1.173154     -1.782953     -1.529343
  H       1.000528     -0.361069      0.473361
28
Coordinates from ORCA-job ./TS1_b E -1159.235988447753
  C      -3.285656     -1.152707     -0.409130
  C      -2.601411      0.022066     -0.135765
  C      -3.203699     -2.236839      0.463984
  C      -1.840315      0.123889      1.042177
  C      -1.759028     -0.965562      1.921637
  C      -2.436624     -2.139893      1.622658
  H      -2.647631      0.865580     -0.816906
  C      -1.144879      1.336884      1.325723
  H      -3.878299     -1.226365     -1.316235
  H      -3.734883     -3.156786      0.238621
  H      -1.162101     -0.881778      2.822574
  H      -2.369399     -2.983203      2.303458
  N      -1.104088      2.524916      1.085965
  O      -0.337159      3.491133      1.273987
  O       0.445845      1.015873      2.377820
  S       1.566310      2.069990      2.144127
  N       2.479416      1.902620      0.903551
  C       2.421470      1.053920     -0.193846
  C       3.261908      1.387738     -1.271897
  C       3.280222      0.602148     -2.414099
  C       2.473192     -0.531527     -2.499623
  C       1.649764     -0.876332     -1.427999
  C       1.615522     -0.098509     -0.279787
  H       3.884528      2.273292     -1.189480
  H       3.928220      0.874217     -3.242275
  H       2.489535     -1.146484     -3.394543
  H       1.026475     -1.764404     -1.485838
  H       0.982766     -0.383875      0.551140
28
Coordinates from ORCA-job ./TS1_b E -1159.235964082259
  C      -3.166794     -1.164401     -0.469163
  C      -2.497984      0.013410     -0.170822
  C      -3.156915     -2.228076      0.431997
  C      -1.827659      0.138011      1.058296
  C      -1.820014     -0.930613      1.966286
  C      -2.479956     -2.108456      1.643889
  H      -2.485398      0.841065     -0.872657
  C      -1.135324      1.347579      1.362355
  H      -3.689481     -1.256915     -1.416581
  H      -3.674647     -3.150907      0.187837
  H      -1.293253     -0.828453      2.908545
  H      -2.470714     -2.936247      2.346587
  N      -1.082118      2.536659      1.126827
  O      -0.295754      3.487047      1.323099
  O       0.454501      0.999315      2.397218
  S       1.583446      2.045588      2.161899
  N       2.481164      1.879930      0.910040
  C       2.404544      1.038141     -0.191903
  C       3.193983      1.401707     -1.298167
  C       3.189733      0.624241     -2.446050
  C       2.412292     -0.531396     -2.508853
  C       1.641973     -0.906707     -1.408490
  C       1.630127     -0.137059     -0.254478
  H       3.794625      2.303710     -1.233618
  H       3.797167      0.919594     -3.296663
  H       2.410981     -1.139990     -3.408217
  H       1.042711     -1.812213     -1.447894
  H       1.038764     -0.444564      0.598682
28
Coordinates from ORCA-job ./TS1_b E -1159.235965911044
  C      -3.409518     -1.125304     -0.343766
  C      -2.715556      0.046616     -0.083829
  C      -3.268672     -2.230092      0.495109
  C      -1.880222      0.123106      1.044835
  C      -1.740281     -0.986789      1.890347
  C      -2.431712     -2.156755      1.605952
  H      -2.809129      0.906855     -0.738671
  C      -1.171935      1.332666      1.310475
  H      -4.057840     -1.179698     -1.213331
  H      -3.809387     -3.147095      0.280927
  H      -1.090420     -0.922417      2.755474
  H      -2.319436     -3.015518      2.260986
  N      -1.129679      2.518507      1.059539
  O      -0.360418      3.484448      1.239108
  O       0.426460      1.010597      2.343736
  S       1.540930      2.074330      2.116356
  N       2.466749      1.914990      0.884737
  C       2.445490      1.058878     -0.207269
  C       3.299552      1.401937     -1.271651
  C       3.355541      0.608483     -2.407018
  C       2.572997     -0.541786     -2.499255
  C       1.735877     -0.895159     -1.441115
  C       1.664320     -0.109960     -0.299912
  H       3.902826      2.300245     -1.184378
  H       4.013654      0.887250     -3.224868
  H       2.618388     -1.162638     -3.389030
  H       1.130769     -1.795346     -1.504175
  H       1.020652     -0.400354      0.520687
28
Coordinates from ORCA-job ./TS1_b E -1159.235987657109
  C      -3.316802     -1.149963     -0.389702
  C      -2.637323      0.028072     -0.118665
  C      -3.209281     -2.240949      0.471942
  C      -1.852551      0.125032      1.044023
  C      -1.746385     -0.971039      1.912381
  C      -2.421518     -2.147708      1.616925
  H      -2.703919      0.877319     -0.791010
  C      -1.153709      1.337923      1.319815
  H      -3.926596     -1.220325     -1.285618
  H      -3.737544     -3.163122      0.248815
  H      -1.134406     -0.890579      2.803621
  H      -2.335542     -2.995913      2.289490
  N      -1.109904      2.524443      1.072426
  O      -0.340573      3.489339      1.258797
  O       0.439019      1.016449      2.366733
  S       1.557458      2.073906      2.136326
  N       2.476659      1.906998      0.900270
  C       2.426014      1.056726     -0.196242
  C       3.283320      1.381140     -1.263745
  C       3.309594      0.593245     -2.404171
  C       2.492833     -0.532750     -2.498800
  C       1.651478     -0.867495     -1.438057
  C       1.609791     -0.087683     -0.291503
  H       3.912951      2.261065     -1.174733
  H       3.971003      0.857701     -3.224179
  H       2.514947     -1.149199     -3.392560
  H       1.019460     -1.748877     -1.503166
  H       0.961525     -0.363755      0.530588
28
Coordinates from ORCA-job ./TS1_b E -1159.235848524633
  C      -3.150706     -1.167555     -0.468799
  C      -2.483208      0.009881     -0.165737
  C      -3.166487     -2.222679      0.442223
  C      -1.842370      0.142800      1.077769
  C      -1.861072     -0.916862      1.995839
  C      -2.517801     -2.095105      1.668911
  H      -2.449012      0.830586     -0.874981
  C      -1.144018      1.348223      1.385248
  H      -3.651392     -1.266886     -1.427300
  H      -3.681910     -3.145756      0.194123
  H      -1.355149     -0.807708      2.948826
  H      -2.528718     -2.916671      2.378772
  N      -1.096690      2.541003      1.161060
  O      -0.296994      3.481980      1.355545
  O       0.446764      0.986448      2.395792
  S       1.579340      2.030121      2.154181
  N       2.466948      1.872934      0.894414
  C       2.404369      1.032367     -0.208857
  C       3.188254      1.411968     -1.313823
  C       3.197437      0.638139     -2.464019
  C       2.438848     -0.529796     -2.531196
  C       1.674666     -0.921185     -1.432203
  C       1.650263     -0.155620     -0.275783
  H       3.773804      2.323596     -1.246446
  H       3.800446      0.946139     -3.313243
  H       2.447824     -1.135479     -3.432433
  H       1.090586     -1.836535     -1.473998
  H       1.065977     -0.478344      0.576114
28
Coordinates from ORCA-job ./TS1_b E -1159.235994626421
  C      -3.245139     -1.162354     -0.426894
  C      -2.570496      0.016001     -0.144691
  C      -3.187013     -2.237644      0.458761
  C      -1.843106      0.129256      1.052955
  C      -1.786531     -0.951174      1.945208
  C      -2.454581     -2.128904      1.638812
  H      -2.597107      0.852870     -0.835117
  C      -1.145944      1.340413      1.340158
  H      -3.811372     -1.245710     -1.349847
  H      -3.710436     -3.160472      0.227028
  H      -1.216911     -0.857920      2.863060
  H      -2.407331     -2.965417      2.329570
  N      -1.097797      2.528515      1.100159
  O      -0.319947      3.486205      1.291565
  O       0.447885      1.004976      2.378459
  S       1.570441      2.058167      2.147276
  N       2.480438      1.893460      0.904154
  C       2.417556      1.049263     -0.196598
  C       3.249794      1.389501     -1.278822
  C       3.262428      0.608372     -2.424137
  C       2.457686     -0.527035     -2.508817
  C       1.642374     -0.878077     -1.433133
  C       1.614069     -0.104885     -0.281694
  H       3.870704      2.276315     -1.197397
  H       3.904009      0.885298     -3.255688
  H       2.469311     -1.138328     -3.406297
  H       1.020381     -1.767140     -1.490168
  H       0.986636     -0.393549      0.552135
28
Coordinates from ORCA-job ./TS1_b E -1159.235941906127
  C      -3.467156     -1.109982     -0.306770
  C      -2.773880      0.063380     -0.052488
  C      -3.280251     -2.230678      0.501582
  C      -1.890922      0.125514      1.040648
  C      -1.704794     -1.000073      1.855862
  C      -2.397192     -2.170949      1.576806
  H      -2.904234      0.935840     -0.684421
  C      -1.182586      1.336616      1.299285
  H      -4.151762     -1.152743     -1.148770
  H      -3.820886     -3.148619      0.291363
  H      -1.019860     -0.946738      2.694099
  H      -2.248518     -3.041529      2.208627
  N      -1.143759      2.520441      1.037326
  O      -0.378642      3.490712      1.209287
  O       0.409720      1.027484      2.341369
  S       1.525829      2.088772      2.106878
  N       2.454959      1.923908      0.878486
  C       2.447541      1.060948     -0.208016
  C       3.321389      1.393426     -1.259783
  C       3.392632      0.593402     -2.389642
  C       2.605182     -0.552892     -2.489353
  C       1.747849     -0.895651     -1.443972
  C       1.661600     -0.104060     -0.308264
  H       3.927868      2.289032     -1.166987
  H       4.066356      0.864172     -3.197406
  H       2.662350     -1.178779     -3.374918
  H       1.138820     -1.792813     -1.512638
  H       1.002347     -0.388141      0.501812
28
Coordinates from ORCA-job ./TS1_b E -1159.235988660703
  C      -3.359258     -1.139789     -0.368549
  C      -2.674512      0.036275     -0.102575
  C      -3.233703     -2.237547      0.482006
  C      -1.865015      0.124225      1.043877
  C      -1.740699     -0.978596      1.901128
  C      -2.421954     -2.153039      1.610733
  H      -2.755726      0.890847     -0.766479
  C      -1.161884      1.335831      1.314447
  H      -3.987897     -1.203091     -1.251869
  H      -3.766612     -3.157983      0.262878
  H      -1.110242     -0.905240      2.779929
  H      -2.321758     -3.006390      2.274745
  N      -1.119027      2.522072      1.065542
  O      -0.350420      3.487934      1.248571
  O       0.434113      1.014592      2.355511
  S       1.550381      2.075203      2.127392
  N       2.473585      1.911383      0.894074
  C       2.434738      1.058545     -0.200586
  C       3.293683      1.388062     -1.265242
  C       3.332343      0.597225     -2.403235
  C       2.526751     -0.536790     -2.498068
  C       1.683902     -0.876498     -1.440053
  C       1.629747     -0.093787     -0.296055
  H       3.914754      2.273999     -1.175966
  H       3.994815      0.865481     -3.221121
  H       2.558598     -1.155579     -3.389899
  H       1.060605     -1.764041     -1.505361
  H       0.980694     -0.373304      0.524227
28
Coordinates from ORCA-job ./TS1_b E -1159.235947880492
  C      -3.108997     -1.185767     -0.485934
  C      -2.447821     -0.004112     -0.185384
  C      -3.126151     -2.236148      0.430590
  C      -1.814428      0.138226      1.061067
  C      -1.833699     -0.917150      1.984366
  C      -2.484885     -2.099281      1.660034
  H      -2.413167      0.813079     -0.898697
  C      -1.127264      1.349979      1.368235
  H      -3.603609     -1.292098     -1.446897
  H      -3.637081     -3.162349      0.184731
  H      -1.334457     -0.800513      2.939994
  H      -2.496751     -2.916974      2.374458
  N      -1.071110      2.538652      1.131091
  O      -0.282192      3.486753      1.330691
  O       0.454396      1.003420      2.416098
  S       1.590218      2.040254      2.173053
  N       2.481134      1.868458      0.916972
  C       2.392168      1.033770     -0.189667
  C       3.193317      1.387999     -1.290697
  C       3.176941      0.619359     -2.444418
  C       2.374609     -0.518429     -2.519203
  C       1.591949     -0.884722     -1.424588
  C       1.592812     -0.123880     -0.264625
  H       3.812598      2.276658     -1.217185
  H       3.794017      0.908144     -3.290378
  H       2.363532     -1.119937     -3.423279
  H       0.972686     -1.776278     -1.473061
  H       0.991237     -0.427116      0.582632
28
Coordinates from ORCA-job ./TS1_b E -1159.235995346500
  C      -3.297258     -1.150595     -0.401510
  C      -2.617967      0.026541     -0.125948
  C      -3.208447     -2.236627      0.468446
  C      -1.853284      0.127609      1.049538
  C      -1.765948     -0.963467      1.926176
  C      -2.440019     -2.139535      1.626244
  H      -2.669170      0.871811     -0.804620
  C      -1.153315      1.338803      1.329810
  H      -3.891833     -1.224330     -1.307310
  H      -3.736174     -3.158245      0.241798
  H      -1.168751     -0.879734      2.827139
  H      -2.368707     -2.984088      2.305056
  N      -1.107892      2.526139      1.085565
  O      -0.333563      3.487154      1.272984
  O       0.440710      1.009531      2.368838
  S       1.560916      2.065701      2.138309
  N       2.476085      1.901552      0.899000
  C       2.424949      1.052959     -0.198715
  C       3.267756      1.389716     -1.273890
  C       3.292895      0.603852     -2.415728
  C       2.490094     -0.532667     -2.503940
  C       1.663957     -0.879992     -1.435310
  C       1.623257     -0.102170     -0.287402
  H       3.886945      2.277473     -1.189757
  H       3.942694      0.877960     -3.241805
  H       2.511449     -1.147617     -3.398734
  H       1.043265     -1.769766     -1.495181
  H       0.987357     -0.387968      0.540944
28
Coordinates from ORCA-job ./TS1_b E -1159.235996051322
  C      -3.285751     -1.152792     -0.407168
  C      -2.608229      0.025065     -0.130249
  C      -3.200699     -2.237338      0.464936
  C      -1.849371      0.128406      1.048813
  C      -1.765808     -0.961209      1.927635
  C      -2.437829     -2.138068      1.626276
  H      -2.656533      0.869215     -0.810530
  C      -1.151267      1.340244      1.330744
  H      -3.875887     -1.228272     -1.315726
  H      -3.726903     -3.159574      0.237246
  H      -1.173066     -0.875632      2.831382
  H      -2.369440     -2.981506      2.306789
  N      -1.104723      2.527321      1.085816
  O      -0.330559      3.488317      1.273812
  O       0.441132      1.011374      2.373504
  S       1.562755      2.065535      2.141643
  N       2.476640      1.899498      0.901587
  C       2.422033      1.051683     -0.196606
  C       3.263922      1.387384     -1.272834
  C       3.285384      0.602531     -2.415443
  C       2.479751     -0.531995     -2.503444
  C       1.654606     -0.878409     -1.433745
  C       1.617638     -0.101599     -0.285038
  H       3.885267      2.273657     -1.188898
  H       3.934492      0.875907     -3.242310
  H       2.498169     -1.146117     -3.398875
  H       1.031676     -1.766640     -1.493400
  H       0.982600     -0.386986      0.544082
