! r2SCAN-3c TightSCF OptTS Freq CPCM(benzene)  # OptTS VeryTightOpt Freq SP NMR
%geom inhess Read InHessName "TS1_b.hess" end

* xyz 0 1
 C   -4.10548665  -1.06120505   0.17448133
 C   -3.32249174   0.08367225   0.28019228
 C   -3.72287124  -2.24532596   0.81441719
 C   -2.13420892   0.05560644   1.04309511
 C   -1.75291806  -1.13675047   1.68801803
 C   -2.54652046  -2.27575038   1.56772434
 H   -3.61505259   1.00929693  -0.22011038
 C   -1.33165426   1.23363083   1.15723670
 H   -5.02410423  -1.02938039  -0.41687968
 H   -4.34204342  -3.14130572   0.72519881
 H   -0.83525797  -1.14606309   2.27753309
 H   -2.24262355  -3.19644954   2.07209008
 N   -1.28439914   2.42046049   0.88397065
 O   -0.51278978   3.39202729   0.99794695
 O    0.35228597   0.93072585   2.07639244
 S    1.40313081   2.07872700   1.89116482
 N    2.45168860   1.99292627   0.75096156
 C    2.63890383   1.13629595  -0.32318577
 C    3.68217582   1.46446310  -1.21691221
 C    3.95206871   0.65505828  -2.31548501
 C    3.19163868  -0.49655981  -2.54581031
 C    2.15810476  -0.83140532  -1.66378283
 C    1.87640009  -0.03010955  -0.56092428
 H    4.26447503   2.36761855  -1.02035287
 H    4.76141207   0.92349998  -2.99942978
 H    3.40346908  -1.13156902  -3.40964325
 H    1.56179731  -1.73093521  -1.83844197
 H    1.07487127  -0.29119972   0.13053495
*
