 28
  Energy -1159.243195786845  Dipole 4.85709  G(298) 99.29
 C   -4.48047700  -0.84175000  -0.70234900
 C   -3.55423100   0.15262200  -0.99138900
 C   -4.12009900  -1.91578000   0.11075700
 C   -2.28046300   0.06928600  -0.42987300
 C   -1.89700300  -1.01582000   0.35921900
 C   -2.83247300  -2.00322700   0.64018800
 H   -3.80921500   0.98996900  -1.63359700
 C   -1.31913700   1.28891800  -0.54342700
 H   -5.48049900  -0.78619500  -1.12178700
 H   -4.84398600  -2.69718800   0.32336900
 H   -0.88567500  -1.06930100   0.75125900
 H   -2.55479100  -2.84814900   1.26319300
 N   -0.78415800   0.85476700  -1.61541700
 O    0.43586600   2.30302500  -2.01468100
 O   -1.26212100   2.23170400   0.25950700
 S    0.90380500   3.16266400  -0.81597100
 N    1.98475800   2.60423300   0.13558100
 C    2.57754800   1.36066500   0.27684400
 C    2.36787200   0.26625500  -0.58657400
 C    3.02769500  -0.92761200  -0.34037800
 C    3.89292600  -1.05330000   0.74738500
 C    4.10616600   0.02976600   1.60003900
 C    3.45650400   1.23102100   1.36940900
 H    1.69533500   0.35823900  -1.42997600
 H    2.86676100  -1.77110700  -1.00539500
 H    4.40264400  -1.99511200   0.92839300
 H    4.78044200  -0.06570800   2.44585400
 H    3.60600700   2.08711600   2.01981900
