 $CONTRL SCFTYP=rhf RUNTYP=hessian d5=.t.
! dfttyp=pbe0
 mplevl=2
 maxit=100 icut=20 inttyp=hondo itol=30 gencon=.f. wide=1                                
 mult=1 icharg=0 exetyp=run fstint=.t. nzvar=0 $END                            
 $SYSTEM TIMLIM=100000 mwords=360 nojac=1  $END                                  
 $system mxbcst=-1 $end                                                         
 $p2p p2p=.t. dlb=.t. $end                                                      
 $smp                                                                           
  mkl64=21 smppar=1 mklnp=18 np=36 httnp=1 dianp=1                              
  pts=0x101                                                                     
 $end                                                                           
 $mpi mxgsum=0x40000 mnpdot=1d9 $end                                            
 $MOORTH nostf=1 nozero=1 syms=1 symden=1 symvec=1 tole=0 tolz=0 $end           
 $BASIS GBASIS=apvtzs extfil=.t. $END                                          
 $GUESS GUESS=huckel                                                            
 $END                                                                           
! $RIMP2 AUXBAS=cc-pvdz/C VERBOSE=.T. $END
 $STATPT OPTTOL=0.00012 $END
 $MP2 method=1 $END
 $MP2GRD dblbf=0 fused=0 asysnc=1 tol1=1d-12 tol2=1d-12 $END
! $HESS HESS=READ $END
 $FORCE NVIB=2 VIBSIZ=0.005 $END
 $trans mptran=2 dirtrf=.t. mode=112 cuttrf=1d-20 $end
 $DATA
 C7NH5SO3
C1
C           6.0  -2.5554056841  -0.8920979583  -0.4345086749
C           6.0  -1.8031614086   0.2657057012  -0.6002727102
C           6.0  -1.9815593156  -2.0324498134   0.1246807422
C           6.0  -0.4607053376   0.2781138722  -0.1997001642
C           6.0   0.1224434482  -0.8656224699   0.3651780736
C           6.0  -0.6451442474  -2.0139296076   0.5217305549
H           1.0  -2.2414694477   1.1537353197  -1.0334136985
C           6.0   0.3300493801   1.4523199571  -0.3592343019
H           1.0  -3.5915994947  -0.9025497542  -0.7428928366
H           1.0  -2.5718015221  -2.9292778426   0.2507149399
H           1.0   1.1583648924  -0.8338696152   0.6720264288
H           1.0  -0.1967707691  -2.8965473459   0.9563801579
N           7.0   1.0685467419   2.3621540652  -0.4681780586
O           8.0   1.8488735980   3.2833364712  -0.5529073358
O           8.0   2.9123083103   0.9946728347   1.2060052531
S          16.0   3.8988552350   1.9721561919   0.7282689945
O           8.0   4.7081756200   1.6041499940  -0.4338773662
 $END
 $VIB   
         IVIB=   0 IATOM=   0 ICOORD=   0 E=     -946.8427747550
-3.621265052E-06-3.292161258E-06 7.777516980E-06-1.946593286E-05-3.070526065E-06
-2.905620709E-06 7.335733300E-06 2.995785091E-07 3.236570005E-06-1.734151551E-06
 8.138095141E-06-2.480028728E-05 1.591423721E-06 1.911809989E-05-3.497548251E-05
 1.751297719E-05 1.168901370E-05-1.336930875E-05-3.189552946E-05-5.452665110E-07
 3.470304574E-06 3.977564287E-05 8.708545124E-05 5.198415423E-05-1.346645927E-05
-1.372859795E-05 2.406150038E-05 1.462748229E-05-4.848845978E-06 1.790645744E-05
 1.245408679E-05 1.944414612E-05-4.744296236E-05 2.701426184E-05 1.557595577E-05
-1.442499658E-05-2.610129771E-05-1.159216533E-04-5.601061199E-05 6.921869103E-05
 4.553122900E-05-8.402237447E-06 3.686801682E-06-4.237791351E-05 1.159041213E-04
-7.838886770E-05 1.266644399E-05-5.150880891E-05-1.854376093E-05-3.576310963E-05
 2.949966325E-05
-3.167112611E+00-2.048834904E+00 9.458935621E-01
         IVIB=   1 IATOM=   1 ICOORD=   1 E=     -946.8427660589
 3.501437506E-03 2.433771878E-04 7.908047143E-04-9.512874021E-04-6.791287959E-04
 2.573993056E-05-7.732832530E-04 4.752073530E-04-3.118206624E-04-1.580679694E-04
-1.368705606E-04-2.723570645E-05 3.808607075E-06 1.272735807E-05-2.715872434E-05
-7.673802474E-05 1.614026443E-04-9.563942875E-05 2.144014843E-05 6.698197026E-05
-5.978618248E-06 2.660049330E-05 9.611875137E-05 3.494725086E-05-1.617940161E-03
-3.605764493E-05-3.961564596E-04 6.600747873E-05-8.633339147E-05 5.876746636E-05
 1.538501332E-05 1.911157773E-05-4.453195826E-05 1.552702800E-06 9.507816857E-06
-3.218011342E-05-3.356800076E-05-1.220384900E-04-5.705915606E-05 6.779378118E-05
 4.147565787E-05-6.392015789E-06 3.626123486E-06-4.233766332E-05 1.157215467E-04
-7.811763199E-05 1.265704845E-05-5.146597323E-05-1.864957173E-05-3.580088046E-05
 2.963787925E-05
-3.165708818E+00-2.048700027E+00 9.466791111E-01
         IVIB=   1 IATOM=   1 ICOORD=   2 E=     -946.8427669145
 2.546674836E-04 3.189708815E-03-7.841404607E-04-5.044344400E-04-1.429823062E-03
 2.446393138E-04 2.689798751E-04-1.353896317E-03 4.485113639E-04-2.454371877E-04
 9.076174301E-05-1.215225718E-04-1.252864627E-05-1.722516032E-04 2.042332099E-05
 2.691212081E-04 1.140529885E-04 3.102207861E-05-1.101344953E-04-7.254005864E-05
 7.389568931E-06 5.482223399E-05 1.084221017E-04 6.032648388E-05-3.896094682E-05
-2.940358981E-04 5.058350164E-05 8.169265311E-05-8.076356104E-05 6.628947314E-05
 1.178994429E-05 1.075111224E-05-4.694457785E-05 2.037251638E-05 2.708324247E-05
-6.598145412E-06-2.568509745E-05-1.179561127E-04-5.414023477E-05 6.913362047E-05
 4.619944817E-05-9.784958626E-06 3.300290300E-06-4.332245224E-05 1.162188478E-04
-7.819739145E-05 1.356339310E-05-5.171044599E-05-1.850178448E-05-3.595384144E-05
 2.943741358E-05
-3.167246852E+00-2.049215533E+00 9.455422903E-01
         IVIB=   1 IATOM=   1 ICOORD=   3 E=     -946.8427719587
 7.841542092E-04-8.012057810E-04 1.142190229E-03-5.685780912E-05 1.851448745E-04
-3.462641708E-04-2.375152231E-04 5.142690331E-04-5.133561955E-04 2.972643136E-05
-5.910522996E-05 2.117996965E-05 1.196197211E-05 7.687801648E-05-6.765478882E-05
-9.935491386E-05 2.549728862E-05-4.337010572E-05 8.030827303E-06 4.700513568E-05
 8.115103439E-06 2.115445393E-05 9.460977838E-05 7.736361375E-05-4.380158424E-04
 1.363065872E-05-2.935479635E-04 5.079356423E-06-9.468831607E-07 2.127507460E-05
 1.557269176E-05 2.008315726E-05-5.296503816E-05 9.431224481E-06 2.340630799E-05
 1.770731091E-05-3.015014259E-05-1.168240607E-04-5.377357493E-05 7.002600288E-05
 4.282155636E-05-1.085689131E-05 3.772528195E-06-4.208860074E-05 1.157390716E-04
-7.849365317E-05 1.259978040E-05-5.113039239E-05-1.852227675E-05-3.577509218E-05
 2.934871953E-05
-3.166201778E+00-2.049101259E+00 9.449301651E-01
         IVIB=   1 IATOM=   2 ICOORD=   1 E=     -946.8427668596
-9.335911013E-04-4.779491119E-04-3.049407827E-05 3.202876965E-03 1.593862691E-04
 7.297873699E-04 2.145361947E-04-7.474611438E-05 8.706293805E-05-1.565769326E-03
-4.203353002E-05-3.922868734E-04-8.100159809E-05 2.366471822E-04-1.436679871E-04
-1.435619333E-04-6.922713196E-05-2.935538662E-05-5.517659990E-04 4.818859982E-04
-2.655929990E-04-9.313966350E-05-8.606973132E-06 4.220117170E-05-6.933422751E-05
-1.422611056E-04 4.838954725E-05 1.621325484E-05 7.497550685E-06 2.095930325E-06
 1.970471651E-05 2.685904014E-05-5.730441588E-05 2.081853681E-05 1.077225142E-05
-1.279054703E-05-1.233983087E-05-8.365545736E-05-6.496753700E-05 6.908022440E-05
 4.075377612E-05-7.158714194E-06 4.077507794E-06-4.154685845E-05 1.156551046E-04
-7.859377665E-05 1.196870216E-05-5.061656630E-05-1.821010649E-05-3.574454788E-05
 2.904301413E-05
-3.168247041E+00-2.049778833E+00 9.463014565E-01
         IVIB=   1 IATOM=   2 ICOORD=   2 E=     -946.8427661871
-6.690866919E-04-1.413580444E-03 1.937882901E-04 1.329754476E-04 3.435851306E-03
-9.167224714E-04 3.994462097E-05-2.290450795E-04 9.536279189E-05 1.019761479E-04
-5.128851249E-04 8.372519465E-05 1.397252162E-04 1.145507743E-04-1.465514832E-05
-7.346189743E-05-3.278023162E-05-3.152975099E-05 4.480373721E-04-1.269042821E-03
 5.224753673E-04-1.365680045E-04 3.706663615E-05 1.931037366E-05 4.971819553E-06
 4.465836966E-06 2.637685733E-05 2.617888666E-05-1.612132801E-05 3.874255676E-05
 1.972400539E-05 9.425795749E-07-2.821651750E-05 2.238998608E-05 1.597272423E-05
-1.819346780E-05-2.175536115E-05-8.849712244E-05-6.254108651E-05 5.473290382E-05
 1.860486020E-05-3.424531671E-06 4.344036377E-06-3.979375592E-05 1.154591931E-04
-7.526224967E-05 9.238906629E-06-4.973754429E-05-1.886640200E-05-3.494777602E-05
 2.977986497E-05
-3.168852095E+00-2.050063930E+00 9.453000446E-01
         IVIB=   1 IATOM=   2 ICOORD=   3 E=     -946.8427720365
 2.385648123E-05 2.414782682E-04-3.344937304E-04 7.091142474E-04-9.112672791E-04
 1.134204938E-03 5.426382422E-05 6.045196503E-05 1.085781740E-05-4.171538886E-04
 7.031789940E-05-4.620243066E-04-8.010584683E-05 6.304863756E-05-4.188147463E-05
 5.097238817E-06-3.311323811E-06-2.897625934E-05-2.980037292E-04 5.145497117E-04
-4.208944266E-04 5.727063681E-05 7.862443723E-05 6.853411561E-05-3.910766510E-05
-5.580298963E-05 3.905458348E-05-8.518788549E-07 1.638403216E-05 4.613995565E-05
 2.151019990E-06 3.890225207E-05-2.486524416E-05 2.875792607E-05 1.179850272E-05
-1.926962296E-05-2.467537435E-05-1.130537117E-04-5.148727421E-05 7.342123155E-05
 5.337928555E-05-8.414110041E-06 3.385452581E-06-4.336723521E-05 1.164843208E-04
-7.901412981E-05 1.389199970E-05-5.259779622E-05-1.840570945E-05-3.602451251E-05
 2.962848626E-05
-3.166436289E+00-2.049243474E+00 9.447520519E-01
         IVIB=   1 IATOM=   3 ICOORD=   1 E=     -946.8427666101
-7.844852540E-04 2.613322369E-04-2.352760611E-04 1.878091617E-04 2.972668759E-05
 4.424743719E-05 3.327132543E-03 3.838676836E-04 6.901946694E-04-1.389886686E-04
 1.054091318E-04-9.306950226E-05-1.477922078E-04-2.223671172E-04-1.880834645E-06
-1.654111024E-03 7.198681706E-05-4.578773718E-04-3.601490326E-05-2.176225021E-05
-2.703289696E-06 2.935697871E-05 7.686591577E-05 5.398709387E-05-4.976758425E-05
 1.145038132E-04-3.313472667E-05-6.994745162E-04-6.693394614E-04 8.035585176E-05
 1.604990335E-05 1.834898418E-06-5.276089282E-05-5.629167268E-06-1.507033727E-06
-2.143170608E-05-1.703488416E-05-1.072352856E-04-5.635185737E-05 6.621515538E-05
 4.254392606E-05-8.362408393E-06 2.449358124E-06-4.351872431E-05 1.161172136E-04
-7.678194212E-05 1.341908482E-05-5.192274559E-05-1.893311465E-05-3.576038374E-05
 2.986910161E-05
-3.168340246E+00-2.048044924E+00 9.457623563E-01
         IVIB=   1 IATOM=   3 ICOORD=   2 E=     -946.8427664420
 4.746013074E-04-1.372583971E-03 5.250561486E-04-9.463107480E-05-2.336313882E-04
 5.732301958E-05 3.798315493E-04 3.382187613E-03-8.231169789E-04 9.428953365E-05
-2.928824768E-05 1.014496304E-05-1.334509556E-04 1.100268383E-04-1.023194639E-04
-1.274281117E-04-5.622971844E-04 4.611977649E-05-5.286228212E-05-1.196346932E-05
 1.460014753E-05 2.993424944E-05 7.278867913E-05 5.185526931E-05-3.225771416E-05
 1.044220017E-05 1.353172486E-05-6.470506655E-04-1.276750988E-03 1.901398210E-04
-3.505802838E-06 2.468522377E-06-3.248393233E-05 1.568121573E-04 3.631003937E-05
 2.097246222E-05-1.506879014E-05-1.020331433E-04-5.770660275E-05 6.394766102E-05
 4.052414106E-05-8.120496469E-06 2.919637097E-06-4.253991978E-05 1.156743985E-04
-7.743850567E-05 1.182568932E-05-5.123716331E-05-1.864235565E-05-3.548547270E-05
 2.956687796E-05
-3.166389351E+00-2.049149824E+00 9.456803228E-01
         IVIB=   1 IATOM=   3 ICOORD=   3 E=     -946.8427721117
-3.169544769E-04 4.451395298E-04-5.094889083E-04 6.422989728E-05 8.920020394E-05
 4.690380822E-06 6.902990320E-04-8.193856601E-04 1.096962885E-03-6.980626159E-05
 4.327527683E-05-7.701245144E-05-1.628024030E-06-8.011702399E-05 1.069229997E-05
-3.522045563E-04 1.330640027E-04-4.352648850E-04-3.805414890E-05 1.038975616E-05
 3.797822915E-05 4.205309161E-05 8.703896007E-05 4.635381823E-05-2.090432448E-05
 1.995178151E-05 2.003519486E-05 7.673889722E-05 1.680644263E-04-1.928703337E-04
 6.422038324E-06 3.356266373E-05-1.354394218E-05-2.994221773E-05 6.774191186E-06
-1.853624910E-05-2.682790250E-05-1.179790026E-04-5.594637485E-05 6.972522750E-05
 4.633543070E-05-7.834465465E-06 3.605688324E-06-4.280805564E-05 1.160037049E-04
-7.824875374E-05 1.343738877E-05-5.163591926E-05-1.850337027E-05-3.594393091E-05
 2.941698822E-05
-3.167207778E+00-2.049008661E+00 9.443138708E-01
         IVIB=   1 IATOM=   4 ICOORD=   1 E=     -946.8427671027
-1.589206238E-04-2.463083871E-04 3.946948279E-05-1.557054741E-03 9.956537645E-05
-4.126477191E-04-1.294143204E-04 9.633334070E-05-6.457356331E-05 3.131705339E-03
 2.658151694E-04 6.376437699E-04-7.579723668E-04 3.346005099E-04-2.831760336E-04
 2.182305530E-04 3.326702971E-05 3.586062032E-05-7.150266196E-05-2.522608217E-05
-2.806726265E-06-5.811784106E-04-4.949454351E-04 1.030908595E-04-8.070671534E-06
-3.179464330E-05 1.940227865E-05 9.954978677E-06 1.923953390E-06 1.612199824E-05
-2.301215744E-05 1.495139564E-04-1.053459114E-04 2.486092184E-05-2.926549939E-06
-2.123097735E-05-1.346403051E-04-1.669350947E-04-5.110904124E-05 1.350621246E-04
 5.222690641E-05-1.863257169E-06 3.068428990E-06-4.748839770E-05 1.180729660E-04
-8.376426900E-05 2.013404605E-05-5.597687409E-05-1.735198135E-05-3.775575923E-05
 2.906809967E-05
-3.162583223E+00-2.045235344E+00 9.458278786E-01
         IVIB=   1 IATOM=   4 ICOORD=   2 E=     -946.8427672886
-1.480334033E-04 7.948754044E-05-5.931873348E-05-7.007329938E-05-5.238038549E-04
 5.907193680E-05 1.046497173E-04-3.648202250E-05 3.841839585E-05 2.657107847E-04
 3.046683633E-03-7.575121933E-04 4.536554602E-04-1.169529830E-03 4.050168174E-04
-5.900810269E-05-2.307099762E-04 5.051992123E-05 9.598595107E-05 1.392834960E-05
 4.020184549E-05-5.682577900E-04-9.993516290E-04 1.928537874E-04-2.909444013E-05
-2.902177980E-05 3.848660072E-05 2.149875503E-05-3.410345650E-06 1.728069247E-05
-6.600967883E-06 3.240083506E-05-5.370231511E-05 4.835277870E-06 6.835385430E-06
-4.234401043E-06-4.827654990E-05-2.157492158E-04-5.036326615E-05 8.263081720E-05
 9.527749711E-05-8.097892474E-06 3.178426979E-06-4.811243937E-05 1.167061878E-04
-8.422506799E-05 1.895976466E-05-5.463263405E-05-1.857573289E-05-3.740197358E-05
 2.930522165E-05
-3.163495993E+00-2.043751254E+00 9.454222698E-01
         IVIB=   1 IATOM=   4 ICOORD=   3 E=     -946.8427722549
-5.737339687E-06-1.000873716E-04 5.369352787E-05-3.819388801E-04 1.050488177E-04
-4.412942431E-04-6.091168671E-05 3.512924476E-05-4.899108889E-05 6.645441887E-04
-7.307261699E-04 1.074285258E-03-2.949144064E-04 4.220963905E-04-5.560512188E-04
 9.969339601E-05 1.051469653E-04-6.431025383E-06-8.968514599E-05-9.973342630E-06
-2.191955466E-06 9.465036160E-05 2.280296107E-04-1.169019951E-04-1.875811751E-05
-9.801070611E-08 5.875225423E-05 1.284530732E-05-5.412152639E-06 1.119496930E-05
 4.831649067E-06 5.818067188E-05-5.216902371E-05 2.151606027E-05 2.687563946E-05
 2.127885127E-05-2.408198770E-05-1.106535155E-04-1.224269089E-04 7.054694329E-05
 4.117395743E-05 3.312130075E-05 4.073601182E-06-4.223947026E-05 1.155962891E-04
-7.840824464E-05 1.326879560E-05-4.965341832E-05-1.826586244E-05-3.576012123E-05
 2.818839855E-05
-3.167173900E+00-2.049408730E+00 9.466069213E-01
         IVIB=   1 IATOM=   5 ICOORD=   1 E=     -946.8427659198
-1.102280306E-06-1.756156323E-05 1.820962156E-05-1.015678719E-04 1.350148161E-04
-8.424203831E-05-1.411581755E-04-1.343178810E-04 2.227022271E-07-7.618730353E-04
 4.631009224E-04-3.196311135E-04 3.552169115E-03 3.569225332E-04 7.437971755E-04
-9.396626994E-04-6.695653881E-04 1.014418329E-05-5.687154218E-05-5.908842140E-06
-1.211156304E-05 7.715988501E-05-1.006924394E-05 9.278643040E-05-9.834407334E-06
-1.365299307E-05 2.723460564E-05-9.631012524E-06-5.117456832E-06-1.429297356E-06
-1.633966967E-03-3.647833438E-05-4.811226726E-04 7.793012574E-05 8.291105896E-05
-2.490922796E-05-3.920044072E-06-1.069856243E-04-5.407734521E-05 3.877579029E-05
 2.710629966E-05-1.190093860E-05 7.291989101E-06-3.801604150E-05 1.168291455E-04
-7.638842342E-05 7.277402783E-06-4.811771553E-05-1.735060969E-05-3.465972443E-05
 2.831801954E-05
-3.168268881E+00-2.049859469E+00 9.462412587E-01
         IVIB=   1 IATOM=   5 ICOORD=   2 E=     -946.8427668545
-9.793598204E-06-1.946790791E-04 6.542545353E-05 1.977746332E-04 9.255809098E-05
 4.141641093E-05-2.334282029E-04 9.099802046E-05-9.619809819E-05 3.166665440E-04
-1.195486098E-03 3.813490723E-04 3.281703707E-04 3.161185761E-03-7.918044143E-04
-4.673877687E-04-1.382532954E-03 2.194884130E-04-3.981469617E-05 1.036523112E-05
 8.417368039E-06 1.239141070E-05-1.300303221E-04 1.216907629E-04-1.332599763E-05
-2.233893561E-05 2.460337297E-05 1.509747094E-05 6.415680228E-06 2.794552365E-05
-2.485933144E-05-2.565697266E-04-2.389643418E-05-5.191800699E-05-6.218973673E-05
-8.598859642E-06 1.501220138E-05-8.405814554E-05-5.377064034E-05 5.098144239E-05
 3.534581871E-05-1.012625725E-05 1.240257543E-07-4.457742443E-05 1.161404173E-04
-7.651249329E-05 1.032754942E-05-5.264265946E-05-1.917816741E-05-3.473379095E-05
 3.056054042E-05
-3.168199742E+00-2.051115697E+00 9.459257528E-01
         IVIB=   1 IATOM=   5 ICOORD=   3 E=     -946.8427722327
 4.241765331E-06 5.219712765E-05-2.489504371E-05-1.277716933E-04 1.712637060E-05
-1.009453354E-05 4.052113923E-05-6.694386609E-05 4.893707705E-05-2.484127184E-04
 4.507355619E-04-5.462930859E-04 7.754245241E-04-7.313656119E-04 1.072869170E-03
-2.510271974E-05 1.867072573E-04-3.551692607E-04-4.653231806E-05 5.073940304E-06
 2.974568705E-05 5.659855460E-05 1.356825267E-04 5.280382543E-05-1.030337549E-05
-1.319995729E-05 1.781217109E-05-4.941837797E-06 4.852885479E-06 4.883354333E-05
-4.193903070E-04 3.754767814E-05-3.608252162E-04 6.615779757E-05 6.569510779E-05
-9.704333467E-06-3.461096639E-05-1.225021877E-04-5.153517669E-05 6.611564529E-05
 4.318200740E-05-8.098530228E-06 4.818814754E-06-4.069295260E-05 1.172969471E-04
-7.828493482E-05 1.137320511E-05-5.137977406E-05-1.852753269E-05-3.546915331E-05
 2.969650447E-05
-3.166713002E+00-2.048832102E+00 9.446805254E-01
         IVIB=   1 IATOM=   6 ICOORD=   1 E=     -946.8427666006
-9.745732225E-05 2.481565534E-04-1.086057089E-04-1.801728714E-04-9.402518010E-05
-1.549787470E-05-1.637360081E-03-1.452747973E-04-3.612369696E-04 1.988769526E-04
-6.850481440E-05 5.743917155E-05-9.580489324E-04-4.762097174E-04-7.665593719E-05
 3.296829703E-03 1.616085533E-04 7.368474039E-04-3.790322023E-05-6.179564056E-06
 5.427644362E-06 4.607462054E-05 1.146231577E-04 3.453052931E-05-6.683531047E-06
-5.408324554E-06 1.106344437E-05-3.782509342E-05 1.326301016E-05-6.419558780E-06
-3.057295490E-05-1.050919669E-04-2.080236029E-05-5.040327236E-04 4.990300949E-04
-2.846799944E-04-2.971176106E-05-1.162520608E-04-5.757132790E-05 7.390288791E-05
 4.724202736E-05-6.598855379E-06 1.876634487E-06-4.462363614E-05 1.156940664E-04
-7.902007615E-05 1.350827809E-05-5.275924057E-05-1.877239517E-05-3.586167429E-05
 2.982553905E-05
-3.166949093E+00-2.049514813E+00 9.465737457E-01
         IVIB=   1 IATOM=   6 ICOORD=   2 E=     -946.8427662604
 1.459032229E-04 9.930880941E-05 2.145896625E-05-1.004578121E-04-4.793968659E-05
-1.802551166E-05 6.635980114E-05-5.736375666E-04 1.242049328E-04 1.970572501E-05
-2.354610866E-04 6.882436556E-05-6.905359806E-04-1.391041864E-03 1.421838527E-04
 1.774672287E-04 3.404755913E-03-9.006150862E-04-3.656356461E-05-7.641574057E-07
 1.837521511E-07 5.973987497E-05 9.364305226E-05 6.724021436E-05-4.343064985E-06
-3.116884254E-05 4.635209422E-05-1.156072514E-04 1.247948088E-05-2.475699962E-05
 2.871521025E-05 3.952805351E-05-4.610716842E-05 5.056031040E-04-1.226506606E-03
 4.885536052E-04-2.964286523E-05-1.209847136E-04-5.429213365E-05 6.494979293E-05
 4.261817000E-05-9.989077607E-06 6.134624245E-06-3.995859901E-05 1.161084353E-04
-7.978126907E-05 1.074938732E-05-5.020994859E-05-1.764694003E-05-3.561980531E-05
 2.888567852E-05
-3.167639189E+00-2.047810337E+00 9.449519087E-01
         IVIB=   1 IATOM=   6 ICOORD=   3 E=     -946.8427720335
-8.536708896E-05 4.118919475E-05-2.235347776E-05-3.545582139E-05-2.121426451E-05
-1.857079854E-05-4.318437850E-04 5.944525716E-05-4.199382798E-04 4.737148996E-05
 7.197296841E-05-1.796667105E-05 2.625514005E-05 2.544252330E-04-3.774183986E-04
 7.719273532E-04-8.809488303E-04 1.146160877E-03-3.034467101E-05-4.166839911E-06
-7.182507137E-07 2.536363582E-05 1.048893792E-04 7.441299809E-05-2.658339511E-05
 8.307185318E-06 5.291780791E-05 4.067369518E-05-2.664757616E-06 3.266051953E-05
-9.354428686E-06-2.156173895E-05-2.958455914E-05-2.434234309E-04 5.245305329E-04
-4.482997415E-04-2.731152037E-05-1.138254324E-04-5.450095159E-05 7.304755661E-05
 4.594849653E-05-1.031516714E-05 2.168762973E-06-4.421616754E-05 1.162940945E-04
-7.822335667E-05 1.370856712E-05-5.292928948E-05-1.890030010E-05-3.581884395E-05
 3.014925981E-05
-3.166511245E+00-2.049788793E+00 9.451651322E-01
         IVIB=   1 IATOM=   7 ICOORD=   1 E=     -946.8427737422
 4.989370460E-05-8.151939457E-05 4.782412824E-05-5.377691130E-04 4.733143504E-04
-2.703727438E-04 3.171174168E-06-2.064809764E-05-2.965641039E-06-4.182943872E-05
 1.359234111E-04-8.293219691E-05-2.344451130E-05 1.099355570E-05-4.958465214E-05
 1.150826708E-05 7.085012101E-06-1.184227493E-05 5.007934876E-04-5.044008087E-04
 2.985053007E-04 4.665682758E-05 9.395949670E-05 5.676511165E-05-1.090992776E-05
-9.301135462E-06 2.923095242E-05 1.693375215E-05-9.169079054E-06 1.980675201E-05
 1.119886185E-05 2.624340865E-05-5.102929324E-05 2.704872625E-05 1.651641798E-05
-1.296288995E-05-3.049190459E-05-1.206431025E-04-5.538660486E-05 7.121858029E-05
 4.713234218E-05-8.629325864E-06 3.370960466E-06-4.310805910E-05 1.160657033E-04
-7.889999859E-05 1.364663611E-05-5.193732976E-05-1.844961175E-05-3.602501383E-05
 2.944497583E-05
-3.166176407E+00-2.048551923E+00 9.455580777E-01
         IVIB=   1 IATOM=   7 ICOORD=   2 E=     -946.8427714521
 6.366965780E-05-7.489882282E-05 5.528539390E-05 4.597011890E-04-1.258571775E-03
 5.092332170E-04-1.401561958E-05-1.090442138E-05 1.411765983E-05-2.644742153E-05
 2.239279210E-05-3.405254633E-05-3.791454586E-06 3.028096962E-05-2.946264510E-05
 1.178386691E-05 1.140876281E-05-1.699612863E-05-5.302493950E-04 1.307671250E-03
-5.478348314E-04 4.360840639E-05 9.296277271E-05 4.535699183E-05-1.189043918E-05
-1.087426932E-05 1.694252152E-05 1.828210996E-05-8.916131252E-06 2.066234700E-05
 1.142865910E-05 2.071194191E-05-4.710981038E-05 2.801614853E-05 1.491207042E-05
-1.588731172E-05-2.646070039E-05-1.163861079E-04-5.620798496E-05 6.959768538E-05
 4.561021900E-05-7.896817402E-06 3.808334723E-06-4.250132488E-05 1.159560016E-04
-7.861563787E-05 1.299426931E-05-5.150350330E-05-1.842555316E-05-3.589225623E-05
 2.939741782E-05
-3.166692656E+00-2.048870329E+00 9.466185513E-01
         IVIB=   1 IATOM=   7 ICOORD=   3 E=     -946.8427738988
-1.290349853E-05 4.048860498E-07 1.255507079E-05-2.896793373E-04 5.119942378E-04
-4.253185750E-04 1.287971682E-06 1.136826119E-05 3.768231474E-05-8.360552802E-06
 4.453620155E-05-3.033935327E-05-1.400537631E-05 2.388615570E-05-8.706103415E-06
 1.944513723E-05 8.473602823E-06-1.762355791E-05 2.629997672E-04-5.573765817E-04
 4.014317381E-04 4.585947791E-05 8.151765395E-05 3.878569604E-05-7.329027530E-06
-2.000547206E-05 8.426296797E-06 1.386392734E-05-4.430777627E-06 1.836204647E-05
 1.149613027E-05 2.207659741E-05-4.550666056E-05 2.845368893E-05 1.410750627E-05
-1.937604520E-05-2.679202281E-05-1.172179772E-04-5.667094037E-05 6.913028513E-05
 4.622239623E-05-7.418316554E-06 3.696779076E-06-4.258558337E-05 1.157986289E-04
-7.880045561E-05 1.297995191E-05-5.133422182E-05-1.836305725E-05-3.595111976E-05
 2.925195352E-05
-3.167487301E+00-2.048143521E+00 9.472828227E-01
         IVIB=   1 IATOM=   8 ICOORD=   1 E=     -946.8427677425
-1.692421920E-05 1.119392628E-05-1.092616296E-05-1.520942446E-04-1.793272119E-04
 1.452320845E-05-3.426679840E-06-9.674901190E-06 5.154244532E-06-6.225154234E-04
-5.916503102E-04 2.854204492E-05 3.878165753E-05-8.673523038E-06-1.828642684E-05
 2.345709211E-05 3.149005620E-05-2.806010702E-05-2.528695558E-05 3.294251769E-06
 9.239832978E-06 2.774251268E-03 3.299913760E-03-3.057308134E-04-1.763564963E-05
-2.022728363E-05 2.435967579E-05 1.428173030E-05-5.482870519E-06 1.991171328E-05
 1.480160734E-05 2.558312411E-05-4.405363822E-05 2.937095974E-05 1.578299766E-05
-1.432794095E-05-1.940957403E-03-2.394743546E-03 2.162135733E-04-4.058250954E-05
-1.008333998E-04-4.803810664E-06 1.608582374E-05-2.915416148E-05 1.162837238E-04
-7.563880058E-05-1.650617059E-05-3.378568499E-05-1.596841715E-05-3.098479819E-05
 2.574653950E-05
-3.174735301E+00-2.056036353E+00 9.461261286E-01
         IVIB=   1 IATOM=   8 ICOORD=   2 E=     -946.8427633547
 5.279562095E-06 1.726672719E-05 1.524060130E-05-1.151444845E-04-5.331277042E-05
-1.173884482E-05-3.294996073E-06-1.418610587E-05 2.802982468E-06-5.756996383E-04
-1.067455382E-03 1.139229907E-04-9.592282642E-05-1.974081783E-04 1.327525244E-05
 4.451485585E-05 1.810617895E-05 4.106334717E-06-2.544276119E-05 5.283870071E-06
-2.493791573E-06 3.255479083E-03 4.523087325E-03-4.891946716E-04-1.556229618E-05
-1.393379894E-05 2.418984304E-05 1.422258768E-05-6.159555986E-06 1.603726421E-05
 1.328839895E-05 2.533554433E-05-5.535857004E-05 2.367443956E-05 9.524109323E-06
-1.275227398E-05-2.376840533E-03-3.124443415E-03 2.692691548E-04-6.483167244E-05
-4.974018517E-05 1.213570269E-05 7.382916098E-06-3.876712460E-05 1.213029452E-04
-7.910583825E-05 6.791183452E-07-4.252076998E-05-1.199696087E-05-3.387641970E-05
 2.177582230E-05
-3.172953001E+00-2.056258101E+00 9.465587695E-01
         IVIB=   1 IATOM=   8 ICOORD=   3 E=     -946.8427740091
-2.057987095E-05 5.093981196E-06 3.317962294E-05-2.905837758E-05-3.576761507E-05
 1.368559764E-05 9.340193920E-06 2.791648601E-07-2.402180413E-06 4.845193637E-05
 1.470058016E-04-1.927868261E-04 4.246469940E-05 8.855192716E-05-3.402456405E-05
 1.013529867E-07 2.699768438E-05 9.094012203E-06-2.705039865E-05-7.183563515E-06
-9.667911829E-06-3.173538933E-04-4.533086679E-04 2.907986988E-04-1.459065006E-05
-1.488835084E-05 2.625121108E-05 1.659971517E-05-6.678931917E-06 1.285648993E-05
 1.813352223E-05 1.368974698E-05-6.064328591E-05 2.833342419E-05 1.839981555E-05
-1.306596976E-05 2.668947010E-04 2.267405674E-04-2.008490404E-04 6.885373258E-05
 5.956080607E-05 3.345387108E-05 8.778509467E-06-3.915840720E-05 1.109166682E-04
-7.898678298E-05 6.389503287E-06-4.884118621E-05-2.033197820E-05-3.572352395E-05
 3.204476401E-05
-3.167347912E+00-2.048193192E+00 9.457436964E-01
         IVIB=   1 IATOM=   9 ICOORD=   1 E=     -946.8427705259
-1.632625905E-03-2.745038075E-05-4.214805381E-04-7.550052965E-05 1.524306435E-05
-2.859384111E-05-2.889638598E-05-1.840101974E-05-4.289333606E-06 3.818370730E-06
-7.913484490E-06-2.997378898E-05 5.211909313E-06 1.907259560E-05-3.176972421E-05
 2.445382620E-05 2.082962057E-05-2.647680568E-05-2.936933700E-05 1.059804243E-06
 9.590216989E-06 3.567343265E-05 8.517907716E-05 5.078767973E-05 1.693764871E-03
 1.518686341E-05 4.904664594E-04 1.699403483E-05-2.125254620E-06 2.332889097E-05
 1.169833136E-05 1.999663539E-05-4.616870867E-05 2.467925731E-05 1.449461103E-05
-1.486749996E-05-2.364322394E-05-1.123003442E-04-5.645721549E-05 6.672633457E-05
 4.273958145E-05-8.149938122E-06 3.570210981E-06-4.241089901E-05 1.158777868E-04
-7.790231711E-05 1.252247881E-05-5.142958872E-05-1.865304363E-05-3.572301034E-05
 2.960592025E-05
-3.167813239E+00-2.049080766E+00 9.452845323E-01
         IVIB=   1 IATOM=   9 ICOORD=   2 E=     -946.8427742176
-2.441918200E-05-2.836031076E-04 3.581100721E-05-1.486460087E-04 1.488847647E-05
-4.500104677E-05 1.357756926E-04 2.454144965E-05 3.689535000E-05-1.978360000E-05
-7.371949394E-06-1.115830035E-05 1.642634593E-06 1.050725802E-05-3.444547745E-05
 2.559844442E-05-5.859781898E-06 8.582565281E-06-2.753345220E-05 2.409103860E-06
-2.829757741E-06 3.344298166E-05 8.711537427E-05 5.077628003E-05 1.388002753E-05
 2.603109220E-04-1.681287665E-05 1.416075392E-05-1.702906009E-06 1.038700260E-05
 1.295954703E-05 1.958597367E-05-4.922110085E-05 3.383481621E-05 1.634735362E-05
-1.248853879E-05-2.564152883E-05-1.148650947E-04-5.637532473E-05 6.769520509E-05
 4.323378994E-05-8.168601033E-06 3.671639387E-06-4.227337523E-05 1.158564652E-04
-7.814784209E-05 1.251579980E-05-5.119713503E-05-1.849029223E-05-3.577934734E-05
 2.938946037E-05
-3.167263987E+00-2.047979633E+00 9.461115208E-01
         IVIB=   1 IATOM=   9 ICOORD=   3 E=     -946.8427739821
-4.284271117E-04 2.366825184E-05-3.075387497E-04 4.831481222E-06-8.634412652E-07
 1.214262586E-05-5.014090185E-05-1.013306952E-05-7.588215652E-07-6.388137249E-06
 2.230981251E-05 9.882454303E-06 4.759026325E-06 1.953460709E-05-4.122809013E-05
 4.621568316E-06 3.400859898E-05 1.542324314E-05-2.674422126E-05-7.655780549E-06
-1.217057956E-05 4.024407927E-05 8.749180797E-05 5.412187293E-05 4.481550542E-04
-5.429198474E-05 3.047495267E-04 2.116294598E-05-1.136134459E-05 3.389283517E-06
 1.379915109E-05 1.773205567E-05-5.204079873E-05 2.390118791E-05 1.514904911E-05
-1.490029684E-05-2.520522438E-05-1.151244598E-04-5.634794722E-05 6.873732821E-05
 4.505626152E-05-8.619730824E-06 3.682388906E-06-4.247132816E-05 1.158717868E-04
-7.848694149E-05 1.280951672E-05-5.138484097E-05-1.850183690E-05-3.585861414E-05
 2.940903362E-05
-3.167753379E+00-2.048641889E+00 9.472652995E-01
         IVIB=   1 IATOM=  10 ICOORD=   1 E=     -946.8427730561
 4.784231286E-05 6.394469590E-05-1.676109111E-06-1.816032134E-05 8.200783500E-06
-1.833921168E-05-7.073844444E-04-6.709075871E-04 6.639281821E-05-6.341545753E-06
 1.487311206E-05-2.656009833E-05-2.295996834E-05 1.959821124E-05-5.461315388E-05
-3.567298398E-05-1.192270937E-04 1.266504536E-05-2.959324554E-05 3.127673971E-06
 2.650885447E-06 3.960868292E-05 8.687423780E-05 5.389409659E-05-1.088838300E-05
-1.425589846E-05 3.063311853E-05 7.525283988E-04 7.117140883E-04-3.944044702E-05
 1.031315061E-05 1.283439718E-05-4.594070689E-05 3.105181001E-05 1.923635549E-05
-8.883947774E-06-2.608775332E-05-1.158262935E-04-5.608487868E-05 6.937666336E-05
 4.555896258E-05-8.491594088E-06 3.144367843E-06-4.293882989E-05 1.159091377E-04
-7.818858320E-05 1.303703885E-05-5.161617921E-05-1.858832120E-05-3.584391469E-05
 2.950119634E-05
-3.166693228E+00-2.049679005E+00 9.457941860E-01
         IVIB=   1 IATOM=  10 ICOORD=   2 E=     -946.8427716243
-8.512491361E-05-7.980570355E-05 1.172402515E-05-6.783149850E-06-1.431962251E-05
 1.827609207E-05-6.669618948E-04-1.285388538E-03 1.785599266E-04 4.660007998E-06
 9.151549924E-06-2.538109707E-05 1.295252271E-06 3.057413776E-05-2.532417057E-05
 3.568557227E-05 2.936713644E-05-1.133860843E-05-3.629581230E-05-4.645131737E-06
 3.817074055E-06 3.945891088E-05 8.619865938E-05 5.007434651E-05-1.078827538E-05
-1.071099490E-05 1.750770933E-05 7.339787693E-04 1.338231343E-03-1.793128234E-04
 1.355482635E-05 1.999135162E-05-4.711148622E-05 2.728441409E-05 1.698641593E-05
-2.109276915E-05-2.496315110E-05-1.146225473E-04-5.612093895E-05 6.815404278E-05
 4.451753627E-05-8.214592149E-06 3.614827891E-06-4.243149528E-05 1.158484680E-04
-7.817513690E-05 1.270891354E-05-5.140591602E-05-1.859445395E-05-3.580307059E-05
 2.949473159E-05
-3.167995108E+00-2.049053215E+00 9.462877035E-01
         IVIB=   1 IATOM=  10 ICOORD=   3 E=     -946.8427743757
 3.730976716E-05 4.492988885E-05 1.111158083E-05-3.519251699E-05 1.767442187E-05
 2.530163968E-05 7.109698519E-05 1.755469785E-04-2.087361958E-04-3.487233153E-06
 7.476537957E-06-3.148528406E-05-1.774428674E-05 2.915186250E-05-4.120157369E-06
-7.377294823E-06-3.098158994E-05 1.233707847E-06-2.998326713E-05 2.220835629E-06
 3.938943224E-06 4.184705325E-05 8.530379050E-05 4.694918271E-05-8.003175631E-06
-2.118395848E-05 9.564206641E-06-4.305102688E-05-2.016392376E-04 1.919371996E-04
 1.122715920E-05 1.743813930E-05-4.659952867E-05 3.376589379E-05 9.925819791E-06
-2.893481429E-05-2.661647110E-05-1.164871703E-04-5.594597914E-05 6.955175570E-05
 4.613136949E-05-7.999695453E-06 3.634728430E-06-4.248315661E-05 1.158357385E-04
-7.864061648E-05 1.292512422E-05-5.126398906E-05-1.833761765E-05-3.594971626E-05
 2.921341615E-05
-3.167186729E+00-2.048413030E+00 9.474413206E-01
         IVIB=   1 IATOM=  11 ICOORD=   1 E=     -946.8427704149
-7.381626363E-07-4.078300095E-06 1.092652394E-05-1.183721798E-05 4.252938758E-06
-1.313241120E-05 1.113979199E-05-1.568983612E-05-2.786705936E-06-3.712146198E-05
-1.104774432E-05-3.240619767E-05-1.620620421E-03-1.947679846E-05-4.623269658E-04
-2.532837004E-05 2.785749528E-05-3.499050817E-05-3.318290979E-05-1.651894827E-06
 2.524429702E-06 4.223688630E-05 8.811717151E-05 5.757238742E-05-1.422156349E-05
-1.324930623E-05 2.539349806E-05 1.232664533E-05-3.679922292E-06 1.663563878E-05
 1.702661898E-03 6.845972595E-05 4.125960113E-04 2.928270395E-05 1.727259407E-05
-8.151770688E-06-2.304202484E-05-1.115668037E-04-5.641433853E-05 6.608284743E-05
 4.317648821E-05-8.939785816E-06 1.218510462E-06-4.177191914E-05 1.144284124E-04
-8.079741266E-05 8.374362151E-06-4.985216558E-05-1.805990321E-05-3.529831149E-05
 2.892391909E-05
-3.166524744E+00-2.048730938E+00 9.455447324E-01
         IVIB=   1 IATOM=  11 ICOORD=   2 E=     -946.8427741004
-3.951540439E-06-1.194212749E-05 8.417481626E-06-1.204934352E-05-2.161699106E-05
 1.647221688E-05-1.015826507E-05-1.668540071E-05 1.737663297E-05 1.282771247E-04
 2.090541925E-05 1.401472161E-05-5.558192443E-05-2.571158859E-04-1.755525852E-05
-1.066065596E-04 3.184989480E-05-5.447619139E-05-2.514485949E-05 7.529727998E-07
 6.068824595E-06 4.593563813E-05 9.300675283E-05 4.620774371E-05-1.294887214E-05
-1.362859096E-05 2.232621047E-05 7.986404288E-06-4.257932249E-06 1.590301651E-05
 6.328013188E-05 2.983129680E-04-8.426692846E-05 3.132659718E-05 1.863400604E-05
-2.079259557E-05-2.591735544E-05-1.172089968E-04-5.565768867E-05 6.767497519E-05
 4.554592759E-05-8.613242294E-06 6.435998258E-06-4.093610582E-05 1.155956154E-04
-8.204124833E-05 1.066587215E-05-4.838613438E-05-1.651706578E-05-3.628184335E-05
 2.736554706E-05
-3.166745972E+00-2.047520792E+00 9.460784005E-01
         IVIB=   1 IATOM=  11 ICOORD=   3 E=     -946.8427743189
-7.152572326E-07-2.900186872E-06 2.284261940E-06-2.912488328E-05 1.612924851E-05
 1.963963853E-05 2.119050025E-06 1.523120312E-05 3.706856182E-05-5.937663473E-05
 1.608029073E-06-2.969227323E-05-4.276834263E-04 4.208499897E-05-3.505643151E-04
 4.432199586E-05 1.303127420E-05 4.370068934E-06-3.550098406E-05-2.232840201E-07
 5.416316261E-06 4.333764343E-05 7.940121867E-05 3.875731611E-05-1.219208443E-05
-1.550154099E-05 1.947263782E-05 1.610895499E-05-4.495940516E-06 1.874175009E-05
 4.773146270E-04-1.770395919E-05 2.370047672E-04 3.221375139E-05 8.468598678E-06
-3.005427203E-05-2.393969704E-05-1.132720024E-04-5.696125711E-05 6.733331267E-05
 4.454976716E-05-7.469060723E-06 2.316422882E-06-4.306611679E-05 1.132100558E-04
-7.842280844E-05 1.279039369E-05-4.924091423E-05-1.811014726E-05-3.613176227E-05
 2.801668912E-05
-3.167379102E+00-2.048599913E+00 9.473825828E-01
         IVIB=   1 IATOM=  12 ICOORD=   1 E=     -946.8427732857
-2.907495291E-05-1.004656930E-05-9.689048865E-06-2.577737512E-05-7.904378604E-06
-1.144516407E-06-2.532312933E-05 1.301582515E-04-5.356132311E-05-4.255729104E-06
-1.431916704E-05-3.034740902E-05 5.241753619E-05-5.989177303E-05 4.172107203E-06
-5.150136207E-04 4.937543657E-04-2.824994601E-04-3.178237029E-05 4.287729777E-07
 4.925652128E-06 4.247024960E-05 8.419253558E-05 5.323167737E-05-1.554967551E-05
-6.931021790E-06 2.103326972E-05 1.874667324E-05-4.611845928E-06 2.462702979E-05
 1.499257681E-05 2.370596966E-05-4.216123913E-05 5.693265596E-04-4.918151189E-04
 2.817520628E-04-2.480239197E-05-1.150158297E-04-5.584433556E-05 6.654513821E-05
 4.369091827E-05-8.552366893E-06 3.825215341E-06-4.195693384E-05 1.158286479E-04
-7.819552097E-05 1.221535846E-05-5.124023858E-05-1.854934694E-05-3.565359478E-05
 2.946946244E-05
-3.166504069E+00-2.048414624E+00 9.454469065E-01
         IVIB=   1 IATOM=  12 ICOORD=   2 E=     -946.8427713977
-9.753858569E-06 8.373290920E-06 1.555482644E-05-2.441537975E-05-2.777312170E-06
-6.721874262E-06-9.838531785E-06 2.140749185E-05-5.800378046E-06-2.067198680E-05
-6.299821212E-07-1.362799682E-05 6.892343313E-05-5.915024155E-05 1.515779363E-05
 5.040842521E-04-1.243285544E-03 4.986175845E-04-3.092362553E-05-1.186390424E-06
 1.981567215E-06 4.012284217E-05 8.118281707E-05 5.481782182E-05-1.449627674E-05
-1.304862116E-05 2.364338532E-05 1.818334090E-05-3.384137760E-06 1.221071705E-05
 1.423825190E-05 2.252935711E-05-5.456573295E-05-4.858676909E-04 1.325591420E-03
-5.705637503E-04-2.209276554E-05-1.124411994E-04-5.619061635E-05 6.527567402E-05
 4.244391651E-05-8.647536721E-06 3.628692845E-06-4.198584236E-05 1.156970876E-04
-7.784471402E-05 1.198780491E-05-5.097423131E-05-1.855182088E-05-3.562688812E-05
 2.941130475E-05
-3.166890604E+00-2.049100399E+00 9.465974229E-01
         IVIB=   1 IATOM=  12 ICOORD=   3 E=     -946.8427739507
-2.124808492E-05 4.254467740E-06 3.992897019E-05-1.772523893E-05-6.877318063E-06
-7.690260060E-06 5.021493864E-07 3.574160392E-05-1.080204720E-06-8.512450293E-06
 1.804623170E-05 1.092216081E-05-8.831682161E-06 2.503763411E-05-3.046324944E-05
-2.515647587E-04 5.186795029E-04-4.492360362E-04-3.045319899E-05-2.010740968E-06
-1.472335671E-06 4.007611187E-05 8.902411377E-05 5.330548218E-05-1.390025025E-05
-1.174949221E-05 2.359484860E-05 2.026780885E-05-1.145922930E-05 3.402433812E-06
 1.870524416E-05 1.306835802E-05-6.307650338E-05 3.233697067E-04-5.350985829E-04
 3.928973059E-04-2.727791969E-05-1.173707744E-04-5.624296888E-05 6.999316192E-05
 4.618155049E-05-8.547221152E-06 3.807790946E-06-4.236836664E-05 1.157740748E-04
-7.889298032E-05 1.287335277E-05-5.124952593E-05-1.831557308E-05-3.597237185E-05
 2.923300051E-05
-3.167493833E+00-2.048040721E+00 9.471182183E-01
         IVIB=   1 IATOM=  13 ICOORD=   1 E=     -946.8427660201
-1.143172558E-05-3.127341826E-06 3.673312964E-06-5.793837656E-06 9.634882385E-07
-1.617846425E-06 1.640323634E-05 1.131587684E-05 2.517111944E-06-1.110658760E-04
-1.294405117E-05-2.275305912E-05 2.364113471E-05 6.034204722E-05-4.373693499E-05
 1.381768177E-05 7.800562186E-06-1.454934516E-05-3.616258089E-05-1.331163902E-06
 2.923883838E-06-1.859419819E-03-2.230766420E-03 3.421817833E-04-1.139797242E-05
-1.334733798E-05 2.464848323E-05 1.517489819E-05-3.782420141E-06 1.779763757E-05
 1.512655903E-05 1.962597694E-05-4.553902908E-05 2.726404488E-05 1.917492185E-05
-1.545271912E-05 3.574738137E-03 3.760019215E-03-4.438833727E-04-1.482680011E-03
-1.558000715E-03 1.381763174E-04-5.022227780E-06-5.630933929E-05 1.078804847E-04
-1.387743016E-04 4.053365359E-05-9.677397207E-05-2.441750407E-05-4.016701354E-05
 4.450723484E-05
-3.147761100E+00-2.028746780E+00 9.444380010E-01
         IVIB=   1 IATOM=  13 ICOORD=   2 E=     -946.8427626049
-9.956780675E-06-5.552041089E-06 6.962436624E-06 1.282450341E-05 2.424884477E-05
-2.349041616E-07 1.610039771E-05 1.420015395E-05 1.210233718E-06-5.135228850E-05
-9.187798047E-05-1.938468905E-05 1.000147854E-05 5.087235485E-05-4.188757999E-05
 1.710229994E-05 6.259742066E-06-1.116836252E-05-3.648996402E-05-1.404262440E-06
 2.290387991E-06-2.207448082E-03-2.884721279E-03 3.904847880E-04-1.027917251E-05
-1.272360299E-05 2.452772017E-05 1.527512805E-05-3.591999208E-06 1.775491182E-05
 1.644823345E-05 1.813324307E-05-4.506924535E-05 2.681449608E-05 1.860303528E-05
-1.569424561E-05 3.849024136E-03 5.042551222E-03-5.767467616E-04-1.534884615E-03
-2.114592398E-03 1.800689551E-04 1.479022165E-05-6.868705384E-05 1.180366263E-04
-1.003282629E-04 5.491723349E-05-7.102533088E-05-2.764189342E-05-4.663527583E-05
 3.987503119E-05
-3.145992621E+00-2.024549990E+00 9.445141512E-01
         IVIB=   1 IATOM=  13 ICOORD=   3 E=     -946.8427740225
-4.651383662E-06-1.503623816E-06 1.003094080E-05-2.835908315E-05-9.616654571E-06
 1.654890258E-06 7.004903155E-06-1.361575526E-06 3.287063570E-06 2.980683057E-06
 1.351308284E-05-9.103764799E-05 3.458391142E-06 2.137877445E-05-3.049664563E-05
 1.586558811E-05 1.338027911E-05-1.191033247E-05-3.127071198E-05-7.076528387E-07
 2.813771412E-06 3.094015226E-04 4.084038112E-04-9.157731915E-05-1.385140938E-05
-1.407438791E-05 2.374857948E-05 1.456742574E-05-4.927931096E-06 1.795412339E-05
 1.211068956E-05 1.981619035E-05-4.835261940E-05 2.726668522E-05 1.542540348E-05
-1.466571210E-05-4.145387900E-04-6.376803609E-04 3.880078312E-04 2.192831193E-04
 2.397443616E-04-2.452675128E-04-4.881755164E-06-3.582137944E-05 1.095038598E-04
-9.678267088E-05 7.965796772E-06-5.292252209E-05-1.760336815E-05-3.393419489E-05
 2.922922396E-05
-3.169163448E+00-2.050817451E+00 9.473582968E-01
         IVIB=   1 IATOM=  14 ICOORD=   1 E=     -946.8427703937
-4.647273249E-06-3.092219183E-06 8.708713081E-06-1.901070096E-05-1.724242634E-05
 1.586104475E-06 4.339383796E-06-4.802349662E-06 3.808128118E-06 6.395412198E-05
 2.148517748E-05-2.329903873E-05-2.871209984E-05 1.562326235E-06-3.800325237E-05
 2.235521839E-05 7.721377306E-06-9.423086410E-06-2.986443617E-05 2.458550582E-07
 3.410604665E-06-7.025096130E-05-4.487329361E-05 5.121025322E-05-1.557091331E-05
-1.511323523E-05 2.396941278E-05 1.435682584E-05-5.566078156E-06 1.787283277E-05
 9.908633717E-06 1.786283830E-05-4.893972523E-05 2.552638711E-05 1.194586801E-05
-1.360038185E-05-1.563826094E-03-1.689524356E-03 9.165859828E-05 1.669393562E-03
 1.773174261E-03-1.678814479E-04 7.006347272E-06-2.100557147E-05 1.175818706E-04
-7.185238653E-05-6.522157393E-06-3.812217994E-05-1.310578336E-05-2.625607726E-05
 1.946256591E-05
-3.186450827E+00-2.063161993E+00 9.457547709E-01
         IVIB=   1 IATOM=  14 ICOORD=   2 E=     -946.8427688788
-7.233026643E-06-2.232846487E-06 5.212031055E-06-2.353976365E-05-2.957471328E-05
 5.316268779E-06 4.415524332E-06-4.499700716E-06 4.146775300E-06 4.858573133E-06
 5.757116653E-05-2.891594850E-05-1.662940894E-05 9.594478422E-06-3.720116572E-05
 1.945427328E-05 9.124706045E-06-1.278321050E-05-3.023066741E-05-4.187455149E-08
 4.225596155E-06-1.047333713E-04-8.059691246E-06 6.576318618E-05-1.586517287E-05
-1.588034567E-05 2.399642824E-05 1.423867544E-05-5.514884291E-06 1.817543270E-05
 1.069241228E-05 1.948370317E-05-4.800963328E-05 2.639855801E-05 1.281869447E-05
-1.369634073E-05-1.599390205E-03-2.246764128E-03 1.349886476E-04 1.794126823E-03
 2.287789249E-03-2.267998946E-04 3.776142115E-06-3.342601877E-05 1.185404553E-04
-6.686184668E-05-2.057426242E-05-4.234221656E-05-1.347768346E-05-2.981358436E-05
 2.938355983E-05
-3.180552729E+00-2.068514603E+00 9.477085473E-01
         IVIB=   1 IATOM=  14 ICOORD=   3 E=     -946.8427745508
-1.629886824E-06-4.786702899E-06 5.326844683E-06-1.826606669E-05 1.830754235E-06
-2.943906676E-06 7.345135351E-06 5.958944791E-07 3.768271686E-06 4.693881815E-06
 8.302565737E-06 1.677206511E-05-1.995477270E-06 1.737347051E-05-3.469982532E-05
 1.923071381E-05 1.007825196E-05-1.531816432E-05-3.212724152E-05-5.619592591E-08
 4.436289899E-06 4.357565728E-05 1.080073677E-04 9.393820568E-05-1.320786917E-05
-1.350025834E-05 2.382285495E-05 1.457931670E-05-4.633832286E-06 1.830020231E-05
 1.190309947E-05 1.920818392E-05-4.654080346E-05 2.680564131E-05 1.531231883E-05
-1.458740927E-05 1.169121559E-04 6.789638990E-05-2.914894249E-04-8.935556489E-05
-1.725810738E-04 1.565056509E-04-1.207218127E-06-3.593636277E-05 1.209685982E-04
-7.305772497E-05 1.727392252E-05-7.595252598E-05-1.419871604E-05-3.438475397E-05
 3.769304858E-05
-3.168025124E+00-2.047413516E+00 9.425631988E-01
         IVIB=   1 IATOM=  15 ICOORD=   1 E=     -946.8427714517
-3.697396004E-06-3.867639780E-06 7.877640561E-06-1.919593811E-05-2.405601609E-06
-3.091820688E-06 6.043817748E-06-4.194880092E-07 3.157826032E-06-2.773527065E-06
 7.276675090E-06-2.424423926E-05 5.164770524E-06 1.546034204E-05-3.383374236E-05
 1.555269631E-05 1.413641157E-05-1.497233728E-05-3.222786226E-05-3.540996926E-07
 3.457244744E-06 5.220247304E-05 9.098786519E-05 5.731072189E-05-1.355632514E-05
-1.373821702E-05 2.406885584E-05 1.413312334E-05-4.894614969E-06 1.784296012E-05
 1.004225767E-05 2.229699945E-05-4.872574246E-05 2.714798193E-05 1.557455505E-05
-1.429949391E-05-3.511999251E-05-1.052187939E-04-6.439376945E-05 7.310988865E-05
 4.576114089E-05-1.300136857E-05 1.370678023E-03 1.183095880E-03-5.678181590E-04
-1.413211854E-03-1.146777123E-03 6.452813044E-04-5.429230058E-05-1.169143517E-04
 2.538409071E-05
-3.174116898E+00-2.050618459E+00 9.493017635E-01
         IVIB=   1 IATOM=  15 ICOORD=   2 E=     -946.8427717528
-3.511484953E-06-4.341688475E-06 8.149825469E-06-1.873631007E-05-4.437135339E-07
-3.706716612E-06 6.244526109E-06 2.269773369E-07 2.889648084E-06-7.091752554E-06
 2.221831108E-06-2.443413156E-05 6.058878673E-06 1.689097148E-05-3.317511234E-05
 1.525823123E-05 1.427267130E-05-1.520820162E-05-3.256056951E-05-5.213305379E-07
 3.294241665E-06 5.295541481E-05 9.046565380E-05 5.532930598E-05-1.340692618E-05
-1.355962480E-05 2.404699310E-05 1.416538294E-05-4.805608548E-06 1.784120864E-05
 1.316973283E-05 2.104151995E-05-4.796188278E-05 2.750239654E-05 1.610191158E-05
-1.438024480E-05-3.968497631E-05-1.425312757E-04-4.929209776E-05 9.066356770E-05
 5.434797924E-05-1.970307664E-06 1.228914215E-03 1.308472523E-03-4.236037274E-04
-1.398106216E-03-1.421856539E-03 4.969348987E-04 5.816572577E-05 6.401768059E-05
 5.246272770E-06
-3.170484414E+00-2.054919546E+00 9.486668247E-01
         IVIB=   1 IATOM=  15 ICOORD=   3 E=     -946.8427731751
-3.818922930E-06-3.065028100E-06 7.600002299E-06-1.956566964E-05-3.503830414E-06
-2.335281879E-06 7.479554079E-06 6.479159609E-08 3.310465934E-06 3.335732797E-07
 8.733085622E-06-2.510498566E-05 2.524527059E-06 1.939773505E-05-3.358981077E-05
 1.730274223E-05 1.193289295E-05-1.303667382E-05-3.180348376E-05-4.881115048E-07
 3.320571034E-06 4.086344887E-05 9.342611125E-05 4.699994468E-05-1.353824331E-05
-1.379803227E-05 2.400362361E-05 1.458006706E-05-4.911898752E-06 1.780506157E-05
 1.086534735E-05 1.908919925E-05-5.022979563E-05 2.693150255E-05 1.534292702E-05
-1.457571428E-05-3.451774929E-05-1.138352482E-04-6.238449057E-05 7.082871014E-05
 4.778457516E-05-3.052304943E-06-6.744513779E-04-5.773839397E-04 5.913998225E-04
 4.966157444E-04 3.802113232E-04-5.144348679E-04 8.937006521E-05 1.210033871E-04
 2.430439767E-05
-3.165795144E+00-2.048889617E+00 9.404326262E-01
         IVIB=   1 IATOM=  16 ICOORD=   1 E=     -946.8427693487
-3.178687286E-06-3.019039805E-06 7.800780852E-06-1.945117453E-05-3.503325119E-08
-3.593930318E-06 8.964565925E-06 1.460840394E-06 3.484262789E-06-7.065697075E-06
 2.531901027E-06-2.489389293E-05 3.533874990E-06 2.114492211E-05-3.490257426E-05
 1.683867743E-05 1.021652050E-05-1.306957604E-05-3.223767190E-05-7.956083848E-07
 3.245093234E-06 4.336452109E-05 8.693753823E-05 5.121088808E-05-1.295090177E-05
-1.334844563E-05 2.401216934E-05 1.505931391E-05-4.582683747E-06 1.788662637E-05
 1.011809044E-05 1.564421468E-05-4.751097418E-05 2.723013015E-05 1.609096500E-05
-1.476441226E-05-8.572255286E-05-1.374116784E-04-7.448057734E-05 7.495005930E-05
 5.620476107E-05-2.840897042E-06-1.321912809E-03-1.346501076E-03 6.878749768E-04
 2.253930059E-03 9.632127136E-04-1.916310345E-03-9.714700003E-04 3.322491281E-04
 1.336852353E-03
-3.149493224E+00-2.045836110E+00 9.414839105E-01
         IVIB=   1 IATOM=  16 ICOORD=   2 E=     -946.8427700178
-3.717422967E-06-2.580147709E-06 7.569967709E-06-2.022178222E-05-6.706863377E-06
-1.881439294E-06 7.832878850E-06-6.365562211E-07 3.808518446E-06 5.455685008E-06
 1.416614515E-05-2.442835944E-05-4.047408835E-06 1.667382140E-05-3.648997473E-05
 1.809716640E-05 9.534446560E-06-1.250811273E-05-3.106283608E-05-4.059676423E-07
 3.654277098E-06 1.083335967E-05 7.575063621E-05 4.536730316E-05-1.369617433E-05
-1.401386382E-05 2.408477260E-05 1.483558142E-05-4.897046852E-06 1.796442777E-05
 8.058492743E-06 1.719355804E-05-4.751941615E-05 2.649452377E-05 1.470075870E-05
-1.434711356E-05 1.190426956E-06-7.350547508E-05-6.088265031E-05 5.016649958E-05
 1.195439965E-05-3.752090271E-06-1.140480129E-03-1.467425905E-03 4.806079272E-04
 8.725895061E-04 1.895679882E-03 1.306700720E-04 1.976714677E-04-4.854819612E-04
-5.119181381E-04
-3.168524070E+00-2.039640144E+00 9.444997120E-01
         IVIB=   1 IATOM=  16 ICOORD=   3 E=     -946.8427691574
-3.666532249E-06-3.758067816E-06 8.118745876E-06-1.891857143E-05-1.381442252E-06
-3.955632087E-06 6.890868318E-06 5.125750238E-07 2.998811901E-06-6.621254012E-06
 4.517268770E-06-2.282264722E-05 4.890778666E-06 1.764888181E-05-3.482066340E-05
 1.614347976E-05 1.300724708E-05-1.494110813E-05-3.242800632E-05-5.012207946E-07
 3.503663518E-06 5.739187679E-05 9.549645873E-05 5.480366000E-05-1.336086997E-05
-1.353697149E-05 2.415257406E-05 1.438527602E-05-4.712652399E-06 1.793821159E-05
 1.415931432E-05 2.262225321E-05-4.512697393E-05 2.726968510E-05 1.610198727E-05
-1.428849866E-05-7.072113350E-05-1.358192098E-04-5.742911174E-05 8.256397937E-05
 5.458853495E-05-3.292188289E-05 6.972210910E-04 5.034248745E-04-3.458425278E-04
-1.932063476E-03 1.871019767E-04 2.301092331E-03 1.156863329E-03-7.553125539E-04
-1.840458988E-03
-3.171389643E+00-2.049463932E+00 9.578017403E-01
         IVIB=   1 IATOM=  17 ICOORD=   1 E=     -946.8427726041
-3.809956157E-06-3.386794682E-06 7.706547202E-06-1.910675030E-05-3.405789163E-06
-2.735533366E-06 6.874599587E-06 1.316756739E-07 3.148759460E-06-6.554918065E-07
 7.938516409E-06-2.446649329E-05 2.666290179E-06 1.845966745E-05-3.504157430E-05
 1.724773306E-05 1.264806885E-05-1.385481209E-05-3.193627604E-05-5.404752123E-07
 3.539262123E-06 4.232978442E-05 9.373966867E-05 5.023906709E-05-1.359328025E-05
-1.381533236E-05 2.407247321E-05 1.440178095E-05-4.909428494E-06 1.790796987E-05
 1.278973972E-05 2.145793359E-05-4.706669057E-05 2.700530188E-05 1.551768901E-05
-1.431976903E-05-3.333059746E-05-1.261457469E-04-5.500862415E-05 7.581531247E-05
 5.146851987E-05-4.031099224E-06-3.169216565E-05 3.402409820E-05 2.236742214E-04
-1.028493566E-03 2.273753246E-04 1.128434558E-03 9.634873565E-04-3.305576566E-04
-1.262198290E-03
-3.174554453E+00-2.050133996E+00 9.480586693E-01
         IVIB=   1 IATOM=  17 ICOORD=   2 E=     -946.8427741589
-3.528405696E-06-3.466787287E-06 7.886648804E-06-1.937498637E-05-2.248833695E-06
-3.099881737E-06 7.410141464E-06 7.092241430E-07 3.143781717E-06-3.762314288E-06
 6.460077240E-06-2.474441843E-05 2.741042267E-06 2.021646845E-05-3.458915591E-05
 1.741281777E-05 1.191283000E-05-1.335829867E-05-3.205499213E-05-5.673064714E-07
 3.366684570E-06 4.493402695E-05 8.933064518E-05 5.202814746E-05-1.335194383E-05
-1.363484634E-05 2.403732065E-05 1.470394896E-05-4.787160134E-06 1.785279535E-05
 1.306559314E-05 1.900151072E-05-4.773574064E-05 2.718939741E-05 1.578651695E-05
-1.453534269E-05-2.984145974E-05-1.262814837E-04-5.417066072E-05 7.810412398E-05
 5.077279977E-05-6.929762016E-06-7.672727012E-05 5.748386179E-05 2.732066570E-04
 2.876153039E-04-4.350395745E-04-7.756895728E-04-3.145351870E-04 3.143519987E-04
 5.933307698E-04
-3.164984875E+00-2.052720067E+00 9.437670367E-01
         IVIB=   1 IATOM=  17 ICOORD=   3 E=     -946.8427700384
-3.318631142E-06-3.215031865E-06 7.742616535E-06-1.969488923E-05-2.792721589E-06
-2.769954744E-06 7.781707008E-06 5.375536967E-07 3.266786258E-06-2.160393331E-06
 8.043723915E-06-2.615606299E-05 4.704423930E-07 2.045778804E-05-3.477507312E-05
 1.784709930E-05 1.110077253E-05-1.259809584E-05-3.179817789E-05-6.300861581E-07
 3.385995238E-06 3.654046333E-05 8.018268811E-05 5.441323961E-05-1.331811930E-05
-1.367249501E-05 2.402302610E-05 1.489215522E-05-4.788398476E-06 1.786251646E-05
 1.193554404E-05 1.729177513E-05-4.891833228E-05 2.701044391E-05 1.552808526E-05
-1.453881036E-05-1.117847500E-05-1.051429214E-04-5.629256060E-05 5.898022352E-05
 4.494681187E-05 1.046554988E-07-3.037245291E-07-6.662667060E-05 1.107805923E-04
 1.232865137E-03-5.337471576E-04-1.941981625E-03-1.326550969E-03 5.325262234E-04
 1.916451058E-03
-3.161558869E+00-2.048130514E+00 9.393308048E-01
         IVIB=   2 IATOM=   1 ICOORD=   1 E=     -946.8427660510
-3.530972485E-03-2.462129042E-04-7.839560833E-04 9.106107660E-04 6.655939762E-04
-3.036937744E-05 7.886581378E-04-4.712510895E-04 3.167652424E-04 1.535775828E-04
 1.521479768E-04-2.263201349E-05-9.178060747E-07 2.543594492E-05-4.284899904E-05
 1.112484304E-04-1.375554476E-04 6.832668654E-05-8.524299421E-05-6.794288467E-05
 1.294755894E-05 5.329459149E-05 7.858119866E-05 6.891302282E-05 1.616037626E-03
 9.074806177E-06 4.541497301E-04-3.675455458E-05 7.668978702E-05-2.285656665E-05
 9.582821023E-06 1.979673572E-05-5.032213183E-05 5.246765245E-05 2.166647584E-05
 3.298786676E-06-1.845134686E-05-1.096426819E-04-5.497073875E-05 7.022291489E-05
 4.909669769E-05-1.035998236E-05 3.750883073E-06-4.256099642E-05 1.161414942E-04
-7.884855122E-05 1.298462579E-05-5.138819242E-05-1.826382944E-05-3.590228145E-05
 2.916153528E-05
-3.168466379E+00-2.048960045E+00 9.451222743E-01
         IVIB=   2 IATOM=   1 ICOORD=   2 E=     -946.8427668156
-2.352110555E-04-3.194936795E-03 8.072346795E-04 4.523855651E-04 1.406788485E-03
-2.470274285E-04-2.635422447E-04 1.369932116E-03-4.516210492E-04 2.412173660E-04
-7.484892228E-05 7.186016502E-05 1.573849000E-05 2.103700580E-04-9.035656503E-05
-2.346141406E-04-9.069376689E-05-5.797199310E-05 4.598866728E-05 7.089161967E-05
-1.079760487E-07 2.524063217E-05 6.643449931E-05 4.349779358E-05 8.848020998E-06
 2.665147790E-04-3.428653302E-06-5.248850808E-05 7.173715216E-05-3.098483853E-05
 1.317211696E-05 2.816113887E-05-4.792958444E-05 3.365621949E-05 4.105054555E-06
-2.218991105E-05-2.629376092E-05-1.136845688E-04-5.790744122E-05 6.887159097E-05
 4.437989475E-05-6.966040354E-06 4.156534445E-06-4.151113569E-05 1.156783649E-04
-7.872247824E-05 1.210407799E-05-5.113284935E-05-1.840317820E-05-3.574374693E-05
 2.935329846E-05
-3.166960668E+00-2.048440504E+00 9.462473244E-01
         IVIB=   2 IATOM=   1 ICOORD=   3 E=     -946.8427720641
-7.903938642E-04 7.898167300E-04-1.123949769E-03 1.880648890E-05-1.897810301E-04
 3.393522313E-04 2.504734981E-04-5.105117111E-04 5.204304427E-04-3.351919026E-05
 7.492721858E-05-7.045756209E-05-8.709322158E-06-3.861554963E-05-2.287546780E-06
 1.339641602E-04-1.758251928E-06 1.666304616E-05-7.174688599E-05-4.830660360E-05
-1.408185173E-06 5.874732315E-05 8.011447372E-05 2.657997912E-05 4.113262439E-04
-4.120628761E-05 3.393251909E-04 2.418395440E-05-8.507773330E-06 1.460500048E-05
 9.379127368E-06 1.881994205E-05-4.192660076E-05 4.456363515E-05 7.744683268E-06
-4.661277885E-05-2.179292406E-05-1.147793240E-04-5.825361593E-05 6.798644642E-05
 4.773974055E-05-5.900511537E-06 3.607382347E-06-4.280446821E-05 1.161299985E-04
-7.849171866E-05 1.302986524E-05-5.173835233E-05-1.838451816E-05-3.592171494E-05
 2.944900470E-05
-3.167970991E+00-2.048557598E+00 9.468686052E-01
         IVIB=   2 IATOM=   2 ICOORD=   1 E=     -946.8427667845
 9.287216333E-04 4.786736045E-04 4.522346479E-05-3.215485320E-03-1.703232953E-04
-7.264240896E-04-1.995978041E-04 7.523672443E-05-8.049905003E-05 1.535531300E-03
 5.673341305E-05 3.336075340E-04 8.368561922E-05-1.974871504E-04 7.311064544E-05
 1.780743883E-04 9.237011346E-05 2.531750586E-06 4.864280995E-04-4.853299969E-04
 2.739386642E-04 1.725578803E-04 1.832392319E-04 6.140571238E-05 4.289545986E-05
 1.153639730E-04-4.702671949E-08 1.315285732E-05-1.714215673E-05 3.366352132E-05
 5.180504391E-06 1.209501037E-05-3.757098253E-05 3.323680127E-05 2.036825629E-05
-1.603451600E-05-3.963184633E-05-1.479373679E-04-4.709110931E-05 6.892782937E-05
 4.975826346E-05-9.566425202E-06 3.310288055E-06-4.333718742E-05 1.162080413E-04
-7.829054277E-05 1.367075281E-05-5.220821868E-05-1.869730892E-05-3.595224977E-05
 2.975205558E-05
-3.165979150E+00-2.047888115E+00 9.454861347E-01
         IVIB=   2 IATOM=   2 ICOORD=   2 E=     -946.8427663021
 6.757521916E-04 1.423004634E-03-1.811253699E-04-1.967579683E-04-3.445705272E-03
 9.040653585E-04-2.549010623E-05 2.309028098E-04-8.957592626E-05-1.035791176E-04
 5.283596421E-04-1.324512880E-04-1.367534973E-04-7.666211470E-05-5.536698141E-05
 1.086356165E-04 5.652127520E-05 4.645933195E-06-5.025854367E-04 1.254447241E-03
-5.057259324E-04 2.163574410E-04 1.379181594E-04 8.466940928E-05-3.189694920E-05
-3.184520547E-05 2.170490095E-05 3.119760283E-06 6.586577171E-06-2.968086048E-06
 5.201784344E-06 3.793492324E-05-6.672061397E-05 3.169063698E-05 1.519021747E-05
-1.062086727E-05-3.023312632E-05-1.431235031E-04-4.948812996E-05 8.325511967E-05
 7.194230205E-05-1.334200415E-05 3.007849467E-06-4.508923560E-05 1.163834352E-04
-8.169421744E-05 1.636372059E-05-5.309546809E-05-1.803014485E-05-3.674623250E-05
 2.901160145E-05
-3.165348736E+00-2.047627092E+00 9.465024486E-01
         IVIB=   2 IATOM=   2 ICOORD=   3 E=     -946.8427719668
-3.203191980E-05-2.496083711E-04 3.509973328E-04-7.473314917E-04 9.088210085E-04
-1.140078287E-03-3.943533872E-05-5.959122569E-05-4.198508056E-06 4.122435519E-04
-5.465378517E-05 4.137091733E-04 8.291952351E-05-2.462976567E-05-2.796331542E-05
 2.968631468E-05 2.684426108E-05 2.172268180E-06 2.357312678E-04-5.184258466E-04
 4.257338483E-04 2.282038151E-05 9.631860469E-05 3.525926257E-05 1.236755351E-05
 2.835149469E-05 8.882782105E-06 3.014576899E-05-2.592866109E-05-1.030481995E-05
 2.275808498E-05 5.353129010E-08-7.002642902E-05 2.529036614E-05 1.936089201E-05
-9.605817285E-06-2.737284296E-05-1.186682095E-04-6.054110560E-05 6.464592576E-05
 3.719121990E-05-8.314325492E-06 3.991101499E-06-4.149982680E-05 1.153564701E-04
-7.794322370E-05 1.173150477E-05-5.023680346E-05-1.848518719E-05-3.566688678E-05
 2.915824608E-05
-3.167755642E+00-2.048447256E+00 9.470535758E-01
         IVIB=   2 IATOM=   3 ICOORD=   1 E=     -946.8427665488
 7.772242428E-04-2.712186968E-04 2.527018854E-04-2.262884876E-04-3.574755521E-05
-5.004545431E-05-3.285576299E-03-3.860776899E-04-6.750471211E-04 1.347775978E-04
-8.928764443E-05 4.327429148E-05 1.500003004E-04 2.594276068E-04-6.814351839E-05
 1.662144447E-03-4.847615810E-05 4.212816111E-04-2.771973680E-05 2.066758105E-05
 9.596933223E-06 5.074795043E-05 9.805127297E-05 4.989771473E-05 2.320072967E-05
-1.423103901E-04 8.173015976E-05 7.296576614E-04 6.667304718E-04-4.523003006E-05
 8.813521668E-06 3.702081910E-05-4.208597889E-05 5.936444148E-05 3.262729770E-05
-7.613757630E-06-3.497565835E-05-1.244124331E-04-5.569212053E-05 7.180181616E-05
 4.802112933E-05-8.385273820E-06 4.991706815E-06-4.132841590E-05 1.157873862E-04
-8.018055695E-05 1.225518172E-05-5.095504973E-05-1.798384298E-05-3.594243781E-05
 2.892829405E-05
-3.165868839E+00-2.049597224E+00 9.460218254E-01
         IVIB=   2 IATOM=   3 ICOORD=   2 E=     -946.8427663439
-4.718209009E-04 1.351136399E-03-4.998947331E-04 5.525984500E-05 2.262160412E-04
-6.261244090E-05-3.900231891E-04-3.379786388E-03 8.221789590E-04-9.789757285E-05
 4.479539477E-05-5.949019448E-05 1.363321600E-04-7.133492447E-05 3.227690187E-05
 1.647773259E-04 5.858552562E-04-7.227856840E-05-1.095480350E-05 1.079962448E-05
-7.648630075E-06 5.017036888E-05 1.020423941E-04 5.202552145E-05 5.304602113E-06
-3.794379106E-05 3.461425484E-05 6.894924594E-04 1.281195456E-03-1.576020330E-04
 2.838693525E-05 3.645246010E-05-6.236204062E-05-1.029093968E-04-5.174147022E-06
-5.007646044E-05-3.696077993E-05-1.296460244E-04-5.432726566E-05 7.405799398E-05
 5.002887751E-05-8.628787678E-06 4.528952165E-06-4.228011949E-05 1.162147932E-04
-7.948648499E-05 1.385302727E-05-5.161866370E-05-1.825767817E-05-3.620959729E-05
 2.922935956E-05
-3.167801832E+00-2.048480852E+00 9.461049975E-01
         IVIB=   2 IATOM=   3 ICOORD=   3 E=     -946.8427721180
 3.114349535E-04-4.552014699E-04 5.244000109E-04-1.029843914E-04-9.564939787E-05
-1.047551631E-05-6.749119157E-04 8.257943945E-04-1.092495698E-03 6.603459426E-05
-2.742713859E-05 2.745340554E-05 4.684333656E-06 1.185440090E-04-8.076549952E-05
 3.862530809E-04-1.095994026E-04 4.098692779E-04-2.575217560E-05-1.152117494E-05
-3.095672390E-05 3.805512593E-05 8.783906028E-05 5.753882481E-05-5.809517692E-06
-4.759380746E-05 2.795908603E-05-4.890697689E-05-1.798021997E-04 2.299617405E-04
 1.851450589E-05 5.264353364E-06-8.141194326E-05 8.373600770E-05 2.452370478E-05
-1.008751864E-05-2.539103529E-05-1.139198564E-04-5.606787655E-05 6.846110074E-05
 4.440338666E-05-8.921914527E-06 3.782613199E-06-4.207098779E-05 1.158584258E-04
-7.882289383E-05 1.218980083E-05-5.119960461E-05-1.837757292E-05-3.577333456E-05
 2.934149515E-05
-3.166973545E+00-2.048607511E+00 9.474687550E-01
         IVIB=   2 IATOM=   4 ICOORD=   1 E=     -946.8427668582
 1.524708830E-04 2.407407338E-04-2.385457837E-05 1.544086549E-03-1.061665638E-04
 4.162649147E-04 1.443046658E-04-9.584421933E-05 7.113985322E-05-3.160681340E-03
-2.474356573E-04-6.956747453E-04 7.613925751E-04-2.931773128E-04 2.114365078E-04
-1.837206780E-04-1.014017772E-05-6.256648651E-05 7.943192544E-06 2.419038604E-05
 9.955489408E-06 6.599471038E-04 6.643631556E-04 1.425911725E-06-1.876286011E-05
 4.337790551E-06 2.870537003E-05 1.937420020E-05-1.158167877E-05 1.969700301E-05
 4.759062377E-05-1.102843221E-04 1.000429786E-05 2.917855242E-05 3.409465270E-05
-7.567523195E-06 8.199514473E-05-6.584795593E-05-6.079553383E-05 3.104478671E-06
 3.843584407E-05-1.488141573E-05 4.421166147E-06-3.731199062E-05 1.138261835E-04
-7.303744499E-05 5.568735417E-06-4.686453897E-05-1.960697332E-05-3.394148054E-05
 2.974926197E-05
-3.171646656E+00-2.052423949E+00 9.459568271E-01
         IVIB=   2 IATOM=   4 ICOORD=   2 E=     -946.8427672042
 1.409983857E-04-8.644344796E-05 7.483212547E-05 2.920695891E-05 5.179973085E-04
-6.542506004E-05-9.005491513E-05 3.754205844E-05-3.210991598E-05-2.474773915E-04
-3.033632331E-03 7.155343621E-04-4.601598781E-04 1.222315770E-03-4.841505260E-04
 9.448398812E-05 2.550100995E-04-7.770372692E-05-1.596170616E-04-1.500629566E-05
-3.301575254E-05 6.381830268E-04 1.162490864E-03-8.667682652E-05 2.264702823E-06
 1.555845679E-06 9.631557718E-06 7.774151960E-06-6.222776118E-06 1.852049053E-05
 3.161110826E-05 6.386305442E-06-4.118001088E-05 4.920224060E-05 2.436367972E-05
-2.460220248E-05-4.918855038E-06-1.740824581E-05-6.143250028E-05 5.529881087E-05
-4.668116631E-06-8.686907654E-06 4.263722083E-06-3.670843796E-05 1.151767268E-04
-7.268818306E-05 6.715018346E-06-4.822105440E-05-1.837097553E-05-3.428735871E-05
 2.950919218E-05
-3.170725963E+00-2.053929399E+00 9.463699613E-01
         IVIB=   2 IATOM=   4 ICOORD=   3 E=     -946.8427719438
-1.259609887E-06 9.340704138E-05-3.797218870E-05 3.437417702E-04-1.112948979E-04
 4.340873953E-04 7.547873092E-05-3.452028486E-05 5.541636957E-05-6.685426544E-04
 7.420622810E-04-1.122243648E-03 2.964124687E-04-3.809009551E-04 4.865879386E-04
-6.478870997E-05-8.140874145E-05-2.031933149E-05 2.616920174E-05 8.759102920E-06
 8.916900683E-06-1.318386923E-05-5.141663498E-05 2.199956239E-04-8.119898354E-06
-2.729392355E-05-1.054635130E-05 1.646227695E-05-4.216386690E-06 2.460855356E-05
 1.991996322E-05-1.909312910E-05-4.254478721E-05 3.258116737E-05 4.290361740E-06
-5.018649183E-05-2.825871678E-05-1.214530506E-04 1.043810285E-05 6.742970990E-05
 4.931168468E-05-4.988612484E-05 3.271361048E-06-4.263073644E-05 1.162391666E-04
-7.862460632E-05 1.232308752E-05-5.320998318E-05-1.868874867E-05-3.592487891E-05
 3.061882710E-05
-3.167062603E+00-2.048280760E+00 9.451859770E-01
         IVIB=   2 IATOM=   5 ICOORD=   1 E=     -946.8427660738
-5.810538117E-06 1.091308193E-05-2.494569416E-06 6.303548156E-05-1.415780345E-04
 7.887791734E-05 1.564871063E-04 1.355119218E-04 6.452617110E-06 7.572976747E-04
-4.505962433E-04 2.715854760E-04-3.527131735E-03-3.223149184E-04-8.050485150E-04
 9.765389863E-04 7.007883965E-04-3.805070398E-05-6.855312807E-06 4.820828310E-06
 1.911096642E-05 3.083936588E-06 1.850907124E-04 1.096651623E-05-1.705616592E-05
-1.378710234E-05 2.087276435E-05 3.902884435E-05-4.453986095E-06 3.726660733E-05
 1.633977659E-03 7.417811981E-05 3.764299532E-04-2.381081450E-05-5.187464493E-05
-3.962504732E-06-4.810493966E-05-1.246497988E-04-5.798317245E-05 9.925876223E-05
 6.343499093E-05-4.815835569E-06 1.116914650E-07-4.688319372E-05 1.150536887E-04
-8.047596907E-05 1.843531478E-05-5.475901250E-05-1.957483126E-05-3.703550528E-05
 3.049777850E-05
-3.165987745E+00-2.047806596E+00 9.455376636E-01
         IVIB=   2 IATOM=   5 ICOORD=   2 E=     -946.8427671238
 2.560931609E-06 1.879258128E-04-4.983985403E-05-2.362688624E-04-9.867391520E-05
-4.704043884E-05 2.485000227E-04-9.028787817E-05 1.027087448E-04-3.117251687E-04
 1.196451921E-03-4.217357504E-04-3.513332608E-04-3.124006921E-03 7.143304779E-04
 5.155622620E-04 1.422144969E-03-2.494112384E-04-2.395087129E-05-1.144315790E-05
-1.525588790E-06 6.773232127E-05 3.038039186E-04-1.718222653E-05-1.357022148E-05
-5.085730413E-06 2.351971496E-05 1.418990679E-05-1.603680252E-05 7.916030861E-06
 5.306392765E-05 2.957187200E-04-6.999197695E-05 1.062997661E-04 9.393706492E-05
-2.059056360E-05-6.695727562E-05-1.475338103E-04-5.825665092E-05 8.685197593E-05
 5.512768228E-05-6.664796627E-06 7.246553462E-06-4.031852398E-05 1.157270191E-04
-8.049011694E-05 1.524117982E-05-5.018166809E-05-1.771205437E-05-3.696459001E-05
 2.821873672E-05
-3.166019307E+00-2.046552092E+00 9.458639286E-01
         IVIB=   2 IATOM=   5 ICOORD=   3 E=     -946.8427719122
-1.133037165E-05-5.897599427E-05 4.052900168E-05 8.916787661E-05-2.357891701E-05
 4.204476249E-06-2.592513801E-05 6.778570566E-05-4.268028871E-05 2.461428249E-04
-4.383536593E-04 4.962590043E-04-7.732490090E-04 7.744708591E-04-1.145362943E-03
 5.900742535E-05-1.648358333E-04 3.291406248E-04-1.721212383E-05-6.128854925E-06
-2.276871938E-05 2.364315665E-05 3.907126222E-05 5.101459508E-05-1.659207201E-05
-1.423904246E-05 3.034027820E-05 3.433443616E-05-1.449699663E-05-1.309112674E-05
 4.442064977E-04 1.529964188E-06 2.682401857E-04-1.216458601E-05-3.428200009E-05
-1.886872875E-05-1.746309850E-05-1.092170402E-04-6.050620353E-05 7.193301518E-05
 4.741347284E-05-8.649386875E-06 2.559421188E-06-4.424194863E-05 1.145751352E-04
-7.863620608E-05 1.431415794E-05-5.148936323E-05-1.842221287E-05-3.623519636E-05
 2.911342999E-05
-3.167535354E+00-2.048824884E+00 9.470987601E-01
         IVIB=   2 IATOM=   6 ICOORD=   1 E=     -946.8427666292
 9.077376577E-05-2.556352499E-04 1.247783050E-04 1.414419388E-04 8.794152435E-05
 9.722913839E-06 1.678915139E-03 1.469593404E-04 3.770632214E-04-2.027320617E-04
 8.463071602E-05-1.070157136E-04 9.583687792E-04 5.067442567E-04 7.407870279E-06
-3.288185379E-03-1.333092242E-04-7.728941297E-04-2.585880578E-05 5.132509802E-06
 1.500148934E-06 3.392852611E-05 6.017528752E-05 6.940149108E-05-2.014851477E-05
-2.208544085E-05 3.705281141E-05 6.757011309E-05-2.280662451E-05 4.249591085E-05
 5.509980249E-05 1.433977467E-04-7.426153818E-05 5.594687609E-04-4.652201479E-04
 2.542831382E-04-2.229795367E-05-1.154030405E-04-5.446162224E-05 6.410460309E-05
 4.334605356E-05-1.016867280E-05 5.602445427E-06-4.022069000E-05 1.162336707E-04
-7.790338295E-05 1.219407257E-05-5.011243064E-05-1.814794036E-05-3.584115096E-05
 2.897459644E-05
-3.167267486E+00-2.048130291E+00 9.452084847E-01
         IVIB=   2 IATOM=   6 ICOORD=   2 E=     -946.8427664786
-1.529105313E-04-1.056381318E-04-5.714176721E-06 6.135116395E-05 4.145087261E-05
 1.227373444E-05-5.429733472E-05 5.744167285E-04-1.186836253E-04-2.348686800E-05
 2.502180643E-04-1.177296911E-04 6.799832957E-04 1.413637988E-03-2.094509085E-04
-1.173363398E-04-3.377856726E-03 8.808985201E-04-2.723269766E-05-2.897662088E-07
 6.729731076E-06 2.036882473E-05 8.115245770E-05 3.667014576E-05-2.251890066E-05
 3.746106703E-06 1.834409381E-06 1.452421098E-04-2.211735023E-05 6.043373111E-05
-3.779453567E-06-6.970048923E-07-4.871678403E-05-4.608644193E-04 1.270803176E-03
-5.270455821E-04-2.238988649E-05-1.106903611E-04-5.775541995E-05 7.307614921E-05
 4.799243399E-05-6.773875324E-06 1.252840175E-06-4.495512885E-05 1.157646898E-04
-7.718020156E-05 1.491159629E-05-5.264879714E-05-1.927791524E-05-3.608501597E-05
 2.991386980E-05
-3.166591744E+00-2.049824613E+00 9.468220270E-01
         IVIB=   2 IATOM=   6 ICOORD=   3 E=     -946.8427718551
 7.865014501E-05-4.796983100E-05 3.774833520E-05-3.504736991E-06 1.504166772E-05
 1.277326882E-05 4.471359391E-04-5.890329393E-05 4.251694549E-04-5.121187928E-05
-5.635555120E-05-3.192262246E-05-2.197139808E-05-2.146416088E-04 3.068682610E-04
-7.377348914E-04 9.004486499E-04-1.172936461E-03-3.343392196E-05 3.084209172E-06
 7.686178013E-06 5.463938353E-05 6.977123263E-05 2.946394196E-05-2.798230485E-07
-3.579871508E-05-4.764532187E-06-1.130768967E-05-6.930727534E-06 3.205259628E-06
 3.417746218E-05 6.047963912E-05-6.516207422E-05 2.959748509E-04-4.905300981E-04
 4.215225676E-04-2.462120458E-05-1.177646537E-04-5.753996745E-05 6.493241353E-05
 4.459116042E-05-6.431371353E-06 5.283585455E-06-4.062128443E-05 1.156112188E-04
-7.870432913E-05 1.198759184E-05-4.994114969E-05-1.802406938E-05-3.588844778E-05
 2.864966385E-05
-3.167720972E+00-2.047835316E+00 9.466081850E-01
         IVIB=   2 IATOM=   7 ICOORD=   1 E=     -946.8427732837
-5.693020254E-05 7.476519270E-05-3.208173236E-05 5.002726880E-04-4.775571332E-04
 2.635104652E-04 1.146014018E-05 2.129368096E-05 9.381915051E-06 3.774411941E-05
-1.195522457E-04 3.297576014E-05 2.650822596E-05 2.726421643E-05-2.042890411E-05
 2.336720833E-05 1.630801185E-05-1.494740097E-05-5.656731369E-04 5.009327320E-04
-2.901662051E-04 3.333056042E-05 8.078944543E-05 4.714123578E-05-1.598673912E-05
-1.807621133E-05 1.889688455E-05 1.240304593E-05-4.615439565E-07 1.600006331E-05
 1.374684888E-05 1.267841062E-05-4.384628285E-05 2.700894102E-05 1.464229508E-05
-1.587652435E-05-2.151297838E-05-1.110001558E-04-5.665319639E-05 6.679293898E-05
 4.344991552E-05-8.131845688E-06 3.991146570E-06-4.179227893E-05 1.157860383E-04
-7.805824460E-05 1.198655207E-05-5.091021439E-05-1.846472620E-05-3.567094472E-05
 2.934991523E-05
-3.168038365E+00-2.049120045E+00 9.462342509E-01
         IVIB=   2 IATOM=   7 ICOORD=   2 E=     -946.8427716644
-7.099786992E-05 6.847403113E-05-3.994638764E-05-5.074253600E-04 1.265238825E-03
-5.239879756E-04 2.871014634E-05 1.163568160E-05-7.739854690E-06 2.292879706E-05
-6.844819613E-06-1.531123368E-05 7.017144385E-06 7.949550205E-06-4.051226706E-05
 2.313442397E-05 1.198709172E-05-9.777141512E-06 4.750429736E-04-1.321529983E-03
 5.637928911E-04 3.632394641E-05 8.174701418E-05 5.857021057E-05-1.500344623E-05
-1.659086192E-05 3.123152296E-05 1.103478185E-05-6.863905203E-07 1.514327985E-05
 1.353611920E-05 1.816601907E-05-4.776275125E-05 2.604233956E-05 1.624534999E-05
-1.294823568E-05-2.548754582E-05-1.151873372E-04-5.583758716E-05 6.840287931E-05
 4.494532997E-05-8.859176430E-06 3.551513074E-06-4.238622372E-05 1.158902267E-04
-7.833109373E-05 1.263722385E-05-5.134038450E-05-1.847991237E-05-3.580056065E-05
 2.939483575E-05
-3.167522211E+00-2.048802688E+00 9.451730353E-01
         IVIB=   2 IATOM=   7 ICOORD=   3 E=     -946.8427737984
 5.791113799E-06-6.963613064E-06 3.080637721E-06 2.498021363E-04-5.164330594E-04
 4.214243122E-04 1.338482338E-05-1.067197677E-05-3.115511219E-05 4.394387627E-06
-2.851556179E-05-1.917506827E-05 1.709992404E-05 1.436208160E-05-6.120294749E-05
 1.543536460E-05 1.493221979E-05-9.182798333E-06-3.256763361E-04 5.542862509E-04
-3.964871479E-04 3.415227493E-05 9.320900178E-05 6.507344830E-05-1.954342368E-05
-7.442176125E-06 3.965735296E-05 1.546124010E-05-5.182293625E-06 1.744546382E-05
 1.346429047E-05 1.683158503E-05-4.936980113E-05 2.560667591E-05 1.704582054E-05
-9.476015558E-06-2.516864734E-05-1.143864681E-04-5.536798671E-05 6.886453229E-05
 4.433953952E-05-9.334568786E-06 3.666604780E-06-4.230851969E-05 1.160505357E-04
-7.819208143E-05 1.264265243E-05-5.151942863E-05-1.854304295E-05-3.574554432E-05
 2.953909617E-05
-3.166727580E+00-2.049530370E+00 9.445116601E-01
         IVIB=   2 IATOM=   8 ICOORD=   1 E=     -946.8427683165
 9.586683869E-06-1.782766571E-05 2.641794387E-05 1.137643459E-04 1.733604139E-04
-2.000598146E-05 1.813370280E-05 1.052503884E-05 1.246542301E-06 6.188100210E-04
 6.147394558E-04-7.922509183E-05-3.565308341E-05 4.709390921E-05-5.169363792E-05
 1.154768229E-05-8.248342223E-06 1.349578806E-06-3.846330813E-05-4.317256349E-06
-2.301731739E-06-2.679988834E-03-3.102406162E-03 4.069379748E-04-9.246346916E-06
-7.247806838E-06 2.377393803E-05 1.503575230E-05-4.144033789E-06 1.589941450E-05
 1.014997227E-05 1.332126067E-05-5.083201354E-05 2.469405286E-05 1.537774151E-05
-1.451029522E-05 1.872625314E-03 2.134214090E-03-3.248622278E-04 1.800268151E-04
 1.897628119E-04-1.166864912E-05-8.829323856E-06-5.570958843E-05 1.154817982E-04
-8.126303185E-05 4.222083508E-05-6.909190165E-05-2.093057832E-05-4.071476276E-05
 3.308431099E-05
-3.159440305E+00-2.041590567E+00 9.456571596E-01
         IVIB=   2 IATOM=   8 ICOORD=   2 E=     -946.8427642186
-1.264054847E-05-2.393088451E-05 3.428952977E-07 7.691974426E-05 4.725666848E-05
 5.970310254E-06 1.813357098E-05 1.501034766E-05 3.643633810E-06 5.838584238E-04
 1.094023752E-03-1.655516556E-04 9.890638815E-05 2.370016683E-04-8.396231319E-05
-9.605693954E-06 4.973856399E-06-3.075654397E-05-3.837423092E-05-6.359780096E-06
 9.424117743E-06-3.148364446E-03-4.323700934E-03 5.899159177E-04-1.129433614E-05
-1.351158152E-05 2.395449372E-05 1.509819260E-05-3.460937252E-06 1.976530141E-05
 1.165328091E-05 1.356587377E-05-3.952077645E-05 3.034531950E-05 2.159950682E-05
-1.607957510E-05 2.287871179E-03 2.855899347E-03-3.757830520E-04 2.003764828E-04
 1.406365833E-04-2.858044579E-05 0.000000000E+00-4.603962423E-05 1.104850153E-04
-7.795463464E-05 2.483610377E-05-6.028847135E-05-2.493137029E-05-3.780002907E-05
 3.702111976E-05
-3.161266397E+00-2.041382445E+00 9.452290834E-01
         IVIB=   2 IATOM=   8 ICOORD=   3 E=     -946.8427744907
 1.341468670E-05-1.178638750E-05-1.758575317E-05-9.915769004E-06 2.956210888E-05
-1.954369656E-05 5.297819010E-06 3.864207261E-07 8.841738633E-06-5.316068500E-05
-1.325790369E-04 1.442393044E-04-3.931482425E-05-5.026603165E-05-3.577019007E-05
 3.480203800E-05-3.533414329E-06-3.591425778E-05-3.673760374E-05 6.136552592E-06
 1.659694085E-05 3.954160544E-04 6.256867274E-04-1.860620603E-04-1.228601613E-05
-1.253872612E-05 2.188935884E-05 1.272155838E-05-2.938837524E-06 2.295106931E-05
 6.820664503E-06 2.524334152E-05-3.423411936E-05 2.573637801E-05 1.276425703E-05
-1.578755232E-05-3.165686672E-04-4.556191184E-04 8.751122443E-05 7.003466414E-05
 3.179190939E-05-5.061840201E-05-1.599164180E-06-4.566343983E-05 1.207464792E-04
-7.803519669E-05 1.934748960E-05-5.404889331E-05-1.662610081E-05-3.599387636E-05
 2.678878034E-05
-3.166830879E+00-2.049428294E+00 9.460414904E-01
         IVIB=   2 IATOM=   9 ICOORD=   1 E=     -946.8427706868
 1.601604488E-03 2.037912219E-05 4.280565201E-04 3.661822473E-05-2.143364386E-05
 2.273908134E-05 4.379257410E-05 1.903114544E-05 1.076103824E-05-7.528878336E-06
 2.389506958E-05-1.966006391E-05-2.082130240E-06 1.913409108E-05-3.817371362E-05
 1.047357927E-05 2.493481606E-06-3.375354387E-07-3.440598167E-05-2.096451746E-06
-2.622731506E-06 4.428183321E-05 8.950822943E-05 5.311813082E-05-1.697166129E-03
-4.219432920E-05-4.332667680E-04 1.231895095E-05-7.481903829E-06 1.250796082E-05
 1.325684873E-05 1.891320810E-05-4.869974212E-05 2.939221025E-05 1.666504813E-05
-1.397122410E-05-2.832088400E-05-1.193103636E-04-5.557877730E-05 7.127215320E-05
 4.783302299E-05-8.608641447E-06 3.792387661E-06-4.247729993E-05 1.159674557E-04
-7.905407753E-05 1.311332900E-05-5.141071183E-05-1.824533312E-05-3.597181602E-05
 2.917969343E-05
-3.166394545E+00-2.048583652E+00 9.465062931E-01
         IVIB=   2 IATOM=   9 ICOORD=   2 E=     -946.8427740838
 2.080830372E-05 2.769956331E-04-1.913810969E-05 1.093115080E-04-2.119544543E-05
 3.924255561E-05-1.213331019E-04-2.379378372E-05-3.068382332E-05 1.598502429E-05
 2.327268055E-05-3.842570031E-05 1.498237404E-06 2.768338678E-05-3.549831332E-05
 9.239785752E-06 2.925975682E-05-3.540004854E-05-3.628230073E-05-3.457937787E-06
 9.759271175E-06 4.658194102E-05 8.768079454E-05 5.310544130E-05-4.356951916E-05
-2.878210231E-04 6.412377198E-05 1.513105317E-05-7.905171355E-06 2.541139230E-05
 1.201343036E-05 1.933271573E-05-4.564751791E-05 2.021219170E-05 1.482997525E-05
-1.634898114E-05-2.618686674E-05-1.166074301E-04-5.566832831E-05 7.010694662E-05
 4.714032388E-05-8.580767822E-06 3.709806693E-06-4.260080615E-05 1.159903419E-04
-7.880378765E-05 1.309265142E-05-5.164562708E-05-1.842281601E-05-3.590638125E-05
 2.940441456E-05
-3.166948335E+00-2.049687030E+00 9.456805579E-01
         IVIB=   2 IATOM=   9 ICOORD=   3 E=     -946.8427743044
 4.219912161E-04-3.027938026E-05 3.253076124E-04-4.379715259E-05-5.478531851E-06
-1.795932792E-05 6.455801428E-05 1.096933466E-05 7.255233459E-06 2.684743923E-06
-6.316062691E-06-5.939272692E-05-1.626002308E-06 1.868790801E-05-2.874154886E-05
 3.028543706E-05-1.054451674E-05-4.217129649E-05-3.703350801E-05 6.578974118E-06
 1.907377417E-05 3.967871485E-05 8.716910637E-05 4.979452769E-05-4.755219387E-04
 2.669937686E-05-2.588311110E-04 8.168472266E-06 1.731419898E-06 3.239160793E-05
 1.115282244E-05 2.117242921E-05-4.284075450E-05 3.015174945E-05 1.600810028E-05
-1.395485033E-05-2.677985548E-05-1.165058089E-04-5.568906752E-05 6.929186169E-05
 4.554353449E-05-8.139666842E-06 3.696802232E-06-4.240849445E-05 1.159731859E-04
-7.849661409E-05 1.281799906E-05-5.144601898E-05-1.840492669E-05-3.584544905E-05
 2.937039959E-05
-3.166453650E+00-2.049021055E+00 9.445268997E-01
         IVIB=   2 IATOM=  10 ICOORD=   1 E=     -946.8427729375
-5.479957150E-05-7.039672658E-05 1.733183468E-05-2.084767084E-05-1.439365476E-05
 1.248791924E-05 7.212157710E-04 6.652650409E-04-5.919820369E-05 2.598052151E-06
 1.087363530E-06-2.300990278E-05 2.602893723E-05 1.854523769E-05-1.537071943E-05
 7.016929086E-05 1.421158852E-04-3.953695337E-05-3.416812957E-05-4.160624233E-06
 4.271555348E-06 4.038122151E-05 8.787261037E-05 5.000785418E-05-1.600968532E-05
-1.323040686E-05 1.753301215E-05-7.221029500E-04-7.147273155E-04 7.456699260E-05
 1.463224404E-05 2.606732730E-05-4.892658537E-05 2.302969571E-05 1.193419520E-05
-1.993725550E-05-2.580123855E-05-1.156981799E-04-5.595880503E-05 6.853840382E-05
 4.492295383E-05-8.262257667E-06 4.232845572E-06-4.194012202E-05 1.159392772E-04
-7.876464388E-05 1.258230126E-05-5.123594663E-05-1.833273533E-05-3.584594598E-05
 2.929815541E-05
-3.167521413E+00-2.047978104E+00 9.459926947E-01
         IVIB=   2 IATOM=  10 ICOORD=   2 E=     -946.8427713830
 7.770010974E-05 7.278158422E-05 4.049405633E-06-3.216864175E-05 8.037741971E-06
-2.399181371E-05 6.694190622E-04 1.272633999E-03-1.692987943E-04-8.372243333E-06
 6.771773531E-06-2.417887246E-05 1.904843295E-06 7.655531238E-06-4.455791723E-05
-5.582777498E-07-5.534915207E-06-1.552982848E-05-2.748425432E-05 3.583796215E-06
 3.112637984E-06 4.050583449E-05 8.850289246E-05 5.382081027E-05-1.607984905E-05
-1.670534640E-05 3.058786195E-05-6.925326232E-04-1.334451153E-03 2.121328416E-04
 1.140640694E-05 1.893676980E-05-4.776446890E-05 2.675020807E-05 1.413679007E-05
-7.781947281E-06-2.697500392E-05-1.169613298E-04-5.591786762E-05 6.982806609E-05
 4.603075986E-05-8.539451014E-06 3.757188448E-06-4.245354019E-05 1.159998138E-04
-7.878517400E-05 1.292766470E-05-5.143803010E-05-1.831581578E-05-3.589307816E-05
 2.929559144E-05
-3.166217824E+00-2.048601704E+00 9.455006871E-01
         IVIB=   2 IATOM=  10 ICOORD=   3 E=     -946.8427744601
-4.446106297E-05-5.190482619E-05 4.404940118E-06-3.646196995E-06-2.390877584E-05
-3.107160398E-05-5.450742303E-05-1.720287148E-04 2.139935486E-04-2.466971338E-07
 8.468943956E-06-1.807342216E-05 2.088477386E-05 9.126267398E-06-6.588284659E-05
 4.207809333E-05 5.444946071E-05-2.796361618E-05-3.379710049E-05-3.308182401E-06
 3.017935958E-06 3.810748461E-05 8.938117393E-05 5.696166537E-05-1.889055455E-05
-6.265396653E-06 3.857885135E-05 7.061282985E-05 1.894853223E-04-1.549333190E-04
 1.368892591E-05 2.145046076E-05-4.829804886E-05 2.027495724E-05 2.121359272E-05
 1.086732273E-07-2.545068980E-05-1.152355447E-04-5.608108009E-05 6.852563616E-05
 4.451179610E-05-8.757715358E-06 3.745604820E-06-4.237756523E-05 1.159979198E-04
-7.837436978E-05 1.270072523E-05-5.155149772E-05-1.854437525E-05-3.575879875E-05
 2.954958723E-05
-3.167024359E+00-2.049241338E+00 9.443446475E-01
         IVIB=   2 IATOM=  11 ICOORD=   1 E=     -946.8427707648
-6.461995789E-06-2.629902860E-06 4.671406129E-06-2.710478844E-05-1.043603771E-05
 7.377486497E-06 3.531512590E-06 1.639236168E-05 9.286628514E-06 3.318876635E-05
 2.704304726E-05-1.717880637E-05 1.647590035E-03 5.867922357E-05 4.014208296E-04
 6.014653319E-05-4.466483244E-06 8.245342836E-06-3.060055130E-05 5.816138251E-07
 4.417065385E-06 3.771651180E-05 8.660177567E-05 4.628574388E-05-1.265850906E-05
-1.418667517E-05 2.273167652E-05 1.699336568E-05-5.933409794E-06 1.916724435E-05
-1.701165025E-03-3.051062338E-05-5.165413872E-04 2.477523945E-05 1.387589563E-05
-2.072660497E-05-2.890277440E-05-1.200191262E-04-5.562997595E-05 7.187436570E-05
 4.735736806E-05-7.815239015E-06 6.103075360E-06-4.314972671E-05 1.173992418E-04
-7.616913113E-05 1.720052348E-05-5.296923909E-05-1.885679356E-05-3.639988475E-05
 2.985855881E-05
-3.167699143E+00-2.048932188E+00 9.462430833E-01
         IVIB=   2 IATOM=  11 ICOORD=   2 E=     -946.8427741963
-3.228851521E-06 5.247138574E-06 7.190526759E-06-2.687220788E-05 1.537020959E-05
-2.225191557E-05 2.488516082E-05 1.739234664E-05-1.092212450E-05-1.317285690E-04
-5.002215394E-06-6.334604904E-05 5.513199421E-05 2.950208244E-04-5.348098356E-05
 1.418575772E-04-8.366308110E-06 2.763075309E-05-3.863617987E-05-1.819006233E-06
 8.568129301E-07 3.402243586E-05 8.157630269E-05 5.774441151E-05-1.393829701E-05
-1.380622136E-05 2.580359524E-05 2.133578237E-05-5.349873410E-06 1.991100289E-05
-3.557161254E-05-2.590800464E-04-9.787212189E-06 2.276020939E-05 1.254362384E-05
-8.050284831E-06-2.603121669E-05-1.143676001E-04-5.639348408E-05 7.031503503E-05
 4.499002476E-05-8.134293722E-06 9.797760196E-07-4.393675872E-05 1.162648370E-04
-7.491499693E-05 1.500939633E-05-5.443407355E-05-2.036620325E-05-3.542189842E-05
 3.139845330E-05
-3.167478604E+00-2.050143087E+00 9.457070062E-01
         IVIB=   2 IATOM=  11 ICOORD=   3 E=     -946.8427739558
-6.475710988E-06-3.814163808E-06 1.333327670E-05-9.786800725E-06-2.241392130E-05
-2.545285130E-05 1.253561441E-05-1.455362657E-05-3.069152313E-05 5.589328152E-05
 1.412839199E-05-1.993875583E-05 4.299763264E-04-3.904643329E-06 2.784499168E-04
-9.352123174E-06 1.050632484E-05-3.115125869E-05-2.828271333E-05-8.367048401E-07
 1.529718842E-06 3.664840414E-05 9.534174265E-05 6.516553944E-05-1.468923196E-05
-1.193210964E-05 2.866766155E-05 1.321549474E-05-5.117382272E-06 1.705448281E-05
-4.518383512E-04 5.680276863E-05-3.296601841E-04 2.183730286E-05 2.271124004E-05
 1.250565736E-06-2.804037147E-05-1.183413359E-04-5.508611867E-05 7.068972692E-05
 4.601363937E-05-9.281123343E-06 5.008246610E-06-4.188940435E-05 1.186537877E-04
-7.854041066E-05 1.286101300E-05-5.362675133E-05-1.879884710E-05-3.556188976E-05
 3.078358858E-05
-3.166851247E+00-2.049065536E+00 9.444035978E-01
         IVIB=   2 IATOM=  12 ICOORD=   1 E=     -946.8427736873
 2.198483970E-05 3.266687415E-06 2.537718739E-05-1.315753078E-05 1.684683815E-06
-4.647510119E-06 4.031505983E-05-1.299242328E-04 6.038024284E-05 5.757333659E-07
 3.024805108E-05-1.916702505E-05-4.942652983E-05 9.816304850E-05-7.427290415E-05
 5.485434940E-04-4.725537688E-04 2.569051470E-04-3.200960550E-05-1.458180941E-06
 1.993043069E-06 3.750745787E-05 9.057916248E-05 5.065849677E-05-1.134307624E-05
-2.050587156E-05 2.708627736E-05 1.056450702E-05-4.996512667E-06 1.116037037E-05
 9.958900966E-06 1.515396038E-05-5.271997670E-05-5.142356819E-04 5.256122622E-04
-3.121038260E-04-2.713479313E-05-1.165494149E-04-5.620017207E-05 7.141222404E-05
 4.683332848E-05-8.202344112E-06 3.567189172E-06-4.292302719E-05 1.160368252E-04
-7.876408833E-05 1.340799650E-05-5.160703268E-05-1.835826458E-05-3.603823275E-05
 2.932317261E-05
-3.167720678E+00-2.049239738E+00 9.463369636E-01
         IVIB=   2 IATOM=  12 ICOORD=   2 E=     -946.8427717739
 2.486444794E-06-1.506420376E-05 8.211831160E-08-1.454466162E-05-3.464628947E-06
 9.255455254E-07 2.430401428E-05-2.036585957E-05 1.205854242E-05 1.693215210E-05
 1.650815761E-05-3.585716897E-05-6.567309225E-05 9.704320785E-05-8.483702487E-05
-4.603770708E-04 1.254211614E-03-5.166259737E-04-3.285514745E-05 1.285315750E-07
 4.945210588E-06 3.984818729E-05 9.351717641E-05 4.908712576E-05-1.239869010E-05
-1.436264543E-05 2.448130299E-05 1.117175164E-05-6.262005592E-06 2.357926230E-05
 1.070946135E-05 1.640062244E-05-4.035845828E-05 5.312838002E-04-1.281925003E-03
 5.328166367E-04-2.985848565E-05-1.191464378E-04-5.585337009E-05 7.271039198E-05
 4.810980211E-05-8.106569824E-06 3.725928931E-06-4.291387873E-05 1.161586136E-04
-7.910523897E-05 1.365805353E-05-5.187626875E-05-1.835990965E-05-3.607256293E-05
 2.938044791E-05
-3.167333771E+00-2.048555139E+00 9.451874291E-01
         IVIB=   2 IATOM=  12 ICOORD=   3 E=     -946.8427737127
 1.410440399E-05-1.095632785E-05-2.439561846E-05-2.121258730E-05 6.265069820E-07
 1.926107301E-06 1.433752517E-05-3.514562228E-05 7.481301876E-06 4.785463521E-06
-2.124082375E-06-6.057034560E-05 1.190916478E-05 1.309744297E-05-3.952114295E-05
 2.874504608E-04-4.970972103E-04 4.205898192E-04-3.332852119E-05 9.530160322E-07
 8.416104587E-06 3.988039722E-05 8.566679943E-05 5.059502328E-05-1.298288400E-05
-1.568702509E-05 2.454183050E-05 9.034458412E-06 1.851218145E-06 3.244400746E-05
 6.232116593E-06 2.584898226E-05-3.175814081E-05-2.704169378E-04 5.683036327E-04
-4.197804550E-04-2.469272411E-05-1.142514260E-04-5.579376677E-05 6.802798040E-05
 4.440198662E-05-8.206388023E-06 3.556611046E-06-4.251872620E-05 1.160789659E-04
-7.809194025E-05 1.275731557E-05-5.160280552E-05-1.859315124E-05-3.572654188E-05
 2.955547509E-05
-3.166729127E+00-2.049613987E+00 9.446645468E-01
         IVIB=   2 IATOM=  13 ICOORD=   1 E=     -946.8427656668
 4.171730913E-06-3.636087475E-06 1.184777533E-05-3.320161575E-05-7.532328861E-06
-4.014529442E-06-1.763140690E-06-1.056724352E-05 3.907371340E-06 1.054844169E-04
 3.013768654E-05-2.701325249E-05-2.028248716E-05-2.183627273E-05-2.625673703E-05
 2.100206067E-05 1.560479854E-05-1.229656229E-05-2.760304157E-05 2.654144681E-07
 4.043485252E-06 1.954479903E-03 2.432640334E-03-2.414663580E-04-1.551360660E-05
-1.412909959E-05 2.348179494E-05 1.414735242E-05-5.834555625E-06 1.801560586E-05
 9.807991633E-06 1.929567302E-05-4.933900338E-05 2.681309529E-05 1.198851134E-05
-1.338697184E-05-3.626240821E-03-3.991987084E-03 3.327887279E-04 1.607052195E-03
 1.620530887E-03-1.523286018E-04 1.240902712E-05-2.834108333E-05 1.237790029E-04
-1.822244008E-05-1.510262343E-05-6.189692434E-06-1.254078427E-05-3.149698691E-05
 1.442791659E-05
-3.186470521E+00-2.068947791E+00 9.473516114E-01
         IVIB=   2 IATOM=  13 ICOORD=   2 E=     -946.8427612870
 2.886015826E-06-1.263633711E-06 8.790884103E-06-5.158105362E-05-3.008785869E-05
-5.639180059E-06-1.458005061E-06-1.352530457E-05 5.211024479E-06 4.960357855E-05
 1.066739538E-04-3.037176109E-05-7.143722760E-06-1.286560600E-05-2.811588535E-05
 1.778664292E-05 1.714360027E-05-1.554396564E-05-2.727483880E-05 3.577405558E-07
 4.617725876E-06 2.322426795E-03 3.094336421E-03-2.919373729E-04-1.661351450E-05
-1.469809414E-05 2.360067913E-05 1.404782843E-05-6.025299531E-06 1.804089305E-05
 8.477748622E-06 2.073946792E-05-4.983355687E-05 2.722049730E-05 1.252399408E-05
-1.313868509E-05-3.903466334E-03-5.279239730E-03 4.664939353E-04 1.638221786E-03
 2.176543971E-03-1.932244017E-04-7.136123363E-06-1.584685808E-05 1.136640007E-04
-5.665720191E-05-2.979758523E-05-3.159599220E-05-9.340263605E-06-2.496923934E-05
 1.898162976E-05
-3.188261375E+00-2.073115004E+00 9.472730751E-01
         IVIB=   2 IATOM=  13 ICOORD=   3 E=     -946.8427734549
-2.557746559E-06-5.249013542E-06 5.571264909E-06-1.042053491E-05 3.370847955E-06
-7.412718784E-06 7.686977488E-06 2.071495434E-06 3.158097382E-06-6.819664790E-06
 2.162820799E-06 4.188468717E-05-4.722125704E-07 1.695588409E-05-3.949982430E-05
 1.902621633E-05 9.964490441E-06-1.489994248E-05-3.252236526E-05-3.491722445E-07
 4.126354402E-06-2.320218983E-04-2.366835914E-04 1.968602918E-04-1.303399138E-05
-1.336140675E-05 2.438367916E-05 1.475530153E-05-4.682383094E-06 1.785363015E-05
 1.283024744E-05 1.908392000E-05-4.651965633E-05 2.679010714E-05 1.573225498E-05
-1.418085534E-05 3.623275165E-04 4.058799714E-04-5.003741405E-04-7.834515417E-05
-1.457751879E-04 2.270396904E-04 1.217386763E-05-4.895100163E-05 1.222671498E-04
-6.008210573E-05 1.757749294E-05-4.982462555E-05-1.931472534E-05-3.774748300E-05
 2.956688977E-05
-3.165115686E+00-2.046913866E+00 9.444326907E-01
         IVIB=   2 IATOM=  14 ICOORD=   1 E=     -946.8427712656
-2.518162790E-06-3.662555687E-06 6.914060717E-06-1.993142198E-05 1.097358286E-05
-7.362186425E-06 1.029683316E-05 5.461499076E-06 2.632942928E-06-6.787641584E-05
-5.402803250E-06-2.629415453E-05 3.186783294E-05 3.671494821E-05-3.196945426E-05
 1.249676380E-05 1.571114225E-05-1.739750290E-05-3.391652500E-05-1.306054882E-06
 3.527474385E-06 1.494300129E-04 2.197165872E-04 5.272297306E-05-1.132180094E-05
-1.232684316E-05 2.416086614E-05 1.496450559E-05-4.049137889E-06 1.793315780E-05
 1.504013479E-05 2.103254452E-05-4.593332976E-05 2.853115568E-05 1.920977891E-05
-1.524158609E-05 1.525288261E-03 1.482456223E-03-2.059794411E-04-1.543500781E-03
-1.707606611E-03 1.535713934E-04 4.225494816E-07-6.362733799E-05 1.141290216E-04
-8.536850550E-05 3.207982800E-05-6.475796482E-05-2.390460501E-05-4.537485046E-05
 3.934370124E-05
-3.147822578E+00-2.034517355E+00 9.460265168E-01
         IVIB=   2 IATOM=  14 ICOORD=   2 E=     -946.8427695385
 1.183654530E-07-4.514114467E-06 1.043569572E-05-1.534172415E-05 2.345867694E-05
-1.111540056E-05 1.020143413E-05 5.146196179E-06 2.291313622E-06-8.444423313E-06
-4.175914604E-05-2.068593172E-05 1.977501463E-05 2.865443665E-05-3.275749449E-05
 1.540521686E-05 1.429922343E-05-1.401813783E-05-3.355751791E-05-1.018213163E-06
 2.703074780E-06 1.850303765E-04 1.819416427E-04 3.816684800E-05-1.102024288E-05
-1.155182817E-05 2.413312277E-05 1.508210797E-05-4.100792177E-06 1.762844182E-05
 1.427301025E-05 1.942556959E-05-4.686772784E-05 2.765699794E-05 1.834416440E-05
-1.514943231E-05 1.577778846E-03 2.042295647E-03-2.504551685E-04-1.686723715E-03
-2.223598532E-03 2.136737168E-04 3.663336921E-06-5.123750475E-05 1.131854066E-04
-9.045639362E-05 4.606179978E-05-6.060826012E-05-2.344085378E-05-4.184728806E-05
 2.943990470E-05
-3.153665964E+00-2.029172730E+00 9.440796606E-01
         IVIB=   2 IATOM=  14 ICOORD=   3 E=     -946.8427743118
-5.563707335E-06-1.921042536E-06 1.027638066E-05-2.062761679E-05-8.115857311E-06
-2.817408493E-06 7.323853919E-06 8.622680703E-08 2.675966517E-06-8.431353726E-06
 7.648077932E-06-6.632967810E-05 5.049450487E-06 2.083308203E-05-3.526545039E-05
 1.568029641E-05 1.331592320E-05-1.146609384E-05-3.164383492E-05-9.993361961E-07
 2.501544004E-06 3.669220586E-05 6.720580787E-05 1.001994589E-05-1.368763752E-05
-1.393981002E-05 2.430703393E-05 1.474077475E-05-4.982115005E-06 1.750558965E-05
 1.304493606E-05 1.968333663E-05-4.833277474E-05 2.724682070E-05 1.584018475E-05
-1.425614976E-05-1.731258343E-04-3.046589501E-04 1.808467692E-04 2.316197257E-04
 2.675976875E-04-1.745287130E-04 8.427646041E-06-4.881079770E-05 1.108128001E-04
-8.406427299E-05 8.504184360E-06-2.706666693E-05-2.268161694E-05-3.728666238E-05
 2.111687756E-05
-3.166246161E+00-2.050310725E+00 9.492325175E-01
         IVIB=   2 IATOM=  15 ICOORD=   1 E=     -946.8427714266
-3.489266668E-06-2.850688601E-06 7.735056038E-06-1.977225454E-05-3.852680912E-06
-2.696630542E-06 8.622284732E-06 1.095398412E-06 3.286731896E-06-1.082761964E-06
 8.678231596E-06-2.538170096E-05-2.040030190E-06 2.277589482E-05-3.612595827E-05
 1.924518353E-05 9.176228998E-06-1.183842760E-05-3.156185234E-05-6.985846402E-07
 3.472043967E-06 2.792451198E-05 8.383358574E-05 4.658987671E-05-1.333171059E-05
-1.369623834E-05 2.406094675E-05 1.518296980E-05-4.721093554E-06 1.796127303E-05
 1.495377095E-05 1.663417014E-05-4.612785798E-05 2.690816457E-05 1.558043616E-05
-1.454298550E-05-1.694386643E-05-1.266428270E-04-4.755293246E-05 6.508628547E-05
 4.467853670E-05-3.575370417E-06-1.353711803E-03-1.252254491E-03 7.910285265E-04
 1.247020282E-03 1.157653522E-03-7.401699392E-04 1.698994203E-05 4.461053916E-05
 3.387731964E-05
-3.160120464E+00-2.047051121E+00 9.424979912E-01
         IVIB=   2 IATOM=  15 ICOORD=   2 E=     -946.8427712040
-3.670459101E-06-2.353594020E-06 7.454674475E-06-2.023005255E-05-5.811680267E-06
-2.081305183E-06 8.422861871E-06 4.357908274E-07 3.559336186E-06 3.282746943E-06
 1.371733841E-05-2.516027861E-05-2.878627785E-06 2.135685611E-05-3.676441650E-05
 1.962853051E-05 9.148668964E-06-1.160173111E-05-3.122023157E-05-5.302304848E-07
 3.638040404E-06 2.707793960E-05 8.427666467E-05 4.857703124E-05-1.347482250E-05
-1.387416869E-05 2.408434935E-05 1.515307900E-05-4.808205560E-06 1.796241184E-05
 1.180678435E-05 1.788175641E-05-4.690640324E-05 2.655182756E-05 1.505359684E-05
-1.446309711E-05-1.225323205E-05-8.914895222E-05-6.269326753E-05 4.756133518E-05
 3.598098378E-05-1.458497202E-05-1.206290568E-03-1.384081082E-03 6.483556960E-04
 1.225299745E-03 1.438030629E-03-5.932118153E-04-9.476701933E-05-1.352744357E-04
 5.383571878E-05
-3.163758290E+00-2.042748805E+00 9.431272213E-01
         IVIB=   2 IATOM=  15 ICOORD=   3 E=     -946.8427741438
-3.355430156E-06-3.645913756E-06 8.013906432E-06-1.937241555E-05-2.724068126E-06
-3.453643439E-06 7.182905750E-06 6.223851754E-07 3.129208735E-06-4.129852141E-06
 7.223578737E-06-2.448811992E-05 6.818650754E-07 1.885063298E-05-3.632986871E-05
 1.758925262E-05 1.146879455E-05-1.375723512E-05-3.198714822E-05-5.661401863E-07
 3.610069277E-06 3.921924393E-05 8.122683623E-05 5.697069829E-05-1.334521330E-05
-1.363729563E-05 2.412785100E-05 1.474008091E-05-4.702270150E-06 1.799904151E-05
 1.409063617E-05 1.983109254E-05-4.465146348E-05 2.712801959E-05 1.581858586E-05
-1.426863538E-05-1.738890495E-05-1.177493556E-04-4.964387254E-05 6.724411434E-05
 4.261525208E-05-1.359775995E-05 6.835762635E-04 4.938862549E-04-3.581284828E-04
-6.545579493E-04-3.553858040E-04 4.098183441E-04-1.273156323E-04-1.931326260E-04
 3.464992328E-05
-3.168418594E+00-2.048771631E+00 9.513522816E-01
         IVIB=   2 IATOM=  16 ICOORD=   1 E=     -946.8427686651
-4.001984036E-06-3.668279473E-06 7.797178346E-06-1.947702991E-05-6.182504119E-06
-2.195492869E-06 5.709615660E-06-7.725839994E-07 2.962686996E-06 3.236547877E-06
 1.345439209E-05-2.472790344E-05-4.474628079E-07 1.700554557E-05-3.505856259E-05
 1.801121157E-05 1.316782024E-05-1.373172280E-05-3.155092951E-05-2.678300429E-07
 3.690765559E-06 3.677050911E-05 8.784212515E-05 5.271886765E-05-1.392796344E-05
-1.408450963E-05 2.412019880E-05 1.426054439E-05-5.028669352E-06 1.791724892E-05
 1.483454873E-05 2.328297538E-05-4.736668987E-05 2.683156650E-05 1.505766414E-05
-1.407584506E-05 3.366109693E-05-9.433612909E-05-3.748838337E-05 6.376154589E-05
 3.395770948E-05-1.348874702E-05 1.338687060E-03 1.277172006E-03-4.644546092E-04
-2.417836081E-03-9.556141836E-04 1.809469226E-03 9.314772006E-04-4.009856096E-04
-1.266088245E-03
-3.184739349E+00-2.051821695E+00 9.503156778E-01
         IVIB=   2 IATOM=  16 ICOORD=   2 E=     -946.8427702372
-3.460903270E-06-4.126709018E-06 8.037395610E-06-1.872665654E-05 4.863918254E-07
-3.911669006E-06 6.844499610E-06 1.319155120E-06 2.640521218E-06-9.243799023E-06
 1.754582829E-06-2.514863223E-05 7.154869054E-06 2.152598548E-05-3.347799733E-05
 1.673437136E-05 1.384034151E-05-1.429844980E-05-3.271762071E-05-6.498609864E-07
 3.279874571E-06 6.915767762E-05 9.906717932E-05 5.849861129E-05-1.318436122E-05
-1.342034648E-05 2.404722928E-05 1.448110740E-05-4.718328051E-06 1.783920129E-05
 1.694324126E-05 2.175586220E-05-4.735772077E-05 2.755890610E-05 1.644653357E-05
-1.449447083E-05-5.337940529E-05-1.583272155E-04-5.113881666E-05 8.823759895E-05
 7.834698522E-05-1.274583259E-05 1.164174980E-03 1.392794880E-03-2.551685919E-04
-1.046565452E-03-1.878312401E-03-2.284431297E-04-2.340092170E-04 4.122168683E-04
 5.718424491E-04
-3.165748144E+00-2.058047731E+00 9.472776963E-01
         IVIB=   2 IATOM=  16 ICOORD=   3 E=     -946.8427687131
-3.502970315E-06-2.936727021E-06 7.490306281E-06-2.005962828E-05-4.836588829E-06
-1.844867960E-06 7.777178785E-06 1.730520731E-07 3.442678532E-06 2.841369920E-06
 1.142906332E-05-2.677162781E-05-1.730037550E-06 2.058637158E-05-3.512474689E-05
 1.876285462E-05 1.040259350E-05-1.185301057E-05-3.135667458E-05-5.480895741E-07
 3.425130594E-06 2.270125857E-05 7.923573872E-05 4.914048451E-05-1.351255464E-05
-1.389369897E-05 2.397991871E-05 1.493981604E-05-4.895051515E-06 1.786539252E-05
 1.079659700E-05 1.625163409E-05-4.975729903E-05 2.679053017E-05 1.505954342E-05
-1.455613123E-05 1.864101738E-05-9.589897566E-05-5.464868429E-05 5.595731558E-05
 3.575393913E-05 1.655017415E-05-6.881275202E-04-5.865532881E-04 5.794363201E-04
 1.793546868E-03-1.723900037E-04-2.426759117E-03-1.214465585E-03 6.930604264E-04
 1.919985035E-03
-3.162772795E+00-2.048186698E+00 9.339605501E-01
         IVIB=   2 IATOM=  17 ICOORD=   1 E=     -946.8427721617
-3.372276533E-06-3.328157220E-06 7.903979187E-06-1.985418915E-05-2.828199644E-06
-3.055142612E-06 7.779460648E-06 5.578951163E-07 3.288465793E-06-3.107570150E-06
 7.995236138E-06-2.510807030E-05 4.614100358E-07 1.971636919E-05-3.489765893E-05
 1.765647409E-05 1.076988296E-05-1.293451695E-05-3.184767266E-05-5.081881113E-07
 3.390156649E-06 3.773697123E-05 8.100260880E-05 5.367828387E-05-1.329171080E-05
-1.361880561E-05 2.405840452E-05 1.492031070E-05-4.701634750E-06 1.789608007E-05
 1.217077639E-05 1.744606997E-05-4.781287814E-05 2.705430167E-05 1.564661920E-05
-1.452514346E-05-1.865388837E-05-1.053899490E-04-5.705316345E-05 6.220779467E-05
 3.896459662E-05-1.273234348E-05 3.941299513E-05-1.188862030E-04 7.057593978E-06
 8.746549312E-04-2.047461057E-04-1.242505115E-03-1.003928290E-03 2.619079044E-04
 1.333351039E-03
-3.159661681E+00-2.047527970E+00 9.437231193E-01
         IVIB=   2 IATOM=  17 ICOORD=   2 E=     -946.8427737737
-3.650336599E-06-3.245843016E-06 7.723755603E-06-1.958226512E-05-3.987344533E-06
-2.688176069E-06 7.240261896E-06-3.131099335E-08 3.294206462E-06 4.266812459E-08
 9.501018157E-06-2.482228480E-05 3.916841844E-07 1.797949761E-05-3.536264113E-05
 1.748377285E-05 1.149485558E-05-1.343328784E-05-3.172622782E-05-4.846189095E-07
 3.565134094E-06 3.512227734E-05 8.539804220E-05 5.189797028E-05-1.353365312E-05
-1.379942172E-05 2.409309789E-05 1.461858254E-05-4.823646495E-06 1.795178693E-05
 1.189828344E-05 1.990530774E-05-4.713767848E-05 2.687021672E-05 1.537722202E-05
-1.430893293E-05-2.205490772E-05-1.052760327E-04-5.785799163E-05 5.993495697E-05
 3.963696108E-05-9.775474784E-06 8.458250572E-05-1.420947885E-04-4.131724157E-05
-4.455424502E-04 4.628988241E-04 6.727566448E-04 2.779044673E-04-3.884487797E-04
-5.345789155E-04
-3.169245504E+00-2.044945304E+00 9.480215004E-01
         IVIB=   2 IATOM=  17 ICOORD=   3 E=     -946.8427702667
-3.860217181E-06-3.494633217E-06 7.867162549E-06-1.925916215E-05-3.430917195E-06
-3.020529074E-06 6.884573485E-06 1.504661946E-07 3.173556381E-06-1.608419535E-06
 7.880986489E-06-2.342050404E-05 2.653557987E-06 1.773935825E-05-3.517093848E-05
 1.705775026E-05 1.231262902E-05-1.419177720E-05-3.198193425E-05-4.205613563E-07
 3.544899011E-06 4.351879175E-05 9.454296690E-05 4.952316938E-05-1.356117614E-05
-1.375980948E-05 2.410832910E-05 1.443297867E-05-4.820874057E-06 1.794173511E-05
 1.301920785E-05 2.159881856E-05-4.596387837E-05 2.704973326E-05 1.563756159E-05
-1.430710226E-05-4.075259801E-05-1.264406436E-04-5.574102776E-05 7.915382631E-05
 4.547312485E-05-1.675141834E-05 8.041351674E-06-1.812118873E-05 1.208110321E-04
-1.369999757E-03 5.503964452E-04 1.818473992E-03 1.269211330E-03-5.952437897E-04
-1.836876729E-03
-3.172625540E+00-2.049530798E+00 9.524404824E-01
 $END   
