# t,fs[$1]    pos,AA[$2] , sigma =  0.0500 Angstroems;  E = 278.591 wvn  UpdTime = 10.000 fs 
           0.000    -0.1596394318
          10.000    -0.1778074261
          20.000    -0.1638342839
          30.000    -0.1896354954
          40.000    -0.1754451128
          50.000    -0.1958732843
          60.000    -0.1906886582
          70.000    -0.2112434291
          80.000    -0.2134037305
          90.000    -0.2272761732
         100.000    -0.2682734912
         110.000    -0.2224951063
         120.000    -0.2623452787
         130.000    -0.2002427820
         140.000    -0.1372356166
         150.000    -0.0931568305
         160.000    -0.1027613729
         170.000    -0.0950652620
         180.000    -0.0771899976
         190.000    -0.0891234189
         200.000    -0.0881584341
         210.000    -0.1362520308
         220.000    -0.1339310735
         230.000    -0.0832329876
         240.000    -0.0007783100
         250.000    -0.0472020211
         260.000     0.0029166641
         270.000    -0.0401657828
         280.000     0.0025208395
         290.000    -0.0662892242
         300.000    -0.1176954178
         310.000    -0.1608412646
         320.000    -0.1121850144
         330.000    -0.1286923098
         340.000    -0.1541508351
         350.000    -0.2029196473
         360.000    -0.1630357829
         370.000    -0.1275788421
         380.000    -0.1331249060
         390.000    -0.2664431225
         400.000    -0.2561057911
         410.000    -0.2731057667
         420.000    -0.2641300639
         430.000    -0.2557261412
         440.000    -0.2709635071
         450.000    -0.1748969830
         460.000    -0.2318273901
         470.000    -0.2003685789
         480.000    -0.2119221884
         490.000    -0.1763674182
         500.000    -0.2553649014
         510.000    -0.3202723867
         520.000    -0.1831273790
         530.000    -0.1058371798
         540.000    -0.0300928769
         550.000    -0.0432701133
         560.000    -0.0167095995
         570.000    -0.0078948578
         580.000     0.0658843283
         590.000     0.0262217243
         600.000    -0.0594456833
         610.000    -0.0890520997
         620.000    -0.0698829381
         630.000    -0.0160277492
         640.000    -0.0079490911
         650.000    -0.0907076627
         660.000    -0.0268835845
         670.000     0.0448628202
         680.000     0.0686836705
         690.000     0.0462004473
         700.000    -0.0399383361
         710.000    -0.2019004993
         720.000    -0.1451015183
         730.000    -0.1418971340
         740.000    -0.1070969199
         750.000    -0.2321112844
         760.000    -0.2556736610
         770.000    -0.1621440600
         780.000    -0.1844106923
         790.000    -0.2288530817
         800.000    -0.3366446670
         810.000    -0.2015284567
         820.000    -0.1907753476
         830.000    -0.2226673289
         840.000    -0.3197847573
         850.000    -0.1821957075
         860.000    -0.0735323959
         870.000    -0.0958429606
         880.000    -0.1209124026
         890.000    -0.0929057999
         900.000    -0.0060554486
         910.000     0.0874625053
         920.000     0.0165552320
         930.000    -0.0614065604
         940.000    -0.0726750843
         950.000     0.0081310972
         960.000     0.1062283185
         970.000     0.0555307889
         980.000     0.0790905347
         990.000     0.0258520536
        1000.000    -0.0409659301
        1010.000     0.0159573128
        1020.000    -0.1001772674
        1030.000    -0.1676302857
        1040.000    -0.0883545784
        1050.000    -0.1360314837
        1060.000    -0.1744897086
        1070.000    -0.2103589570
        1080.000    -0.1682458064
        1090.000    -0.1456809968
        1100.000    -0.2013885336
        1110.000    -0.3187851855
        1120.000    -0.2900437018
        1130.000    -0.3094921059
        1140.000    -0.3324256074
        1150.000    -0.2815825563
        1160.000    -0.2528407938
        1170.000    -0.2891327565
        1180.000    -0.2886733650
        1190.000    -0.2843462705
        1200.000    -0.3345657821
        1210.000    -0.3200132394
        1220.000    -0.2936740378
        1230.000    -0.3632989321
        1240.000    -0.2381492759
        1250.000    -0.1918432868
        1260.000    -0.2773703715
        1270.000    -0.2422451542
        1280.000    -0.2515691103
        1290.000    -0.2452803716
        1300.000    -0.2729706959
        1310.000    -0.2752881338
        1320.000    -0.3100966249
        1330.000    -0.3461091793
        1340.000    -0.2313962989
        1350.000    -0.2860879193
        1360.000    -0.2512220832
        1370.000    -0.1189195772
        1380.000    -0.0950114527
        1390.000    -0.0036560908
        1400.000    -0.0758861648
        1410.000    -0.0242597725
        1420.000    -0.0877123879
        1430.000    -0.1063461177
        1440.000    -0.0779817548
        1450.000    -0.0016585406
        1460.000    -0.0465687219
        1470.000     0.0594682436
        1480.000     0.0334514154
        1490.000    -0.0153839260
        1500.000     0.0797849090
        1510.000     0.1321658735
        1520.000     0.0620862524
        1530.000     0.1464357072
        1540.000     0.0404210933
        1550.000     0.1687790923
        1560.000     0.2011086360
        1570.000     0.1013395194
        1580.000     0.1736200252
        1590.000     0.1841630089
        1600.000     0.0373574620
        1610.000     0.0682433956
        1620.000     0.0207317053
        1630.000    -0.0220354039
        1640.000     0.0440193088
        1650.000    -0.0921951310
        1660.000    -0.0655066949
        1670.000     0.0111878726
        1680.000    -0.0682219503
        1690.000     0.0455705664
        1700.000     0.1107221655
        1710.000     0.0833700568
        1720.000     0.2053078233
        1730.000     0.2306238809
        1740.000     0.1723650412
        1750.000     0.1689085058
        1760.000     0.0753931802
        1770.000     0.1312374654
        1780.000     0.1130419873
        1790.000     0.0600720498
        1800.000     0.1228038298
        1810.000     0.1749460692
        1820.000     0.2200447763
        1830.000     0.3055374840
        1840.000     0.3225266967
        1850.000     0.4058134367
        1860.000     0.5346321949
        1870.000     0.6807118466
        1880.000     0.8840657450
        1890.000     1.0854083098
        1900.000     1.1692281867
        1910.000     1.1972434255
        1920.000     1.2677852692
        1930.000     1.2978497573
        1940.000     1.3764674491
        1950.000     1.4334401799
        1960.000     1.4063877873
        1970.000     1.4053142050
        1980.000     1.4103438081
        1990.000     1.3835144125
        2000.000     1.4821484367
        2010.000     1.5505495169
        2020.000     1.4857902384
        2030.000     1.5004912045
        2040.000     1.5400690978
        2050.000     1.5595542226
        2060.000     1.5773846069
        2070.000     1.5548171804
        2080.000     1.5581750732
        2090.000     1.6525155346
        2100.000     1.7541957894
        2110.000     1.7343974366
        2120.000     1.7854146802
        2130.000     1.8256756415
        2140.000     1.8105581012
        2150.000     1.8520258357
        2160.000     1.9099408410
        2170.000     1.9222272697
        2180.000     1.9288832438
        2190.000     2.0122722198
        2200.000     2.0391050894
        2210.000     2.0754378369
        2220.000     2.1129809479
        2230.000     2.0960985293
        2240.000     2.0743555843
        2250.000     2.1327407030
        2260.000     2.2353379052
        2270.000     2.2611484312
        2280.000     2.2681886026
        2290.000     2.2853853062
        2300.000     2.3476813377
        2310.000     2.3851794654
        2320.000     2.4545357231
        2330.000     2.5068778177
        2340.000     2.4490665975
        2350.000     2.4268011581
        2360.000     2.4605183511
        2370.000     2.5578918009
        2380.000     2.6169796274
        2390.000     2.6693576170
        2400.000     2.6793230695
        2410.000     2.6893545257
        2420.000     2.7823094389
        2430.000     2.8028916535
        2440.000     2.7848860921
        2450.000     2.7997725435
        2460.000     2.8541170878
        2470.000     2.8695107292
        2480.000     2.9484881632
        2490.000     3.0225292214
        2500.000     2.9806444912
        2510.000     3.0128473077
        2520.000     3.0620330250
        2530.000     3.0850966573
        2540.000     3.1027566656
        2550.000     3.1715775439
        2560.000     3.1689563455
        2570.000     3.1479694162
        2580.000     3.2521632286
        2590.000     3.3187522105
        2600.000     3.3124552124
        2610.000     3.3443351324
        2620.000     3.4225417718
        2630.000     3.4049408063
        2640.000     3.4494687021
        2650.000     3.5373368776
        2660.000     3.5411000369
        2670.000     3.5449743603
        2680.000     3.6133400529
        2690.000     3.6825699894
        2700.000     3.6780523673
        2710.000     3.7356453647
        2720.000     3.7785253370
        2730.000     3.7653796552
        2740.000     3.7808505722
        2750.000     3.8717296139
        2760.000     3.9423921320
        2770.000     3.9497091362
        2780.000     4.0234265814
        2790.000     4.0759046691
        2800.000     4.0835521602
        2810.000     4.1345937098
        2820.000     4.2169808005
        2830.000     4.2234311174
        2840.000     4.2205524323
        2850.000     4.3012694633
        2860.000     4.3544994531
        2870.000     4.3693635824
        2880.000     4.4107137793
        2890.000     4.4852235075
        2900.000     4.4992726137
        2910.000     4.4969670960
        2920.000     4.5588836652
        2930.000     4.6094399399
        2940.000     4.6282155791
        2950.000     4.6696653394
        2960.000     4.7453030605
        2970.000     4.7595728223
        2980.000     4.8013991819
        2990.000     4.8854965934
        3000.000     4.9390673279
        3010.000     4.9491803772
        3020.000     5.0123817610
        3030.000     5.0973965072
        3040.000     5.1018764118
        3050.000     5.1232015463
        3060.000     5.1838040560
        3070.000     5.2396375867
        3080.000     5.2543659086
        3090.000     5.3109595158
        3100.000     5.3756417903
        3110.000     5.3932096427
        3120.000     5.4005511164
        3130.000     5.4550290608
        3140.000     5.5115947747
        3150.000     5.5295770590
        3160.000     5.5959433044
        3170.000     5.6659086105
        3180.000     5.6870307957
        3190.000     5.7119029404
        3200.000     5.7856841024
        3210.000     5.8366667066
        3220.000     5.8538444871
        3230.000     5.9076824593
        3240.000     5.9642106322
        3250.000     6.0001282837
        3260.000     6.0220341070
        3270.000     6.0828718188
        3280.000     6.1302059523
        3290.000     6.1523804865
        3300.000     6.1903823247
        3310.000     6.2420236093
        3320.000     6.2781974684
        3330.000     6.2915244482
        3340.000     6.3534573476
        3350.000     6.4034357953
        3360.000     6.4292394350
        3370.000     6.4664604555
        3380.000     6.5242193751
        3390.000     6.5655622860
        3400.000     6.5939971326
        3410.000     6.6404126576
        3420.000     6.6857225536
        3430.000     6.7257647365
        3440.000     6.7450511269
        3450.000     6.7953926240
        3460.000     6.8434217508
        3470.000     6.8806039711
        3480.000     6.9165875907
        3490.000     6.9667998572
        3500.000     6.9995961626
        3510.000     7.0192912470
        3520.000     7.0682435462
        3530.000     7.1096229997
        3540.000     7.1427482026
        3550.000     7.1717047563
        3560.000     7.2218805301
        3570.000     7.2658519558
        3580.000     7.2969715884
        3590.000     7.3307710497
        3600.000     7.3751118511
        3610.000     7.4137897951
        3620.000     7.4300263571
        3630.000     7.4783148536
        3640.000     7.5292110642
        3650.000     7.5699630680
        3660.000     7.6068898693
        3670.000     7.6491640243
        3680.000     7.6835015783
        3690.000     7.7128343190
        3700.000     7.7604725630
        3710.000     7.8003602765
        3720.000     7.8449611905
        3730.000     7.8754161332
        3740.000     7.9203223621
        3750.000     7.9596305846
        3760.000     7.9893814946
        3770.000     8.0276650328
        3780.000     8.0762908922
        3790.000     8.1182505589
        3800.000     8.1467730017
        3810.000     8.1956514818
        3820.000     8.2348123982
        3830.000     8.2763990167
        3840.000     8.3117045706
        3850.000     8.3542319111
        3860.000     8.3954085596
        3870.000     8.4400069532
        3880.000     8.4801975769
        3890.000     8.5223317503
        3900.000     8.5708260052
        3910.000     8.6036208309
        3920.000     8.6483804815
        3930.000     8.6854845391
        3940.000     8.7215601651
        3950.000     8.7610162751
        3960.000     8.8092138288
        3970.000     8.8513043665
        3980.000     8.8907211964
        3990.000     8.9330763036
        4000.000     8.9660778251
        4010.000     9.0054381390
        4020.000     9.0403621774
        4030.000     9.0852995126
        4040.000     9.1344191849
        4050.000     9.1776321657
        4060.000     9.2154314630
        4070.000     9.2564295744
        4080.000     9.2959446964
        4090.000     9.3306232062
        4100.000     9.3801321812
        4110.000     9.4205707288
        4120.000     9.4647635337
        4130.000     9.5059281577
        4140.000     9.5471232812
        4150.000     9.5837473044
        4160.000     9.6228158761
        4170.000     9.6631629198
        4180.000     9.7058830576
        4190.000     9.7545401370
        4200.000     9.7854131061
        4210.000     9.8297118680
        4220.000     9.8711838582
        4230.000     9.9106563650
        4240.000     9.9471647588
        4250.000     9.9935098064
        4260.000    10.0341810388
        4270.000    10.0749968472
        4280.000    10.1203583526
        4290.000    10.1583083008
        4300.000    10.2043926418
        4310.000    10.2435685808
        4320.000    10.2843386324
        4330.000    10.3219912608
        4340.000    10.3634012735
        4350.000    10.4025031743
        4360.000    10.4513217777
        4370.000    10.4958871254
        4380.000    10.5310212773
        4390.000    10.5765336111
        4400.000    10.6136889781
        4410.000    10.6517361182
        4420.000    10.6923406324
        4430.000    10.7409636753
        4440.000    10.7842475631
        4450.000    10.8268650333
        4460.000    10.8685785631
        4470.000    10.9064106825
        4480.000    10.9513565217
        4490.000    10.9883509067
        4500.000    11.0354684072
        4510.000    11.0793127753
        4520.000    11.1195946404
        4530.000    11.1605710420
        4540.000    11.2065074942
        4550.000    11.2439618854
        4560.000    11.2833875583
        4570.000    11.3324156039
        4580.000    11.3701710240
        4590.000    11.4141521113
        4600.000    11.4542200255
        4610.000    11.4984209172
        4620.000    11.5386976884
        4630.000    11.5835166388
        4640.000    11.6211225081
        4650.000    11.6643145389
        4660.000    11.7082025045
        4670.000    11.7452183960
        4680.000    11.7929356339
        4690.000    11.8332994340
        4700.000    11.8755501688
        4710.000    11.9163125566
        4720.000    11.9587641826
        4730.000    11.9943248136
        4740.000    12.0373422918
        4750.000    12.0810363235
        4760.000    12.1222306669
        4770.000    12.1670753981
        4780.000    12.2043531909
        4790.000    12.2449477683
        4800.000    12.2845693937
        4810.000    12.3253642493
        4820.000    12.3642737491
        4830.000    12.4100664428
        4840.000    12.4501841906
        4850.000    12.4890502582
        4860.000    12.5324394027
        4870.000    12.5686448788
        4880.000    12.6121427302
        4890.000    12.6523405586
        4900.000    12.6935999739
        4910.000    12.7335661263
        4920.000    12.7780723694
        4930.000    12.8160458431
        4940.000    12.8575098988
        4950.000    12.9019096715
        4960.000    12.9390816390
        4970.000    12.9846723834
        4980.000    13.0236506687
        4990.000    13.0644577698
