17
Coordinates from ORCA-job opt E -948.148678986508
  C      -0.082790      0.057730     -0.195502
  C       0.678570      1.207390     -0.345961
  C       0.472634     -1.083611      0.377913
  C       2.015117      1.214245      0.083294
  C       2.576774      0.063626      0.662484
  C       1.799008     -1.075775      0.804020
  H       0.253258      2.100485     -0.791775
  C       2.812715      2.375438     -0.059108
  H      -1.116281      0.053012     -0.528023
  H      -0.128886     -1.980172      0.492762
  H       3.610180      0.087111      0.991716
  H       2.232569     -1.965027      1.251320
  N       3.517904      3.292665     -0.156453
  O       4.291295      4.225670     -0.230758
  O       5.490096      1.954220      1.474053
  S       6.410169      2.978747      0.934474
  O       7.176269      2.610744     -0.267056
17
Coordinates from ORCA-job opt E -948.148788843729
  C      -0.084692      0.063066     -0.205397
  C       0.687606      1.206960     -0.349236
  C       0.456280     -1.083855      0.373638
  C       2.020109      1.197860      0.093167
  C       2.568252      0.043858      0.677231
  C       1.779446     -1.089376      0.812522
  H       0.275356      2.104415     -0.798864
  C       2.832755      2.348244     -0.040446
  H      -1.115212      0.067182     -0.547400
  H      -0.154620     -1.974893      0.482932
  H       3.600468      0.057423      1.014860
  H       2.200799     -1.982537      1.263809
  N       3.524443      3.273618     -0.144943
  O       4.297450      4.212432     -0.219099
  O       5.538740      1.966748      1.466485
  S       6.413163      3.026491      0.917723
  O       7.168259      2.678862     -0.299580
17
Coordinates from ORCA-job opt E -948.148812421475
  C      -0.084486      0.067966     -0.208852
  C       0.698044      1.205638     -0.345710
  C       0.443908     -1.084898      0.369416
  C       2.028932      1.185107      0.102267
  C       2.563958      0.024265      0.685995
  C       1.764664     -1.102500      0.814515
  H       0.295075      2.107636     -0.794662
  C       2.846441      2.333656     -0.029427
  H      -1.113374      0.081777     -0.555565
  H      -0.174742     -1.971266      0.473242
  H       3.593802      0.025842      1.028046
  H       2.176701     -2.000412      1.265019
  N       3.526710      3.266338     -0.144663
  O       4.287949      4.213773     -0.230517
  O       5.566756      1.992807      1.474881
  S       6.422740      3.058633      0.909394
  O       7.165520      2.712139     -0.315980
17
Coordinates from ORCA-job opt E -948.148812459578
  C      -0.092325      0.065815     -0.212459
  C       0.694970      1.200066     -0.349847
  C       0.429960     -1.087885      0.369222
  C       2.024692      1.176645      0.101705
  C       2.553369      0.014098      0.688590
  C       1.749624     -1.109482      0.817003
  H       0.295999      2.102282     -0.801854
  C       2.845449      2.324024     -0.027187
  H      -1.120208      0.082982     -0.561925
  H      -0.193007     -1.971181      0.473540
  H       3.581376      0.009442      1.034670
  H       2.156105     -2.008391      1.270648
  N       3.528736      3.255630     -0.134802
  O       4.290680      4.203314     -0.214832
  O       5.613466      2.008958      1.465323
  S       6.446805      3.091886      0.900242
  O       7.202910      2.758297     -0.320636
17
Coordinates from ORCA-job opt E -948.148819799371
  C      -0.088075      0.068062     -0.213134
  C       0.699923      1.202134     -0.347926
  C       0.432941     -1.086646      0.367983
  C       2.029017      1.176842      0.105473
  C       2.556411      0.013820      0.691785
  C       1.751908     -1.109495      0.817861
  H       0.302384      2.105286     -0.799343
  C       2.850513      2.323197     -0.022466
  H      -1.115471      0.086081     -0.564054
  H      -0.190213     -1.970051      0.470311
  H       3.584408      0.009930      1.038784
  H       2.157923     -2.008855      1.270973
  N       3.526744      3.259072     -0.136481
  O       4.284028      4.209675     -0.221344
  O       5.598120      2.004157      1.462848
  S       6.438741      3.083355      0.900168
  O       7.189297      2.749935     -0.324038
17
Coordinates from ORCA-job opt E -948.148819869921
  C      -0.087993      0.068015     -0.213309
  C       0.699559      1.202509     -0.347216
  C       0.433393     -1.086805      0.367294
  C       2.028563      1.177316      0.106419
  C       2.556294      0.014337      0.692415
  C       1.752193     -1.109348      0.817711
  H       0.301846      2.105806     -0.798184
  C       2.850047      2.323575     -0.021918
  H      -1.115328      0.085794     -0.564425
  H      -0.189267     -1.970655      0.468793
  H       3.584348      0.011049      1.039443
  H       2.158654     -2.008772      1.270293
  N       3.527273      3.258637     -0.136771
  O       4.285425      4.208447     -0.222685
  O       5.597743      2.005564      1.464833
  S       6.438489      3.083381      0.899622
  O       7.187361      2.747652     -0.324915
17
Coordinates from ORCA-job opt E -948.148819881030
  C      -0.088055      0.068069     -0.213306
  C       0.699727      1.202383     -0.347378
  C       0.433093     -1.086779      0.367451
  C       2.028706      1.177035      0.106334
  C       2.556215      0.013989      0.692399
  C       1.751903     -1.109533      0.817820
  H       0.302188      2.105682     -0.798499
  C       2.850332      2.323203     -0.021942
  H      -1.115378      0.086007     -0.564450
  H      -0.189779     -1.970461      0.469107
  H       3.584246      0.010464      1.039470
  H       2.158150     -2.008986      1.270537
  N       3.527096      3.258623     -0.136622
  O       4.284870      4.208757     -0.222259
  O       5.598068      2.005339      1.463789
  S       6.438625      3.083807      0.899527
  O       7.188593      2.748903     -0.324578
