17
Coordinates from ORCA-job mol E -1407.716052087713
  C      -2.355448     -0.752078     -0.367033
  C      -1.500654      0.331189     -0.486428
  C      -1.920249     -1.975404      0.135541
  C      -0.157932      0.168992     -0.106052
  C       0.299229     -1.053868      0.402243
  C      -0.590381     -2.111698      0.520120
  H      -1.854992      1.280733     -0.870555
  C       0.738271      1.264440     -0.234523
  Cl     -4.025962     -0.568824     -0.849317
  H      -2.615066     -2.803298      0.223664
  H       1.336372     -1.151029      0.699650
  H      -0.244543     -3.061969      0.914284
  N       1.013502      2.311508     -0.759514
  O       1.877972      3.205300     -0.710954
  O       2.271900      1.197596      1.100751
  S       3.390617      2.144404      0.681936
  O       4.337365      1.574006     -0.293814
17
Coordinates from ORCA-job mol E -1407.714284659237
  C      -2.374349     -0.752176     -0.364200
  C      -1.513089      0.325718     -0.485307
  C      -1.949013     -1.976451      0.144990
  C      -0.172984      0.156208     -0.098838
  C       0.275230     -1.067735      0.415822
  C      -0.621301     -2.119731      0.534870
  H      -1.859949      1.276213     -0.874601
  C       0.729711      1.246043     -0.230723
  Cl     -4.042845     -0.560356     -0.853587
  H      -2.649069     -2.800081      0.234124
  H       1.310971     -1.171665      0.716102
  H      -0.282795     -3.070730      0.933681
  N       1.015037      2.285546     -0.764797
  O       1.879170      3.181897     -0.718475
  O       2.378648      1.035340      0.900000
  S       3.383939      2.165334      0.715411
  O       4.492687      1.846627     -0.204471
17
Coordinates from ORCA-job mol E -1407.712431678327
  C      -2.429251     -0.730735     -0.295996
  C      -1.525920      0.304837     -0.463712
  C      -2.037187     -1.980930      0.174649
  C      -0.173654      0.063176     -0.166476
  C       0.244618     -1.189604      0.306605
  C      -0.696224     -2.195360      0.476781
  H      -1.848460      1.277016     -0.818966
  C       0.757747      1.121213     -0.353258
  Cl     -4.114596     -0.450324     -0.680942
  H      -2.770129     -2.770310      0.301646
  H       1.291848     -1.363991      0.513103
  H      -0.381116     -3.168931      0.838412
  N       1.065258      2.117521     -0.943761
  O       1.907908      3.036634     -0.938402
  O       2.635761      1.207335      1.189999
  S       3.406975      2.469193      0.801990
  O       4.666419      2.253261      0.058326
17
Coordinates from ORCA-job mol E -1407.715923339168
  C      -2.392019     -0.732588     -0.302150
  C      -1.511448      0.324186     -0.462139
  C      -1.971826     -1.973358      0.170232
  C      -0.155922      0.114105     -0.156163
  C       0.288364     -1.127172      0.319849
  C      -0.628175     -2.156001      0.481796
  H      -1.854403      1.288478     -0.819803
  C       0.762897      1.183792     -0.329997
  Cl     -4.080500     -0.492167     -0.695518
  H      -2.687056     -2.779709      0.291827
  H       1.338403     -1.267894      0.546811
  H      -0.292753     -3.120779      0.848844
  N       1.068667      2.195752     -0.900857
  O       1.921089      3.104437     -0.891926
  O       2.335705      1.265371      1.143486
  S       3.359199      2.330186      0.778412
  O       4.499777      1.843362     -0.022703
17
Coordinates from ORCA-job mol E -1407.716639594885
  C      -2.387072     -0.732110     -0.292351
  C      -1.514234      0.330096     -0.459053
  C      -1.954935     -1.971516      0.173090
  C      -0.153997      0.123842     -0.172504
  C       0.302245     -1.114933      0.297544
  C      -0.606870     -2.148455      0.469835
  H      -1.865740      1.294279     -0.808409
  C       0.761065      1.194425     -0.348555
  Cl     -4.081785     -0.499290     -0.664168
  H      -2.664733     -2.781418      0.302649
  H       1.355834     -1.248869      0.515524
  H      -0.263216     -3.111288      0.834310
  N       1.092876      2.192537     -0.923027
  O       1.937187      3.105017     -0.909763
  O       2.257512      1.340549      1.199516
  S       3.346290      2.312891      0.788583
  O       4.439572      1.714244     -0.003220
17
Coordinates from ORCA-job mol E -1407.716139223294
  C      -2.365341     -0.765546     -0.376017
  C      -1.525531      0.328858     -0.501749
  C      -1.916135     -1.979543      0.137470
  C      -0.183557      0.184787     -0.114149
  C       0.289183     -1.027872      0.405413
  C      -0.585698     -2.097440      0.527981
  H      -1.889176      1.271435     -0.895169
  C       0.706508      1.282975     -0.246710
  Cl     -4.039170     -0.607179     -0.861864
  H      -2.600170     -2.816333      0.229976
  H       1.323164     -1.104113      0.720622
  H      -0.230621     -3.039403      0.933699
  N       1.007085      2.326061     -0.752860
  O       1.876051      3.213515     -0.704868
  O       2.353537      1.229692      1.189039
  S       3.461604      2.122877      0.662258
  O       4.318270      1.477230     -0.353071
17
Coordinates from ORCA-job mol E -1407.715788656458
  C      -2.338717     -0.765004     -0.410603
  C      -1.490243      0.324782     -0.514577
  C      -1.915289     -1.976184      0.130320
  C      -0.166638      0.183686     -0.065976
  C       0.281185     -1.027435      0.479922
  C      -0.602122     -2.093346      0.574424
  H      -1.834744      1.263027     -0.934782
  C       0.725892      1.283631     -0.179485
  Cl     -3.989820     -0.605922     -0.968077
  H      -2.604886     -2.810510      0.200537
  H       1.303651     -1.107904      0.827700
  H      -0.264382     -3.034708      0.995989
  N       0.968072      2.372270     -0.629181
  O       1.854553      3.248775     -0.599066
  O       2.334670      1.124363      1.014469
  S       3.446649      2.071131      0.585290
  O       4.292166      1.549349     -0.506903
17
Coordinates from ORCA-job mol E -1407.715750789283
  C      -2.350224     -0.763536     -0.408155
  C      -1.491247      0.317059     -0.518303
  C      -1.939009     -1.977066      0.136688
  C      -0.167582      0.164063     -0.072131
  C       0.267992     -1.048833      0.478964
  C      -0.626402     -2.105039      0.579121
  H      -1.827632      1.257640     -0.939652
  C       0.728562      1.261900     -0.189960
  Cl     -4.000705     -0.589589     -0.965026
  H      -2.636852     -2.803890      0.212856
  H       1.292616     -1.144622      0.816454
  H      -0.297147     -3.048009      1.003892
  N       0.954067      2.352737     -0.643248
  O       1.835322      3.234327     -0.611384
  O       2.423676      1.085722      1.004648
  S       3.462177      2.125259      0.595263
  O       4.372386      1.681877     -0.480027
17
Coordinates from ORCA-job mol E -1407.715831727038
  C      -2.384888     -0.735711     -0.317505
  C      -1.500854      0.315489     -0.492451
  C      -1.973835     -1.966303      0.188469
  C      -0.148136      0.106264     -0.170795
  C       0.287015     -1.122371      0.342444
  C      -0.634054     -2.144733      0.519359
  H      -1.838126      1.274713     -0.868166
  C       0.769763      1.176326     -0.338841
  Cl     -4.068700     -0.501111     -0.738252
  H      -2.692814     -2.766521      0.326677
  H       1.338856     -1.271797      0.558385
  H      -0.305813     -3.100023      0.916505
  N       1.052782      2.222569     -0.852202
  O       1.898278      3.135322     -0.835503
  O       2.346588      1.215383      1.080809
  S       3.361831      2.297647      0.763793
  O       4.492109      1.864855     -0.082726
17
Coordinates from ORCA-job mol E -1407.715907466704
  C      -2.347328     -0.760194     -0.401783
  C      -1.486309      0.318199     -0.516934
  C      -1.936585     -1.975023      0.140555
  C      -0.160461      0.161113     -0.077901
  C       0.274686     -1.052652      0.470965
  C      -0.621805     -2.106723      0.575472
  H      -1.822543      1.260037     -0.935457
  C       0.737023      1.257258     -0.197206
  Cl     -4.000232     -0.582193     -0.951080
  H      -2.636118     -2.800006      0.220855
  H       1.302201     -1.153493      0.798205
  H      -0.292777     -3.050527      0.998563
  N       0.966937      2.348193     -0.647866
  O       1.843130      3.235126     -0.617748
  O       2.381608      1.115392      1.006493
  S       3.446718      2.126643      0.602095
  O       4.351855      1.658851     -0.467228
17
Coordinates from ORCA-job mol E -1407.715886013048
  C      -2.321569     -0.766545     -0.437902
  C      -1.471204      0.322920     -0.524099
  C      -1.914376     -1.975924      0.118901
  C      -0.161221      0.185246     -0.034238
  C       0.270779     -1.023041      0.528733
  C      -0.614271     -2.089658      0.600054
  H      -1.803541      1.258324     -0.959857
  C       0.728104      1.291009     -0.132133
  Cl     -3.956505     -0.610150     -1.044612
  H      -2.604506     -2.810907      0.172423
  H       1.282990     -1.105656      0.904469
  H      -0.287227     -3.029311      1.033789
  N       0.937797      2.396770     -0.558912
  O       1.830048      3.268572     -0.521069
  O       2.379120      1.070593      0.974620
  S       3.459126      2.047545      0.517483
  O       4.246456      1.570214     -0.637650
17
Coordinates from ORCA-job mol E -1407.715928067195
  C      -2.332107     -0.763755     -0.423637
  C      -1.476300      0.320395     -0.521018
  C      -1.925036     -1.975824      0.127432
  C      -0.159790      0.173449     -0.051272
  C       0.272174     -1.037669      0.505384
  C      -0.618936     -2.098259      0.590030
  H      -1.809118      1.258806     -0.949835
  C       0.732934      1.275674     -0.157259
  Cl     -3.974616     -0.596592     -1.007117
  H      -2.619894     -2.806129      0.191589
  H       1.289657     -1.128631      0.864682
  H      -0.292294     -3.039710      1.020154
  N       0.949642      2.374835     -0.597351
  O       1.833849      3.255078     -0.558277
  O       2.382412      1.091720      0.985737
  S       3.456389      2.084629      0.552107
  O       4.291034      1.611984     -0.571351
17
Coordinates from ORCA-job mol E -1407.715916889525
  C      -2.334581     -0.755998     -0.404245
  C      -1.474118      0.322584     -0.518956
  C      -1.925646     -1.969748      0.141898
  C      -0.149197      0.166423     -0.075553
  C       0.284977     -1.045990      0.475230
  C      -0.611792     -2.100086      0.579844
  H      -1.809098      1.263355     -0.940749
  C       0.745396      1.265303     -0.194571
  Cl     -3.986716     -0.578958     -0.957655
  H      -2.624828     -2.794956      0.222296
  H       1.309571     -1.145900      0.812199
  H      -0.283672     -3.042273      1.007209
  N       0.960736      2.361354     -0.641565
  O       1.842924      3.241951     -0.594984
  O       2.330962      1.083479      0.974505
  S       3.411225      2.092619      0.596036
  O       4.313856      1.636838     -0.480939
17
Coordinates from ORCA-job mol E -1407.715951086176
  C      -2.347707     -0.748058     -0.377636
  C      -1.476832      0.320177     -0.509035
  C      -1.941723     -1.967649      0.157314
  C      -0.142365      0.144803     -0.102886
  C       0.290080     -1.075572      0.430879
  C      -0.618491     -2.117029      0.559523
  H      -1.810352      1.267491     -0.917143
  C       0.762176      1.234883     -0.239407
  Cl     -4.011244     -0.548186     -0.888234
  H      -2.649904     -2.783164      0.256098
  H       1.320676     -1.190939      0.742800
  H      -0.292789     -3.063475      0.979244
  N       0.983236      2.319079     -0.717197
  O       1.860267      3.207823     -0.660156
  O       2.319079      1.125077      0.991813
  S       3.388026      2.163184      0.651794
  O       4.367868      1.711556     -0.357770
17
Coordinates from ORCA-job mol E -1407.717953324782
  C      -2.322770     -0.706101     -0.304478
  C      -1.439396      0.344918     -0.481512
  C      -1.912659     -1.933517      0.209084
  C      -0.085503      0.137093     -0.165809
  C       0.354359     -1.097216      0.325447
  C      -0.569018     -2.115365      0.520025
  H      -1.776919      1.302669     -0.861073
  C       0.831035      1.211811     -0.354844
  Cl     -4.010940     -0.467524     -0.707260
  H      -2.632006     -2.731423      0.358184
  H       1.395855     -1.233646      0.589919
  H      -0.239743     -3.066321      0.926580
  N       1.024873      2.273822     -0.906026
  O       1.921251      3.141209     -0.772476
  O       2.017944      1.070467      0.848124
  S       3.128705      2.140387      0.777955
  O       4.314930      1.728738     -0.001841
17
Coordinates from ORCA-job mol E -1407.717167892225
  C      -2.337025     -0.711106     -0.291195
  C      -1.463849      0.349577     -0.465127
  C      -1.908401     -1.941011      0.200867
  C      -0.105179      0.147642     -0.172970
  C       0.351727     -1.088350      0.300865
  C      -0.559652     -2.116564      0.495386
  H      -1.813141      1.309827     -0.827686
  C       0.813897      1.219604     -0.362746
  Cl     -4.031830     -0.482748     -0.667680
  H      -2.619449     -2.747015      0.347020
  H       1.398319     -1.213662      0.554953
  H      -0.218469     -3.070478      0.884679
  N       1.074810      2.229411     -0.978350
  O       1.947599      3.116219     -0.845850
  O       2.011566      1.165773      0.991957
  S       3.151315      2.183228      0.792813
  O       4.307764      1.649653      0.043065
17
Coordinates from ORCA-job mol E -1407.716349076985
  C      -2.337410     -0.738844     -0.356030
  C      -1.472816      0.332872     -0.501188
  C      -1.916957     -1.957124      0.170892
  C      -0.130508      0.160512     -0.122391
  C       0.316666     -1.058963      0.401420
  C      -0.585759     -2.103111      0.547969
  H      -1.816805      1.279886     -0.901339
  C       0.772257      1.249210     -0.276046
  Cl     -4.010844     -0.544379     -0.834315
  H      -2.620620     -2.774946      0.282426
  H       1.352785     -1.168434      0.698416
  H      -0.249572     -3.048517      0.961689
  N       1.003762      2.315919     -0.788758
  O       1.888084      3.194664     -0.706437
  O       2.182644      1.123355      0.990318
  S       3.305427      2.120858      0.691228
  O       4.319665      1.617042     -0.257855
17
Coordinates from ORCA-job mol E -1407.715596742243
  C      -2.340705     -0.728229     -0.307216
  C      -1.483557      0.346594     -0.477513
  C      -1.893574     -1.953388      0.180168
  C      -0.127493      0.170491     -0.159616
  C       0.342751     -1.051452      0.340511
  C      -0.548307     -2.101706      0.505502
  H      -1.844332      1.298580     -0.850329
  C       0.777104      1.250550     -0.338632
  Cl     -4.032978     -0.532185     -0.709918
  H      -2.590036     -2.775564      0.305294
  H       1.392984     -1.160116      0.584992
  H      -0.193590     -3.054472      0.885389
  N       1.080445      2.264244     -0.912185
  O       1.946689      3.158426     -0.818689
  O       2.028574      1.268919      1.090544
  S       3.239826      2.138575      0.762451
  O       4.246198      1.460732     -0.080752
17
Coordinates from ORCA-job mol E -1407.715986782617
  C      -2.374056     -0.733009     -0.280227
  C      -1.514694      0.339013     -0.461390
  C      -1.919471     -1.967119      0.175617
  C      -0.152132      0.149120     -0.185295
  C       0.324284     -1.080005      0.292384
  C      -0.566953     -2.127840      0.466414
  H      -1.878667      1.298745     -0.810387
  C       0.762424      1.217793     -0.377242
  Cl     -4.076167     -0.521989     -0.630100
  H      -2.616784     -2.787775      0.306518
  H       1.382995     -1.198193      0.496143
  H      -0.208527     -3.089189      0.820155
  N       1.138785      2.175422     -0.999079
  O       1.973219      3.102172     -0.922946
  O       2.116408      1.438419      1.260179
  S       3.300233      2.277883      0.802716
  O       4.309101      1.506553      0.046541
17
Coordinates from ORCA-job mol E -1407.716113692206
  C      -2.373726     -0.734922     -0.293629
  C      -1.509759      0.334490     -0.464803
  C      -1.929334     -1.969207      0.172085
  C      -0.149990      0.141648     -0.173038
  C       0.317772     -1.091214      0.304450
  C      -0.580126     -2.134315      0.474166
  H      -1.867597      1.294671     -0.818794
  C       0.763383      1.214444     -0.351761
  Cl     -4.071310     -0.518657     -0.663005
  H      -2.630987     -2.786707      0.299214
  H       1.371616     -1.212262      0.527723
  H      -0.229385     -3.094777      0.837930
  N       1.124188      2.183151     -0.967613
  O       1.957852      3.111894     -0.898004
  O       2.154106      1.408393      1.228207
  S       3.314014      2.287730      0.784594
  O       4.339284      1.565639      0.002277
17
Coordinates from ORCA-job mol E -1407.715909870393
  C      -2.377907     -0.724938     -0.265474
  C      -1.507020      0.337862     -0.443718
  C      -1.935062     -1.968584      0.176034
  C      -0.143283      0.128005     -0.185942
  C       0.322426     -1.113984      0.270459
  C      -0.581329     -2.150449      0.447947
  H      -1.862606      1.306012     -0.777782
  C       0.779580      1.191733     -0.374818
  Cl     -4.081184     -0.488212     -0.593522
  H      -2.641739     -2.780851      0.309108
  H       1.379630     -1.247114      0.470714
  H      -0.232651     -3.118752      0.792372
  N       1.168924      2.126897     -1.027430
  O       1.991375      3.067848     -0.961187
  O       2.101781      1.484400      1.241243
  S       3.277074      2.350895      0.809582
  O       4.341991      1.599231      0.112413
17
Coordinates from ORCA-job mol E -1407.716016012891
  C      -2.368201     -0.735211     -0.313308
  C      -1.498326      0.331936     -0.464341
  C      -1.938244     -1.971372      0.161021
  C      -0.144446      0.135696     -0.144864
  C       0.307791     -1.096906      0.345536
  C      -0.596689     -2.138271      0.492733
  H      -1.846653      1.292998     -0.825348
  C       0.772215      1.208823     -0.317187
  Cl     -4.056716     -0.514085     -0.721618
  H      -2.644360     -2.787119      0.273106
  H       1.355942     -1.223821      0.591107
  H      -0.254980     -3.099953      0.861956
  N       1.088906      2.205067     -0.917063
  O       1.931955      3.126865     -0.853910
  O       2.197749      1.336232      1.154866
  S       3.323341      2.282553      0.751825
  O       4.370716      1.646568     -0.074509
17
Coordinates from ORCA-job mol E -1407.716300831403
  C      -2.346966     -0.737508     -0.345712
  C      -1.480766      0.334191     -0.481781
  C      -1.924685     -1.965019      0.157610
  C      -0.134989      0.151195     -0.120782
  C       0.311956     -1.074695      0.388111
  C      -0.591561     -2.118767      0.525644
  H      -1.825694      1.288777     -0.862665
  C       0.773727      1.233607     -0.281320
  Cl     -4.024833     -0.530519     -0.803189
  H      -2.628928     -2.783385      0.261163
  H       1.351098     -1.190807      0.673047
  H      -0.254358     -3.071853      0.920522
  N       1.029063      2.274093     -0.833694
  O       1.898574      3.168164     -0.762161
  O       2.197139      1.194579      1.052437
  S       3.308361      2.186987      0.707827
  O       4.342864      1.640960     -0.195056
17
Coordinates from ORCA-job mol E -1407.716147306555
  C      -2.356104     -0.737566     -0.327892
  C      -1.493236      0.335192     -0.478370
  C      -1.922528     -1.965606      0.164341
  C      -0.141251      0.151987     -0.143211
  C       0.317440     -1.076045      0.352250
  C      -0.582155     -2.120835      0.505751
  H      -1.845460      1.290444     -0.850800
  C       0.764798      1.234500     -0.306124
  Cl     -4.042309     -0.531720     -0.752858
  H      -2.624241     -2.784748      0.279063
  H       1.362025     -1.189898      0.617611
  H      -0.238035     -3.074622      0.892800
  N       1.063128      2.248412     -0.882311
  O       1.919680      3.154201     -0.807087
  O       2.175114      1.264114      1.124208
  S       3.308628      2.209630      0.739518
  O       4.334506      1.592560     -0.126890
17
Coordinates from ORCA-job mol E -1407.716140312832
  C      -2.363752     -0.736120     -0.315218
  C      -1.499064      0.334672     -0.470014
  C      -1.928265     -1.967925      0.165568
  C      -0.144026      0.145281     -0.151306
  C       0.315791     -1.085786      0.336033
  C      -0.584886     -2.129021      0.492759
  H      -1.851866      1.292627     -0.834880
  C       0.764461      1.224724     -0.319063
  Cl     -4.053313     -0.524170     -0.723513
  H      -2.631104     -2.785716      0.283249
  H       1.363468     -1.204502      0.587188
  H      -0.239665     -3.086368      0.869880
  N       1.083919      2.222096     -0.912523
  O       1.934701      3.135020     -0.842930
  O       2.175871      1.315433      1.159562
  S       3.311600      2.247668      0.755088
  O       4.346130      1.602088     -0.079880
17
Coordinates from ORCA-job mol E -1407.716146592017
  C      -2.361425     -0.736514     -0.318344
  C      -1.497845      0.335303     -0.471918
  C      -1.925690     -1.967140      0.165324
  C      -0.143383      0.148159     -0.149161
  C       0.316907     -1.081912      0.339998
  C      -0.582933     -2.126027      0.495925
  H      -1.851104      1.292440     -0.838473
  C       0.763594      1.228961     -0.315832
  Cl     -4.050359     -0.526940     -0.730454
  H      -2.627793     -2.785632      0.282435
  H       1.363886     -1.198785      0.594744
  H      -0.237422     -3.082270      0.875580
  N       1.078777      2.229908     -0.905214
  O       1.933078      3.139145     -0.834706
  O       2.171992      1.300516      1.149334
  S       3.308547      2.234939      0.751497
  O       4.341174      1.595848     -0.090733
17
Coordinates from ORCA-job mol E -1407.716148993292
  C      -2.361856     -0.737106     -0.318600
  C      -1.498981      0.335282     -0.472200
  C      -1.925315     -1.967419      0.165141
  C      -0.144410      0.148995     -0.149333
  C       0.316718     -1.080755      0.339795
  C      -0.582457     -2.125433      0.495759
  H      -1.852866      1.292203     -0.838704
  C       0.761860      1.230229     -0.315981
  Cl     -4.050957     -0.528600     -0.730549
  H      -2.626894     -2.786349      0.282335
  H       1.363798     -1.196840      0.594483
  H      -0.236350     -3.081411      0.875538
  N       1.078997      2.230684     -0.904732
  O       1.934648      3.138755     -0.835258
  O       2.173073      1.301415      1.151794
  S       3.310091      2.233807      0.751664
  O       4.340902      1.592546     -0.091153
17
Coordinates from ORCA-job mol E -1407.716151129850
  C      -2.362151     -0.737577     -0.319380
  C      -1.499490      0.335077     -0.472283
  C      -1.925625     -1.967805      0.164579
  C      -0.145098      0.149208     -0.148289
  C       0.315976     -1.080337      0.341308
  C      -0.583010     -2.125339      0.496339
  H      -1.853408      1.291908     -0.838989
  C       0.760907      1.230712     -0.314701
  Cl     -4.050966     -0.529607     -0.732822
  H      -2.627014     -2.786985      0.281125
  H       1.362914     -1.196181      0.596632
  H      -0.236849     -3.081240      0.876268
  N       1.078031      2.231710     -0.902489
  O       1.935363      3.138475     -0.834261
  O       2.176002      1.300115      1.150642
  S       3.311993      2.233680      0.750477
  O       4.342424      1.594186     -0.094156
17
Coordinates from ORCA-job mol E -1407.716151699013
  C      -2.361912     -0.737926     -0.320541
  C      -1.499509      0.335048     -0.472567
  C      -1.925503     -1.967928      0.164096
  C      -0.145405      0.149773     -0.146948
  C       0.315563     -1.079480      0.343382
  C      -0.583229     -2.124818      0.497448
  H      -1.853413      1.291689     -0.839774
  C       0.760261      1.231673     -0.312949
  Cl     -4.050313     -0.530671     -0.736073
  H      -2.626693     -2.787375      0.279940
  H       1.362235     -1.194929      0.599903
  H      -0.237076     -3.080512      0.877908
  N       1.076222      2.233803     -0.899454
  O       1.935496      3.138890     -0.831821
  O       2.177631      1.295884      1.147275
  S       3.312670      2.231515      0.748746
  O       4.342973      1.595365     -0.098571
17
Coordinates from ORCA-job mol E -1407.716151781751
  C      -2.361637     -0.738126     -0.321317
  C      -1.499448      0.335099     -0.472759
  C      -1.925260     -1.967937      0.163824
  C      -0.145539      0.150281     -0.146055
  C       0.315427     -1.078772      0.344737
  C      -0.583201     -2.124353      0.498216
  H      -1.853377      1.291592     -0.840328
  C       0.759874      1.232479     -0.311734
  Cl     -4.049765     -0.531419     -0.738238
  H      -2.626291     -2.787578      0.279235
  H       1.361918     -1.193895      0.602083
  H      -0.237024     -3.079882      0.879072
  N       1.075022      2.235335     -0.897470
  O       1.935647      3.139226     -0.830028
  O       2.178041      1.292736      1.144723
  S       3.312729      2.229590      0.747585
  O       4.342884      1.595623     -0.101547
17
Coordinates from ORCA-job mol E -1407.716151857856
  C      -2.361484     -0.738190     -0.321578
  C      -1.499434      0.335183     -0.472776
  C      -1.925046     -1.967908      0.163735
  C      -0.145590      0.150601     -0.145693
  C       0.315461     -1.078373      0.345222
  C      -0.583051     -2.124089      0.498483
  H      -1.853429      1.291608     -0.840460
  C       0.759683      1.232958     -0.311226
  Cl     -4.049520     -0.531773     -0.739001
  H      -2.625976     -2.787658      0.278987
  H       1.361893     -1.193312      0.602864
  H      -0.236811     -3.079542      0.879471
  N       1.074629      2.235969     -0.896831
  O       1.935971      3.139219     -0.829398
  O       2.177683      1.291394      1.143605
  S       3.312449      2.228579      0.747153
  O       4.342573      1.595334     -0.102556
