!DLPNO-CCSD(T) Extrapolate(3/4,cc) cc-pVQZ/C TightPNO TightSCF 
!CPCM(Benzene)
%geom maxiter 300 end
%maxcore 4000 
%pal nprocs 36
end

*xyz 0 1
6       -0.068647000     -0.216217000      0.355439000
6        0.757279000      0.899587000      0.415757000
6        0.488426000     -1.484462000      0.414608000
6        2.155657000      0.778033000      0.535046000
6        2.695006000     -0.521409000      0.592026000
6        1.870596000     -1.632536000      0.532823000
7        0.132765000      2.224867000      0.351441000
6        3.035088000      1.878065000      0.596838000
1       -1.138859000     -0.075866000      0.263536000
1       -0.155062000     -2.356812000      0.368554000
1        3.769999000     -0.633496000      0.683156000
1        2.310237000     -2.624176000      0.579065000
7        3.995319000      2.536433000      0.663406000
8        4.932486000      3.288850000      0.731273000
8       -1.085875000      2.277324000      0.227272000
8        0.863173000      3.208344000      0.425370000

*
