17
Coordinates from ORCA-job orca
  C   -2.51982027333580     -0.87744388864716     -0.43007666492685
  C   -1.74482131551117      0.25264687551451     -0.63714095756168
  C   -1.96522637647472     -2.01289859178439      0.15961826921257
  C   -0.39324667226072      0.23933951274451     -0.24420265737596
  C   0.17071919225615     -0.90528907369558      0.34853658075594
  C   -0.62561855733737     -2.02279009947746      0.54550497970220
  H   -2.16520597030117      1.14209113045197     -1.09477232358211
  C   0.40599176098071      1.37692645719033     -0.45661091319809
  H   -3.56340721526101     -0.87231197786961     -0.72930825301280
  H   -2.58034555732670     -2.89347080039362      0.31896076414906
  H   1.21321554415879     -0.89160878168089      0.64655241021998
  H   -0.19710004719719     -2.90829022292707      1.00472846306287
  N   1.00680317192890      2.35977274714805     -0.63200687858114
  O   2.71880568982364      1.08752310598803      1.26552031196135
  S   3.77000604367162      2.05320071789520      0.83990137499200
  O   4.73335762057548      1.53346797950601     -0.15847563349155
  S   2.01763396161054      3.61138391003719     -0.79767587232577
