17
  00000 4999.00
     C  -7.2815 -8.7939  4.3686
     C  -8.2070 -7.8103  4.7394
     C  -5.9114 -8.6135  4.5934
     C  -7.7319 -6.6197  5.3841
     C  -6.3249 -6.4328  5.6094
     C  -5.4482 -7.4341  5.1877
     H  -9.2810 -7.8838  4.5901
     C  -8.6010 -5.6284  5.7653
     H  -7.6134 -9.7206  3.8956
     H  -5.1870 -9.3639  4.3092
     H  -6.0030 -5.5248  6.1081
     H  -4.3696 -7.3235  5.3442
     N  10.4027 10.0083 -8.0437
     O  11.3664 10.7036 -8.1069
     O  -9.3357 -4.7862  6.1217
     S   8.8205  8.5863 -6.2835
     O  10.4170  9.1782 -6.6848
17
  00001 4999.00
     C  -4.3026 -2.2973  0.7104
     C  -3.4588 -1.1697  0.6142
     C  -3.8322 -3.6021  0.5059
     C  -2.1163 -1.2843  0.3917
     C  -1.5961 -2.5730  0.1845
     C  -2.4063 -3.7032  0.2822
     H  -3.7721 -0.1647  0.8600
     C  -0.0106  0.1366  0.5457
     H  -5.3679 -2.1374  0.8477
     H  -4.4250 -4.5299  0.3905
     H  -0.5141 -2.7007  0.0832
     H  -1.9786 -4.6689  0.1301
     N  -1.1898 -0.2541  0.6631
     O   4.3155  2.2408  0.1113
     O   1.0729  0.6037  0.5530
     S   3.1669  2.6586 -0.9397
     O   3.6312  3.8317 -1.9388
17
  00002 4999.00
     C  -4.8125 -2.4077  0.5905
     C  -3.6079 -2.0172  1.1376
     C  -4.8877 -2.8113 -0.7885
     C  -2.4866 -1.9970  0.3543
     C  -2.5058 -2.3064 -0.9662
     C  -3.6728 -2.7978 -1.5081
     H  -3.5464 -1.7748  2.1915
     C  -0.1563 -1.6778  0.3578
     H  -5.7445 -2.3592  1.1492
     H  -5.7922 -3.1123 -1.3150
     H  -1.5991 -2.3600 -1.5616
     H  -3.6218 -3.1367 -2.5479
     N  -1.2614 -1.6579  0.9846
     O   3.5158  4.8650 -0.3193
     O   0.8977 -1.4835 -0.3211
     S   4.3351  3.5466  0.0922
     O   5.9072  3.7989  0.3425
17
  00003 4999.00
     C  -3.4188 -3.1072  2.0674
     C  -2.6960 -2.0613  1.5730
     C  -4.4471 -3.6645  1.3297
     C  -3.1682 -1.5380  0.3463
     C  -4.3297 -1.9733 -0.3128
     C  -4.9748 -3.0755  0.1644
     H  -1.8563 -1.5561  2.0143
     C  -2.9953  0.7498 -0.3080
     H  -3.0702 -3.5200  3.0192
     H  -4.8171 -4.6179  1.6960
     H  -4.5664 -1.4080 -1.2167
     H  -5.8397 -3.5061 -0.3807
     N  -2.3394 -0.2860 -0.1431
     O   7.3782  3.4088 -1.6746
     O  -3.4825  1.8962 -0.4021
     S   6.1673  2.5646 -1.0295
     O   6.6229  1.7455  0.2903
17
  00004 4999.00
     C  -1.8545 -2.2347 -0.1960
     C  -1.2013 -1.1552 -0.7579
     C  -1.7575 -2.3789  1.2066
     C  -0.6205 -0.2140  0.0403
     C  -0.5779 -0.2238  1.3923
     C  -1.1278 -1.3739  2.0027
     H  -1.0350 -0.9919 -1.8098
     C  -0.0044  0.9255 -1.0114
     H  -2.2984 -2.9292 -0.9013
     H  -2.1346 -3.2297  1.7186
     H  -0.1086  0.5602  1.9917
     H  -0.9675 -1.5103  3.0740
     N  -1.2540  1.7465 -0.8302
     O  -2.1080  2.0224 -1.6898
     O   1.0617  1.0093 -1.5710
     S   2.8937  0.0407  0.1854
     O   2.1319  0.8613  1.3523
