!DLPNO-CCSD(T) Extrapolate(3/4,cc) cc-pVQZ/C TightPNO TightSCF 
%geom maxiter 300 end
%maxcore 4000 
%pal nprocs 36
end

*xyz 0 1
6        0.091988588      0.087630355     -0.114896794
6        1.076544331      1.058707626     -0.241998760
6        0.394517837     -1.155886589      0.441665055
6        2.379231522      0.777998659      0.186635409
6        2.688921496     -0.465510620      0.744082141
6        1.691195001     -1.427784553      0.870565785
1        0.853124215      2.026458692     -0.668562926
6        3.418396077      1.791688633      0.048794862
1       -0.914157581      0.300535656     -0.448063288
1       -0.376730791     -1.907141350      0.539089540
1        3.698676662     -0.671671301      1.068353470
1        1.928601214     -2.390055079      1.302138733
7        3.260984922      2.921678055     -0.548273725
8        4.475089676      3.641714112     -0.431794632
8        4.644145130      1.530288031      0.600983983
16       5.758550838      2.635013449     -0.035278065
8        6.305323862      2.043337005     -1.242740640

*
