14
Coordinates from ORCA-job mol
  C   -0.08711528800199     -0.04632235579980      0.35209669785794
  C   0.76968290533040      1.04104837693737      0.41540395025792
  C   0.38367614503599     -1.35449839408261      0.40372367217205
  C   2.15089058562034      0.81133745124353      0.53447028941471
  C   2.64012962299982     -0.50481495812737      0.58801708546535
  C   1.75386794201292     -1.56908031749742      0.52209472649390
  H   0.38454311874551      2.05310589095965      0.37403925909648
  C   3.04257322874553      1.90815932607454      0.60027740552790
  Cl  -1.80757512127434      0.23862049474164      0.20334280233301
  H   -0.31052430042819     -2.18583343200772      0.35207530572802
  H   3.70709380945650     -0.67497985777623      0.68033519819788
  H   2.13160030894561     -2.58599827184489      0.56301292287380
  N   3.78656310016124      2.80359479612475      0.64685126456736
  O   4.55278394265065      3.72862125105455      0.69613942001366
