14
Coordinates from ORCA-job mol
  C   -0.08555447885758     -0.04584343803823      0.35226962288384
  C   0.76916820007746      1.04296722851647      0.41539799960985
  C   0.38376429490020     -1.35452418082277      0.40386778052882
  C   2.14974553165562      0.80987567575121      0.53437435249833
  C   2.64114023744898     -0.50530634117540      0.58805711324295
  C   1.75436624125517     -1.56991086607260      0.52215659156300
  H   0.38515129155479      2.05577499673074      0.37418995351745
  C   3.04177717587246      1.90730473770616      0.60005232817558
  Cl  -1.80906362551879      0.23979259913291      0.20294149834882
  H   -0.30962776001593     -2.18685678138518      0.35228872338573
  H   3.70825821209518     -0.67548588888266      0.68027626882421
  H   2.13145442284435     -2.58708240983632      0.56304835401123
  N   3.78431661479503      2.80156635312999      0.64658517580998
  O   4.55329364189303      3.73068831524567      0.69637423760018
