14
Coordinates from ORCA-job mol E -859.145394021860
  C      -0.087115     -0.046322      0.352097
  C       0.769683      1.041048      0.415404
  C       0.383676     -1.354498      0.403724
  C       2.150891      0.811337      0.534470
  C       2.640130     -0.504815      0.588017
  C       1.753868     -1.569080      0.522095
  H       0.384543      2.053106      0.374039
  C       3.042573      1.908159      0.600277
  Cl     -1.807575      0.238620      0.203343
  H      -0.310524     -2.185833      0.352075
  H       3.707094     -0.674980      0.680335
  H       2.131600     -2.585998      0.563013
  N       3.786563      2.803595      0.646851
  O       4.552784      3.728621      0.696139
14
Coordinates from ORCA-job mol E -859.145433530814
  C      -0.086477     -0.046006      0.352192
  C       0.769503      1.041994      0.415460
  C       0.383756     -1.354631      0.403810
  C       2.150400      0.810709      0.534490
  C       2.640725     -0.505124      0.588082
  C       1.754217     -1.569615      0.522120
  H       0.384766      2.054658      0.374161
  C       3.042133      1.907807      0.600207
  Cl     -1.808492      0.239523      0.203043
  H      -0.310229     -2.186524      0.352131
  H       3.707903     -0.675302      0.680362
  H       2.131724     -2.586645      0.562995
  N       3.785056      2.802221      0.646682
  O       4.553205      3.729896      0.696145
14
Coordinates from ORCA-job mol E -859.145439852527
  C      -0.085809     -0.045861      0.352244
  C       0.769266      1.042722      0.415435
  C       0.383781     -1.354584      0.403848
  C       2.149895      0.810075      0.534422
  C       2.641069     -0.505289      0.588077
  C       1.754361     -1.569884      0.522148
  H       0.385039      2.055505      0.374214
  C       3.041805      1.907424      0.600110
  Cl     -1.808988      0.239843      0.202936
  H      -0.309798     -2.186790      0.352227
  H       3.708214     -0.675458      0.680315
  H       2.131582     -2.587006      0.563034
  N       3.784371      2.801616      0.646600
  O       4.553402      3.730647      0.696270
14
Coordinates from ORCA-job mol E -859.145440339655
  C      -0.085554     -0.045843      0.352270
  C       0.769168      1.042967      0.415398
  C       0.383764     -1.354524      0.403868
  C       2.149746      0.809876      0.534374
  C       2.641140     -0.505306      0.588057
  C       1.754366     -1.569911      0.522157
  H       0.385151      2.055775      0.374190
  C       3.041777      1.907305      0.600052
  Cl     -1.809064      0.239793      0.202941
  H      -0.309628     -2.186857      0.352289
  H       3.708258     -0.675486      0.680276
  H       2.131454     -2.587082      0.563048
  N       3.784317      2.801566      0.646585
  O       4.553294      3.730688      0.696374
