19
Coordinates from ORCA-job mol E -1152.624388077233
  C      -2.384399     -0.777911     -0.484226
  C      -1.513953      0.293670     -0.552619
  C      -1.944995     -1.966449      0.088867
  C      -0.204343      0.161356     -0.052870
  C       0.218628     -1.047644      0.519691
  C      -0.659358     -2.116151      0.591766
  H      -1.831257      1.233631     -0.990893
  C       0.687666      1.262882     -0.129601
  H      -3.397016     -0.705681     -0.863042
  N      -2.879820     -3.108038      0.164603
  H       1.229112     -1.131316      0.900517
  H      -0.359285     -3.061123      1.028563
  N       0.907794      2.365681     -0.560064
  O       1.771141      3.253526     -0.528417
  O       2.354550      1.062811      1.025843
  S       3.439437      2.038723      0.587934
  O       4.261545      1.572413     -0.541726
  O      -4.005778     -2.943943     -0.286679
  O      -2.466659     -4.141106      0.673884
19
Coordinates from ORCA-job mol E -1152.624241283390
  C      -2.380847     -0.782009     -0.495072
  C      -1.510166      0.289272     -0.565122
  C      -1.945058     -1.966431      0.089201
  C      -0.203879      0.160758     -0.055748
  C       0.215478     -1.044113      0.528041
  C      -0.662771     -2.112294      0.601689
  H      -1.824761      1.226080     -1.012015
  C       0.688363      1.261953     -0.134271
  H      -3.390912     -0.712595     -0.881158
  N      -2.880139     -3.107682      0.166650
  H       1.223417     -1.124893      0.916177
  H      -0.365454     -3.054131      1.047058
  N       0.911122      2.361806     -0.570806
  O       1.774023      3.250101     -0.539651
  O       2.347994      1.070340      1.033608
  S       3.435299      2.043552      0.595755
  O       4.264536      1.569732     -0.525534
  O      -4.046311     -2.901389     -0.142946
  O      -2.426924     -4.182727      0.535677
19
Coordinates from ORCA-job mol E -1152.623791427529
  C      -2.384497     -0.780885     -0.488426
  C      -1.504423      0.280309     -0.587952
  C      -1.944292     -1.966507      0.089031
  C      -0.204510      0.159619     -0.060416
  C       0.208097     -1.036891      0.545090
  C      -0.659805     -2.114799      0.593782
  H      -1.812160      1.208562     -1.056947
  C       0.688731      1.259662     -0.144143
  H      -3.400610     -0.706767     -0.858898
  N      -2.877770     -3.105222      0.169290
  H       1.208722     -1.109377      0.953332
  H      -0.357158     -3.061157      1.026924
  N       0.918383      2.352384     -0.594274
  O       1.780833      3.241351     -0.565054
  O       2.333819      1.086891      1.051483
  S       3.426471      2.052683      0.611022
  O       4.268765      1.560164     -0.492351
  O      -4.067844     -2.865655      0.010719
  O      -2.397743     -4.209036      0.389320
19
Coordinates from ORCA-job mol E -1152.622922846211
  C      -2.386976     -0.783216     -0.489968
  C      -1.502814      0.273212     -0.605133
  C      -1.943627     -1.966501      0.088989
  C      -0.206696      0.158477     -0.066659
  C       0.203417     -1.032413      0.551767
  C      -0.659170     -2.115048      0.592321
  H      -1.800771      1.188528     -1.104838
  C       0.686981      1.258010     -0.154333
  H      -3.412150     -0.700424     -0.833374
  N      -2.873883     -3.101402      0.173446
  H       1.193161     -1.092249      0.987773
  H      -0.346407     -3.069039      1.001694
  N       0.925853      2.343808     -0.614238
  O       1.787822      3.233737     -0.586598
  O       2.322337      1.103361      1.074116
  S       3.419050      2.060050      0.626256
  O       4.269894      1.546852     -0.461104
  O      -4.070432     -2.841254      0.157851
  O      -2.382579     -4.219161      0.253563
19
Coordinates from ORCA-job mol E -1152.621709538223
  C      -2.394116     -0.785713     -0.488751
  C      -1.508025      0.268156     -0.617499
  C      -1.944402     -1.966633      0.089622
  C      -0.210860      0.156114     -0.080925
  C       0.202272     -1.031359      0.542430
  C      -0.657169     -2.116871      0.584493
  H      -1.799261      1.171404     -1.142572
  C       0.682953      1.255045     -0.175522
  H      -3.429165     -0.693141     -0.799058
  N      -2.871526     -3.098214      0.182801
  H       1.184952     -1.079946      0.995567
  H      -0.331935     -3.078686      0.965515
  N       0.941139      2.328660     -0.648314
  O       1.799702      3.222015     -0.625136
  O       2.312082      1.135515      1.119336
  S       3.412034      2.077283      0.655627
  O       4.278105      1.529842     -0.402816
  O      -4.059845     -2.829029      0.307354
  O      -2.383924     -4.219114      0.129380
19
Coordinates from ORCA-job mol E -1152.621001479806
  C      -2.406253     -0.785913     -0.478353
  C      -1.519995      0.266783     -0.621082
  C      -1.946573     -1.967120      0.090814
  C      -0.213698      0.150609     -0.108266
  C       0.209215     -1.038385      0.506027
  C      -0.651212     -2.122943      0.561744
  H      -1.815003      1.167383     -1.148687
  C       0.680401      1.247880     -0.214576
  H      -3.449878     -0.685632     -0.756441
  N      -2.873782     -3.095954      0.200818
  H       1.196448     -1.085265      0.949571
  H      -0.316849     -3.089973      0.921534
  N       0.968857      2.301804     -0.708856
  O       1.817326      3.202677     -0.695096
  O       2.292964      1.192293      1.189944
  S       3.399296      2.111306      0.710042
  O       4.298661      1.515317     -0.293171
  O      -4.041967     -2.825784      0.450460
  O      -2.404949     -4.213753      0.035105
19
Coordinates from ORCA-job mol E -1152.621263016987
  C      -2.419876     -0.785181     -0.465117
  C      -1.537271      0.269558     -0.618098
  C      -1.949269     -1.967601      0.092361
  C      -0.217654      0.145814     -0.143273
  C       0.219292     -1.046398      0.453137
  C      -0.643826     -2.127227      0.533911
  H      -1.845472      1.176780     -1.126454
  C       0.678825      1.237950     -0.261536
  H      -3.468310     -0.684663     -0.724398
  N      -2.877560     -3.095968      0.223067
  H       1.220478     -1.096949      0.865233
  H      -0.305244     -3.093849      0.890740
  N       1.003564      2.269046     -0.773957
  O       1.841398      3.176382     -0.770160
  O       2.268586      1.250910      1.259386
  S       3.385224      2.147057      0.774666
  O       4.325189      1.508712     -0.163303
  O      -4.020204     -2.830922      0.573737
  O      -2.434860     -4.208122     -0.028411
19
Coordinates from ORCA-job mol E -1152.622283563995
  C      -2.406785     -0.785297     -0.476113
  C      -1.526012      0.273818     -0.601097
  C      -1.950211     -1.968623      0.091808
  C      -0.209822      0.146458     -0.117364
  C       0.219440     -1.051840      0.473957
  C      -0.651998     -2.125573      0.556122
  H      -1.835250      1.192517     -1.087674
  C       0.684416      1.243050     -0.226252
  H      -3.443964     -0.694017     -0.778755
  N      -2.883745     -3.099401      0.206976
  H       1.223783     -1.117878      0.874306
  H      -0.328457     -3.084663      0.944557
  N       0.976255      2.291003     -0.730400
  O       1.817482      3.197140     -0.720751
  O       2.293293      1.214435      1.205657
  S       3.400446      2.133700      0.729473
  O       4.318589      1.532589     -0.253362
  O      -4.058784     -2.829469      0.419275
  O      -2.415666     -4.222621      0.081167
19
Coordinates from ORCA-job mol E -1152.622286869948
  C      -2.421581     -0.783638     -0.459175
  C      -1.544795      0.277265     -0.599730
  C      -1.950465     -1.967667      0.094913
  C      -0.215943      0.145085     -0.154537
  C       0.228696     -1.054843      0.420776
  C      -0.641477     -2.127475      0.526885
  H      -1.866706      1.199463     -1.071190
  C       0.681848      1.235274     -0.277258
  H      -3.465831     -0.691906     -0.736792
  N      -2.881612     -3.098402      0.231076
  H       1.244713     -1.119926      0.791877
  H      -0.309366     -3.087083      0.907087
  N       1.015443      2.259086     -0.800410
  O       1.847277      3.169438     -0.800897
  O       2.254675      1.268887      1.274034
  S       3.379411      2.158809      0.798943
  O       4.336795      1.511020     -0.114518
  O      -4.031877     -2.832874      0.553992
  O      -2.436197     -4.215183      0.006457
19
Coordinates from ORCA-job mol E -1152.623042551585
  C      -2.413003     -0.781857     -0.463324
  C      -1.535015      0.279575     -0.584664
  C      -1.952933     -1.969533      0.092576
  C      -0.209193      0.143047     -0.131019
  C       0.227268     -1.062178      0.439838
  C      -0.648646     -2.130395      0.538632
  H      -1.856478      1.210925     -1.038019
  C       0.687072      1.236535     -0.245493
  H      -3.448853     -0.694198     -0.771391
  N      -2.888780     -3.100466      0.214612
  H       1.244562     -1.141505      0.803984
  H      -0.328227     -3.085744      0.938565
  N       0.991535      2.273997     -0.762871
  O       1.825304      3.184670     -0.759272
  O       2.282348      1.241537      1.228881
  S       3.394350      2.155285      0.758542
  O       4.338015      1.541397     -0.191622
  O      -4.068899     -2.829582      0.393232
  O      -2.417418     -4.226180      0.130344
19
Coordinates from ORCA-job mol E -1152.623258329302
  C      -2.430098     -0.777095     -0.444990
  C      -1.556431      0.286244     -0.582448
  C      -1.953874     -1.967802      0.090400
  C      -0.217327      0.143507     -0.173627
  C       0.235688     -1.064583      0.375940
  C      -0.637377     -2.132430      0.498026
  H      -1.892433      1.223750     -1.011877
  C       0.684171      1.228552     -0.301223
  H      -3.473251     -0.689527     -0.727816
  N      -2.886476     -3.099646      0.232374
  H       1.266097     -1.144121      0.702952
  H      -0.307427     -3.088084      0.889734
  N       1.035690      2.239039     -0.835543
  O       1.861682      3.152318     -0.840900
  O       2.235777      1.295701      1.298286
  S       3.370212      2.178074      0.836677
  O       4.354953      1.517217     -0.037437
  O      -4.044340     -2.832388      0.523999
  O      -2.422227     -4.223397      0.099005
19
Coordinates from ORCA-job mol E -1152.623665718002
  C      -2.420982     -0.776537     -0.450703
  C      -1.544445      0.285917     -0.570894
  C      -1.956033     -1.970705      0.087428
  C      -0.210216      0.140456     -0.145909
  C       0.232920     -1.071721      0.403764
  C      -0.645004     -2.136944      0.512147
  H      -1.875570      1.227785     -0.994536
  C       0.688823      1.230247     -0.263735
  H      -3.457507     -0.689265     -0.756282
  N      -2.893007     -3.101969      0.213432
  H       1.260007     -1.161559      0.737608
  H      -0.324718     -3.091456      0.913938
  N       1.007477      2.257785     -0.790055
  O       1.834345      3.172371     -0.791087
  O       2.271929      1.263663      1.249900
  S       3.388321      2.173785      0.788909
  O       4.356695      1.551544     -0.130436
  O      -4.078002     -2.831230      0.355755
  O      -2.412023     -4.226838      0.222288
19
Coordinates from ORCA-job mol E -1152.623612896691
  C      -2.406205     -0.779767     -0.470663
  C      -1.527366      0.282382     -0.573531
  C      -1.955100     -1.971724      0.084647
  C      -0.205092      0.141548     -0.109936
  C       0.224597     -1.067879      0.455903
  C      -0.654976     -2.133895      0.543547
  H      -1.846500      1.220070     -1.015321
  C       0.691038      1.236364     -0.212975
  H      -3.435219     -0.693572     -0.800386
  N      -2.894126     -3.103450      0.190768
  H       1.241037     -1.156287      0.821199
  H      -0.343221     -3.087683      0.953224
  N       0.968795      2.290316     -0.714410
  O       1.803071      3.201028     -0.705473
  O       2.314869      1.204973      1.180751
  S       3.409456      2.146253      0.719305
  O       4.338187      1.576878     -0.272182
  O      -4.088657     -2.837215      0.220857
  O      -2.411579     -4.223010      0.296207
19
Coordinates from ORCA-job mol E -1152.623717347676
  C      -2.389864     -0.782414     -0.486641
  C      -1.509545      0.279621     -0.573349
  C      -1.953345     -1.971378      0.087497
  C      -0.199549      0.142971     -0.074024
  C       0.216533     -1.062784      0.508379
  C      -0.664865     -2.128691      0.579884
  H      -1.817878      1.214375     -1.028779
  C       0.695427      1.240626     -0.163908
  H      -3.409518     -0.699386     -0.844568
  N      -2.894645     -3.103411      0.176525
  H       1.223708     -1.150221      0.898318
  H      -0.363314     -3.079328      1.003849
  N       0.932652      2.319771     -0.636926
  O       1.779082      3.222941     -0.618490
  O       2.350031      1.149340      1.105359
  S       3.426035      2.118528      0.644495
  O       4.309105      1.600760     -0.414516
  O      -4.087856     -2.849342      0.072595
  O      -2.419184     -4.216649      0.355831
19
Coordinates from ORCA-job mol E -1152.624081699322
  C      -2.386597     -0.777848     -0.479880
  C      -1.507115      0.285169     -0.556972
  C      -1.952854     -1.971241      0.088052
  C      -0.195903      0.143864     -0.062093
  C       0.219346     -1.066988      0.510787
  C      -0.664884     -2.130489      0.581395
  H      -1.818928      1.226929     -0.995176
  C       0.700005      1.241666     -0.148211
  H      -3.401534     -0.696921     -0.850937
  N      -2.895351     -3.104713      0.169126
  H       1.230012     -1.163566      0.888481
  H      -0.368860     -3.079029      1.013492
  N       0.920760      2.329130     -0.616229
  O       1.771207      3.229564     -0.594459
  O       2.354196      1.133951      1.076140
  S       3.429268      2.110281      0.621208
  O       4.300550      1.607923     -0.454604
  O      -4.070598     -2.878221     -0.088958
  O      -2.439710     -4.194129      0.490368
19
Coordinates from ORCA-job mol E -1152.624248849863
  C      -2.389129     -0.772178     -0.466098
  C      -1.511876      0.292958     -0.539520
  C      -1.951319     -1.969278      0.091082
  C      -0.194962      0.147005     -0.061838
  C       0.225893     -1.068872      0.496775
  C      -0.659362     -2.131098      0.573624
  H      -1.829582      1.239736     -0.962445
  C       0.701945      1.244061     -0.149052
  H      -3.405834     -0.690322     -0.831899
  N      -2.893560     -3.104213      0.172028
  H       1.241349     -1.169780      0.860456
  H      -0.361328     -3.080485      1.002168
  N       0.920669      2.331355     -0.621895
  O       1.773592      3.229540     -0.597822
  O       2.339294      1.130463      1.070584
  S       3.422909      2.101630      0.621388
  O       4.294972      1.594337     -0.451431
  O      -4.038791     -2.913839     -0.216259
  O      -2.461870     -4.165691      0.601686
19
Coordinates from ORCA-job mol E -1152.624328659938
  C      -2.399405     -0.769182     -0.450361
  C      -1.523919      0.297123     -0.531246
  C      -1.950919     -1.969620      0.090255
  C      -0.197813      0.147090     -0.081835
  C       0.233417     -1.072848      0.460481
  C      -0.650461     -2.135285      0.548163
  H      -1.849790      1.247309     -0.940120
  C       0.699760      1.242602     -0.177091
  H      -3.423099     -0.684612     -0.795635
  N      -2.891810     -3.104921      0.181241
  H       1.255565     -1.175136      0.804643
  H      -0.344615     -3.087612      0.964563
  N       0.941275      2.315240     -0.668237
  O       1.787417      3.217925     -0.647481
  O       2.315356      1.158067      1.109310
  S       3.410734      2.114954      0.664607
  O       4.312216      1.579137     -0.369536
  O      -4.039643     -2.916042     -0.200027
  O      -2.461256     -4.158858      0.629840
19
Coordinates from ORCA-job mol E -1152.624323776657
  C      -2.405060     -0.767113     -0.442381
  C      -1.532869      0.302127     -0.525547
  C      -1.947799     -1.969095      0.087314
  C      -0.201584      0.151182     -0.093078
  C       0.238582     -1.070397      0.437518
  C      -0.642096     -2.134975      0.530662
  H      -1.864449      1.253554     -0.926923
  C       0.696632      1.245227     -0.190645
  H      -3.433535     -0.681730     -0.772592
  N      -2.885091     -3.107474      0.182148
  H       1.264461     -1.168728      0.772502
  H      -0.328909     -3.089749      0.935786
  N       0.951527      2.312561     -0.683992
  O       1.798488      3.213734     -0.659520
  O       2.295607      1.158109      1.120600
  S       3.400577      2.107253      0.685585
  O       4.313199      1.561258     -0.333560
  O      -4.024835     -2.933538     -0.229145
  O      -2.469836     -4.136875      0.696801
19
Coordinates from ORCA-job mol E -1152.624343969346
  C      -2.398849     -0.769793     -0.453679
  C      -1.524875      0.298049     -0.533700
  C      -1.948755     -1.969001      0.088312
  C      -0.199680      0.150247     -0.081278
  C       0.233071     -1.068333      0.462400
  C      -0.648799     -2.132590      0.548551
  H      -1.850725      1.246698     -0.946162
  C       0.697696      1.245863     -0.174523
  H      -3.422956     -0.686132     -0.797787
  N      -2.887379     -3.106229      0.177793
  H       1.254253     -1.166042      0.811050
  H      -0.341029     -3.085261      0.962786
  N       0.939538      2.321434     -0.658387
  O       1.789273      3.221060     -0.633260
  O       2.312530      1.144846      1.101303
  S       3.409467      2.102275      0.660752
  O       4.305028      1.571657     -0.381278
  O      -4.033418     -2.921591     -0.210803
  O      -2.461381     -4.151827      0.649442
19
Coordinates from ORCA-job mol E -1152.624356072894
  C      -2.394392     -0.769370     -0.457985
  C      -1.521775      0.299971     -0.533505
  C      -1.946463     -1.966500      0.090501
  C      -0.199936      0.155082     -0.070776
  C       0.231243     -1.061610      0.478013
  C      -0.649665     -2.126969      0.560706
  H      -1.845938      1.247052     -0.950870
  C       0.697308      1.251296     -0.159500
  H      -3.416036     -0.688096     -0.809787
  N      -2.883918     -3.105300      0.175518
  H       1.250024     -1.155288      0.834510
  H      -0.343378     -3.078213      0.979219
  N       0.928309      2.336283     -0.630181
  O       1.787246      3.228730     -0.597930
  O       2.313190      1.116442      1.071669
  S       3.410826      2.078489      0.635888
  O       4.286069      1.564265     -0.431317
  O      -4.010582     -2.941683     -0.274278
  O      -2.469124     -4.139251      0.681637
19
Coordinates from ORCA-job mol E -1152.624364646660
  C      -2.396744     -0.769642     -0.455929
  C      -1.524376      0.299759     -0.534152
  C      -1.946554     -1.967006      0.089929
  C      -0.200917      0.154730     -0.076339
  C       0.232273     -1.062325      0.470477
  C      -0.648121     -2.127894      0.555413
  H      -1.850190      1.247120     -0.949612
  C       0.696130      1.250910     -0.167421
  H      -3.419656     -0.688232     -0.804042
  N      -2.883691     -3.105749      0.177613
  H       1.252384     -1.155800      0.823107
  H      -0.340320     -3.079386      0.972246
  N       0.933973      2.331990     -0.642053
  O       1.790623      3.226103     -0.610803
  O       2.309248      1.123965      1.083118
  S       3.408817      2.083145      0.648117
  O       4.291766      1.562230     -0.409523
  O      -4.018231     -2.934647     -0.248941
  O      -2.463403     -4.143941      0.670326
19
Coordinates from ORCA-job mol E -1152.624369133536
  C      -2.396222     -0.770634     -0.458632
  C      -1.524218      0.299081     -0.537299
  C      -1.945988     -1.967068      0.089144
  C      -0.201650      0.155642     -0.076575
  C       0.231450     -1.060401      0.472683
  C      -0.648182     -2.126632      0.556862
  H      -1.849863      1.245563     -0.954903
  C       0.694874      1.252238     -0.167430
  H      -3.418651     -0.690197     -0.808329
  N      -2.882506     -3.106406      0.176592
  H       1.251031     -1.152088      0.827246
  H      -0.340335     -3.077525      0.974999
  N       0.933888      2.334013     -0.639303
  O       1.791400      3.227342     -0.606805
  O       2.309472      1.120166      1.081983
  S       3.409272      2.079631      0.648021
  O       4.290043      1.560674     -0.412423
  O      -4.022512     -2.930083     -0.232917
  O      -2.458295     -4.147987      0.658616
19
Coordinates from ORCA-job mol E -1152.624311497130
  C      -2.383394     -0.776444     -0.482710
  C      -1.512326      0.294308     -0.557509
  C      -1.942498     -1.963947      0.091645
  C      -0.203117      0.163418     -0.056698
  C       0.220296     -1.042564      0.520593
  C      -0.655951     -2.112403      0.592795
  H      -1.829478      1.232393     -0.999882
  C       0.691206      1.262241     -0.138191
  H      -3.397382     -0.704047     -0.857895
  N      -2.877014     -3.105456      0.171436
  H       1.230375     -1.121520      0.904055
  H      -0.354513     -3.057071      1.029338
  N       0.912863      2.362120     -0.578890
  O       1.786440      3.242326     -0.535908
  O       2.322886      1.067467      1.030614
  S       3.419022      2.037395      0.599536
  O       4.253962      1.555395     -0.513995
  O      -4.026519     -2.918481     -0.205694
  O      -2.431848     -4.169801      0.578890
19
Coordinates from ORCA-job mol E -1152.624373277283
  C      -2.394031     -0.771873     -0.463430
  C      -1.522368      0.298167     -0.541893
  C      -1.945163     -1.966342      0.089607
  C      -0.202185      0.157597     -0.073608
  C       0.229465     -1.056503      0.481338
  C      -0.649337     -2.123545      0.563521
  H      -1.846740      1.242829     -0.964587
  C       0.693532      1.255066     -0.162961
  H      -3.414987     -0.693197     -0.817794
  N      -2.881092     -3.106301      0.176063
  H       1.247269     -1.145168      0.841449
  H      -0.342452     -3.073145      0.985307
  N       0.930399      2.340321     -0.628201
  O       1.791037      3.231108     -0.592858
  O       2.311231      1.108512      1.072512
  S       3.410994      2.069860      0.640395
  O       4.282978      1.558360     -0.430890
  O      -4.023864     -2.927451     -0.224604
  O      -2.451676     -4.152966      0.642165
19
Coordinates from ORCA-job mol E -1152.624375752329
  C      -2.394764     -0.771376     -0.461720
  C      -1.523287      0.298831     -0.540087
  C      -1.945124     -1.966372      0.089527
  C      -0.202251      0.157600     -0.074454
  C       0.230267     -1.057126      0.478407
  C      -0.648578     -2.124053      0.561366
  H      -1.848398      1.244057     -0.960957
  C       0.693523      1.254919     -0.164364
  H      -3.416218     -0.692376     -0.814579
  N      -2.880984     -3.106406      0.176269
  H       1.248759     -1.146355      0.836511
  H      -0.341141     -3.074002      0.981944
  N       0.931437      2.339316     -0.630833
  O       1.791548      3.230472     -0.595724
  O       2.309774      1.110158      1.074369
  S       3.410247      2.070679      0.642613
  O       4.283964      1.557529     -0.426487
  O      -4.021158     -2.930519     -0.232975
  O      -2.454607     -4.149647      0.652706
19
Coordinates from ORCA-job mol E -1152.624377527613
  C      -2.394859     -0.771083     -0.461053
  C      -1.523592      0.299341     -0.538937
  C      -1.944947     -1.966244      0.089586
  C      -0.202275      0.157935     -0.074183
  C       0.230639     -1.057121      0.477704
  C      -0.648225     -2.123999      0.560935
  H      -1.849094      1.244851     -0.958869
  C       0.693372      1.255375     -0.164096
  H      -3.416364     -0.692100     -0.813757
  N      -2.880662     -3.106436      0.176141
  H       1.249390     -1.146489      0.834976
  H      -0.340653     -3.074021      0.981258
  N       0.931233      2.340056     -0.629946
  O       1.791622      3.230971     -0.594344
  O       2.309212      1.108658      1.073034
  S       3.410110      2.069203      0.642079
  O       4.283025      1.556856     -0.428078
  O      -4.017383     -2.934337     -0.244146
  O      -2.457540     -4.146086      0.663228
19
Coordinates from ORCA-job mol E -1152.624378585176
  C      -2.394722     -0.771038     -0.461136
  C      -1.523638      0.299573     -0.538642
  C      -1.944768     -1.966079      0.089685
  C      -0.202378      0.158362     -0.073694
  C       0.230665     -1.056711      0.478122
  C      -0.648141     -2.123620      0.561374
  H      -1.849292      1.245094     -0.958438
  C       0.693023      1.256029     -0.163486
  H      -3.416076     -0.692273     -0.814318
  N      -2.880311     -3.106452      0.176012
  H       1.249447     -1.145860      0.835315
  H      -0.340598     -3.073524      0.981978
  N       0.930730      2.341285     -0.628026
  O       1.791606      3.231788     -0.591747
  O       2.309262      1.106223      1.071124
  S       3.410354      2.067091      0.640918
  O       4.281639      1.556316     -0.431330
  O      -4.014781     -2.936850     -0.251281
  O      -2.459011     -4.144023      0.669101
19
Coordinates from ORCA-job mol E -1152.624379184529
  C      -2.394617     -0.771179     -0.461547
  C      -1.523578      0.299477     -0.539023
  C      -1.944724     -1.966060      0.089650
  C      -0.202478      0.158507     -0.073555
  C       0.230505     -1.056428      0.478639
  C      -0.648230     -2.123399      0.561773
  H      -1.849181      1.244865     -0.959157
  C       0.692771      1.256301     -0.163279
  H      -3.415856     -0.692564     -0.815093
  N      -2.880192     -3.106510      0.175910
  H       1.249184     -1.145342      0.836157
  H      -0.340739     -3.073197      0.982657
  N       0.930559      2.341801     -0.627092
  O       1.791549      3.232197     -0.590595
  O       2.309702      1.105240      1.070587
  S       3.410683      2.066309      0.640507
  O       4.281189      1.556293     -0.432738
  O      -4.014848     -2.936772     -0.250825
  O      -2.458690     -4.144210      0.668553
