21
Coordinates from ORCA-job mol
  C   0.91641365735482     -1.53329755465124      0.18985544406339
  C   1.68310344349120     -0.95825868885032     -0.82465721330888
  C   0.64381132953311     -0.81514761172170      1.35244159391485
  C   2.17135969951889      0.35292251727767     -0.65512911813330
  C   1.89299650555062      1.05900428170421      0.51316224310553
  C   1.12890710482031      0.47740807529211      1.51847779309170
  O   2.00658457127132     -1.56589403278554     -1.99301520727466
  C   3.46226290215011      1.94280812743374     -1.95997467844591
  H   0.52944683273141     -2.53958032957584      0.08134958496058
  H   0.04676344157487     -1.27861024928271      2.13215396340284
  H   2.28883974433880      2.06463608743674      0.62587131619845
  H   0.91886323349443      1.03436945792994      2.42586470846312
  N   2.93769832238499      0.89864539256497     -1.68365259923855
  O   4.02404100477524      2.90563350114705     -2.34041209868428
  O   4.51071273147481      4.08388853884858      0.77983714920505
  S   5.62187750706459      3.29724438712361      0.21913959065434
  O   5.50196518153689      1.83093129344485      0.29486589398026
  C   1.53812859665202     -2.90156747915740     -2.19824671521199
  H   1.90936203654640     -3.19461777066572     -3.18097717474393
  H   0.44168916927152     -2.94124609956515     -2.19267214956979
  H   1.93800298446353     -3.58196184394784     -1.43612232642883
