17
Coordinates from ORCA-job orca_irc_IRC_Full E -948.173019558444
  C       0.016800      0.122998      0.121477
  C       0.970539      1.103747     -0.134148
  C       0.403764     -1.149624      0.537735
  C       2.327124      0.800981      0.036300
  C       2.714867     -0.482812      0.435805
  C       1.755007     -1.453974      0.680333
  H       0.662185      2.099770     -0.438081
  C       3.379882      1.805355     -0.137280
  H      -1.038734      0.355675      0.012699
  H      -0.346971     -1.903871      0.756444
  H       3.769874     -0.711709      0.541470
  H       2.066235     -2.446474      0.990804
  N       3.426105      2.711318     -1.042735
  O       4.585115      3.495009     -0.855419
  O       4.411757      1.740450      0.767070
  S       5.695752      2.778647      0.277694
  O       6.676143      1.957679     -0.443436
17
Coordinates from ORCA-job orca_irc_IRC_Full E -948.172954393538
  C       0.015727      0.122176      0.122070
  C       0.968739      1.103831     -0.134291
  C       0.403610     -1.150126      0.538582
  C       2.326043      0.802216      0.035512
  C       2.713984     -0.481675      0.434343
  C       1.755154     -1.453342      0.680007
  H       0.658424      2.099037     -0.438471
  C       3.379566      1.806245     -0.137794
  H      -1.039951      0.353925      0.013872
  H      -0.346535     -1.904735      0.758215
  H       3.769342     -0.710523      0.538582
  H       2.067271     -2.445532      0.990793
  N       3.427344      2.712549     -1.043012
  O       4.587961      3.493851     -0.856574
  O       4.411998      1.739591      0.766121
  S       5.697051      2.777814      0.278876
  O       6.679717      1.957865     -0.440097
17
Coordinates from ORCA-job orca_irc_IRC_Full E -948.172885610674
  C       0.014822      0.121319      0.122626
  C       0.966983      1.103697     -0.134388
  C       0.403352     -1.150619      0.539370
  C       2.324712      0.803529      0.034732
  C       2.713381     -0.480586      0.432916
  C       1.755143     -1.452861      0.679705
  H       0.654550      2.098279     -0.438914
  C       3.379455      1.807384     -0.138289
  H      -1.041280      0.352139      0.015047
  H      -0.346178     -1.905682      0.759950
  H       3.768601     -0.709406      0.535699
  H       2.068189     -2.444559      0.990851
  N       3.428569      2.713791     -1.043113
  O       4.590855      3.492747     -0.857758
  O       4.412370      1.738840      0.765191
  S       5.698420      2.777126      0.280019
  O       6.683498      1.958030     -0.436911
17
Coordinates from ORCA-job orca_irc_IRC_Full E -948.172813865557
  C       0.013764      0.120396      0.123139
  C       0.965180      1.103681     -0.134545
  C       0.403039     -1.151215      0.540127
  C       2.323714      0.804776      0.034040
  C       2.712425     -0.479514      0.431494
  C       1.755189     -1.452299      0.679366
  H       0.650692      2.097380     -0.439357
  C       3.379257      1.808362     -0.138545
  H      -1.042539      0.350336      0.016222
  H      -0.345892     -1.906648      0.761606
  H       3.767961     -0.708419      0.532902
  H       2.068974     -2.443662      0.990999
  N       3.429822      2.715247     -1.043239
  O       4.593741      3.491749     -0.858949
  O       4.412866      1.738238      0.764309
  S       5.700018      2.776466      0.280958
  O       6.687231      1.958295     -0.433795
17
Coordinates from ORCA-job orca_irc_IRC_Full E -948.172737557387
  C       0.012794      0.119448      0.123603
  C       0.963477      1.103445     -0.134671
  C       0.402684     -1.151842      0.540836
  C       2.322458      0.806087      0.033341
  C       2.711748     -0.478514      0.430092
  C       1.755012     -1.451883      0.679037
  H       0.646731      2.096448     -0.439849
  C       3.379284      1.809720     -0.138895
  H      -1.043885      0.348488      0.017426
  H      -0.345710     -1.907707      0.763227
  H       3.767116     -0.707499      0.530112
  H       2.069623     -2.442750      0.991231
  N       3.431051      2.716614     -1.043082
  O       4.596652      3.490850     -0.860170
  O       4.413510      1.737793      0.763477
  S       5.701688      2.775988      0.281855
  O       6.691210      1.958480     -0.430838
17
Coordinates from ORCA-job orca_irc_IRC_Full E -948.172657837605
  C       0.011750      0.118434      0.124032
  C       0.961715      1.103299     -0.134861
  C       0.402213     -1.152535      0.541501
  C       2.321558      0.807325      0.032702
  C       2.710750     -0.477537      0.428686
  C       1.754925     -1.451419      0.678682
  H       0.642840      2.095393     -0.440331
  C       3.379217      1.810765     -0.138892
  H      -1.045184      0.346644      0.018633
  H      -0.345598     -1.908778      0.764759
  H       3.766371     -0.706700      0.527429
  H       2.070122     -2.441912      0.991548
  N       3.432311      2.718293     -1.043065
  O       4.599469      3.490085     -0.861394
  O       4.414277      1.737553      0.762708
  S       5.703604      2.775518      0.282541
  O       6.695103      1.958739     -0.427944
17
Coordinates from ORCA-job orca_irc_IRC_Full E -948.172572360754
  C       0.010731      0.117403      0.124409
  C       0.960081      1.102952     -0.135045
  C       0.401733     -1.153289      0.542134
  C       2.320422      0.808578      0.032034
  C       2.709988     -0.476661      0.427282
  C       1.754586     -1.451075      0.678326
  H       0.638872      2.094296     -0.440851
  C       3.379407      1.812323     -0.139127
  H      -1.046553      0.344750      0.019886
  H      -0.345606     -1.909950      0.766253
  H       3.765441     -0.705949      0.524762
  H       2.070472     -2.441072      0.991956
  N       3.433537      2.719759     -1.042646
  O       4.602213      3.489485     -0.862672
  O       4.415219      1.737542      0.762032
  S       5.705621      2.775205      0.283206
  O       6.699281      1.958867     -0.425207
17
Coordinates from ORCA-job orca_irc_IRC_Full E -948.172482859357
  C       0.009690      0.116325      0.124760
  C       0.958406      1.102674     -0.135293
  C       0.401106     -1.154073      0.542720
  C       2.319658      0.809761      0.031386
  C       2.708955     -0.475807      0.425868
  C       1.754345     -1.450712      0.677958
  H       0.635033      2.093109     -0.441347
  C       3.379480      1.813373     -0.138908
  H      -1.047889      0.342880      0.021135
  H      -0.345680     -1.911129      0.767648
  H       3.764610     -0.705290      0.522227
  H       2.070677     -2.440305      0.992432
  N       3.434804      2.721633     -1.042493
  O       4.604707      3.489057     -0.863977
  O       4.416300      1.737805      0.761449
  S       5.707886      2.774829      0.283713
  O       6.703356      1.959037     -0.422546
17
Coordinates from ORCA-job orca_irc_IRC_Full E -948.172385393173
  C       0.008633      0.115240      0.125066
  C       0.956865      1.102212     -0.135560
  C       0.400468     -1.154929      0.543291
  C       2.318696      0.810900      0.030670
  C       2.708106     -0.475086      0.424430
  C       1.753840     -1.450444      0.677591
  H       0.631145      2.091884     -0.441866
  C       3.379861      1.815038     -0.139094
  H      -1.049299      0.340949      0.022440
  H      -0.345883     -1.912424      0.768996
  H       3.763611     -0.704638      0.519720
  H       2.070726     -2.439538      0.992994
  N       3.436055      2.723174     -1.041810
  O       4.606855      3.488911     -0.865455
  O       4.417632      1.738435      0.761042
  S       5.710339      2.774457      0.284331
  O       6.707796      1.959026     -0.420055
17
Coordinates from ORCA-job orca_irc_IRC_Full E -948.172285115700
  C       0.007622      0.114176      0.125350
  C       0.955368      1.101831     -0.135868
  C       0.399725     -1.155747      0.543803
  C       2.318137      0.811959      0.029956
  C       2.707097     -0.474402      0.423039
  C       1.753444     -1.450185      0.677246
  H       0.627576      2.090667     -0.442332
  C       3.380032      1.815800     -0.138659
  H      -1.050628      0.339135      0.023672
  H      -0.346125     -1.913664      0.770198
  H       3.762742     -0.704059      0.517449
  H       2.070666     -2.438853      0.993564
  N       3.437320      2.725249     -1.041666
  O       4.608490      3.488962     -0.866976
  O       4.419086      1.739342      0.760786
  S       5.712944      2.773918      0.284928
  O       6.711947      1.959038     -0.417757
17
Coordinates from ORCA-job orca_irc_IRC_Full E -948.172194636998
  C       0.006770      0.113339      0.125559
  C       0.954231      1.101560     -0.136146
  C       0.399095     -1.156474      0.544217
  C       2.318000      0.812730      0.029401
  C       2.706121     -0.473791      0.421894
  C       1.753114     -1.449931      0.676959
  H       0.624817      2.089699     -0.442691
  C       3.379845      1.816119     -0.138322
  H      -1.051674      0.337707      0.024645
  H      -0.346338     -1.914636      0.771092
  H       3.762124     -0.703625      0.515726
  H       2.070560     -2.438380      0.994051
  N       3.438344      2.726986     -1.041593
  O       4.609541      3.489198     -0.868286
  O       4.420467      1.740237      0.760794
  S       5.715205      2.773398      0.285433
  O       6.715220      1.959033     -0.415999
17
Coordinates from ORCA-job orca_irc_IRC_Full E -948.172113260222
  C       0.006236      0.112855      0.125681
  C       0.953545      1.101551     -0.136338
  C       0.398672     -1.156900      0.544439
  C       2.318453      0.813185      0.029113
  C       2.705270     -0.473334      0.421234
  C       1.753077     -1.449727      0.676796
  H       0.623426      2.089147     -0.442862
  C       3.379255      1.815156     -0.137387
  H      -1.052184      0.336965      0.025150
  H      -0.346428     -1.915107      0.771528
  H       3.761965     -0.703434      0.514868
  H       2.070482     -2.438186      0.994323
  N       3.438995      2.728670     -1.042267
  O       4.609990      3.489380     -0.869014
  O       4.421304      1.740815      0.760854
  S       5.716614      2.772991      0.285623
  O       6.716773      1.959139     -0.415008
17
Coordinates from ORCA-job orca_irc_IRC_Full E -948.171813324634
  C       0.004122      0.110829      0.126100
  C       0.950804      1.100080     -0.137154
  C       0.396704     -1.158689      0.545538
  C       2.316378      0.814554      0.027064
  C       2.703661     -0.472747      0.418145
  C       1.751122     -1.449448      0.676071
  H       0.615929      2.086486     -0.443814
  C       3.380262      1.819640     -0.140237
  H      -1.055262      0.332774      0.027969
  H      -0.347466     -1.918371      0.773805
  H       3.759530     -0.701873      0.510336
  H       2.069780     -2.436642      0.995758
  N       3.442758      2.731812     -1.039304
  O       4.608491      3.491344     -0.874360
  O       4.427991      1.745645      0.763215
  S       5.722845      2.769471      0.288738
  O       6.727796      1.958301     -0.411137
17
Coordinates from ORCA-job orca_irc_IRC_Full E -948.169895169722
  C      -0.002372      0.107793      0.127300
  C       0.945833      1.097912     -0.139318
  C       0.392303     -1.161812      0.547586
  C       2.316114      0.816360      0.020657
  C       2.699382     -0.472489      0.411607
  C       1.747739     -1.449815      0.676022
  H       0.604024      2.082750     -0.445115
  C       3.388707      1.821650     -0.143620
  H      -1.065217      0.325959      0.032140
  H      -0.349487     -1.924663      0.776692
  H       3.755418     -0.697246      0.503961
  H       2.068926     -2.435717      0.998445
  N       3.453003      2.735013     -1.033375
  O       4.583501      3.508421     -0.901720
  O       4.441303      1.761912      0.770637
  S       5.748028      2.751596      0.316297
  O       6.748239      1.955542     -0.411464
17
Coordinates from ORCA-job orca_irc_IRC_Full E -948.166432573831
  C      -0.010266      0.104233      0.129235
  C       0.937272      1.095545     -0.140642
  C       0.389364     -1.164398      0.549094
  C       2.312903      0.815116      0.012659
  C       2.695550     -0.472787      0.406270
  C       1.745435     -1.450369      0.676895
  H       0.595843      2.081012     -0.446243
  C       3.390506      1.816708     -0.149259
  H      -1.074136      0.321600      0.034705
  H      -0.350353     -1.928414      0.778161
  H       3.752987     -0.692864      0.499668
  H       2.068605     -2.435394      1.000298
  N       3.465276      2.740635     -1.031566
  O       4.555973      3.525348     -0.929342
  O       4.462867      1.778305      0.784796
  S       5.775167      2.735361      0.346876
  O       6.762452      1.953529     -0.414872
17
Coordinates from ORCA-job orca_irc_IRC_Full E -948.161936082376
  C      -0.016405      0.101791      0.130847
  C       0.927727      1.093324     -0.140962
  C       0.387567     -1.165994      0.549983
  C       2.304443      0.810899      0.005320
  C       2.692901     -0.474017      0.402883
  C       1.744599     -1.450315      0.677726
  H       0.591026      2.079831     -0.446985
  C       3.381813      1.817917     -0.168307
  H      -1.079883      0.319018      0.036186
  H      -0.350706     -1.930510      0.778937
  H       3.751894     -0.689755      0.496984
  H       2.068526     -2.435088      1.001372
  N       3.473305      2.741431     -1.029144
  O       4.535508      3.537929     -0.949498
  O       4.496148      1.791339      0.808702
  S       5.794950      2.723078      0.371124
  O       6.772032      1.952291     -0.418436
17
Coordinates from ORCA-job orca_irc_IRC_Full E -948.155430516638
  C      -0.021327      0.099663      0.132317
  C       0.920262      1.091519     -0.140712
  C       0.386600     -1.166779      0.550491
  C       2.296250      0.807729     -0.001043
  C       2.691986     -0.474654      0.400252
  C       1.743664     -1.450603      0.678427
  H       0.587764      2.079058     -0.447578
  C       3.353118      1.810169     -0.192587
  H      -1.083827      0.317319      0.037126
  H      -0.350967     -1.931959      0.779494
  H       3.750989     -0.687480      0.495182
  H       2.068553     -2.434698      1.002017
  N       3.483554      2.748746     -1.031618
  O       4.519324      3.547392     -0.965213
  O       4.539526      1.801151      0.842144
  S       5.811184      2.715109      0.389163
  O       6.778792      1.951483     -0.421129
17
Coordinates from ORCA-job orca_irc_IRC_Full E -948.148536153851
  C      -0.025644      0.097921      0.133637
  C       0.912795      1.089964     -0.140431
  C       0.385607     -1.167501      0.550943
  C       2.288148      0.804212     -0.006911
  C       2.690807     -0.475320      0.397973
  C       1.743020     -1.450665      0.678957
  H       0.585150      2.078169     -0.448016
  C       3.323719      1.805614     -0.219571
  H      -1.086966      0.315882      0.037901
  H      -0.351078     -1.933102      0.779988
  H       3.750502     -0.685570      0.493698
  H       2.068653     -2.434343      1.002524
  N       3.492413      2.751976     -1.030990
  O       4.506096      3.557275     -0.979733
  O       4.584241      1.811653      0.874415
  S       5.823582      2.705452      0.405321
  O       6.784398      1.951550     -0.422973
17
Coordinates from ORCA-job orca_irc_IRC_Full E -948.142773346438
  C      -0.029044      0.096876      0.134714
  C       0.907412      1.088254     -0.139987
  C       0.384642     -1.168080      0.551390
  C       2.280311      0.800710     -0.012080
  C       2.690062     -0.476056      0.395828
  C       1.742881     -1.450512      0.679267
  H       0.582450      2.077449     -0.448430
  C       3.290156      1.803650     -0.251792
  H      -1.090756      0.314539      0.038544
  H      -0.351586     -1.934744      0.780739
  H       3.749253     -0.683733      0.492348
  H       2.068888     -2.434190      1.002987
  N       3.504345      2.752524     -1.024982
  O       4.491970      3.566668     -0.995053
  O       4.621884      1.816188      0.909711
  S       5.841932      2.703293      0.419314
  O       6.790644      1.950331     -0.425787
17
Coordinates from ORCA-job orca_irc_IRC_Full E -948.139053033493
  C      -0.033188      0.094047      0.136301
  C       0.898639      1.086312     -0.140130
  C       0.383858     -1.169879      0.552929
  C       2.271749      0.798116     -0.017867
  C       2.688540     -0.476495      0.392654
  C       1.742804     -1.450377      0.679627
  H       0.581351      2.077427     -0.448774
  C       3.260705      1.802966     -0.279494
  H      -1.092241      0.314099      0.038820
  H      -0.351894     -1.935508      0.781218
  H       3.749061     -0.682911      0.491881
  H       2.068948     -2.434052      1.003181
  N       3.511050      2.751750     -1.022562
  O       4.480064      3.576087     -1.009466
  O       4.666582      1.828249      0.937716
  S       5.854463      2.692499      0.438739
  O       6.794952      1.950837     -0.428042
17
Coordinates from ORCA-job orca_irc_IRC_Full E -948.136605339047
  C      -0.049597      0.083098      0.143627
  C       0.872665      1.077947     -0.143066
  C       0.380602     -1.176710      0.558306
  C       2.245400      0.793629     -0.036505
  C       2.680882     -0.472881      0.381797
  C       1.742073     -1.449181      0.680515
  H       0.550626      2.065881     -0.456105
  C       3.196408      1.801326     -0.344011
  H      -1.110630      0.294984      0.052863
  H      -0.348547     -1.947297      0.790382
  H       3.743773     -0.668516      0.472638
  H       2.074497     -2.429554      1.007591
  N       3.529175      2.747877     -1.009932
  O       4.454388      3.594799     -1.042893
  O       4.731384      1.840607      0.991743
  S       5.878968      2.689278      0.456475
  O       6.802332      1.951714     -0.432727
17
Coordinates from ORCA-job orca_irc_IRC_Full E -948.138008430770
  C      -0.066006      0.072149      0.150954
  C       0.846691      1.069582     -0.146001
  C       0.377345     -1.183541      0.563684
  C       2.219051      0.789142     -0.055143
  C       2.673225     -0.469268      0.370939
  C       1.741342     -1.447985      0.681403
  H       0.519901      2.054336     -0.463436
  C       3.132110      1.799687     -0.408528
  H      -1.129019      0.275869      0.066905
  H      -0.345201     -1.959086      0.799547
  H       3.738485     -0.654122      0.453395
  H       2.080046     -2.425056      1.012000
  N       3.547301      2.744004     -0.997303
  O       4.428713      3.613511     -1.076321
  O       4.796187      1.852965      1.045770
  S       5.903473      2.686056      0.474212
  O       6.809711      1.952591     -0.437412
17
Coordinates from ORCA-job orca_irc_IRC_Full E -948.138139675531
  C      -0.066695      0.071601      0.151320
  C       0.845747      1.069132     -0.146231
  C       0.377196     -1.183827      0.563914
  C       2.218120      0.788988     -0.055861
  C       2.672864     -0.468937      0.370483
  C       1.741265     -1.447983      0.681448
  H       0.519750      2.054288     -0.463462
  C       3.131493      1.800450     -0.410447
  H      -1.129179      0.275790      0.066992
  H      -0.345216     -1.959172      0.799602
  H       3.738412     -0.654101      0.453291
  H       2.080041     -2.425039      1.012019
  N       3.547730      2.743580     -0.996464
  O       4.427497      3.614079     -1.077809
  O       4.797261      1.852598      1.048190
  S       5.907140      2.686800      0.475248
  O       6.809927      1.952590     -0.437572
17
Coordinates from ORCA-job orca_irc_IRC_Full E -948.138345045623
  C      -0.067919      0.070618      0.152015
  C       0.843931      1.068285     -0.146752
  C       0.376891     -1.184387      0.564387
  C       2.216504      0.788932     -0.057506
  C       2.672237     -0.468435      0.369579
  C       1.741087     -1.447901      0.681498
  H       0.519265      2.054080     -0.463525
  C       3.128873      1.800193     -0.413660
  H      -1.129839      0.275547      0.067233
  H      -0.345344     -1.959550      0.799799
  H       3.738018     -0.653931      0.452986
  H       2.080057     -2.424965      1.012063
  N       3.549496      2.744003     -0.995296
  O       4.424996      3.615571     -1.081154
  O       4.801640      1.853358      1.052630
  S       5.912570      2.686989      0.478566
  O       6.810892      1.952427     -0.438200
17
Coordinates from ORCA-job orca_irc_IRC_Full E -948.138461891802
  C      -0.068430      0.070277      0.152277
  C       0.843158      1.067930     -0.147005
  C       0.376720     -1.184630      0.564597
  C       2.215709      0.788781     -0.058284
  C       2.671946     -0.468306      0.369176
  C       1.741005     -1.447836      0.681505
  H       0.518905      2.053921     -0.463573
  C       3.127789      1.800662     -0.415640
  H      -1.130300      0.275365      0.067395
  H      -0.345443     -1.959835      0.799941
  H       3.737733     -0.653778      0.452781
  H       2.080080     -2.424890      1.012085
  N       3.549943      2.743419     -0.994315
  O       4.424008      3.616612     -1.082845
  O       4.804308      1.854078      1.054759
  S       5.914795      2.686657      0.480240
  O       6.811427      1.952410     -0.438432
17
Coordinates from ORCA-job orca_irc_IRC_Full E -948.138638480096
  C      -0.069245      0.069772      0.152664
  C       0.842004      1.067396     -0.147403
  C       0.376425     -1.184991      0.564911
  C       2.214540      0.788545     -0.059495
  C       2.671476     -0.468108      0.368545
  C       1.740845     -1.447751      0.681513
  H       0.518268      2.053648     -0.463668
  C       3.125759      1.801046     -0.418667
  H      -1.131051      0.275038      0.067681
  H      -0.345593     -1.960308      0.800182
  H       3.737275     -0.653509      0.452425
  H       2.080126     -2.424755      1.012125
  N       3.551010      2.742914     -0.992881
  O       4.422312      3.618171     -1.085526
  O       4.808514      1.855139      1.058270
  S       5.918374      2.686213      0.482757
  O       6.812316      1.952374     -0.438769
17
Coordinates from ORCA-job orca_irc_IRC_Full E -948.138826406028
  C      -0.070097      0.069304      0.153008
  C       0.840894      1.066888     -0.147814
  C       0.376057     -1.185317      0.565188
  C       2.213453      0.788317     -0.060727
  C       2.670969     -0.467932      0.367911
  C       1.740601     -1.447681      0.681506
  H       0.517436      2.053303     -0.463822
  C       3.123106      1.800820     -0.421660
  H      -1.131885      0.274607      0.068056
  H      -0.345733     -1.960838      0.800473
  H       3.736791     -0.653169      0.451969
  H       2.080187     -2.424576      1.012181
  N       3.552698      2.743070     -0.991572
  O       4.420383      3.619710     -1.088327
  O       4.813048      1.856199      1.062177
  S       5.922071      2.685831      0.485178
  O       6.813374      1.952299     -0.439060
17
Coordinates from ORCA-job orca_irc_IRC_Full E -948.139011578077
  C      -0.070920      0.068846      0.153343
  C       0.839791      1.066385     -0.148206
  C       0.375712     -1.185643      0.565458
  C       2.212325      0.788055     -0.061906
  C       2.670480     -0.467768      0.367301
  C       1.740382     -1.447607      0.681500
  H       0.516645      2.052976     -0.463972
  C       3.120897      1.801125     -0.424791
  H      -1.132679      0.274200      0.068413
  H      -0.345869     -1.961338      0.800749
  H       3.736330     -0.652849      0.451531
  H       2.080239     -2.424406      1.012235
  N       3.553938      2.742655     -0.990078
  O       4.418660      3.621294     -1.091008
  O       4.817393      1.857217      1.065914
  S       5.925647      2.685467      0.487517
  O       6.814383      1.952227     -0.439337
17
Coordinates from ORCA-job orca_irc_IRC_Full E -948.139203438019
  C      -0.071772      0.068388      0.153664
  C       0.838686      1.065891     -0.148612
  C       0.375330     -1.185959      0.565707
  C       2.211239      0.787828     -0.063106
  C       2.669967     -0.467597      0.366680
  C       1.740119     -1.447538      0.681482
  H       0.515725      2.052597     -0.464169
  C       3.118335      1.800979     -0.427821
  H      -1.133523      0.273730      0.068831
  H      -0.346000     -1.961863      0.801055
  H       3.735855     -0.652488      0.451022
  H       2.080291     -2.424211      1.012305
  N       3.555577      2.742739     -0.988723
  O       4.416794      3.622822     -1.093731
  O       4.821935      1.858245      1.069855
  S       5.929306      2.685141      0.489792
  O       6.815488      1.952131     -0.439568
17
Coordinates from ORCA-job orca_irc_IRC_Full E -948.139393844269
  C      -0.072600      0.067943      0.153975
  C       0.837587      1.065395     -0.149006
  C       0.374958     -1.186276      0.565952
  C       2.210122      0.787576     -0.064276
  C       2.669463     -0.467442      0.366075
  C       1.739868     -1.447462      0.681464
  H       0.514820      2.052227     -0.464368
  C       3.116073      1.801217     -0.430970
  H      -1.134351      0.273269      0.069243
  H      -0.346128     -1.962374      0.801355
  H       3.735389     -0.652135      0.450519
  H       2.080340     -2.424020      1.012374
  N       3.556898      2.742400     -0.987217
  O       4.415071      3.624404     -1.096387
  O       4.826391      1.859264      1.073697
  S       5.932868      2.684825      0.492036
  O       6.816586      1.952026     -0.439802
17
Coordinates from ORCA-job orca_irc_IRC_Full E -948.139587741873
  C      -0.073457      0.067483      0.154283
  C       0.836474      1.064904     -0.149416
  C       0.374567     -1.186591      0.566186
  C       2.209032      0.787361     -0.065463
  C       2.668940     -0.467269      0.365456
  C       1.739591     -1.447388      0.681437
  H       0.513819      2.051820     -0.464607
  C       3.113629      1.801149     -0.434008
  H      -1.135213      0.272765      0.069699
  H      -0.346254     -1.962899      0.801675
  H       3.734912     -0.651756      0.449960
  H       2.080384     -2.423812      1.012454
  N       3.558466      2.742410     -0.985826
  O       4.413263      3.625924     -1.099046
  O       4.830948      1.860288      1.077645
  S       5.936508      2.684542      0.494230
  O       6.817744      1.951905     -0.439995
17
Coordinates from ORCA-job orca_irc_IRC_Full E -948.139781101075
  C      -0.074304      0.067032      0.154585
  C       0.835361      1.064413     -0.149824
  C       0.374177     -1.186907      0.566419
  C       2.207915      0.787122     -0.066636
  C       2.668416     -0.467102      0.364842
  C       1.739323     -1.447310      0.681408
  H       0.512815      2.051411     -0.464851
  C       3.111363      1.801319     -0.437131
  H      -1.136072      0.272260      0.070158
  H      -0.346380     -1.963420      0.801996
  H       3.734436     -0.651377      0.449397
  H       2.080425     -2.423603      1.012535
  N       3.559850      2.742163     -0.984336
  O       4.411532      3.627480     -1.101674
  O       4.835466      1.861303      1.081561
  S       5.940133      2.684267      0.496390
  O       6.818898      1.951785     -0.440175
17
Coordinates from ORCA-job orca_irc_IRC_Full E -948.139975516919
  C      -0.075166      0.066570      0.154885
  C       0.834235      1.063922     -0.150244
  C       0.373778     -1.187226      0.566647
  C       2.206811      0.786911     -0.067819
  C       2.667880     -0.466922      0.364217
  C       1.739041     -1.447230      0.681373
  H       0.511750      2.050979     -0.465123
  C       3.109052      1.801355     -0.440184
  H      -1.136950      0.271729      0.070646
  H      -0.346507     -1.963949      0.802330
  H       3.733952     -0.650983      0.448797
  H       2.080463     -2.423383      1.012624
  N       3.561327      2.742072     -0.982902
  O       4.409774      3.628996     -1.104286
  O       4.840027      1.862327      1.085511
  S       5.943790      2.684018      0.498525
  O       6.820095      1.951650     -0.440336
17
Coordinates from ORCA-job orca_irc_IRC_Full E -948.140169762305
  C      -0.076032      0.066107      0.155184
  C       0.833105      1.063428     -0.150669
  C       0.373376     -1.187548      0.566875
  C       2.205698      0.786703     -0.069005
  C       2.667337     -0.466739      0.363587
  C       1.738757     -1.447147      0.681335
  H       0.510657      2.050537     -0.465411
  C       3.106805      1.801447     -0.443248
  H      -1.137838      0.271185      0.071147
  H      -0.346634     -1.964482      0.802671
  H       3.733462     -0.650581      0.448179
  H       2.080499     -2.423159      1.012716
  N       3.562752      2.741919     -0.981443
  O       4.408044      3.630519     -1.106880
  O       4.844599      1.863357      1.089462
  S       5.947452      2.683784      0.500650
  O       6.821314      1.951502     -0.440489
17
Coordinates from ORCA-job orca_irc_IRC_Full E -948.140363553135
  C      -0.076905      0.065634      0.155482
  C       0.831962      1.062937     -0.151106
  C       0.372969     -1.187872      0.567102
  C       2.204595      0.786514     -0.070195
  C       2.666785     -0.466547      0.362950
  C       1.738467     -1.447062      0.681292
  H       0.509521      2.050079     -0.465721
  C       3.104548      1.801450     -0.446243
  H      -1.138738      0.270625      0.071669
  H      -0.346760     -1.965018      0.803022
  H       3.732965     -0.650168      0.447534
  H       2.080533     -2.422926      1.012812
  N       3.564236      2.741884     -0.980034
  O       4.406300      3.631997     -1.109444
  O       4.849179      1.864394      1.093421
  S       5.951146      2.683560      0.502735
  O       6.822550      1.951355     -0.440614
17
Coordinates from ORCA-job orca_irc_IRC_Full E -948.140556589918
  C      -0.077783      0.065158      0.155778
  C       0.830806      1.062440     -0.151551
  C       0.372557     -1.188201      0.567329
  C       2.203472      0.786325     -0.071389
  C       2.666222     -0.466353      0.362305
  C       1.738172     -1.446972      0.681245
  H       0.508346      2.049606     -0.466051
  C       3.102413      1.801575     -0.449272
  H      -1.139649      0.270047      0.072209
  H      -0.346887     -1.965559      0.803383
  H       3.732460     -0.649746      0.446864
  H       2.080564     -2.422685      1.012913
  N       3.565612      2.741719     -0.978575
  O       4.404604      3.633491     -1.111984
  O       4.853775      1.865444      1.097379
  S       5.954850      2.683353      0.504813
  O       6.823820      1.951193     -0.440732
17
Coordinates from ORCA-job orca_irc_IRC_Full E -948.140748555189
  C      -0.078672      0.064673      0.156073
  C       0.829651      1.061946     -0.152010
  C       0.372140     -1.188533      0.567558
  C       2.202370      0.786163     -0.072592
  C       2.665647     -0.466140      0.361647
  C       1.737874     -1.446881      0.681193
  H       0.507128      2.049119     -0.466405
  C       3.100231      1.801549     -0.452198
  H      -1.140574      0.269451      0.072769
  H      -0.347015     -1.966107      0.803756
  H       3.731946     -0.649314      0.446167
  H       2.080593     -2.422436      1.013017
  N       3.567078      2.741725     -0.977194
  O       4.402890      3.634928     -1.114489
  O       4.858370      1.866497      1.101343
  S       5.958586      2.683171      0.506857
  O       6.825112      1.951024     -0.440830
17
Coordinates from ORCA-job orca_irc_IRC_Full E -948.140939419353
  C      -0.079562      0.064185      0.156367
  C       0.828473      1.061447     -0.152479
  C       0.371718     -1.188870      0.567790
  C       2.201240      0.785996     -0.073800
  C       2.665063     -0.465931      0.360981
  C       1.737571     -1.446783      0.681136
  H       0.505872      2.048617     -0.466780
  C       3.098196      1.801695     -0.455182
  H      -1.141510      0.268841      0.073347
  H      -0.347144     -1.966660      0.804139
  H       3.731420     -0.648872      0.445445
  H       2.080623     -2.422180      1.013125
  N       3.568409      2.741556     -0.975744
  O       4.401229      3.636384     -1.116968
  O       4.862990      1.867573      1.105306
  S       5.962336      2.682993      0.508895
  O       6.826430      1.950847     -0.440915
17
Coordinates from ORCA-job orca_irc_IRC_Full E -948.141128644812
  C      -0.080463      0.063687      0.156661
  C       0.827298      1.060951     -0.152962
  C       0.371293     -1.189211      0.568024
  C       2.200135      0.785860     -0.075017
  C       2.664466     -0.465701      0.360300
  C       1.737265     -1.446686      0.681075
  H       0.504576      2.048102     -0.467177
  C       3.096091      1.801654     -0.458039
  H      -1.142457      0.268213      0.073944
  H      -0.347274     -1.967219      0.804535
  H       3.730886     -0.648421      0.444697
  H       2.080651     -2.421916      1.013236
  N       3.569850      2.741597     -0.974392
  O       4.399550      3.637772     -1.119404
  O       4.867604      1.868651      1.109271
  S       5.966111      2.682843      0.510898
  O       6.827771      1.950660     -0.440984
17
Coordinates from ORCA-job orca_irc_IRC_Full E -948.141316504266
  C      -0.081365      0.063186      0.156952
  C       0.826099      1.060448     -0.153457
  C       0.370861     -1.189556      0.568263
  C       2.198997      0.785715     -0.076239
  C       2.663859     -0.465477      0.359611
  C       1.736954     -1.446580      0.681008
  H       0.503243      2.047572     -0.467596
  C       3.094147      1.801815     -0.460971
  H      -1.143416      0.267570      0.074557
  H      -0.347404     -1.967784      0.804943
  H       3.730340     -0.647959      0.443923
  H       2.080680     -2.421643      1.013349
  N       3.571132      2.741429     -0.972959
  O       4.397932      3.639184     -1.121815
  O       4.872250      1.869753      1.113239
  S       5.969905      2.682696      0.512896
  O       6.829139      1.950466     -0.441042
17
Coordinates from ORCA-job orca_irc_IRC_Full E -948.141502170412
  C      -0.082278      0.062675      0.157243
  C       0.824905      1.059951     -0.153966
  C       0.370427     -1.189904      0.568505
  C       2.197888      0.785604     -0.077472
  C       2.663240     -0.465232      0.358905
  C       1.736640     -1.446477      0.680937
  H       0.501869      2.047030     -0.468039
  C       3.092115      1.801765     -0.463758
  H      -1.144383      0.266910      0.075189
  H      -0.347535     -1.968355      0.805365
  H       3.729784     -0.647489      0.443123
  H       2.080710     -2.421362      1.013464
  N       3.572539      2.741500     -0.971640
  O       4.396296      3.640516     -1.124172
  O       4.876888      1.870859      1.117205
  S       5.973718      2.682580      0.514856
  O       6.830529      1.950263     -0.441083
