17
Coordinates from ORCA-job orca_irc_IRC_Full E -948.168137208781
  C       0.292653      0.014834     -0.532096
  C       1.418494      0.825326     -0.630424
  C       0.265311     -1.038546      0.379061
  C       2.515763      0.581146      0.197953
  C       2.486645     -0.464298      1.123219
  C       1.358948     -1.274445      1.207934
  H       1.436591      1.665433     -1.318297
  C       3.680455      1.491209      0.165741
  H      -0.573126      0.219154     -1.154821
  H      -0.615380     -1.670702      0.450766
  H       3.332879     -0.626076      1.784384
  H       1.327613     -2.079224      1.936422
  N       3.805056      2.453549      0.997922
  O       5.033399      3.119756      0.755412
  O       4.657056      1.295714     -0.769548
  S       5.727007      2.676124     -0.756841
  O       5.250091      3.614236     -1.779779
17
Coordinates from ORCA-job orca_irc_IRC_Full E -948.168003176901
  C       0.291502      0.015391     -0.530302
  C       1.418233      0.824788     -0.629619
  C       0.264517     -1.039199      0.379481
  C       2.517923      0.577722      0.194568
  C       2.486681     -0.465181      1.122808
  C       1.357883     -1.274116      1.208939
  H       1.434483      1.667263     -1.314549
  C       3.682670      1.487527      0.160582
  H      -0.574897      0.220628     -1.152037
  H      -0.615308     -1.672858      0.449416
  H       3.330892     -0.625785      1.786752
  H       1.325632     -2.078253      1.938353
  N       3.801644      2.452412      0.990768
  O       5.029909      3.120939      0.753705
  O       4.665377      1.292964     -0.770586
  S       5.729884      2.680117     -0.754563
  O       5.252432      3.618833     -1.776708
17
Coordinates from ORCA-job orca_irc_IRC_Full E -948.167842544134
  C       0.290143      0.016033     -0.528361
  C       1.417684      0.824336     -0.628459
  C       0.263584     -1.039683      0.380052
  C       2.519654      0.574454      0.191521
  C       2.486342     -0.465937      1.122881
  C       1.356573     -1.273775      1.210274
  H       1.432455      1.669229     -1.310595
  C       3.686455      1.484001      0.154335
  H      -0.576242      0.221554     -1.149801
  H      -0.615184     -1.675113      0.447839
  H       3.328729     -0.625285      1.789550
  H       1.323749     -2.077699      1.939738
  N       3.798263      2.451300      0.983199
  O       5.026863      3.121641      0.751997
  O       4.673251      1.290259     -0.771075
  S       5.732728      2.684025     -0.752754
  O       5.254408      3.623851     -1.773332
17
Coordinates from ORCA-job orca_irc_IRC_Full E -948.167660972391
  C       0.288919      0.016736     -0.526282
  C       1.416969      0.824226     -0.627171
  C       0.262543     -1.040037      0.380733
  C       2.521420      0.571579      0.188954
  C       2.485803     -0.466404      1.123310
  C       1.355294     -1.273197      1.211671
  H       1.430628      1.671027     -1.306671
  C       3.689311      1.481024      0.149104
  H      -0.577327      0.221992     -1.148256
  H      -0.615141     -1.677337      0.446211
  H       3.326521     -0.624677      1.792398
  H       1.322028     -2.077731      1.940729
  N       3.795189      2.449821      0.975247
  O       5.024552      3.121942      0.750263
  O       4.681233      1.287298     -0.772161
  S       5.735562      2.688035     -0.750985
  O       5.255952      3.628894     -1.770088
17
Coordinates from ORCA-job orca_irc_IRC_Full E -948.167441279871
  C       0.287398      0.017551     -0.524044
  C       1.416165      0.824314     -0.625352
  C       0.261435     -1.040337      0.381595
  C       2.522928      0.568948      0.186637
  C       2.485058     -0.466586      1.124211
  C       1.353657     -1.272668      1.213369
  H       1.428900      1.672941     -1.302604
  C       3.692740      1.477032      0.142413
  H      -0.578068      0.221953     -1.147177
  H      -0.615120     -1.679595      0.444443
  H       3.324199     -0.623929      1.795500
  H       1.320370     -2.078250      1.941296
  N       3.792061      2.449124      0.967270
  O       5.022564      3.121708      0.748630
  O       4.689373      1.284317     -0.772992
  S       5.738498      2.692290     -0.749465
  O       5.257297      3.634377     -1.766721
17
Coordinates from ORCA-job orca_irc_IRC_Full E -948.167214371754
  C       0.286214      0.018377     -0.522005
  C       1.415259      0.824603     -0.623521
  C       0.260379     -1.040589      0.382352
  C       2.523946      0.566563      0.184834
  C       2.484160     -0.466551      1.125301
  C       1.352306     -1.272090      1.214936
  H       1.427523      1.674555     -1.299098
  C       3.695716      1.474908      0.137782
  H      -0.578576      0.221654     -1.146595
  H      -0.615164     -1.681520      0.442906
  H       3.322207     -0.623233      1.798211
  H       1.319000     -2.079047      1.941582
  N       3.789177      2.447438      0.959207
  O       5.021157      3.121043      0.747193
  O       4.696810      1.281653     -0.774011
  S       5.740971      2.696239     -0.748237
  O       5.258371      3.639190     -1.763828
17
Coordinates from ORCA-job orca_irc_IRC_Full E -948.166991350669
  C       0.284973      0.018992     -0.520233
  C       1.414238      0.825065     -0.621732
  C       0.259483     -1.040743      0.383028
  C       2.525014      0.564971      0.183562
  C       2.483147     -0.466453      1.126603
  C       1.350918     -1.271776      1.216379
  H       1.426434      1.675978     -1.296078
  C       3.698659      1.471960      0.132637
  H      -0.578793      0.221193     -1.146260
  H      -0.615184     -1.683117      0.441572
  H       3.320553     -0.622572      1.800610
  H       1.317885     -2.079897      1.941617
  N       3.785967      2.446141      0.952451
  O       5.020451      3.120406      0.746075
  O       4.703169      1.280091     -0.774198
  S       5.743398      2.699363     -0.747675
  O       5.259146      3.643589     -1.761351
17
Coordinates from ORCA-job orca_irc_IRC_Full E -948.166838534513
  C       0.284127      0.019278     -0.519348
  C       1.413392      0.825318     -0.620776
  C       0.259058     -1.040749      0.383377
  C       2.525794      0.564418      0.182978
  C       2.482389     -0.466563      1.127504
  C       1.350092     -1.271779      1.217257
  H       1.425910      1.676768     -1.294474
  C       3.700934      1.470814      0.129870
  H      -0.578750      0.220879     -1.146073
  H      -0.615178     -1.683942      0.440860
  H       3.319733     -0.622187      1.801916
  H       1.317326     -2.080317      1.941509
  N       3.783626      2.444488      0.948219
  O       5.020425      3.120238      0.745612
  O       4.706224      1.279710     -0.773679
  S       5.744828      2.700835     -0.747792
  O       5.259524      3.645982     -1.759952
17
Coordinates from ORCA-job orca_irc_IRC_Full E -948.165425448075
  C       0.280614      0.021713     -0.514672
  C       1.409866      0.829557     -0.612490
  C       0.256676     -1.041838      0.384543
  C       2.523243      0.562212      0.186180
  C       2.477861     -0.464064      1.134177
  C       1.345830     -1.271238      1.221833
  H       1.422797      1.681648     -1.285878
  C       3.710812      1.453568      0.113243
  H      -0.580175      0.217918     -1.148246
  H      -0.615426     -1.687927      0.437596
  H       3.315179     -0.619006      1.808993
  H       1.314887     -2.085860      1.941235
  N       3.772182      2.442171      0.923646
  O       5.027050      3.111889      0.739642
  O       4.719121      1.253422     -0.780485
  S       5.755586      2.736998     -0.732026
  O       5.263351      3.662029     -1.760284
17
Coordinates from ORCA-job orca_irc_IRC_Full E -948.162814773241
  C       0.277414      0.022833     -0.512887
  C       1.404415      0.834281     -0.606567
  C       0.256379     -1.042518      0.384405
  C       2.517669      0.561102      0.190962
  C       2.473403     -0.462723      1.141731
  C       1.343054     -1.272214      1.225058
  H       1.420971      1.685740     -1.280838
  C       3.725542      1.437989      0.095414
  H      -0.580682      0.215729     -1.150624
  H      -0.614922     -1.689292      0.436050
  H       3.313055     -0.616271      1.813822
  H       1.314233     -2.089770      1.940560
  N       3.756567      2.433899      0.907882
  O       5.041365      3.110747      0.734641
  O       4.711671      1.221474     -0.782329
  S       5.774291      2.780203     -0.716024
  O       5.265033      3.671985     -1.764248
17
Coordinates from ORCA-job orca_irc_IRC_Full E -948.159066239258
  C       0.276066      0.023472     -0.512398
  C       1.399921      0.838719     -0.601472
  C       0.256646     -1.043065      0.383994
  C       2.510556      0.560032      0.195980
  C       2.469826     -0.460669      1.147992
  C       1.341985     -1.272946      1.226617
  H       1.419741      1.689110     -1.278008
  C       3.731097      1.425726      0.084865
  H      -0.580865      0.214269     -1.152666
  H      -0.614192     -1.689478      0.435345
  H       3.312239     -0.614349      1.817433
  H       1.314265     -2.092527      1.939993
  N       3.729068      2.415819      0.899938
  O       5.069643      3.120879      0.727018
  O       4.707062      1.193988     -0.788265
  S       5.790151      2.816789     -0.701653
  O       5.266248      3.677423     -1.767705
17
Coordinates from ORCA-job orca_irc_IRC_Full E -948.153728436484
  C       0.275324      0.023488     -0.512950
  C       1.395857      0.843273     -0.597646
  C       0.257446     -1.043075      0.383576
  C       2.503328      0.562021      0.202851
  C       2.467261     -0.458886      1.153959
  C       1.341745     -1.274173      1.227304
  H       1.418821      1.691727     -1.276015
  C       3.740219      1.410978      0.068875
  H      -0.580589      0.213255     -1.154153
  H      -0.613566     -1.689273      0.435039
  H       3.311734     -0.612825      1.820160
  H       1.314605     -2.094262      1.939337
  N       3.688269      2.391119      0.899348
  O       5.106480      3.140328      0.721422
  O       4.700230      1.174614     -0.789997
  S       5.805596      2.843426     -0.693287
  O       5.266697      3.681459     -1.770815
17
Coordinates from ORCA-job orca_irc_IRC_Full E -948.147923003456
  C       0.275365      0.023695     -0.513887
  C       1.392357      0.847610     -0.593955
  C       0.258227     -1.043037      0.383250
  C       2.496306      0.565277      0.210407
  C       2.465055     -0.456791      1.159321
  C       1.342249     -1.275185      1.227596
  H       1.417962      1.694050     -1.274417
  C       3.745990      1.398813      0.057114
  H      -0.580437      0.212417     -1.155523
  H      -0.613117     -1.689109      0.434825
  H       3.311357     -0.611555      1.822595
  H       1.314942     -2.095828      1.938850
  N       3.645707      2.363568      0.899195
  O       5.144505      3.160362      0.714144
  O       4.697087      1.156668     -0.794632
  S       5.818369      2.867901     -0.684566
  O       5.267531      3.684335     -1.773307
17
Coordinates from ORCA-job orca_irc_IRC_Full E -948.142949198461
  C       0.275047      0.023545     -0.514725
  C       1.389110      0.851344     -0.591209
  C       0.258986     -1.043076      0.382777
  C       2.489545      0.570741      0.219278
  C       2.463207     -0.455497      1.164103
  C       1.342463     -1.276346      1.227845
  H       1.417306      1.696157     -1.273198
  C       3.757021      1.390766      0.044897
  H      -0.580251      0.211831     -1.156634
  H      -0.612319     -1.688737      0.434559
  H       3.311220     -0.610439      1.824709
  H       1.315310     -2.097012      1.938483
  N       3.602784      2.332929      0.898185
  O       5.178548      3.180612      0.711101
  O       4.691339      1.141305     -0.796655
  S       5.832548      2.887495     -0.679722
  O       5.267590      3.687575     -1.776787
17
Coordinates from ORCA-job orca_irc_IRC_Full E -948.139193438197
  C       0.275950      0.023839     -0.516300
  C       1.384558      0.856832     -0.586369
  C       0.260388     -1.043698      0.381563
  C       2.483354      0.575186      0.227144
  C       2.460207     -0.452413      1.170792
  C       1.343850     -1.277285      1.227556
  H       1.417088      1.697242     -1.272749
  C       3.761725      1.383182      0.037464
  H      -0.580021      0.211420     -1.157188
  H      -0.611859     -1.688576      0.434354
  H       3.311347     -0.609980      1.825794
  H       1.315580     -2.097584      1.938175
  N       3.557918      2.298543      0.896609
  O       5.216089      3.200552      0.702468
  O       4.687341      1.124398     -0.801598
  S       5.847802      2.913066     -0.671935
  O       5.268138      3.688467     -1.778773
17
Coordinates from ORCA-job orca_irc_IRC_Full E -948.137244253979
  C       0.277619      0.023264     -0.519592
  C       1.378168      0.865450     -0.578792
  C       0.263057     -1.044581      0.379301
  C       2.470615      0.592840      0.249222
  C       2.455919     -0.447682      1.181179
  C       1.346345     -1.279974      1.226413
  H       1.409371      1.711335     -1.258340
  C       3.776327      1.375423      0.024013
  H      -0.576158      0.206249     -1.164552
  H      -0.608823     -1.690195      0.431000
  H       3.304505     -0.598783      1.840694
  H       1.319130     -2.104311      1.932151
  N       3.489855      2.241768      0.892342
  O       5.257635      3.224499      0.694644
  O       4.682884      1.103429     -0.808295
  S       5.859989      2.927921     -0.669434
  O       5.267965      3.690348     -1.781253
17
Coordinates from ORCA-job orca_irc_IRC_Full E -948.139126803176
  C       0.279288      0.022688     -0.522885
  C       1.371777      0.874069     -0.571215
  C       0.265726     -1.045464      0.377039
  C       2.457876      0.610494      0.271300
  C       2.451631     -0.442951      1.191566
  C       1.348839     -1.282663      1.225270
  H       1.401654      1.725428     -1.243931
  C       3.790929      1.367664      0.010562
  H      -0.572295      0.201077     -1.171915
  H      -0.605788     -1.691815      0.427646
  H       3.297663     -0.587585      1.855595
  H       1.322681     -2.111038      1.926128
  N       3.421791      2.184994      0.888075
  O       5.299180      3.248447      0.686819
  O       4.678428      1.082460     -0.814992
  S       5.872176      2.942776     -0.666934
  O       5.267791      3.692229     -1.783732
17
Coordinates from ORCA-job orca_irc_IRC_Full E -948.142404751884
  C       0.280228      0.021900     -0.524592
  C       1.369291      0.877291     -0.567496
  C       0.266938     -1.045862      0.375914
  C       2.447362      0.625198      0.289545
  C       2.449329     -0.440576      1.195334
  C       1.349949     -1.284086      1.224068
  H       1.401167      1.726179     -1.242897
  C       3.806372      1.367148      0.001315
  H      -0.572176      0.200737     -1.172192
  H      -0.605332     -1.691761      0.427311
  H       3.297136     -0.586945      1.856613
  H       1.322742     -2.111463      1.925865
  N       3.380797      2.144466      0.881634
  O       5.321202      3.263895      0.686361
  O       4.674187      1.068385     -0.817977
  S       5.892938      2.962138     -0.668854
  O       5.267218      3.694165     -1.785557
17
Coordinates from ORCA-job orca_irc_IRC_Full E -948.146698543299
  C       0.281442      0.020873     -0.526082
  C       1.366775      0.880683     -0.564072
  C       0.266954     -1.046025      0.375716
  C       2.437626      0.641345      0.307687
  C       2.447335     -0.438564      1.199571
  C       1.351138     -1.285418      1.222684
  H       1.400186      1.728132     -1.241203
  C       3.818683      1.364678     -0.006975
  H      -0.571561      0.199887     -1.173338
  H      -0.604816     -1.691568      0.427033
  H       3.296324     -0.585629      1.858780
  H       1.323277     -2.112563      1.924894
  N       3.341069      2.107683      0.877405
  O       5.345294      3.276832      0.678929
  O       4.677393      1.053689     -0.826345
  S       5.903145      2.980931     -0.663926
  O       5.269085      3.695846     -1.786363
17
Coordinates from ORCA-job orca_irc_IRC_Full E -948.151944417590
  C       0.282312      0.019901     -0.527659
  C       1.364570      0.883725     -0.559876
  C       0.267696     -1.045861      0.375444
  C       2.424968      0.657131      0.328095
  C       2.444738     -0.435583      1.202930
  C       1.352060     -1.286889      1.221415
  H       1.398826      1.730392     -1.238949
  C       3.836335      1.366394     -0.015403
  H      -0.570535      0.198634     -1.174775
  H      -0.604743     -1.691651      0.426817
  H       3.295152     -0.583984      1.861449
  H       1.324031     -2.114008      1.923470
  N       3.306411      2.063819      0.864409
  O       5.362845      3.291974      0.682121
  O       4.674146      1.041754     -0.827938
  S       5.921719      2.995304     -0.667948
  O       5.268818      3.699759     -1.789207
17
Coordinates from ORCA-job orca_irc_IRC_Full E -948.157567167016
  C       0.283386      0.018285     -0.528849
  C       1.361826      0.886713     -0.555745
  C       0.267253     -1.046442      0.375131
  C       2.408622      0.673323      0.350366
  C       2.441871     -0.433412      1.207106
  C       1.352674     -1.288393      1.219664
  H       1.397317      1.732625     -1.235822
  C       3.852511      1.367591     -0.022924
  H      -0.569422      0.197091     -1.176647
  H      -0.604348     -1.691554      0.426537
  H       3.293219     -0.581787      1.864099
  H       1.324969     -2.115792      1.921692
  N       3.271713      2.025593      0.856066
  O       5.383543      3.303533      0.675432
  O       4.679642      1.026678     -0.837498
  S       5.933352      3.015516     -0.665320
  O       5.271221      3.701242     -1.788895
17
Coordinates from ORCA-job orca_irc_IRC_Full E -948.163435864720
  C       0.283439      0.016058     -0.530355
  C       1.358053      0.889246     -0.550385
  C       0.267085     -1.047094      0.374786
  C       2.389112      0.688654      0.374567
  C       2.437242     -0.430561      1.211189
  C       1.352434     -1.290832      1.217949
  H       1.395494      1.735133     -1.231932
  C       3.873778      1.371706     -0.031297
  H      -0.568005      0.194948     -1.178942
  H      -0.604670     -1.692106      0.426171
  H       3.290834     -0.579158      1.867228
  H       1.326023     -2.118183      1.919358
  N       3.245693      1.983478      0.839178
  O       5.399370      3.316965      0.677860
  O       4.678770      1.014064     -0.840173
  S       5.953300      3.033203     -0.669023
  O       5.271396      3.705290     -1.791786
17
Coordinates from ORCA-job orca_irc_IRC_Full E -948.169101562673
  C       0.283164      0.013018     -0.531244
  C       1.353179      0.891906     -0.544391
  C       0.265397     -1.049040      0.374220
  C       2.363777      0.701181      0.399667
  C       2.431676     -0.428008      1.216524
  C       1.351318     -1.293422      1.215916
  H       1.393348      1.737348     -1.226778
  C       3.896201      1.377127     -0.038898
  H      -0.566856      0.192182     -1.182033
  H      -0.605180     -1.693060      0.425599
  H       3.287199     -0.575910      1.870231
  H       1.327101     -2.121552      1.916661
  N       3.222867      1.948449      0.825873
  O       5.418143      3.327843      0.672705
  O       4.685319      0.998218     -0.849571
  S       5.968531      3.057246     -0.668245
  O       5.274167      3.707285     -1.791841
17
Coordinates from ORCA-job orca_irc_IRC_Full E -948.174527582359
  C       0.280728      0.009204     -0.532248
  C       1.345562      0.893998     -0.537029
  C       0.263473     -1.051678      0.373460
  C       2.336876      0.711304      0.424352
  C       2.423120     -0.425502      1.222897
  C       1.348475     -1.297383      1.214540
  H       1.390791      1.739546     -1.220411
  C       3.922502      1.384391     -0.047169
  H      -0.565748      0.188399     -1.185804
  H      -0.606876     -1.695359      0.424698
  H       3.282638     -0.572069      1.873549
  H       1.328056     -2.126045      1.913262
  N       3.212535      1.915278      0.806167
  O       5.433219      3.340081      0.674674
  O       4.687744      0.984696     -0.853574
  S       5.991333      3.080309     -0.671928
  O       5.274922      3.711641     -1.795042
17
Coordinates from ORCA-job orca_irc_IRC_Full E -948.179523637032
  C       0.277178      0.004822     -0.532210
  C       1.336396      0.896575     -0.528335
  C       0.259533     -1.056170      0.372376
  C       2.309140      0.719244      0.447432
  C       2.413115     -0.422662      1.231004
  C       1.344111     -1.301373      1.213513
  H       1.387568      1.741175     -1.212671
  C       3.948945      1.391548     -0.055027
  H      -0.565722      0.183605     -1.190727
  H      -0.609212     -1.698854      0.423272
  H       3.276416     -0.567789      1.876754
  H       1.328585     -2.132339      1.909708
  N       3.205562      1.890243      0.790783
  O       5.451490      3.350272      0.669546
  O       4.698334      0.969104     -0.863873
  S       6.009408      3.109384     -0.671927
  O       5.278502      3.714026     -1.795223
17
Coordinates from ORCA-job orca_irc_IRC_Full E -948.184054069914
  C       0.271204      0.000575     -0.531908
  C       1.324646      0.899000     -0.517843
  C       0.255306     -1.061338      0.371169
  C       2.286845      0.727258      0.467622
  C       2.400158     -0.419306      1.240355
  C       1.338035     -1.306109      1.214004
  H       1.383333      1.742572     -1.203828
  C       3.975057      1.395458     -0.064710
  H      -0.566239      0.177448     -1.196265
  H      -0.613192     -1.704655      0.421086
  H       3.268861     -0.563319      1.880509
  H       1.328499     -2.140047      1.905456
  N       3.209169      1.867228      0.770466
  O       5.466488      3.362045      0.671521
  O       4.706771      0.958520     -0.868266
  S       6.034794      3.136380     -0.675769
  O       5.279615      3.719098     -1.799204
17
Coordinates from ORCA-job orca_irc_IRC_Full E -948.188035485903
  C       0.265036     -0.003283     -0.529866
  C       1.312980      0.902437     -0.506196
  C       0.249090     -1.067852      0.369927
  C       2.267599      0.733607      0.484296
  C       2.387113     -0.414815      1.250690
  C       1.331074     -1.309453      1.215030
  H       1.377847      1.743477     -1.194206
  C       3.996901      1.396359     -0.073595
  H      -0.567876      0.170422     -1.202450
  H      -0.617308     -1.711766      0.418000
  H       3.259702     -0.559031      1.884622
  H       1.327727     -2.149070      1.901151
  N       3.211526      1.851212      0.756463
  O       5.485246      3.371857      0.665595
  O       4.725437      0.946623     -0.879928
  S       6.052531      3.168545     -0.676495
  O       5.284724      3.721542     -1.798642
17
Coordinates from ORCA-job orca_irc_IRC_Full E -948.191733266520
  C       0.257204     -0.006202     -0.527368
  C       1.300274      0.905572     -0.494251
  C       0.243352     -1.073719      0.369123
  C       2.254826      0.739948      0.497304
  C       2.373119     -0.410414      1.261229
  C       1.323016     -1.312726      1.217669
  H       1.370941      1.744589     -1.184286
  C       4.015730      1.392052     -0.084486
  H      -0.569305      0.162591     -1.208056
  H      -0.622045     -1.720820      0.413824
  H       3.249628     -0.555084      1.889880
  H       1.326332     -2.157927      1.896063
  N       3.221421      1.835231      0.737942
  O       5.500555      3.383112      0.666797
  O       4.740908      0.940875     -0.884384
  S       6.077002      3.196464     -0.679541
  O       5.286390      3.727269     -1.803064
17
Coordinates from ORCA-job orca_irc_IRC_Full E -948.195345077731
  C       0.249363     -0.008519     -0.523097
  C       1.287053      0.909098     -0.481264
  C       0.235899     -1.080268      0.368636
  C       2.241866      0.744419      0.508982
  C       2.358107     -0.405522      1.272358
  C       1.314421     -1.314253      1.220835
  H       1.362023      1.745986     -1.173332
  C       4.033675      1.385706     -0.095796
  H      -0.571455      0.153845     -1.213941
  H      -0.626509     -1.731527      0.408220
  H       3.237829     -0.551221      1.896708
  H       1.324189     -2.167752      1.890692
  N       3.231323      1.820625      0.720537
  O       5.519443      3.394356      0.663529
  O       4.762935      0.934278     -0.892500
  S       6.097061      3.230377     -0.683125
  O       5.292128      3.731181     -1.803047
17
Coordinates from ORCA-job orca_irc_IRC_Full E -948.198640170881
  C       0.240109     -0.010326     -0.518531
  C       1.273889      0.912508     -0.469226
  C       0.228765     -1.085880      0.368829
  C       2.233653      0.749296      0.518065
  C       2.344114     -0.401121      1.283410
  C       1.304592     -1.316210      1.225180
  H       1.351626      1.747837     -1.162374
  C       4.050299      1.376479     -0.108310
  H      -0.573313      0.145123     -1.218543
  H      -0.630200     -1.743216      0.401417
  H       3.225211     -0.547810      1.904799
  H       1.321436     -2.176350      1.885046
  N       3.240734      1.805485      0.703154
  O       5.536425      3.406189      0.664016
  O       4.785914      0.930051     -0.899046
  S       6.121297      3.260781     -0.685954
  O       5.294798      3.737974     -1.807537
17
Coordinates from ORCA-job orca_irc_IRC_Full E -948.201602509060
  C       0.231761     -0.011794     -0.512531
  C       1.262335      0.916135     -0.457092
  C       0.221203     -1.091154      0.369348
  C       2.223614      0.750231      0.524923
  C       2.330906     -0.396363      1.293736
  C       1.294999     -1.316188      1.229179
  H       1.339765      1.749973     -1.151348
  C       4.067388      1.366391     -0.121471
  H      -0.576105      0.136797     -1.222668
  H      -0.633114     -1.755618      0.393601
  H       3.211766     -0.544870      1.914073
  H       1.317968     -2.184859      1.880307
  N       3.249680      1.791336      0.686793
  O       5.557373      3.416912      0.656732
  O       4.811151      0.926492     -0.906108
  S       6.136612      3.294851     -0.686322
  O       5.302047      3.742539     -1.806759
17
Coordinates from ORCA-job orca_irc_IRC_Full E -948.202378025494
  C       0.229120     -0.011864     -0.511467
  C       1.258584      0.916613     -0.454726
  C       0.219419     -1.092351      0.369573
  C       2.223049      0.751512      0.526519
  C       2.327376     -0.395938      1.296382
  C       1.292489     -1.316803      1.230756
  H       1.336563      1.750694     -1.148564
  C       4.072064      1.363168     -0.125433
  H      -0.576587      0.134821     -1.223135
  H      -0.633597     -1.758839      0.391410
  H       3.208343     -0.544154      1.916711
  H       1.316927     -2.186377      1.879023
  N       3.251703      1.786992      0.682243
  O       5.560285      3.420265      0.659703
  O       4.816946      0.926429     -0.906788
  S       6.145077      3.301556     -0.688610
  O       5.301588      3.745085     -1.809202
17
Coordinates from ORCA-job orca_irc_IRC_Full E -948.202800791920
  C       0.227893     -0.011984     -0.510716
  C       1.256925      0.916935     -0.453313
  C       0.218429     -1.093009      0.369676
  C       2.222315      0.751760      0.527208
  C       2.325610     -0.395522      1.297674
  C       1.291170     -1.316886      1.231414
  H       1.334831      1.751073     -1.147117
  C       4.073036      1.362319     -0.125984
  H      -0.576999      0.133820     -1.223459
  H      -0.633823     -1.760531      0.390241
  H       3.206517     -0.543807      1.918125
  H       1.316348     -2.187300      1.878487
  N       3.253358      1.784599      0.679414
  O       5.562668      3.421819      0.659540
  O       4.821068      0.925808     -0.908226
  S       6.147779      3.305737     -0.689074
  O       5.302224      3.745981     -1.809498
17
Coordinates from ORCA-job orca_irc_IRC_Full E -948.203496881426
  C       0.225639     -0.012211     -0.509303
  C       1.253930      0.917562     -0.450711
  C       0.216614     -1.094213      0.369864
  C       2.220833      0.752073      0.528436
  C       2.322411     -0.394730      1.300051
  C       1.288731     -1.317007      1.232615
  H       1.331598      1.751767     -1.144438
  C       4.076092      1.360097     -0.128242
  H      -0.577793      0.131999     -1.224031
  H      -0.634233     -1.763676      0.388062
  H       3.203113     -0.543179      1.920751
  H       1.315254     -2.188990      1.877540
  N       3.255916      1.780424      0.674673
  O       5.567141      3.424680      0.659095
  O       4.828028      0.925102     -0.910137
  S       6.152627      3.313474     -0.689833
  O       5.303447      3.747639     -1.810000
17
Coordinates from ORCA-job orca_irc_IRC_Full E -948.204210148685
  C       0.223262     -0.012447     -0.507787
  C       1.250817      0.918244     -0.447986
  C       0.214704     -1.095479      0.370060
  C       2.219168      0.752249      0.529664
  C       2.319085     -0.393892      1.302550
  C       1.286150     -1.317108      1.233884
  H       1.328122      1.752502     -1.141594
  C       4.080375      1.357193     -0.131664
  H      -0.578681      0.130115     -1.224582
  H      -0.634648     -1.767033      0.385722
  H       3.199468     -0.542530      1.923565
  H       1.314053     -2.190739      1.876600
  N       3.258173      1.776211      0.670082
  O       5.571933      3.427708      0.658523
  O       4.834936      0.924722     -0.911571
  S       6.157633      3.321688     -0.690589
  O       5.304798      3.749406     -1.810482
17
Coordinates from ORCA-job orca_irc_IRC_Full E -948.204905067684
  C       0.220891     -0.012662     -0.506289
  C       1.247721      0.918879     -0.445343
  C       0.212816     -1.096731      0.370248
  C       2.217600      0.752356      0.530786
  C       2.315797     -0.393125      1.304997
  C       1.283593     -1.317213      1.235164
  H       1.324611      1.753250     -1.138771
  C       4.084195      1.354515     -0.134615
  H      -0.579618      0.128307     -1.225037
  H      -0.635017     -1.770388      0.383357
  H       3.195819     -0.541903      1.926411
  H       1.312797     -2.192401      1.875745
  N       3.260533      1.771902      0.665358
  O       5.576679      3.430728      0.657998
  O       4.842186      0.924238     -0.913269
  S       6.162583      3.329858     -0.691395
  O       5.306162      3.751199     -1.810952
