!DLPNO-CCSD(T) Extrapolate(3/4,cc) cc-pVQZ/C TightPNO TightSCF 
!CPCM(Benzene)
%geom maxiter 300 end
%maxcore 4000 
%pal nprocs 36
end

*xyz 0 1
6       -0.082897000      0.073002000     -0.201853000
6        0.702655000      1.208004000     -0.341687000
6        0.445030000     -1.081970000      0.372639000
6        2.035124000      1.179700000      0.100048000
6        2.571294000      0.017761000      0.680200000
6        1.767905000     -1.105622000      0.811034000
1        0.300949000      2.111998000     -0.787627000
6        2.858672000      2.323375000     -0.031045000
1       -1.113480000      0.090497000     -0.543107000
1       -0.176600000     -1.966006000      0.478855000
1        3.602738000      0.018484000      1.017000000
1        2.178214000     -2.005669000      1.258743000
7        3.532848000      3.257789000     -0.153272000
8        4.315042000      4.196131000     -0.225031000
8        5.459927000      1.941996000      1.513870000
34       6.390795000      3.151928000      0.936227000
8        7.220383000      2.705102000     -0.387594000

*
