16
Coordinates from ORCA-job mol
  C   1.82538553762244     -0.58718925395802      0.31162493601401
  C   2.91484583762975      0.22705084083669      0.01901616583166
  C   2.02206294225782     -1.93490559385716      0.56474474603188
  C   4.22460575184304     -0.27895257670303      0.00517612831218
  C   4.40347400073844     -1.63901970845269      0.28908151775262
  C   3.31583314052033     -2.45600970861344      0.55357402618535
  N   2.63896484550535      1.63731364539208     -0.28015792060442
  C   6.49963380487818      0.44270024228916     -0.33297368419611
  H   0.83342558377834     -0.14978072180669      0.31998466294438
  H   1.17184721232815     -2.57570997293046      0.77287604038491
  H   5.41279896559373     -2.03992622182574      0.30323316707934
  H   3.48130200142490     -3.50919278370966      0.75958812954095
  N   5.30325397098726      0.55584183585253     -0.21833753758205
  O   7.66092303164814      0.47999957040937     -0.46872771326293
  O   3.34790733073861      2.20309082834415     -1.10211206803330
  O   1.69133852650545      2.15532123773290      0.30249000660152
