17
Coordinates from ORCA-job orca
  C   0.00181880567746      0.14781992283140      0.34865194966975
  C   0.92944797911176      1.10341066535642     -0.03327163804597
  C   0.41551438160775     -1.15341481201446      0.61569185777411
  C   2.27121013076219      0.73604119847122     -0.15898362086747
  C   2.69252704346764     -0.56761651668116      0.11468986571099
  C   1.75604022801099     -1.51101503236378      0.50212342085731
  H   0.62913238465715      2.12391980742085     -0.23909072703151
  C   3.23714889665785      1.71429700471354     -0.55381366695891
  H   -1.04330754041777      0.41812799281011      0.44354345810974
  H   -0.31391669545129     -1.89643920551289      0.91903120184317
  H   3.74240861617816     -0.82137719704511      0.02787819430167
  H   2.06943229118480     -2.52591797277932      0.71670355168855
  N   3.80424296840072      2.41615365283432     -1.32618720474879
  O   4.76477345391548      3.25950099866697     -1.25269638614523
  O   4.29464280344584      2.35411441593979      1.08662884155277
  S   5.54153448824408      2.97651522922786      0.58147956876574
  O   6.58174876454714      2.02288084812421      0.27831933352408
