17
 restart for step    4999 ; t =         4999.00 
     C    -4.3099116859   -2.3037437443    0.7121990571   12.0000000000   -0.0075195826   -0.0063092199    0.0014320077
     C    -3.4738456778   -1.1679892189    0.6255766247   12.0000000000   -0.0150117809    0.0019071676    0.0115818164
     C    -3.8283534291   -3.5927126828    0.4991584493   12.0000000000    0.0047155859    0.0092567811   -0.0070145302
     C    -2.1137417616   -1.2802986170    0.3895921710   12.0000000000    0.0034745962    0.0031696650   -0.0020470306
     C    -1.5917549400   -2.5785588408    0.1986922365   12.0000000000    0.0044869519   -0.0057464660    0.0142696508
     C    -2.4015867379   -3.7025430165    0.2800422425   12.0000000000    0.0040060812    0.0009457560   -0.0022451757
     H    -3.7922784575   -0.1647414032    0.8564166474    1.0078250322   -0.0234438592    0.0004065411   -0.0034225461
     C    -0.0011613454    0.1447529570    0.5466063153   12.0000000000    0.0051731965    0.0059056878    0.0008909101
     H    -5.3740649256   -2.1519778549    0.8206993582    1.0078250322   -0.0069331476   -0.0139400511   -0.0257773102
     H    -4.4068130331   -4.5233599998    0.3720815551    1.0078250322    0.0177555344    0.0104249107   -0.0158383941
     H    -0.5167526057   -2.7177405664    0.0984233345    1.0078250322   -0.0030286674   -0.0165089604    0.0145748641
     H    -1.9831701659   -4.6622416641    0.1131679446    1.0078250322   -0.0024947941    0.0025228782   -0.0172371098
     N    -1.1815672493   -0.2500612495    0.6540660367   14.0030740040    0.0101156644    0.0058444243   -0.0089854073
     O     4.3122581221    2.2396804678    0.1125070999   15.9949146200   -0.0032071056   -0.0011116706    0.0011921249
     O     1.0746626169    0.5976373810    0.5470631221   15.9949146200    0.0026935327   -0.0055796118   -0.0059087008
     S     3.1645040503    2.6570310413   -0.9390120304   31.9720711740   -0.0023686687   -0.0016266419    0.0007408015
     O     3.6292538900    3.8307572889   -1.9373301147   15.9949146200   -0.0019580134   -0.0009459456    0.0014530597
