17
Coordinates from ORCA-job orca
  C   0.31046880286400      0.17201739583065     -0.36911047332544
  C   1.61736762171677      0.46080987095279     -0.72491266302816
  C   0.03896440224397     -0.58884622018208      0.76701130387156
  C   2.66875665349271     -0.00576129191427      0.07110506571104
  C   2.40563748139684     -0.75437559777138      1.21519409923160
  C   1.08878450336132     -1.05084415590126      1.55449232848239
  H   1.84797565421220      1.06464857234047     -1.59947013955739
  C   4.60606371145473      0.83952805683708     -1.11574088352599
  H   -0.50281630385321      0.54335074470353     -0.98554780594758
  H   -0.98618704639999     -0.82548097894522      1.03749212988639
  H   3.22940059729904     -1.11358444087341      1.82366219687008
  H   0.88545201055510     -1.64188699192465      2.44234820025678
  N   4.00423743531975      0.26753426331904     -0.23860136669232
  S   4.95671214541419      3.07097022075424      1.28451079816265
  O   5.32660123057483      1.37597553078189     -1.87158460740306
  S   5.47241858496965      4.13322933280030     -0.23887768444477
  O   4.37788051537800      4.83279468919224     -0.97500649854778
