17
Coordinates from ORCA-job orca
  C   -2.48734730999763     -0.90340653582395     -0.48201855466686
  C   -1.72649508379866      0.24108425980453     -0.65677510735666
  C   -1.94080730975447     -2.02268831786036      0.14363861219192
  C   -0.39628919961548      0.26237207935354     -0.19671969149676
  C   0.15746647133671     -0.86572886628324      0.43561879936246
  C   -0.62402229449331     -1.99881688852586      0.59853466647796
  H   -2.14206582484196      1.11744571429477     -1.14317840159362
  C   0.38713668173440      1.41738097199232     -0.37283424520735
  H   -3.51348012591060     -0.92262501947606     -0.83585769147235
  H   -2.54402635443965     -2.91562817324795      0.27660269666678
  H   1.18256918657021     -0.82303065889027      0.78621839381333
  H   -0.20070442621695     -2.87152693990619      1.08611088591511
  N   0.96506558363753      2.41192708053041     -0.56799421178073
  O   2.70545861646344      1.06615791398438      1.24891085278633
  S   3.78114609340613      1.94041461376873      0.70544841375242
  O   4.56215497558814      1.36901640744845     -0.41128681183931
  S   1.94110432033215      3.68803435883674     -0.70209760555266
