3
Coordinates from ORCA-job orca
  S   4.56203132591034      3.66862397715135      0.57979926770481
  S   4.89682569937481      3.24239686477262     -1.26799856605424
  O   3.71780883171484      3.20454784207603     -2.18101481165057
