17
Coordinates from ORCA-job orca
  C   -2.39418617734355     -0.79411040310159     -0.43178496466796
  C   -1.56040145443141      0.30356969359312     -0.56645156706319
  C   -1.91703522838545     -1.97472863943610      0.13566526185352
  C   -0.22448097979167      0.21445782476888     -0.12932327849648
  C   0.25695960440919     -0.97244521107558      0.44298022961677
  C   -0.59635185676935     -2.05817241047784      0.56970641530182
  H   -1.92175091967010      1.22791030124505     -1.00526686034695
  C   0.61453784140606      1.34263113878415     -0.29173531933206
  H   -3.42401412224142     -0.72761160209199     -0.76910876023750
  H   -2.57760918281993     -2.83015055270918      0.23980136354436
  H   1.28611749081295     -1.01549945601321      0.77761970022346
  H   -0.22607957114529     -2.97795242721575      1.01168138841592
  N   0.90392128299091      2.40474244716785     -0.73946158014952
  O   2.27566994328638      1.15680908432974      1.09798192830691
  S   3.47644501979933      1.99338698010305      0.69250666489210
  O   4.34675633880232      1.35018389743093     -0.31827851201248
  S   1.96324297109103      3.62922833469849     -0.76747910984872
