17
Coordinates from ORCA-job mol
  C   0.08902813603294      0.11100721907760     -0.09750186147796
  C   1.07975841596579      1.06860435760551     -0.23312175530106
  C   0.41355777388419     -1.12695737518853      0.45330427484962
  C   2.39153589921639      0.78900549500428      0.17397210453929
  C   2.69696215569682     -0.45988263703865      0.72434347361521
  C   1.70661459023874     -1.42273136718995      0.86681195133579
  H   0.83831625195857      2.03835576073658     -0.65551840404161
  C   3.43098394705441      1.80070840794146      0.02795540338606
  H   -0.92745575294088      0.32137665808437     -0.41180140641775
  Cl  -0.83950965574398     -2.33607326440964      0.62998368676638
  H   3.70979072912806     -0.68542898709398      1.03948159272097
  H   1.93889577003692     -2.39272957026818      1.29254149632434
  N   3.27613758897717      2.91821590026860     -0.58796278405603
  O   4.46692392716677      3.66173963565330     -0.50468168570563
  O   4.65152679757440      1.54004338469691      0.59202589128427
  S   5.80420013709414      2.68057210194060      0.00110775377557
  O   6.42860328865951      2.08820428017971     -1.18690973159748
