!DLPNO-CCSD(T) Extrapolate(3/4,cc) cc-pVQZ/C TightPNO TightSCF 
!CPCM(THF)
%geom maxiter 300 end
%maxcore 4000 
%pal nprocs 36
end

*xyz 0 1
6       -4.512036000     -0.807218000     -0.685605000
6       -3.591471000      0.194845000     -0.958346000
6       -4.128081000     -1.918847000      0.059582000
6       -2.299173000      0.075694000     -0.456287000
6       -1.896798000     -1.043618000      0.267010000
6       -2.824671000     -2.040046000      0.534178000
1       -3.868305000      1.063408000     -1.545245000
6       -1.326771000      1.279844000     -0.569902000
1       -5.525921000     -0.725992000     -1.060469000
1       -4.848840000     -2.703192000      0.263847000
1       -0.873392000     -1.122712000      0.616676000
1       -2.529821000     -2.914289000      1.103358000
7       -0.809236000      0.874619000     -1.662302000
8        0.464325000      2.300921000     -1.958247000
8       -1.215319000      2.210707000      0.230112000
16       0.900514000      3.123260000     -0.791426000
7        1.930890000      2.578321000      0.138005000
6        2.568890000      1.338987000      0.307558000
6        2.285814000      0.206821000     -0.462111000
6        2.970119000     -0.973727000     -0.209475000
6        3.932943000     -1.032857000      0.792797000
6        4.214877000      0.096983000      1.555222000
6        3.532776000      1.279397000      1.317001000
1        1.539155000      0.246811000     -1.241860000
1        2.748581000     -1.853514000     -0.803477000
1        4.463738000     -1.959821000      0.980155000
1        4.964266000      0.055218000      2.337646000
1        3.732946000      2.169996000      1.901605000

*
