17
Coordinates from ORCA-job mol_NEB-HEI_converged
  C   -2.45181798325205     -0.80659149507981     -0.44295832851930
  C   -1.61363346290488      0.30230830158425     -0.55495631456769
  C   -1.97618204881208     -1.99950778894604      0.11765403015568
  C   -0.27863677904114      0.21118493779250     -0.10138199421195
  C   0.20076572243043     -0.98740744107510      0.46225379679907
  C   -0.65380069512069     -2.08441233869976      0.56893371472770
  H   -1.97864855577388      1.22730606005802     -0.98692108174739
  C   0.60100902047251      1.33078576944272     -0.20896331390620
  H   -3.47679065254824     -0.74116838326567     -0.79139353810070
  H   -2.63388096043166     -2.85807858467890      0.20208592846282
  H   1.22620401569486     -1.02643294705309      0.80445746533320
  H   -0.28500558762534     -3.00636365027994      1.00428762493566
  N   0.94135303441463      2.42595157915060     -0.54448297159210
  O   1.82929010084336      3.34866603621187     -0.52729261468916
  O   2.41931868906368      0.92258262053998      0.92495142776089
  S   3.56347823703408      2.08437918320699      0.63152248187452
  O   4.56697790555642      1.65679814109139     -0.55779631271504
