!DLPNO-CCSD(T) Extrapolate(3/4,cc) cc-pVQZ/C TightPNO TightSCF 
!CPCM(THF)
%geom maxiter 300 end
%maxcore 4000 
%pal nprocs 36
end

*xyz 0 1
6       -2.179893000     -0.739704000     -1.241978000
6       -1.779468000      0.440305000     -0.631905000
6       -2.369965000     -1.894788000     -0.485713000
6       -1.564179000      0.463892000      0.755652000
6       -1.756731000     -0.700172000      1.519106000
6       -2.158905000     -1.870599000      0.892289000
1       -1.622995000      1.342213000     -1.214678000
6       -1.135837000      1.658916000      1.383655000
1       -2.339717000     -0.758734000     -2.316063000
1       -2.681767000     -2.815322000     -0.970555000
1       -1.583621000     -0.673359000      2.590193000
1       -2.306090000     -2.770314000      1.482487000
7       -0.780717000      2.639905000      1.895024000
8       -0.389768000      3.659170000      2.427649000
8        2.286395000      1.452296000      2.995075000
16       2.522558000      2.501717000      1.942247000
7        2.331305000      2.143425000      0.440583000
6        1.977806000      0.955355000     -0.185524000
6        1.850480000      1.024678000     -1.586340000
6        1.522274000     -0.107576000     -2.313802000
6        1.318784000     -1.322658000     -1.659870000
6        1.442192000     -1.398003000     -0.272914000
6        1.765365000     -0.273912000      0.471933000
1        2.018070000      1.978602000     -2.077363000
1        1.424642000     -0.045877000     -3.393772000
1        1.059461000     -2.210137000     -2.229885000
1        1.276315000     -2.343589000      0.235139000
1        1.854007000     -0.335730000      1.549330000

*
