21
Coordinates from ORCA-job mol E -1062.656762170931
  C      -0.071795     -0.083666     -0.137775
  C       0.659859      1.089636     -0.307792
  C       0.533000     -1.197033      0.441310
  C       2.009971      1.133140      0.109844
  C       2.599393      0.002216      0.690731
  C       1.860627     -1.160155      0.855296
  O       0.185484      2.233223     -0.854248
  C       2.758107      2.317373     -0.058560
  H      -1.107416     -0.140057     -0.451214
  H      -0.049698     -2.104652      0.567707
  H       3.635785      0.064587      1.005666
  H       2.320654     -2.033224      1.305603
  N       3.414206      3.265934     -0.187820
  O       4.150646      4.228604     -0.286112
  O       5.452939      2.045344      1.436108
  S       6.309887      3.107542      0.864986
  O       7.081498      2.755030     -0.338375
  C      -1.173237      2.251766     -1.292827
  H      -1.340234      3.254142     -1.688419
  H      -1.860633      2.067563     -0.457518
  H      -1.343123      1.511788     -2.085211
21
Coordinates from ORCA-job mol E -1062.656820175544
  C      -0.076535     -0.082866     -0.133970
  C       0.663341      1.084821     -0.308948
  C       0.521991     -1.198719      0.447349
  C       2.014920      1.119458      0.106602
  C       2.598460     -0.014414      0.689253
  C       1.851621     -1.170891      0.858659
  O       0.196002      2.229163     -0.858095
  C       2.770066      2.298637     -0.067635
  H      -1.113180     -0.132711     -0.445434
  H      -0.067062     -2.101803      0.577486
  H       3.636329      0.039755      1.000847
  H       2.306456     -2.046300      1.310188
  N       3.411352      3.258213     -0.185514
  O       4.135680      4.234037     -0.272749
  O       5.469776      2.049207      1.422955
  S       6.309047      3.132762      0.865860
  O       7.084680      2.802169     -0.342292
  C      -1.166081      2.256207     -1.295646
  H      -1.326885      3.258485     -1.693979
  H      -1.852479      2.078916     -0.458705
  H      -1.341579      1.514971     -2.084851
21
Coordinates from ORCA-job mol E -1062.656552426727
  C      -0.072617     -0.086835     -0.148193
  C       0.664505      1.088032     -0.291476
  C       0.525116     -1.210165      0.420572
  C       2.011377      1.118986      0.144813
  C       2.595407     -0.023833      0.713853
  C       1.851565     -1.186281      0.851473
  O       0.199149      2.237320     -0.825209
  C       2.757821      2.308768      0.004613
  H      -1.104760     -0.135308     -0.475144
  H      -0.061660     -2.118320      0.525469
  H       3.629722      0.023877      1.038262
  H       2.304518     -2.068802      1.292167
  N       3.405699      3.247686     -0.199093
  O       4.152295      4.201770     -0.386892
  O       5.468086      2.159894      1.487503
  S       6.310168      3.183026      0.829198
  O       7.064267      2.718170     -0.352360
  C      -1.166033      2.266939     -1.284553
  H      -1.326013      3.275627     -1.666097
  H      -1.859305      2.069468     -0.460041
  H      -1.323387      1.539083     -2.087483
21
Coordinates from ORCA-job mol E -1062.656871317591
  C      -0.078631     -0.084603     -0.136732
  C       0.666152      1.081939     -0.303019
  C       0.514317     -1.205169      0.440880
  C       2.016574      1.108409      0.118418
  C       2.594835     -0.030655      0.696994
  C       1.843255     -1.185164      0.857514
  O       0.205639      2.229598     -0.847613
  C       2.774316      2.287153     -0.047760
  H      -1.114180     -0.129084     -0.452464
  H      -0.078503     -2.106820      0.564172
  H       3.631975      0.015651      1.012181
  H       2.293084     -2.064767      1.305853
  N       3.409411      3.246463     -0.195164
  O       4.131430      4.224209     -0.310385
  O       5.477817      2.096496      1.440655
  S       6.305335      3.173026      0.853104
  O       7.079569      2.809196     -0.348169
  C      -1.157951      2.263809     -1.291354
  H      -1.312153      3.268743     -1.684850
  H      -1.845869      2.084260     -0.456811
  H      -1.330503      1.526412     -2.084071
21
Coordinates from ORCA-job mol E -1062.656880168468
  C      -0.079836     -0.084776     -0.135693
  C       0.667349      1.080032     -0.303884
  C       0.510921     -1.206064      0.442487
  C       2.018264      1.103491      0.116138
  C       2.594054     -0.036011      0.695650
  C       1.840000     -1.188634      0.858070
  O       0.209224      2.228413     -0.848953
  C       2.778330      2.280332     -0.051162
  H      -1.115788     -0.127208     -0.450365
  H      -0.083847     -2.106212      0.567304
  H       3.631373      0.008401      1.010699
  H       2.287972     -2.068728      1.307219
  N       3.409074      3.242898     -0.196435
  O       4.127404      4.223070     -0.308359
  O       5.480614      2.099250      1.438238
  S       6.302273      3.181731      0.853336
  O       7.079544      2.826000     -0.348367
  C      -1.154393      2.265686     -1.291078
  H      -1.305728      3.270750     -1.685342
  H      -1.841557      2.088908     -0.455231
  H      -1.329325      1.527769     -2.082892
21
Coordinates from ORCA-job mol E -1062.656892319951
  C      -0.082271     -0.085380     -0.134548
  C       0.669644      1.076398     -0.303474
  C       0.503719     -1.209118      0.443369
  C       2.021128      1.093321      0.115500
  C       2.591679     -0.048161      0.695268
  C       1.832768     -1.197535      0.858341
  O       0.216653      2.226812     -0.848166
  C       2.785877      2.266799     -0.051766
  H      -1.118630     -0.123306     -0.448537
  H      -0.094874     -2.106660      0.568594
  H       3.629125     -0.008330      1.010744
  H       2.276765     -2.079531      1.307597
  N       3.408655      3.233951     -0.201913
  O       4.121763      4.216939     -0.315442
  O       5.487189      2.115942      1.440358
  S       6.296218      3.205420      0.850587
  O       7.078481      2.854748     -0.349428
  C      -1.146873      2.270403     -1.289251
  H      -1.292515      3.276291     -1.683515
  H      -1.833600      2.097284     -0.452206
  H      -1.324981      1.532812     -2.080733
21
Coordinates from ORCA-job mol E -1062.656899626269
  C      -0.084436     -0.085943     -0.134041
  C       0.671205      1.073553     -0.302024
  C       0.497671     -1.212185      0.442895
  C       2.022931      1.085247      0.116917
  C       2.589364     -0.058508      0.695830
  C       1.826654     -1.205552      0.857965
  O       0.222271      2.225864     -0.845705
  C       2.791478      2.256240     -0.049680
  H      -1.120929     -0.120057     -0.448074
  H      -0.103951     -2.107826      0.567224
  H       3.626881     -0.022690      1.011606
  H       2.267490     -2.089493      1.306472
  N       3.408507      3.225855     -0.208153
  O       4.119086      4.209897     -0.327160
  O       5.494309      2.135284      1.446669
  S       6.292494      3.227716      0.847377
  O       7.078256      2.874951     -0.349807
  C      -1.141117      2.274452     -1.287105
  H      -1.282766      3.281189     -1.680621
  H      -1.828309      2.103169     -0.450085
  H      -1.321168      1.537937     -2.079121
21
Coordinates from ORCA-job mol E -1062.656904621455
  C      -0.086444     -0.086386     -0.133723
  C       0.671840      1.071451     -0.300464
  C       0.493016     -1.214725      0.441968
  C       2.023726      1.079552      0.118420
  C       2.587436     -0.066241      0.696009
  C       1.822078     -1.211723      0.856992
  O       0.225549      2.225280     -0.843017
  C       2.795075      2.248783     -0.047915
  H      -1.123019     -0.117655     -0.447801
  H      -0.110751     -2.109066      0.565236
  H       3.625125     -0.033383      1.011542
  H       2.260850     -2.097238      1.304424
  N       3.408968      3.219047     -0.214781
  O       4.119195      4.202812     -0.339950
  O       5.501774      2.153296      1.455542
  S       6.291353      3.246223      0.845650
  O       7.079951      2.888085     -0.348058
  C      -1.137665      2.277352     -1.284919
  H      -1.277161      3.284691     -1.677676
  H      -1.825718      2.106933     -0.448463
  H      -1.319257      1.542013     -2.077637
21
Coordinates from ORCA-job mol E -1062.656907798768
  C      -0.087707     -0.086494     -0.133372
  C       0.671326      1.070737     -0.300010
  C       0.491343     -1.215545      0.441561
  C       2.023450      1.078027      0.118092
  C       2.586790     -0.068554      0.694799
  C       1.820740     -1.213564      0.855799
  O       0.225328      2.225046     -0.842019
  C       2.795670      2.246664     -0.048906
  H      -1.124463     -0.116890     -0.446926
  H      -0.113014     -2.109490      0.564777
  H       3.624774     -0.036459      1.009440
  H       2.259285     -2.099536      1.302584
  N       3.410222      3.215911     -0.219263
  O       4.121898      4.198534     -0.347333
  O       5.506631      2.161580      1.462804
  S       6.292791      3.253733      0.847173
  O       7.083183      2.891341     -0.343974
  C      -1.137862      2.277952     -1.283619
  H      -1.277561      3.285312     -1.676307
  H      -1.826331      2.107768     -0.447457
  H      -1.320572      1.543025     -2.076462
21
Coordinates from ORCA-job mol E -1062.656910857312
  C      -0.089362     -0.086451     -0.132501
  C       0.670191      1.070144     -0.300423
  C       0.489983     -1.215738      0.441864
  C       2.022859      1.077160      0.115625
  C       2.586555     -0.069796      0.691693
  C       1.820096     -1.214283      0.854106
  O       0.223802      2.224585     -0.842206
  C       2.795563      2.245273     -0.053112
  H      -1.126572     -0.116327     -0.444556
  H      -0.114725     -2.109286      0.566177
  H       3.625079     -0.038021      1.004563
  H       2.258993     -2.100313      1.300473
  N       3.412755      3.212639     -0.224365
  O       4.126379      4.193983     -0.353546
  O       5.512349      2.167626      1.471191
  S       6.295352      3.259696      0.851635
  O       7.088423      2.894334     -0.336722
  C      -1.139604      2.277836     -1.282360
  H      -1.280106      3.284886     -1.675632
  H      -1.827916      2.108411     -0.445885
  H      -1.324174      1.542740     -2.074642
21
Coordinates from ORCA-job mol E -1062.656912934130
  C      -0.090806     -0.086358     -0.131505
  C       0.669060      1.069740     -0.301429
  C       0.489097     -1.215476      0.442628
  C       2.022357      1.076641      0.112238
  C       2.586622     -0.070241      0.688152
  C       1.819939     -1.214229      0.852604
  O       0.222140      2.224059     -0.843263
  C       2.795192      2.244371     -0.058404
  H      -1.128550     -0.116007     -0.441761
  H      -0.115772     -2.108682      0.568591
  H       3.625673     -0.038585      0.999278
  H       2.259326     -2.100071      1.298881
  N       3.415736      3.209765     -0.228313
  O       4.130667      4.190277     -0.357149
  O       5.516518      2.170681      1.477621
  S       6.297236      3.263449      0.856682
  O       7.093046      2.897321     -0.329581
  C      -1.141676      2.277457     -1.281462
  H      -1.282683      3.284133     -1.675551
  H      -1.829177      2.109094     -0.444070
  H      -1.328025      1.541761     -2.072804
21
Coordinates from ORCA-job mol E -1062.656914615393
  C      -0.092066     -0.086260     -0.130518
  C       0.667935      1.069494     -0.302742
  C       0.488516     -1.214989      0.443544
  C       2.021898      1.076285      0.108477
  C       2.586826     -0.070245      0.684488
  C       1.820048     -1.213797      0.851217
  O       0.220468      2.223543     -0.844720
  C       2.794641      2.243748     -0.064078
  H      -1.130372     -0.115853     -0.438873
  H      -0.116371     -2.107921      0.571370
  H       3.626362     -0.038671      0.994014
  H       2.259942     -2.099350      1.297559
  N       3.419247      3.206880     -0.231535
  O       4.135081      4.186750     -0.359644
  O       5.519342      2.172467      1.482970
  S       6.298414      3.266163      0.861827
  O       7.097001      2.900225     -0.322680
  C      -1.143965      2.277007     -1.280728
  H      -1.285104      3.283352     -1.675608
  H      -1.830112      2.109766     -0.441979
  H      -1.331813      1.540504     -2.070984
21
Coordinates from ORCA-job mol E -1062.656915301836
  C      -0.092472     -0.086234     -0.130168
  C       0.667463      1.069494     -0.303422
  C       0.488422     -1.214713      0.443925
  C       2.021718      1.076175      0.106844
  C       2.586944     -0.070064      0.682985
  C       1.820193     -1.213498      0.850703
  O       0.219817      2.223353     -0.845466
  C       2.794313      2.243609     -0.066489
  H      -1.131013     -0.115886     -0.437738
  H      -0.116388     -2.107586      0.572559
  H       3.626641     -0.038575      0.991995
  H       2.260254     -2.098916      1.297130
  N       3.421204      3.205477     -0.232486
  O       4.137227      4.185115     -0.360429
  O       5.519551      2.172980      1.484692
  S       6.298395      3.267022      0.863879
  O       7.098160      2.901422     -0.320013
  C      -1.145071      2.276840     -1.280467
  H      -1.285941      3.283132     -1.675531
  H      -1.830248      2.110005     -0.440861
  H      -1.333252      1.539948     -2.070263
21
Coordinates from ORCA-job mol E -1062.656915507551
  C      -0.092423     -0.086265     -0.130234
  C       0.667452      1.069527     -0.303491
  C       0.488434     -1.214731      0.443877
  C       2.021722      1.076085      0.106862
  C       2.586914     -0.070085      0.683022
  C       1.820167     -1.213553      0.850727
  O       0.219912      2.223356     -0.845511
  C       2.794300      2.243548     -0.066480
  H      -1.130961     -0.115928     -0.437838
  H      -0.116349     -2.107627      0.572487
  H       3.626583     -0.038708      0.992146
  H       2.260139     -2.099003      1.297166
  N       3.421686      3.205108     -0.232374
  O       4.137627      4.184719     -0.360644
  O       5.518875      2.173392      1.484544
  S       6.298036      3.267298      0.863783
  O       7.097875      2.901658     -0.320076
  C      -1.145170      2.276924     -1.280427
  H      -1.285746      3.283317     -1.675304
  H      -1.830008      2.110013     -0.440588
  H      -1.333144      1.540055     -2.070268
