19
C7N2H4SO5
C        0.021905000     -0.095590000     -0.096478000
C        0.707403000      1.095729000     -0.288140000
C        0.677548000     -1.174812000      0.477468000
C        2.055536000      1.239118000      0.085585000
C        2.701055000      0.131390000      0.666605000
C        2.014396000     -1.056634000      0.856192000
N       -0.012221000      2.223217000     -0.899457000
C        2.793334000      2.428623000     -0.088695000
H       -1.016005000     -0.155856000     -0.401253000
H        0.145086000     -2.107948000      0.629100000
H        3.739431000      0.236068000      0.961589000
H        2.529583000     -1.899851000      1.305782000
N        3.606194000      3.258196000     -0.132314000
O        4.436812000      4.135735000     -0.181236000
O        5.506255000      1.847463000      1.562461000
S        6.483895000      2.815106000      1.017114000
O        7.232422000      2.391702000     -0.176408000
O       -1.183719000      2.050208000     -1.206113000
O        0.609581000      3.267736000     -1.063043000
