21
Coordinates from ORCA-job mol
  C   -1.53652154226602     -0.28357107262160     -0.31515259177316
  C   -0.72146738698532      0.83635939389604     -0.47623345804571
  C   -0.98736703513465     -1.48123934475796      0.13353457067189
  C   0.66338322966443      0.72868497050446     -0.19711273172549
  C   1.19236244837183     -0.48638116916178      0.25653587274085
  C   0.37000665815945     -1.58864499211937      0.42318320366943
  O   -1.14309790364957      2.04608842860787     -0.89926069448366
  C   1.50478193837479      1.85723912247847     -0.33659264013023
  H   -2.59737992596111     -0.22833615258514     -0.52804229794720
  H   -1.63771586026024     -2.34195818165538      0.25880145331612
  H   2.25170723144820     -0.53182095937415      0.48438803746433
  H   0.78435215559684     -2.52630470434059      0.77731807415630
  N   1.82854499931747      2.84635355628665     -0.94622481324355
  O   2.63937672975260      3.79252554040296     -0.82156374985123
  O   2.77222311216027      2.03963211224656      1.22840644954421
  S   3.90144038043741      3.00760917662186      0.88658376783487
  O   5.03099491479003      2.38452907423105      0.16857145423645
  C   -2.53334136732684      2.21316340370876     -1.18376851969666
  H   -2.64552393950005      3.25431006296821     -1.48747549187753
  H   -3.14428959655735      2.02215772146358     -0.29271044821732
  H   -2.85036924043216      1.55571401319944     -2.00286544664269
