21
Coordinates from ORCA-job mol E -1062.644525049863
  C      -1.536522     -0.283571     -0.315153
  C      -0.721467      0.836359     -0.476233
  C      -0.987367     -1.481239      0.133535
  C       0.663383      0.728685     -0.197113
  C       1.192362     -0.486381      0.256536
  C       0.370007     -1.588645      0.423183
  O      -1.143098      2.046088     -0.899261
  C       1.504782      1.857239     -0.336593
  H      -2.597380     -0.228336     -0.528042
  H      -1.637716     -2.341958      0.258801
  H       2.251707     -0.531821      0.484388
  H       0.784352     -2.526305      0.777318
  N       1.828545      2.846354     -0.946225
  O       2.639377      3.792526     -0.821564
  O       2.772223      2.039632      1.228406
  S       3.901440      3.007609      0.886584
  O       5.030995      2.384529      0.168571
  C      -2.533341      2.213163     -1.183769
  H      -2.645524      3.254310     -1.487475
  H      -3.144290      2.022158     -0.292710
  H      -2.850369      1.555714     -2.002865
21
Coordinates from ORCA-job mol E -1062.642945693572
  C      -1.557525     -0.284396     -0.310827
  C      -0.733481      0.828803     -0.473722
  C      -1.017489     -1.485765      0.139361
  C       0.651037      0.709614     -0.194585
  C       1.171248     -0.509695      0.260096
  C       0.339789     -1.604591      0.428655
  O      -1.145622      2.040713     -0.898097
  C       1.500543      1.830942     -0.338493
  H      -2.617984     -0.220871     -0.523639
  H      -1.674974     -2.340905      0.266164
  H       2.230906     -0.565352      0.484774
  H       0.746622     -2.545516      0.783201
  N       1.838791      2.809003     -0.958311
  O       2.645044      3.762260     -0.837322
  O       2.914215      1.878445      1.080570
  S       3.879375      3.048891      0.921200
  O       5.154883      2.689357      0.267942
  C      -2.536495      2.218831     -1.183682
  H      -2.640483      3.260208     -1.489465
  H      -3.148377      2.034076     -0.292433
  H      -2.857925      1.562055     -2.001067
21
Coordinates from ORCA-job mol E -1062.641862760555
  C      -1.594850     -0.284008     -0.272059
  C      -0.727384      0.789201     -0.476086
  C      -1.091769     -1.508632      0.155813
  C       0.663938      0.600193     -0.269537
  C       1.149631     -0.649462      0.149195
  C       0.272922     -1.697571      0.370696
  O      -1.099048      2.015242     -0.889382
  C       1.543068      1.686359     -0.469315
  H      -2.659511     -0.170243     -0.436770
  H      -1.784220     -2.328651      0.323147
  H       2.217254     -0.772708      0.283889
  H       0.650096     -2.659811      0.699754
  N       1.917587      2.614130     -1.131236
  O       2.690354      3.598815     -1.044655
  O       3.008383      2.110123      1.366991
  S       3.793627      3.364622      0.973680
  O       5.191176      3.148835      0.532273
  C      -2.493776      2.254793     -1.133888
  H      -2.556279      3.292257     -1.461908
  H      -3.079304      2.119036     -0.217499
  H      -2.869798      1.593588     -1.922783
21
Coordinates from ORCA-job mol E -1062.644577348159
  C      -1.560126     -0.280855     -0.286796
  C      -0.718868      0.814807     -0.479193
  C      -1.030780     -1.491633      0.150368
  C       0.671978      0.666320     -0.245371
  C       1.182333     -0.564505      0.192071
  C       0.333271     -1.639688      0.393862
  O      -1.118588      2.032471     -0.896268
  C       1.535963      1.770018     -0.424437
  H      -2.625128     -0.196099     -0.466996
  H      -1.702013     -2.331810      0.302978
  H       2.248905     -0.647149      0.370045
  H       0.731553     -2.589005      0.735621
  N       1.890852      2.722452     -1.071682
  O       2.689507      3.686153     -0.979024
  O       2.789477      2.120410      1.268670
  S       3.818997      3.197471      0.942501
  O       5.099360      2.680135      0.414042
  C      -2.514648      2.237145     -1.146221
  H      -2.604956      3.277306     -1.460008
  H      -3.104469      2.073583     -0.236554
  H      -2.870521      1.578585     -1.947288
21
Coordinates from ORCA-job mol E -1062.644357655824
  C      -1.528683     -0.280264     -0.315442
  C      -0.717672      0.842028     -0.482176
  C      -0.974198     -1.474076      0.137971
  C       0.667254      0.739343     -0.201699
  C       1.201826     -0.470863      0.259736
  C       0.384037     -1.575856      0.430446
  O      -1.144210      2.048029     -0.909283
  C       1.507502      1.868630     -0.341042
  H      -2.590069     -0.229545     -0.527056
  H      -1.621287     -2.337112      0.265072
  H       2.260064     -0.509437      0.495695
  H       0.801526     -2.510128      0.790306
  N       1.829273      2.857191     -0.951887
  O       2.655150      3.792304     -0.822965
  O       2.729700      2.073414      1.240308
  S       3.903687      2.974245      0.872762
  O       4.979830      2.267996      0.145848
  C      -2.539798      2.212573     -1.183377
  H      -2.658615      3.255051     -1.479906
  H      -3.143106      2.013720     -0.289509
  H      -2.860112      1.558866     -2.003482
21
Coordinates from ORCA-job mol E -1062.643146325736
  C      -1.502115     -0.288538     -0.370729
  C      -0.721717      0.862602     -0.473543
  C      -0.937038     -1.468488      0.105860
  C       0.639410      0.809263     -0.091527
  C       1.182517     -0.383140      0.402392
  C       0.398415     -1.522523      0.496100
  O      -1.161798      2.059276     -0.917512
  C       1.453255      1.969931     -0.164076
  H      -2.548372     -0.271761     -0.651710
  H      -1.556906     -2.358065      0.170293
  H       2.211962     -0.375887      0.742886
  H       0.824178     -2.444598      0.877073
  N       1.716629      3.005849     -0.733730
  O       2.594698      3.893419     -0.572754
  O       2.871730      1.892597      1.172881
  S       4.043766      2.756229      0.693539
  O       4.870122      2.062444     -0.317536
  C      -2.548523      2.188143     -1.244432
  H      -2.695335      3.239967     -1.491874
  H      -3.182890      1.921053     -0.390517
  H      -2.809888      1.568337     -2.110766
21
Coordinates from ORCA-job mol E -1062.644353061456
  C      -1.523308     -0.286756     -0.337668
  C      -0.715416      0.842152     -0.471275
  C      -0.975420     -1.479493      0.125827
  C       0.658931      0.750792     -0.139703
  C       1.187233     -0.459040      0.332183
  C       0.372815     -1.572235      0.463665
  O      -1.135129      2.045985     -0.911251
  C       1.493001      1.889875     -0.259991
  H      -2.576990     -0.242472     -0.585975
  H      -1.618636     -2.349607      0.220400
  H       2.234539     -0.491018      0.609669
  H       0.786118     -2.506650      0.827865
  N       1.775146      2.901988     -0.862324
  O       2.613923      3.833170     -0.734043
  O       2.791781      2.015259      1.172486
  S       3.953037      2.934797      0.791195
  O       4.967839      2.263655     -0.049740
  C      -2.527346      2.209227     -1.206354
  H      -2.649591      3.261159     -1.465573
  H      -3.145479      1.971411     -0.332542
  H      -2.824949      1.583909     -2.056529
21
Coordinates from ORCA-job mol E -1062.645764527898
  C      -1.499544     -0.283717     -0.352384
  C      -0.698723      0.852186     -0.467322
  C      -0.952980     -1.471366      0.125195
  C       0.667030      0.775052     -0.098315
  C       1.193812     -0.429251      0.388689
  C       0.386722     -1.550443      0.497481
  O      -1.117512      2.050301     -0.924231
  C       1.494407      1.921676     -0.215304
  H      -2.546402     -0.249282     -0.629366
  H      -1.589490     -2.348179      0.201152
  H       2.232597     -0.451510      0.696625
  H       0.800299     -2.481308      0.870384
  N       1.711789      2.967450     -0.791236
  O       2.589094      3.862362     -0.651368
  O       2.737716      1.874909      1.045193
  S       3.906706      2.823503      0.732279
  O       4.904222      2.222180     -0.179702
  C      -2.509993      2.211045     -1.220747
  H      -2.640710      3.270555     -1.442244
  H      -3.130373      1.935963     -0.359674
  H      -2.796566      1.613983     -2.094784
21
Coordinates from ORCA-job mol E -1062.644086409229
  C      -1.529609     -0.280463     -0.327579
  C      -0.708862      0.838182     -0.475654
  C      -0.995501     -1.472406      0.151732
  C       0.667739      0.732700     -0.149734
  C       1.182992     -0.479471      0.328506
  C       0.353712     -1.577946      0.482587
  O      -1.116843      2.038812     -0.931406
  C       1.513342      1.861210     -0.301399
  H      -2.581919     -0.228425     -0.580368
  H      -1.650333     -2.331165      0.267401
  H       2.238500     -0.534346      0.574039
  H       0.757468     -2.513537      0.854558
  N       1.728009      2.897169     -0.893860
  O       2.586643      3.804207     -0.730737
  O       2.855305      1.785894      1.019505
  S       3.862493      2.939290      0.829690
  O       5.062728      2.551231      0.055618
  C      -2.513151      2.220939     -1.205661
  H      -2.621299      3.272838     -1.470629
  H      -3.119079      1.998579     -0.319773
  H      -2.830235      1.592817     -2.046517
21
Coordinates from ORCA-job mol E -1062.642522610992
  C      -1.517146     -0.263313     -0.279357
  C      -0.678750      0.833366     -0.484856
  C      -0.987808     -1.462412      0.187512
  C       0.712741      0.689293     -0.246469
  C       1.224597     -0.533673      0.207608
  C       0.376094     -1.603286      0.437331
  O      -1.083322      2.043113     -0.916223
  C       1.574651      1.793546     -0.434544
  H      -2.580133     -0.187313     -0.474723
  H      -1.659732     -2.296446      0.368254
  H       2.295828     -0.624963      0.355161
  H       0.774539     -2.543384      0.803492
  N       1.840373      2.804152     -1.045954
  O       2.663188      3.744344     -0.884110
  O       2.566363      1.932192      0.998813
  S       3.640403      3.027647      0.932321
  O       4.948338      2.571964      0.411598
  C      -2.484611      2.244581     -1.152151
  H      -2.571401      3.268491     -1.515726
  H      -3.057048      2.130067     -0.224399
  H      -2.855065      1.548145     -1.913259
21
Coordinates from ORCA-job mol E -1062.643450130323
  C      -1.539952     -0.281771     -0.308780
  C      -0.693261      0.814776     -0.480577
  C      -1.027200     -1.485963      0.162502
  C       0.690564      0.665783     -0.211460
  C       1.187727     -0.565441      0.234377
  C       0.329649     -1.633006      0.441792
  O      -1.087835      2.036189     -0.890799
  C       1.560552      1.783079     -0.340743
  H      -2.596862     -0.201465     -0.533256
  H      -1.708002     -2.315025      0.332892
  H       2.257095     -0.670449      0.380350
  H       0.715652     -2.575099      0.816126
  N       1.755560      2.844983     -0.909026
  O       2.592947      3.783439     -0.743545
  O       2.791781      1.935855      1.032232
  S       3.799004      3.098391      0.891011
  O       5.053703      2.720166      0.203229
  C      -2.479237      2.237601     -1.176826
  H      -2.540843      3.229025     -1.625771
  H      -3.074481      2.208303     -0.256609
  H      -2.844462      1.486740     -1.886799
21
Coordinates from ORCA-job mol E -1062.642398780662
  C      -1.534069     -0.268438     -0.278275
  C      -0.703980      0.835495     -0.481639
  C      -0.995340     -1.465191      0.184125
  C       0.688635      0.696166     -0.258804
  C       1.212428     -0.528786      0.173258
  C       0.371450     -1.601472      0.418594
  O      -1.121625      2.055290     -0.873155
  C       1.548283      1.816072     -0.392802
  H      -2.598496     -0.199247     -0.466990
  H      -1.664305     -2.296230      0.388410
  H       2.289057     -0.625022      0.271213
  H       0.776307     -2.536732      0.789962
  N       1.792677      2.855411     -0.965175
  O       2.621257      3.779088     -0.756347
  O       2.741013      1.889389      1.153405
  S       3.763840      3.020444      0.936952
  O       5.019990      2.578972      0.291608
  C      -2.510789      2.230104     -1.185444
  H      -2.569104      3.176520     -1.723226
  H      -3.110146      2.284244     -0.268685
  H      -2.874982      1.420033     -1.826665
21
Coordinates from ORCA-job mol E -1062.643368707574
  C      -1.537927     -0.274803     -0.257540
  C      -0.720462      0.842682     -0.436177
  C      -0.985921     -1.475556      0.178363
  C       0.671543      0.716515     -0.204558
  C       1.209425     -0.511465      0.204280
  C       0.381737     -1.601956      0.413600
  O      -1.147687      2.069050     -0.798461
  C       1.516483      1.850655     -0.296232
  H      -2.603603     -0.213490     -0.440351
  H      -1.645813     -2.319061      0.359921
  H       2.285408     -0.591765      0.316262
  H       0.795912     -2.540278      0.766406
  N       1.764153      2.905417     -0.845664
  O       2.583809      3.843602     -0.626491
  O       2.759419      1.875613      1.056699
  S       3.842824      2.952031      0.898921
  O       5.005885      2.499332      0.104666
  C      -2.507769      2.227313     -1.227901
  H      -2.520764      3.141477     -1.822263
  H      -3.174314      2.334779     -0.363829
  H      -2.830239      1.386017     -1.849329
21
Coordinates from ORCA-job mol E -1062.644659572977
  C      -1.539222     -0.272260     -0.257109
  C      -0.718057      0.842936     -0.429964
  C      -0.990022     -1.478348      0.166719
  C       0.672538      0.716266     -0.188848
  C       1.205201     -0.512795      0.224219
  C       0.376180     -1.606923      0.408823
  O      -1.141501      2.067031     -0.802453
  C       1.520408      1.847789     -0.304652
  H      -2.605605     -0.204885     -0.436206
  H      -1.649368     -2.327361      0.322721
  H       2.276108     -0.585944      0.378982
  H       0.788918     -2.550909      0.748054
  N       1.771828      2.880818     -0.893118
  O       2.597760      3.819017     -0.703462
  O       2.754097      1.943746      1.126541
  S       3.850966      2.992231      0.877229
  O       4.999895      2.463343      0.109363
  C      -2.505308      2.225147     -1.219737
  H      -2.544702      3.188493     -1.729363
  H      -3.175849      2.235777     -0.352474
  H      -2.802163      1.432944     -1.914946
21
Coordinates from ORCA-job mol E -1062.644457432468
  C      -1.542498     -0.269972     -0.277595
  C      -0.710373      0.836506     -0.454030
  C      -1.007082     -1.475843      0.164028
  C       0.679089      0.697761     -0.209780
  C       1.197196     -0.530693      0.221201
  C       0.356086     -1.612741      0.419815
  O      -1.123328      2.055847     -0.849760
  C       1.538674      1.816575     -0.345044
  H      -2.606270     -0.194861     -0.469319
  H      -1.674387     -2.318100      0.322626
  H       2.267029     -0.612738      0.383012
  H       0.758426     -2.556977      0.770681
  N       1.832324      2.812091     -0.976828
  O       2.639585      3.771178     -0.805662
  O       2.737501      1.981196      1.093081
  S       3.811945      3.063247      0.907706
  O       5.039504      2.565999      0.247667
  C      -2.507845      2.224691     -1.184846
  H      -2.584458      3.229385     -1.600634
  H      -3.137457      2.143069     -0.290600
  H      -2.821560      1.490490     -1.935399
21
Coordinates from ORCA-job mol E -1062.644962594819
  C      -1.536423     -0.268829     -0.284351
  C      -0.700376      0.832514     -0.474978
  C      -1.002309     -1.474242      0.160179
  C       0.689894      0.690438     -0.237343
  C       1.204451     -0.534278      0.209176
  C       0.361246     -1.613389      0.413582
  O      -1.109863      2.047752     -0.886204
  C       1.553080      1.801126     -0.402674
  H      -2.601140     -0.189971     -0.468565
  H      -1.669858     -2.316812      0.316060
  H       2.270968     -0.610834      0.393797
  H       0.762338     -2.557935      0.765093
  N       1.894123      2.743350     -1.085605
  O       2.696231      3.706030     -0.938004
  O       2.639914      2.100304      1.174949
  S       3.755520      3.121611      0.911636
  O       4.994906      2.516018      0.375526
  C      -2.507770      2.230876     -1.149251
  H      -2.607991      3.268767     -1.466217
  H      -3.102750      2.060037     -0.244084
  H      -2.842091      1.563578     -1.952401
21
Coordinates from ORCA-job mol E -1062.644848541544
  C      -1.540632     -0.263873     -0.248100
  C      -0.708962      0.840294     -0.440882
  C      -0.996867     -1.475777      0.165510
  C       0.684770      0.697574     -0.225825
  C       1.208880     -0.533030      0.193879
  C       0.371624     -1.618375      0.389427
  O      -1.125806      2.062585     -0.822396
  C       1.544196      1.812278     -0.385607
  H      -2.610062     -0.181923     -0.402611
  H      -1.660939     -2.321310      0.320386
  H       2.277483     -0.608124      0.366116
  H       0.779655     -2.568125      0.718153
  N       1.879468      2.762855     -1.060195
  O       2.681697      3.724678     -0.902774
  O       2.646438      2.099100      1.192884
  S       3.772627      3.103238      0.910065
  O       4.985460      2.478141      0.336806
  C      -2.507121      2.229521     -1.173127
  H      -2.586838      3.243742     -1.565069
  H      -3.148499      2.121132     -0.290635
  H      -2.804473      1.511509     -1.945683
21
Coordinates from ORCA-job mol E -1062.644885028070
  C      -1.537371     -0.269852     -0.269667
  C      -0.701106      0.830174     -0.468358
  C      -0.999581     -1.478063      0.162224
  C       0.691385      0.684061     -0.247131
  C       1.208990     -0.542611      0.191945
  C       0.366985     -1.622047      0.397896
  O      -1.110150      2.048212     -0.871892
  C       1.554360      1.793089     -0.417394
  H      -2.604585     -0.188513     -0.437783
  H      -1.666604     -2.320767      0.319880
  H       2.276236     -0.618525      0.373211
  H       0.769879     -2.569228      0.740086
  N       1.926657      2.710724     -1.116669
  O       2.718107      3.683115     -0.971868
  O       2.598387      2.154971      1.191461
  S       3.732333      3.150363      0.918804
  O       4.972395      2.509215      0.427409
  C      -2.506396      2.238906     -1.142881
  H      -2.599108      3.274941     -1.469053
  H      -3.105347      2.080236     -0.238662
  H      -2.843366      1.567709     -1.941238
21
Coordinates from ORCA-job mol E -1062.644800137044
  C      -1.538307     -0.267281     -0.259160
  C      -0.699106      0.828744     -0.467447
  C      -1.000904     -1.477943      0.165926
  C       0.695324      0.675454     -0.263119
  C       1.212445     -0.554136      0.169309
  C       0.367870     -1.629351      0.385188
  O      -1.106887      2.048835     -0.863928
  C       1.560983      1.780305     -0.439524
  H      -2.607284     -0.180857     -0.413497
  H      -1.670298     -2.317071      0.332513
  H       2.281734     -0.635674      0.336038
  H       0.769657     -2.578698      0.722585
  N       1.955390      2.681231     -1.147163
  O       2.740255      3.659097     -1.003748
  O       2.563563      2.196137      1.208856
  S       3.702893      3.181570      0.930097
  O       4.955073      2.526456      0.490414
  C      -2.503101      2.242751     -1.133462
  H      -2.591906      3.275258     -1.471488
  H      -3.099560      2.097378     -0.225348
  H      -2.845733      1.563906     -1.922721
21
Coordinates from ORCA-job mol E -1062.644771693230
  C      -1.535592     -0.267893     -0.257746
  C      -0.689670      0.819747     -0.483221
  C      -1.002037     -1.480105      0.167253
  C       0.706368      0.655095     -0.297040
  C       1.218702     -0.576108      0.138971
  C       0.368334     -1.642768      0.370902
  O      -1.090906      2.040038     -0.882718
  C       1.576661      1.750605     -0.490481
  H      -2.605517     -0.174796     -0.400604
  H      -1.675970     -2.313269      0.345410
  H       2.289104     -0.665168      0.294823
  H       0.765446     -2.594072      0.708200
  N       2.028100      2.604687     -1.218759
  O       2.801230      3.592840     -1.087243
  O       2.465645      2.306191      1.226735
  S       3.628846      3.254538      0.938302
  O       4.898142      2.558383      0.630066
  C      -2.493402      2.255854     -1.098615
  H      -2.580522      3.296106     -1.412059
  H      -3.059185      2.099038     -0.173024
  H      -2.871676      1.597169     -1.888832
21
Coordinates from ORCA-job mol E -1062.644780721393
  C      -1.534647     -0.268121     -0.257834
  C      -0.688013      0.818761     -0.484160
  C      -1.001553     -1.480764      0.166431
  C       0.708084      0.653601     -0.298030
  C       1.219733     -0.577992      0.138144
  C       0.368814     -1.644276      0.369501
  O      -1.088407      2.038827     -0.884930
  C       1.578028      1.748476     -0.494644
  H      -2.604561     -0.174456     -0.400315
  H      -1.675777     -2.313803      0.344110
  H       2.289964     -0.667763      0.294473
  H       0.765389     -2.596058      0.706060
  N       2.034615      2.597936     -1.224842
  O       2.809511      3.585183     -1.094486
  O       2.451185      2.320390      1.225510
  S       3.619439      3.261285      0.935654
  O       4.887719      2.557419      0.640995
  C      -2.491468      2.257603     -1.094490
  H      -2.578116      3.298736     -1.405221
  H      -3.053697      2.099634     -0.166929
  H      -2.874143      1.601492     -1.884677
21
Coordinates from ORCA-job mol E -1062.644785405631
  C      -1.534178     -0.269306     -0.261044
  C      -0.687497      0.817732     -0.486295
  C      -1.001492     -1.481302      0.165566
  C       0.708299      0.653679     -0.296565
  C       1.219538     -0.577388      0.141306
  C       0.368476     -1.643728      0.371943
  O      -1.087270      2.036773     -0.891050
  C       1.577361      1.749094     -0.494176
  H      -2.603712     -0.176471     -0.406809
  H      -1.675578     -2.314649      0.342273
  H       2.289450     -0.666886      0.299916
  H       0.764789     -2.595002      0.710253
  N       2.032988      2.599040     -1.224419
  O       2.811264      3.584124     -1.092802
  O       2.450678      2.319117      1.223270
  S       3.618170      3.261008      0.932916
  O       4.886740      2.558077      0.637188
  C      -2.490967      2.258237     -1.093317
  H      -2.577765      3.301142     -1.398019
  H      -3.049431      2.095810     -0.164271
  H      -2.877761      1.607008     -1.885545
21
Coordinates from ORCA-job mol E -1062.644786379092
  C      -1.534309     -0.269073     -0.260192
  C      -0.687283      0.817472     -0.486422
  C      -1.001739     -1.481278      0.165924
  C       0.708692      0.652666     -0.298336
  C       1.219809     -0.578688      0.138929
  C       0.368417     -1.644485      0.370657
  O      -1.086917      2.036655     -0.890632
  C       1.577839      1.747674     -0.496634
  H      -2.603979     -0.175678     -0.404681
  H      -1.676052     -2.314230      0.343629
  H       2.289903     -0.668957      0.295898
  H       0.764545     -2.595971      0.708584
  N       2.036409      2.596038     -1.226739
  O       2.815230      3.581022     -1.094369
  O       2.446964      2.323843      1.224016
  S       3.614993      3.264639      0.933555
  O       4.884328      2.560768      0.643299
  C      -2.490667      2.258546     -1.092181
  H      -2.577202      3.300989     -1.398556
  H      -3.048392      2.097877     -0.162388
  H      -2.878484      1.606282     -1.883041
21
Coordinates from ORCA-job mol E -1062.644786905303
  C      -1.534426     -0.268796     -0.259264
  C      -0.687325      0.817553     -0.486145
  C      -1.001759     -1.481153      0.166291
  C       0.708782      0.652399     -0.299196
  C       1.219995     -0.579114      0.137601
  C       0.368546     -1.644734      0.369843
  O      -1.087016      2.036947     -0.889555
  C       1.577912      1.747273     -0.497718
  H      -2.604213     -0.175087     -0.402657
  H      -1.676115     -2.313956      0.344548
  H       2.290179     -0.669631      0.293762
  H       0.764702     -2.596350      0.707364
  N       2.037677      2.595160     -1.227510
  O       2.816560      3.580135     -1.094618
  O       2.445791      2.324824      1.224452
  S       3.613828      3.265457      0.934121
  O       4.883622      2.561643      0.645695
  C      -2.490664      2.258570     -1.092109
  H      -2.577047      3.300558     -1.400056
  H      -3.048795      2.099238     -0.162329
  H      -2.878133      1.605174     -1.882203
