3
Coordinates from ORCA-job orca
  S   0.00000000000000      0.00000000717737      0.36967897587498
  O   0.00000000000000      1.22702682115989     -0.36642348490132
  O   0.00000000000000     -1.22702682833726     -0.36642349097366
