17
Coordinates from ORCA-job mol
  C   0.08093865666495      0.08922418774268     -0.09639891325964
  C   1.06614402364293      1.05388635901153     -0.23294771678612
  C   0.38547816618219     -1.15639626577333      0.45192093904896
  C   2.37607937748880      0.77187998386916      0.17785706472323
  C   2.68251701000102     -0.47672616090786      0.72773691008964
  C   1.68467446636646     -1.43460246890450      0.86262986038095
  H   0.83629504177155      2.02653196660717     -0.65523408062622
  C   3.41565249721372      1.78596619369845      0.03343751453272
  H   -0.93283290226244      0.30927421181088     -0.41695414661837
  H   -0.39143031803367     -1.90768546376359      0.55805866397316
  H   3.69737259318122     -0.69453528543647      1.04198593670644
  H   1.92611001106538     -2.40347183060166      1.28897049205910
  N   3.25690595076610      2.90464998864815     -0.57735824014775
  O   4.44516667945460      3.64873094760135     -0.49863887942064
  O   4.63954091255547      1.52550923564304      0.59404407262542
  S   5.78676302961961      2.67040094895630     -0.00182449516111
  O   6.41902480432204      2.08436345179867     -1.18658498211976
