!DLPNO-CCSD(T) Extrapolate(3/4,cc) cc-pVQZ/C TightPNO TightSCF 
%geom maxiter 300 end
%maxcore 4000 
%pal nprocs 36
end

*xyz 0 1
6       -2.313780000     -0.829326000     -0.387420000
6       -1.482327000      0.268330000     -0.519795000
6       -1.893313000     -2.028362000      0.175545000
6       -0.158499000      0.148044000     -0.073931000
6        0.289952000     -1.050437000      0.501972000
6       -0.581025000     -2.124260000      0.623327000
1       -1.852369000      1.186497000     -0.959518000
6        0.729841000      1.250912000     -0.201734000
7       -3.707900000     -0.717730000     -0.876726000
1       -2.588829000     -2.854542000      0.259462000
1        1.314516000     -1.115667000      0.849086000
1       -0.231175000     -3.049437000      1.069327000
7        0.990741000      2.299687000     -0.730449000
8        1.856704000      3.189006000     -0.711720000
8        2.298462000      1.164909000      1.080613000
16       3.415038000      2.102060000      0.631684000
8        4.320714000      1.527258000     -0.378581000
8       -4.040446000      0.340544000     -1.390843000
8       -4.429356000     -1.694867000     -0.737889000

*
