!DLPNO-CCSD(T) Extrapolate(3/4,cc) cc-pVQZ/C TightPNO TightSCF 
!CPCM(Benzene)
%geom maxiter 300 end
%maxcore 4000 
%pal nprocs 36
end

*xyz 0 1
6       -0.073480920     -0.068877990      0.353456004
6        0.787658280      1.020972898      0.418149317
6        0.427112478     -1.368900803      0.406692115
6        2.167710045      0.804791738      0.537313404
6        2.675256044     -0.501071505      0.591833345
6        1.800049732     -1.579534232      0.525873604
1        0.406027128      2.030987475      0.376878660
6        3.058501410      1.915914808      0.602228602
1       -1.136910574      0.098885323      0.260904434
1       -0.247316341     -2.211174535      0.355746653
1        3.740385477     -0.657452968      0.684427463
1        2.192523208     -2.585402691      0.567907244
7        3.814084057      2.818866568      0.647938015
8        4.584699978      3.750295915      0.696651143

*
