19
Coordinates from ORCA-job mol E -1152.631950539675
  C      -2.394617     -0.771179     -0.461547
  C      -1.523578      0.299477     -0.539023
  C      -1.944724     -1.966060      0.089650
  C      -0.202478      0.158507     -0.073555
  C       0.230505     -1.056428      0.478639
  C      -0.648230     -2.123399      0.561773
  H      -1.849181      1.244865     -0.959157
  C       0.692771      1.256301     -0.163279
  H      -3.415856     -0.692564     -0.815093
  N      -2.880192     -3.106510      0.175910
  H       1.249184     -1.145342      0.836157
  H      -0.340739     -3.073197      0.982657
  N       0.930559      2.341801     -0.627092
  O       1.791549      3.232197     -0.590595
  O       2.309702      1.105240      1.070587
  S       3.410683      2.066309      0.640507
  O       4.281189      1.556293     -0.432738
  O      -4.014848     -2.936772     -0.250825
  O      -2.458690     -4.144210      0.668553
19
Coordinates from ORCA-job mol E -1152.630047900192
  C      -2.410988     -0.778130     -0.444030
  C      -1.547846      0.284832     -0.529686
  C      -1.957750     -1.964372      0.111078
  C      -0.211728      0.193854     -0.061866
  C       0.229218     -1.019889      0.476489
  C      -0.659853     -2.092197      0.556340
  H      -1.890158      1.219708     -0.959957
  C       0.691305      1.287655     -0.167411
  H      -3.430900     -0.705627     -0.802668
  N      -2.866847     -3.127186      0.176027
  H       1.247251     -1.127112      0.793967
  H      -0.331590     -3.048422      0.945816
  N       0.964016      2.368786     -0.640445
  O       1.848754      3.256899     -0.613675
  O       2.290499      1.156482      1.104174
  S       3.427221      2.042700      0.649776
  O       4.259740      1.437441     -0.404173
  O      -4.003407     -2.977728     -0.253403
  O      -2.423926     -4.162364      0.655176
19
Coordinates from ORCA-job mol E -1152.624015287616
  C      -2.426583     -0.784826     -0.453124
  C      -1.574774      0.263781     -0.537341
  C      -1.960283     -1.981158      0.100166
  C      -0.203850      0.222668     -0.113543
  C       0.249021     -0.986588      0.420358
  C      -0.665782     -2.060236      0.513462
  H      -1.945593      1.198303     -0.957720
  C       0.686060      1.317231     -0.203665
  H      -3.453651     -0.693052     -0.790793
  N      -2.855703     -3.141510      0.225399
  H       1.260705     -1.128347      0.748479
  H      -0.321964     -3.008067      0.924092
  N       0.988171      2.396003     -0.647728
  O       1.894384      3.287684     -0.594190
  O       2.265232      1.181452      1.139361
  S       3.431347      2.006826      0.693071
  O       4.234512      1.334929     -0.346767
  O      -3.990545     -3.004535     -0.209080
  O      -2.387693     -4.175229      0.681094
19
Coordinates from ORCA-job mol E -1152.624396341805
  C      -2.420137     -0.791085     -0.481576
  C      -1.570973      0.262803     -0.558178
  C      -1.942370     -1.996617      0.053734
  C      -0.190498      0.207892     -0.173356
  C       0.268310     -1.001302      0.357946
  C      -0.643621     -2.074206      0.461507
  H      -1.947430      1.205221     -0.954828
  C       0.681314      1.315897     -0.228991
  H      -3.453845     -0.688911     -0.793835
  N      -2.845834     -3.143411      0.221355
  H       1.274477     -1.140975      0.711987
  H      -0.300807     -3.009741      0.900222
  N       0.983212      2.401847     -0.647039
  O       1.875631      3.299845     -0.558543
  O       2.240029      1.192280      1.184841
  S       3.418271      1.999347      0.734991
  O       4.213170      1.318213     -0.306300
  O      -4.013372     -2.967783     -0.099352
  O      -2.402518     -4.143982      0.766945
19
Coordinates from ORCA-job mol E -1152.626508470253
  C      -2.418377     -0.786702     -0.481602
  C      -1.561932      0.268422     -0.568422
  C      -1.932086     -2.004369      0.024295
  C      -0.173996      0.173886     -0.241891
  C       0.282801     -1.032941      0.299930
  C      -0.625183     -2.100053      0.422502
  H      -1.934664      1.220383     -0.941148
  C       0.682013      1.294481     -0.268012
  H      -3.460548     -0.669630     -0.755432
  N      -2.857850     -3.120114      0.261304
  H       1.278759     -1.160685      0.691690
  H      -0.294069     -3.017680      0.902807
  N       0.980376      2.383401     -0.673428
  O       1.846114      3.293394     -0.556746
  O       2.226745      1.196110      1.221816
  S       3.399838      2.021547      0.778678
  O       4.225244      1.360375     -0.252315
  O      -4.028117     -2.939311     -0.050663
  O      -2.412058     -4.135182      0.778168
19
Coordinates from ORCA-job mol E -1152.626678057636
  C      -2.427674     -0.780882     -0.464157
  C      -1.568861      0.272637     -0.572926
  C      -1.924667     -2.011138     -0.005316
  C      -0.172658      0.156807     -0.306466
  C       0.295526     -1.051307      0.220766
  C      -0.606186     -2.117372      0.359687
  H      -1.944925      1.230608     -0.924826
  C       0.678128      1.280033     -0.325024
  H      -3.478794     -0.652635     -0.694518
  N      -2.854100     -3.108079      0.289923
  H       1.292852     -1.177189      0.615011
  H      -0.267815     -3.026611      0.849348
  N       1.002519      2.358724     -0.733581
  O       1.844250      3.278963     -0.606279
  O       2.185442      1.218744      1.281093
  S       3.366104      2.039637      0.864219
  O       4.243232      1.361951     -0.112292
  O      -4.038704     -2.907397      0.050510
  O      -2.400661     -4.120164      0.806360
19
Coordinates from ORCA-job mol E -1152.628153032467
  C      -2.442437     -0.771084     -0.431221
  C      -1.583455      0.283087     -0.566611
  C      -1.925087     -2.008471     -0.010393
  C      -0.182270      0.148326     -0.356943
  C       0.301535     -1.064214      0.144939
  C      -0.592566     -2.128714      0.309529
  H      -1.964171      1.246483     -0.896117
  C       0.675631      1.264974     -0.388984
  H      -3.501118     -0.637402     -0.618901
  N      -2.851395     -3.099284      0.320848
  H       1.310071     -1.187014      0.515979
  H      -0.239574     -3.038565      0.786030
  N       1.041308      2.321360     -0.813784
  O       1.863950      3.247775     -0.695769
  O       2.139659      1.242341      1.335624
  S       3.326111      2.065146      0.956902
  O       4.275617      1.372912      0.061452
  O      -4.044199     -2.892123      0.130864
  O      -2.384600     -4.120203      0.808088
19
Coordinates from ORCA-job mol E -1152.629400193743
  C      -2.428082     -0.773090     -0.447025
  C      -1.564118      0.285179     -0.562515
  C      -1.927331     -2.002817      0.003464
  C      -0.179616      0.142310     -0.287295
  C       0.287612     -1.070725      0.231424
  C      -0.603850     -2.135026      0.369741
  H      -1.929944      1.245578     -0.914495
  C       0.681105      1.260326     -0.320234
  H      -3.479434     -0.650014     -0.677961
  N      -2.866484     -3.099562      0.282329
  H       1.294770     -1.183979      0.611052
  H      -0.269089     -3.052955      0.842092
  N       1.000998      2.330574     -0.752919
  O       1.833206      3.249866     -0.643312
  O       2.199701      1.212148      1.273016
  S       3.359493      2.077177      0.866197
  O       4.281023      1.434535     -0.091943
  O      -4.049300     -2.899166      0.032771
  O      -2.417648     -4.125031      0.777146
19
Coordinates from ORCA-job mol E -1152.630302460433
  C      -2.415173     -0.775261     -0.461057
  C      -1.548877      0.287145     -0.558613
  C      -1.931179     -1.994137      0.024329
  C      -0.181749      0.141798     -0.221739
  C       0.270188     -1.068972      0.314663
  C      -0.617955     -2.133557      0.432838
  H      -1.902393      1.243636     -0.931585
  C       0.686100      1.255984     -0.256303
  H      -3.457787     -0.664474     -0.734278
  N      -2.875084     -3.101421      0.244837
  H       1.279863     -1.171421      0.692623
  H      -0.296230     -3.060286      0.895683
  N       0.965009      2.338628     -0.691085
  O       1.812960      3.248094     -0.591512
  O       2.252277      1.183327      1.208457
  S       3.391634      2.079800      0.780102
  O       4.277243      1.478522     -0.236161
  O      -4.044624     -2.912467     -0.067596
  O      -2.441214     -4.129608      0.747928
19
Coordinates from ORCA-job mol E -1152.630601094083
  C      -2.402784     -0.775888     -0.470759
  C      -1.536219      0.291807     -0.554126
  C      -1.935601     -1.982129      0.050425
  C      -0.189254      0.145446     -0.156754
  C       0.250214     -1.062679      0.393603
  C      -0.631725     -2.129227      0.494651
  H      -1.879363      1.243676     -0.946679
  C       0.691344      1.250529     -0.193145
  H      -3.435932     -0.679738     -0.783043
  N      -2.877165     -3.102881      0.208338
  H       1.267155     -1.148371      0.758013
  H      -0.319874     -3.066196      0.942056
  N       0.926601      2.344786     -0.636995
  O       1.801415      3.237513     -0.548571
  O       2.290633      1.164446      1.151120
  S       3.422491      2.077525      0.698139
  O       4.266547      1.498605     -0.364641
  O      -4.030556     -2.927609     -0.165856
  O      -2.454916     -4.134285      0.715755
19
Coordinates from ORCA-job mol E -1152.631289304131
  C      -2.384107     -0.772584     -0.476094
  C      -1.514649      0.297594     -0.544162
  C      -1.935844     -1.972002      0.069407
  C      -0.189430      0.147561     -0.090072
  C       0.237870     -1.065378      0.465578
  C      -0.641986     -2.131365      0.546511
  H      -1.843878      1.245930     -0.955356
  C       0.704537      1.245968     -0.134198
  H      -3.406572     -0.685248     -0.824219
  N      -2.877753     -3.099760      0.174391
  H       1.256448     -1.142934      0.826931
  H      -0.341865     -3.077526      0.981151
  N       0.900529      2.349727     -0.589540
  O       1.796122      3.225399     -0.517263
  O       2.297230      1.148642      1.089059
  S       3.418245      2.077841      0.616066
  O       4.232211      1.520135     -0.480228
  O      -4.014946     -2.929888     -0.248976
  O      -2.469151     -4.136782      0.682544
19
Coordinates from ORCA-job mol E -1152.631620642316
  C      -2.402244     -0.766995     -0.445741
  C      -1.528061      0.298568     -0.532779
  C      -1.941956     -1.975802      0.067759
  C      -0.190281      0.137320     -0.122585
  C       0.247728     -1.085246      0.409046
  C      -0.635402     -2.146903      0.505633
  H      -1.862331      1.252618     -0.925947
  C       0.703032      1.237483     -0.191308
  H      -3.434333     -0.669599     -0.761040
  N      -2.888861     -3.097899      0.196936
  H       1.270784     -1.178135      0.752713
  H      -0.325974     -3.096250      0.926277
  N       0.941105      2.316314     -0.676376
  O       1.806002      3.211878     -0.618392
  O       2.282943      1.179976      1.137091
  S       3.394300      2.124874      0.697300
  O       4.296189      1.561368     -0.324970
  O      -4.039809     -2.915405     -0.181564
  O      -2.469820     -4.142835      0.679479
19
Coordinates from ORCA-job mol E -1152.631886353664
  C      -2.400317     -0.761280     -0.433419
  C      -1.522692      0.303028     -0.517341
  C      -1.945042     -1.970433      0.081178
  C      -0.189419      0.137978     -0.096963
  C       0.247810     -1.090694      0.423938
  C      -0.637579     -2.150316      0.515810
  H      -1.853149      1.258359     -0.910335
  C       0.710988      1.232974     -0.185998
  H      -3.430703     -0.662525     -0.753892
  N      -2.891009     -3.096383      0.187749
  H       1.275042     -1.192279      0.752859
  H      -0.327082     -3.107174      0.917945
  N       0.948838      2.301441     -0.695559
  O       1.814622      3.194772     -0.652376
  O       2.265340      1.185529      1.121571
  S       3.370944      2.141921      0.689733
  O       4.298143      1.580837     -0.311276
  O      -4.039477     -2.912082     -0.197424
  O      -2.472249     -4.148344      0.655331
19
Coordinates from ORCA-job mol E -1152.631954316223
  C      -2.406980     -0.757489     -0.420385
  C      -1.529007      0.306309     -0.508848
  C      -1.946992     -1.968037      0.087843
  C      -0.191618      0.139879     -0.102193
  C       0.251546     -1.090159      0.408071
  C      -0.634293     -2.149514      0.505652
  H      -1.862439      1.263686     -0.894375
  C       0.710466      1.231295     -0.207485
  H      -3.440030     -0.655851     -0.731089
  N      -2.889657     -3.096751      0.193653
  H       1.282663     -1.199734      0.723213
  H      -0.316357     -3.108811      0.896059
  N       0.968254      2.285364     -0.731518
  O       1.829232      3.180637     -0.693272
  O       2.243683      1.194482      1.133229
  S       3.351870      2.151351      0.716535
  O       4.309131      1.581946     -0.251874
  O      -4.042375     -2.910805     -0.177875
  O      -2.464090     -4.152469      0.646192
19
Coordinates from ORCA-job mol E -1152.631973285733
  C      -2.407221     -0.756712     -0.418757
  C      -1.529570      0.307603     -0.508037
  C      -1.946372     -1.966555      0.090374
  C      -0.192373      0.141456     -0.101592
  C       0.252007     -1.088020      0.408304
  C      -0.633129     -2.147848      0.506823
  H      -1.863402      1.264894     -0.893327
  C       0.709819      1.232593     -0.210067
  H      -3.440273     -0.655414     -0.729409
  N      -2.887475     -3.096722      0.193492
  H       1.283569     -1.198186      0.721334
  H      -0.313665     -3.107203      0.895708
  N       0.970612      2.285033     -0.735465
  O       1.833088      3.179122     -0.694401
  O       2.235674      1.191555      1.131046
  S       3.347447      2.147382      0.718680
  O       4.305223      1.576767     -0.248912
  O      -4.040545     -2.911328     -0.177313
  O      -2.460404     -4.153087      0.643049
19
Coordinates from ORCA-job mol E -1152.631989959930
  C      -2.411493     -0.755924     -0.413883
  C      -1.535368      0.309346     -0.508500
  C      -1.945717     -1.965288      0.092391
  C      -0.195316      0.144026     -0.111590
  C       0.253776     -1.084007      0.396106
  C      -0.629614     -2.144991      0.500330
  H      -1.872344      1.266725     -0.890811
  C       0.706344      1.234513     -0.225191
  H      -3.446483     -0.654923     -0.717953
  N      -2.884098     -3.097371      0.199123
  H       1.286785     -1.193624      0.704747
  H      -0.305660     -3.103412      0.887743
  N       0.981215      2.281517     -0.751394
  O       1.842544      3.175869     -0.705064
  O       2.222730      1.190816      1.139217
  S       3.341076      2.142392      0.736692
  O       4.306856      1.566671     -0.220342
  O      -4.040817     -2.912020     -0.160244
  O      -2.451406     -4.154984      0.640153
19
Coordinates from ORCA-job mol E -1152.631996384770
  C      -2.410513     -0.756323     -0.415628
  C      -1.535097      0.309682     -0.510759
  C      -1.944437     -1.964528      0.092684
  C      -0.195740      0.145667     -0.111443
  C       0.253741     -1.081504      0.398385
  C      -0.628754     -2.143170      0.502713
  H      -1.872290      1.266225     -0.894917
  C       0.705256      1.237036     -0.224343
  H      -3.445205     -0.656574     -0.721105
  N      -2.882168     -3.097307      0.199026
  H       1.286441     -1.189093      0.708422
  H      -0.304739     -3.100885      0.891746
  N       0.980274      2.285650     -0.747824
  O       1.843631      3.178575     -0.695897
  O       2.218959      1.184982      1.135438
  S       3.340766      2.134640      0.734689
  O       4.300617      1.559806     -0.228866
  O      -4.039166     -2.912543     -0.159757
  O      -2.448566     -4.155008      0.638966
19
Coordinates from ORCA-job mol E -1152.632002665347
  C      -2.410948     -0.757112     -0.417183
  C      -1.536394      0.309420     -0.513641
  C      -1.943694     -1.964675      0.091479
  C      -0.196642      0.146745     -0.114916
  C       0.253759     -1.079592      0.396390
  C      -0.627908     -2.141850      0.501736
  H      -1.874422      1.265275     -0.898799
  C       0.703411      1.238823     -0.226474
  H      -3.445934     -0.658324     -0.722013
  N      -2.881110     -3.097520      0.200957
  H       1.286244     -1.184834      0.707897
  H      -0.303451     -3.098636      0.892703
  N       0.981149      2.288198     -0.746403
  O       1.844191      3.181176     -0.690655
  O       2.218813      1.181931      1.137159
  S       3.342209      2.129451      0.737057
  O       4.299050      1.554748     -0.229467
  O      -4.039476     -2.912532     -0.153181
  O      -2.445837     -4.155362      0.638883
19
Coordinates from ORCA-job mol E -1152.632008653807
  C      -2.408654     -0.758648     -0.422811
  C      -1.534557      0.308362     -0.518204
  C      -1.942546     -1.964787      0.089789
  C      -0.196477      0.147905     -0.112979
  C       0.252747     -1.077439      0.402678
  C      -0.628389     -2.140189      0.506076
  H      -1.871865      1.262821     -0.907466
  C       0.702019      1.241703     -0.220924
  H      -3.442581     -0.661528     -0.731782
  N      -2.880288     -3.097405      0.200159
  H       1.284036     -1.179881      0.718756
  H      -0.305303     -3.096011      0.900529
  N       0.976297      2.295518     -0.734201
  O       1.840375      3.187757     -0.673266
  O       2.223387      1.173587      1.132022
  S       3.346532      2.120636      0.729122
  O       4.292062      1.550378     -0.250895
  O      -4.038706     -2.912371     -0.153657
  O      -2.445078     -4.155078      0.638587
19
Coordinates from ORCA-job mol E -1152.632012770863
  C      -2.407939     -0.759448     -0.425642
  C      -1.533991      0.307706     -0.520531
  C      -1.942393     -1.964843      0.089281
  C      -0.196756      0.148441     -0.111955
  C       0.251861     -1.076097      0.406054
  C      -0.629013     -2.139101      0.508502
  H      -1.870839      1.261467     -0.911899
  C       0.700955      1.242878     -0.218493
  H      -3.441237     -0.663117     -0.736962
  N      -2.879965     -3.097587      0.199580
  H       1.282452     -1.177514      0.724683
  H      -0.306331     -3.094353      0.904686
  N       0.973918      2.298783     -0.727926
  O       1.837734      3.191167     -0.665675
  O       2.227972      1.168945      1.130110
  S       3.349674      2.116616      0.725375
  O       4.289930      1.549273     -0.261380
  O      -4.038631     -2.912376     -0.153320
  O      -2.444392     -4.155511      0.637043
19
Coordinates from ORCA-job mol E -1152.632021572159
  C      -2.404769     -0.761669     -0.434329
  C      -1.530819      0.305740     -0.526106
  C      -1.942461     -1.964885      0.088716
  C      -0.197208      0.149631     -0.104354
  C       0.248254     -1.072728      0.421140
  C      -0.632291     -2.136360      0.519016
  H      -1.865190      1.257518     -0.924348
  C       0.699060      1.245527     -0.207013
  H      -3.435405     -0.667491     -0.754991
  N      -2.879581     -3.098232      0.194875
  H       1.276391     -1.172264      0.747986
  H      -0.311692     -3.090279      0.920097
  N       0.964225      2.308648     -0.705504
  O       1.828160      3.200932     -0.642442
  O       2.244715      1.154309      1.119782
  S       3.360221      2.106358      0.708465
  O       4.283469      1.550300     -0.300529
  O      -4.037603     -2.912928     -0.160211
  O      -2.444466     -4.156796      0.631283
19
Coordinates from ORCA-job mol E -1152.632025778116
  C      -2.403237     -0.762725     -0.438279
  C      -1.529314      0.304824     -0.528323
  C      -1.942764     -1.964938      0.088781
  C      -0.197609      0.150123     -0.099860
  C       0.246108     -1.071199      0.429293
  C      -0.634353     -2.135187      0.524783
  H      -1.862297      1.255704     -0.929845
  C       0.698450      1.246393     -0.200895
  H      -3.432450     -0.669486     -0.763743
  N      -2.879586     -3.098685      0.191835
  H       1.272937     -1.170179      0.760316
  H      -0.314855     -3.088433      0.928324
  N       0.959163      2.313208     -0.693835
  O       1.823273      3.205285     -0.632047
  O       2.254031      1.146711      1.113221
  S       3.365967      2.102018      0.699514
  O       4.281516      1.552958     -0.320246
  O      -4.036883     -2.913600     -0.165837
  O      -2.445087     -4.157464      0.628373
19
Coordinates from ORCA-job mol E -1152.632031192976
  C      -2.400703     -0.764457     -0.444646
  C      -1.526896      0.303349     -0.531741
  C      -1.943335     -1.965077      0.088878
  C      -0.198383      0.150929     -0.092346
  C       0.242388     -1.068714      0.442757
  C      -0.637920     -2.133312      0.534328
  H      -1.857533      1.252783     -0.938541
  C       0.697601      1.247605     -0.190720
  H      -3.427530     -0.672717     -0.777990
  N      -2.879686     -3.099474      0.186701
  H       1.267007     -1.166832      0.780670
  H      -0.320240     -3.085406      0.941992
  N       0.950683      2.320761     -0.673806
  O       1.815300      3.212209     -0.614968
  O       2.269598      1.133354      1.100714
  S       3.375582      2.094799      0.684667
  O       4.279062      1.558889     -0.352618
  O      -4.035300     -2.915272     -0.177006
  O      -2.446687     -4.158088      0.625206
19
Coordinates from ORCA-job mol E -1152.632033958106
  C      -2.399273     -0.765464     -0.448218
  C      -1.525560      0.302498     -0.533560
  C      -1.943698     -1.965226      0.088843
  C      -0.198830      0.151346     -0.088214
  C       0.240241     -1.067434      0.450147
  C      -0.640016     -2.132323      0.539619
  H      -1.854873      1.251164     -0.943208
  C       0.697158      1.248229     -0.184966
  H      -3.424740     -0.674545     -0.785958
  N      -2.879857     -3.099922      0.183873
  H       1.263562     -1.165035      0.792031
  H      -0.323406     -3.083715      0.949741
  N       0.945666      2.325298     -0.661703
  O       1.810737      3.216165     -0.604928
  O       2.278611      1.124888      1.092190
  S       3.381198      2.090462      0.676352
  O       4.278345      1.563532     -0.370928
  O      -4.033933     -2.916825     -0.185300
  O      -2.448321     -4.157765      0.625719
19
Coordinates from ORCA-job mol E -1152.632036096304
  C      -2.398004     -0.766430     -0.451539
  C      -1.524401      0.301688     -0.535182
  C      -1.944049     -1.965434      0.088658
  C      -0.199260      0.151718     -0.084584
  C       0.238244     -1.066307      0.456736
  C      -0.641979     -2.131421      0.544353
  H      -1.852539      1.249680     -0.947319
  C       0.696630      1.248860     -0.179708
  H      -3.422216     -0.676275     -0.793273
  N      -2.880079     -3.100351      0.181373
  H       1.260338     -1.163326      0.802355
  H      -0.326389     -3.082113      0.956876
  N       0.940801      2.329822     -0.649825
  O       1.806386      3.220017     -0.595049
  O       2.287298      1.116139      1.083209
  S       3.386645      2.086051      0.668737
  O       4.278246      1.568703     -0.387985
  O      -4.032111     -2.918961     -0.194998
  O      -2.450552     -4.156729      0.628698
19
Coordinates from ORCA-job mol E -1152.632037277638
  C      -2.397368     -0.766930     -0.453241
  C      -1.523795      0.301254     -0.535891
  C      -1.944263     -1.965588      0.088473
  C      -0.199429      0.151838     -0.082756
  C       0.237249     -1.065877      0.459971
  C      -0.643027     -2.131027      0.546688
  H      -1.851356      1.248965     -0.949135
  C       0.696292      1.249209     -0.176951
  H      -3.420937     -0.677122     -0.796986
  N      -2.880286     -3.100558      0.180139
  H       1.258712     -1.162625      0.807477
  H      -0.328029     -3.081356      0.960496
  N       0.938039      2.332396     -0.643187
  O       1.803969      3.222166     -0.589445
  O       2.292117      1.110907      1.077664
  S       3.389593      2.083610      0.664752
  O       4.278646      1.572239     -0.397023
  O      -4.030589     -2.920745     -0.202241
  O      -2.452528     -4.155424      0.632728
19
Coordinates from ORCA-job mol E -1152.632038225324
  C      -2.396887     -0.767320     -0.454582
  C      -1.523318      0.300908     -0.536305
  C      -1.944475     -1.965746      0.088265
  C      -0.199529      0.151873     -0.081274
  C       0.236476     -1.065652      0.462454
  C      -0.643911     -2.130765      0.548486
  H      -1.850447      1.248459     -0.950270
  C       0.695942      1.249510     -0.174642
  H      -3.419939     -0.677744     -0.799919
  N      -2.880522     -3.100721      0.179160
  H       1.257444     -1.162258      0.811406
  H      -0.329438     -3.080812      0.963346
  N       0.935617      2.334638     -0.637412
  O       1.801867      3.224035     -0.584425
  O       2.296403      1.106083      1.072498
  S       3.392101      2.081544      0.661391
  O       4.279298      1.575810     -0.404646
  O      -4.028728     -2.922915     -0.210410
  O      -2.454942     -4.153599      0.638410
19
Coordinates from ORCA-job mol E -1152.632038853897
  C      -2.396663     -0.767508     -0.455240
  C      -1.523092      0.300743     -0.536302
  C      -1.944638     -1.965867      0.088116
  C      -0.199566      0.151825     -0.080385
  C       0.236066     -1.065658      0.463745
  C      -0.644448     -2.130697      0.549422
  H      -1.850011      1.248275     -0.950476
  C       0.695699      1.249666     -0.173249
  H      -3.419432     -0.678003     -0.801428
  N      -2.880726     -3.100822      0.178562
  H       1.256782     -1.162292      0.813401
  H      -0.330304     -3.080614      0.964831
  N       0.934157      2.335931     -0.633960
  O       1.800581      3.225139     -0.581338
  O       2.299215      1.103062      1.069207
  S       3.393620      2.080473      0.659316
  O       4.279925      1.578380     -0.409189
  O      -4.027079     -2.924821     -0.217247
  O      -2.457077     -4.151882      0.643745
19
Coordinates from ORCA-job mol E -1152.632039211502
  C      -2.396744     -0.767407     -0.454934
  C      -1.523143      0.300823     -0.535973
  C      -1.944656     -1.965868      0.088143
  C      -0.199494      0.151742     -0.080458
  C       0.236212     -1.065859      0.463348
  C      -0.644371     -2.130838      0.549126
  H      -1.850131      1.248461     -0.949849
  C       0.695760      1.249590     -0.173443
  H      -3.419586     -0.677790     -0.800877
  N      -2.880779     -3.100795      0.178622
  H       1.257023     -1.162687      0.812665
  H      -0.330194     -3.080841      0.964314
  N       0.934387      2.335625     -0.634621
  O       1.800799      3.224879     -0.581885
  O       2.298881      1.103496      1.069491
  S       3.393283      2.080926      0.659589
  O       4.280051      1.578493     -0.408373
  O      -4.026800     -2.925122     -0.218289
  O      -2.457489     -4.151499      0.644936
