! wB97X-D3BJ def2-TZVP TightSCF Opt Freq CPCM(benzene)  # OptTS VeryTightOpt Freq SP NMR

* xyz 0 1
 C   -4.01483413  -1.21863995   0.35340830
 C   -3.16111991  -0.11960931   0.35594858
 C   -3.71830417  -2.34580266   1.12910572
 C   -1.99211734  -0.13966410   1.13772298
 C   -1.69796083  -1.26952069   1.91704371
 C   -2.56011170  -2.36650244   1.90920844
 H   -3.38307542   0.76748968  -0.24129678
 C   -1.08807443   1.01914179   1.14517870
 H   -4.92200114  -1.19698472  -0.25591255
 H   -4.39280968  -3.20595281   1.12541528
 H   -0.79018281  -1.27750934   2.52329521
 H   -2.32437878  -3.24332554   2.51759591
 N   -1.25390851   2.03183399   0.35139963
 O   -0.26302557   2.98870387   0.56833416
 O   -0.04071490   1.00555552   1.99561193
 S    1.10825282   2.38818619   1.59278922
 N    2.34824385   1.94808922   0.80959852
 C    2.55516312   1.21948117  -0.36959112
 C    3.89692567   0.94219576  -0.69293561
 C    4.20930635   0.22528432  -1.84472764
 C    3.19009420  -0.22166240  -2.69084880
 C    1.85665523   0.05751179  -2.37599694
 C    1.53062646   0.77296386  -1.22533449
 H    4.67849951   1.30079533  -0.01931557
 H    5.25468561   0.01409161  -2.08361599
 H    3.43369912  -0.78503254  -3.59499422
 H    1.05546768  -0.28507145  -3.03577360
 H    0.48499971   0.99395384  -1.00131299
*
