 28
  Energy -1160.051121598413  Dipole 3.91311  G(298) 105.71
 C   -3.04384600  -1.66925300   0.10178300
 C   -2.48032400  -0.40373700   0.12185700
 C   -2.58317900  -2.65418900   0.97128700
 C   -1.44796600  -0.12157300   1.01763700
 C   -0.98645700  -1.10509800   1.88895300
 C   -1.55696000  -2.37105600   1.86349400
 H   -2.83107200   0.36802800  -0.55272300
 C   -0.82987700   1.21203300   1.02721200
 H   -3.84558000  -1.89003000  -0.59384000
 H   -3.02713800  -3.64361200   0.95146600
 H   -0.18231400  -0.88006300   2.57855200
 H   -1.19699900  -3.13670200   2.54153500
 N   -1.07193300   2.13020200   0.17305400
 O   -0.27896000   3.24634500   0.51135300
 O    0.08662900   1.48812000   1.98465000
 S    0.99256700   2.85003000   1.51119800
 N    2.19085200   2.39435000   0.73566100
 C    2.10909300   1.44931400  -0.33010700
 C    2.16563700   0.08615300  -0.05212200
 C    2.06955900  -0.83230900  -1.08974600
 C    1.92932200  -0.39624100  -2.40215200
 C    1.88862000   0.96695300  -2.67399000
 C    1.97879900   1.89250000  -1.64272800
 H    2.27498100  -0.24331700   0.97472400
 H    2.10339600  -1.89365400  -0.86849600
 H    1.85487000  -1.11527400  -3.21028100
 H    1.78155500   1.31513100  -3.69563200
 H    1.93672700   2.95695000  -1.84259700
