 28
  Energy -1160.083356546610  Dipole 7.06943  G(298) 106.44
 C   -3.55356800   0.62743500   0.68021800
 C   -2.37928300   1.35282200   0.82633000
 C   -3.63639800  -0.37866000  -0.27541600
 C   -1.28414200   1.07012900   0.01288700
 C   -1.36808200   0.06490000  -0.94902000
 C   -2.54447000  -0.65665600  -1.09063000
 H   -2.30153600   2.13598400   1.57117600
 C   -0.04825500   1.86324200   0.17021400
 H   -4.40333100   0.84613000   1.31707500
 H   -4.55306700  -0.94780000  -0.38522300
 H   -0.51986000  -0.14936900  -1.58828800
 H   -2.60911100  -1.43730400  -1.84018500
 N   -0.09178200   3.13244700   0.35782100
 O    1.24996200   3.58572600   0.51575300
 N    1.21629000   1.31663200   0.10068000
 S    2.38142400   2.54227600  -0.04052200
 O    2.62283500   2.78467900  -1.44777400
 C    1.57377300  -0.06351100   0.13745600
 C    2.42400300  -0.57988300  -0.83295300
 C    1.07940100  -0.87295800   1.15437800
 C    2.78575200  -1.92090800  -0.77739200
 C    1.42383200  -2.21638600   1.18450000
 C    2.28169800  -2.74176000   0.22317600
 H    2.78688300   0.05977700  -1.62901500
 H    0.42597600  -0.45017300   1.90873800
 H    3.45266500  -2.32532400  -1.53052500
 H    1.03110900  -2.85155700   1.97064200
 H    2.55728100  -3.78992800   0.25589800
