! wB97X-D3BJ def2-TZVP TightSCF Opt Freq CPCM(benzene)  # OptTS VeryTightOpt Freq SP NMR

* xyz 0 1
 C    -3.966835     0.520783     0.402211
 C    -2.983455     1.455459     0.115944
 C    -3.680075    -0.838761     0.335300
 C    -1.706510     1.019793    -0.244289
 C    -1.416596    -0.343885    -0.319255
 C    -2.407623    -1.268046    -0.024943
 H    -3.195297     2.516866     0.168750
 C    -0.672106     1.974854    -0.531209
 H    -4.960008     0.854688     0.680323
 H    -4.451707    -1.565705     0.563837
 H    -0.422858    -0.667942    -0.600371
 H    -2.183083    -2.327455    -0.076611
 N     0.184294     2.707222    -0.758081
 O     1.105465     3.471818    -0.984627
*
