14
Coordinates from ORCA-job ./PhCNO E -399.935464583851
  C      -3.966835      0.520783      0.402211
  C      -2.983455      1.455459      0.115944
  C      -3.680075     -0.838761      0.335300
  C      -1.706510      1.019793     -0.244289
  C      -1.416596     -0.343885     -0.319255
  C      -2.407623     -1.268046     -0.024943
  H      -3.195297      2.516866      0.168750
  C      -0.672106      1.974854     -0.531209
  H      -4.960008      0.854688      0.680323
  H      -4.451707     -1.565705      0.563837
  H      -0.422858     -0.667942     -0.600371
  H      -2.183083     -2.327455     -0.076611
  N       0.184294      2.707222     -0.758081
  O       1.105465      3.471818     -0.984627
14
Coordinates from ORCA-job ./PhCNO E -399.935531523647
  C      -3.965288      0.521084      0.402461
  C      -2.979974      1.454450      0.117475
  C      -3.681884     -0.838786      0.333380
  C      -1.702647      1.018197     -0.240046
  C      -1.415789     -0.346676     -0.313888
  C      -2.409713     -1.269927     -0.025428
  H      -3.190600      2.516073      0.169698
  C      -0.668893      1.973863     -0.530342
  H      -4.958146      0.856651      0.679725
  H      -4.455412     -1.564445      0.559110
  H      -0.421213     -0.672567     -0.594389
  H      -2.188026     -2.329769     -0.079984
  N       0.185400      2.710179     -0.759696
  O       1.095791      3.481364     -0.991097
14
Coordinates from ORCA-job ./PhCNO E -399.935564318647
  C      -3.962969      0.522091      0.401652
  C      -2.974941      1.452996      0.117599
  C      -3.683738     -0.838330      0.331995
  C      -1.698028      1.015050     -0.239090
  C      -1.415690     -0.351153     -0.311704
  C      -2.411969     -1.272431     -0.025259
  H      -3.183218      2.515113      0.169888
  C      -0.664511      1.971159     -0.529808
  H      -4.954847      0.860482      0.679053
  H      -4.459399     -1.562059      0.556461
  H      -0.420984     -0.679523     -0.590172
  H      -2.193450     -2.332860     -0.080489
  N       0.185807      2.713190     -0.758765
  O       1.081541      3.495963     -0.994382
14
Coordinates from ORCA-job ./PhCNO E -399.935570709837
  C      -3.962138      0.522752      0.401305
  C      -2.973136      1.452571      0.117283
  C      -3.684142     -0.837947      0.332053
  C      -1.696484      1.013416     -0.239150
  C      -1.415613     -0.353024     -0.311774
  C      -2.412661     -1.273252     -0.025138
  H      -3.180433      2.514912      0.169381
  C      -0.662827      1.969244     -0.529407
  H      -4.953726      0.862286      0.678370
  H      -4.460505     -1.560955      0.556471
  H      -0.421302     -0.682361     -0.590104
  H      -2.195127     -2.333904     -0.080036
  N       0.185932      2.713042     -0.757715
  O       1.075767      3.502908     -0.994560
14
Coordinates from ORCA-job ./PhCNO E -399.935572700774
  C      -3.961212      0.523515      0.400874
  C      -2.971247      1.452124      0.116574
  C      -3.684410     -0.837496      0.332331
  C      -1.695006      1.011490     -0.239947
  C      -1.415527     -0.355123     -0.312422
  C      -2.413315     -1.274118     -0.024951
  H      -3.177433      2.514704      0.168478
  C      -0.661451      1.967340     -0.529299
  H      -4.952406      0.864329      0.677748
  H      -4.461353     -1.559731      0.557264
  H      -0.421753     -0.685553     -0.590760
  H      -2.196755     -2.335011     -0.079068
  N       0.184819      2.713882     -0.756532
  O       1.070655      3.509336     -0.993312
14
Coordinates from ORCA-job ./PhCNO E -399.935573993112
  C      -3.960596      0.523969      0.400642
  C      -2.970006      1.451824      0.116126
  C      -3.684615     -0.837240      0.332449
  C      -1.694005      1.010250     -0.240389
  C      -1.415428     -0.356488     -0.312652
  C      -2.413805     -1.274713     -0.024827
  H      -3.175467      2.514550      0.167874
  C      -0.660479      1.966168     -0.529360
  H      -4.951524      0.865596      0.677460
  H      -4.461934     -1.558978      0.557686
  H      -0.421929     -0.687677     -0.590981
  H      -2.197954     -2.335770     -0.078593
  N       0.183715      2.715136     -0.756034
  O       1.067633      3.513061     -0.992421
14
Coordinates from ORCA-job ./PhCNO E -399.935577896450
  C      -3.958634      0.525356      0.399995
  C      -2.966076      1.450899      0.114944
  C      -3.685303     -0.836468      0.332674
  C      -1.690792      1.006432     -0.241377
  C      -1.415040     -0.360710     -0.312955
  C      -2.415419     -1.276602     -0.024436
  H      -3.169271      2.514072      0.166132
  C      -0.657026      1.962256     -0.529699
  H      -4.948769      0.869443      0.676596
  H      -4.463883     -1.556644      0.558568
  H      -0.422324     -0.694303     -0.591188
  H      -2.201870     -2.338168     -0.077445
  N       0.179721      2.719891     -0.754941
  O       1.058291      3.524236     -0.989889
14
Coordinates from ORCA-job ./PhCNO E -399.935579730717
  C      -3.957736      0.525968      0.399761
  C      -2.964316      1.450529      0.114598
  C      -3.685657     -0.836137      0.332629
  C      -1.689351      1.004821     -0.241538
  C      -1.414840     -0.362531     -0.312774
  C      -2.416195     -1.277470     -0.024273
  H      -3.166494      2.513905      0.165539
  C      -0.654961      1.960055     -0.529986
  H      -4.947555      0.871035      0.676265
  H      -4.464887     -1.555590      0.558571
  H      -0.422401     -0.697188     -0.590840
  H      -2.203683     -2.339249     -0.077169
  N       0.177626      2.722476     -0.754780
  O       1.054056      3.529064     -0.989022
14
Coordinates from ORCA-job ./PhCNO E -399.935580716834
  C      -3.957387      0.526191      0.399704
  C      -2.963683      1.450468      0.114662
  C      -3.685839     -0.836023      0.332468
  C      -1.688863      1.004369     -0.241303
  C      -1.414785     -0.363118     -0.312423
  C      -2.416524     -1.277822     -0.024227
  H      -3.165491      2.513915      0.165548
  C      -0.653561      1.958623     -0.530186
  H      -4.947149      0.871460      0.676174
  H      -4.465421     -1.555163      0.558181
  H      -0.422365     -0.698116     -0.590298
  H      -2.204352     -2.339660     -0.077276
  N       0.176712      2.723682     -0.754989
  O       1.052314      3.530883     -0.989055
14
Coordinates from ORCA-job ./PhCNO E -399.935581001769
  C      -3.957483      0.526117      0.399740
  C      -2.963920      1.450589      0.114834
  C      -3.685829     -0.836065      0.332376
  C      -1.689097      1.004692     -0.241084
  C      -1.414850     -0.362830     -0.312264
  C      -2.416450     -1.277747     -0.024262
  H      -3.165870      2.514010      0.165794
  C      -0.653277      1.958342     -0.530193
  H      -4.947335      0.871119      0.676223
  H      -4.465430     -1.555235      0.557928
  H      -0.422337     -0.697631     -0.590072
  H      -2.204091     -2.339539     -0.077445
  N       0.176938      2.723448     -0.755159
  O       1.052637      3.530418     -0.989438
