! wB97X-D3BJ def2-TZVP TightSCF Opt Freq CPCM(benzene)  # OptTS VeryTightOpt Freq SP NMR

* xyz 0 1
 N     2.193595     1.415803     1.276766
 S     3.101004     2.582350     0.994466
 O     4.102165     2.479368    -0.051408
 C     2.107826     0.173386     0.612936
 C     2.368960     0.025967    -0.751044
 C     1.694605    -0.924149     1.367868
 C     2.221737    -1.220928    -1.343960
 C     1.572550    -2.170120     0.770519
 C     1.834503    -2.321921    -0.587233
 H     2.673517     0.881692    -1.338854
 H     1.475017    -0.783195     2.419891
 H     2.418246    -1.331582    -2.404694
 H     1.260525    -3.022241     1.364075
 H     1.732143    -3.294119    -1.056304
*
