 28
  Energy -1159.996784923952  Dipole 6.56900  G(298) 103.15
 C   -2.21235700  -1.20689200  -0.90942600
 C   -1.56071300  -0.04923100  -0.51494600
 C   -2.77193200  -2.04854600   0.04554200
 C   -1.49598500   0.26665400   0.84324500
 C   -2.05085200  -0.57751600   1.80652700
 C   -2.68692900  -1.73885800   1.40054400
 H   -1.09116800   0.60430500  -1.23983200
 C   -0.80389000   1.45884000   1.23767400
 H   -2.27090600  -1.45900100  -1.96191300
 H   -3.27424800  -2.95758800  -0.26700300
 H   -1.96582000  -0.32297300   2.85607300
 H   -3.11849600  -2.40437000   2.13907700
 N   -0.55254100   2.61906700   1.12015600
 O    0.38877200   3.37011700   1.54745300
 O    0.62453100   0.99823100   2.54034500
 S    1.76352900   1.94722400   2.32543000
 N    2.63079300   1.65946100   1.12805300
 C    2.24938100   0.86557800   0.01729100
 C    2.09453000   1.48073500  -1.22392000
 C    1.75537400   0.72220700  -2.33727000
 C    1.57461000  -0.65173700  -2.22332400
 C    1.73241600  -1.26332800  -0.98477700
 C    2.06586200  -0.51179800   0.13463500
 H    2.24393700   2.55163500  -1.30154600
 H    1.63752100   1.20916600  -3.29952300
 H    1.31458200  -1.24215700  -3.09506400
 H    1.59101800  -2.33428600  -0.88506500
 H    2.18898100  -0.98493900   1.10156400
