28
Coordinates from ORCA-job ./TS1_a E -1159.985373982330
  C      -3.451070      0.386915      1.017377
  C      -2.410007      1.305770      0.915013
  C      -3.486318     -0.730946      0.177022
  C      -1.398135      1.121924     -0.049867
  C      -1.434348     -0.011489     -0.885264
  C      -2.477130     -0.928247     -0.769634
  H      -2.369289      2.178699      1.570366
  C      -0.325253      2.071303     -0.146910
  H      -4.239040      0.541424      1.758662
  H      -4.303571     -1.451813      0.262416
  H      -0.640039     -0.162091     -1.619056
  H      -2.501977     -1.802843     -1.424051
  N      -0.065318      3.215386     -0.482662
  O       0.888156      4.013921     -0.438295
  N       1.508546      1.477665      0.665715
  S       2.629795      2.629946      0.402486
  O       3.683714      2.355386     -0.629605
  C       1.702765      0.118610      0.294966
  C       2.371658     -0.307462     -0.868943
  C       1.159662     -0.842985      1.166845
  C       2.497681     -1.671893     -1.135020
  C       1.293514     -2.202184      0.891493
  C       1.962107     -2.622924     -0.262004
  H       2.802565      0.435817     -1.539131
  H       0.639247     -0.497745      2.063287
  H       3.024478     -1.993778     -2.037454
  H       0.871421     -2.937286      1.581703
  H       2.066186     -3.689079     -0.479455
28
Coordinates from ORCA-job ./TS1_a E -1159.995535263151
  C      -3.335545      0.321845      1.015880
  C      -2.331071      1.271864      0.898043
  C      -3.339252     -0.794610      0.182180
  C      -1.333638      1.109717     -0.070800
  C      -1.333457     -0.015698     -0.900768
  C      -2.339616     -0.963255     -0.772111
  H      -2.311583      2.144423      1.544602
  C      -0.291678      2.099056     -0.180946
  H      -4.116192      0.451009      1.760330
  H      -4.126127     -1.538257      0.278646
  H      -0.545696     -0.140929     -1.637074
  H      -2.342366     -1.836447     -1.418222
  N      -0.020153      3.221115     -0.518384
  O       0.963764      3.989767     -0.434082
  N       1.488320      1.515839      0.672386
  S       2.575894      2.628357      0.452717
  O       3.599888      2.350671     -0.555528
  C       1.648004      0.145443      0.300725
  C       2.273581     -0.288341     -0.870927
  C       1.098060     -0.790754      1.179156
  C       2.351462     -1.651566     -1.142569
  C       1.182386     -2.148376      0.900804
  C       1.809570     -2.583916     -0.263485
  H       2.698174      0.434716     -1.555850
  H       0.606675     -0.434165      2.080102
  H       2.842201     -1.984054     -2.053881
  H       0.753429     -2.867427      1.593933
  H       1.874965     -3.646028     -0.484875
28
Coordinates from ORCA-job ./TS1_a E -1159.997106553657
  C      -3.268251      0.266147      1.030578
  C      -2.286434      1.236450      0.896436
  C      -3.285302     -0.830024      0.171467
  C      -1.325350      1.111064     -0.112602
  C      -1.337642      0.006199     -0.969033
  C      -2.321993     -0.960128     -0.824652
  H      -2.255100      2.092859      1.562093
  C      -0.297749      2.109037     -0.232012
  H      -4.020546      0.363038      1.806903
  H      -4.054033     -1.589165      0.281368
  H      -0.574416     -0.089581     -1.733264
  H      -2.334526     -1.818841     -1.488105
  N       0.029840      3.205539     -0.581388
  O       1.034142      3.949512     -0.480224
  N       1.493862      1.531767      0.717186
  S       2.570151      2.643492      0.481788
  O       3.586393      2.371912     -0.530831
  C       1.638921      0.162863      0.345374
  C       2.226806     -0.271534     -0.844931
  C       1.097989     -0.771559      1.230649
  C       2.274949     -1.632531     -1.129812
  C       1.152305     -2.127168      0.939029
  C       1.740596     -2.562993     -0.244746
  H       2.638822      0.450494     -1.537752
  H       0.632248     -0.414298      2.143691
  H       2.734644     -1.965041     -2.056087
  H       0.728473     -2.844456      1.635654
  H       1.781203     -3.623054     -0.476776
28
Coordinates from ORCA-job ./TS1_a E -1159.997854426643
  C      -3.142083      0.175024      1.058636
  C      -2.191291      1.173626      0.911042
  C      -3.183900     -0.883717      0.155474
  C      -1.287451      1.109718     -0.152924
  C      -1.322989      0.043015     -1.054062
  C      -2.277251     -0.950354     -0.898012
  H      -2.139065      2.001211      1.610051
  C      -0.277614      2.125122     -0.280545
  H      -3.850328      0.220288      1.878944
  H      -3.927926     -1.664725      0.275878
  H      -0.600182     -0.003004     -1.860063
  H      -2.309185     -1.780966     -1.594687
  N       0.073348      3.201579     -0.658362
  O       1.086196      3.936725     -0.552153
  N       1.464219      1.564716      0.745415
  S       2.553926      2.661215      0.504959
  O       3.579391      2.356072     -0.486730
  C       1.590723      0.191166      0.381130
  C       2.148215     -0.252664     -0.818845
  C       1.052051     -0.732798      1.277028
  C       2.169130     -1.614075     -1.103967
  C       1.077864     -2.088897      0.984954
  C       1.635979     -2.534813     -0.209142
  H       2.556250      0.462130     -1.520791
  H       0.608304     -0.368363      2.197438
  H       2.605189     -1.953902     -2.038279
  H       0.654998     -2.798499      1.689078
  H       1.653481     -3.594831     -0.441466
28
Coordinates from ORCA-job ./TS1_a E -1159.998281580256
  C      -3.027595      0.079494      1.081349
  C      -2.107474      1.105742      0.932067
  C      -3.108206     -0.926463      0.122676
  C      -1.274100      1.121124     -0.188345
  C      -1.348946      0.108782     -1.147305
  C      -2.271953     -0.912552     -0.989159
  H      -2.021680      1.890507      1.675150
  C      -0.275876      2.147271     -0.312309
  H      -3.680448      0.060793      1.946865
  H      -3.826545     -1.730215      0.245556
  H      -0.678743      0.126282     -1.997996
  H      -2.333947     -1.702623     -1.729025
  N       0.095456      3.209117     -0.712412
  O       1.127583      3.921666     -0.601929
  N       1.444945      1.591561      0.753559
  S       2.540812      2.675290      0.496936
  O       3.578015      2.334964     -0.467462
  C       1.560607      0.211327      0.408569
  C       2.092926     -0.251523     -0.794595
  C       1.027171     -0.696392      1.323643
  C       2.095876     -1.615953     -1.064507
  C       1.033047     -2.055285      1.046026
  C       1.567410     -2.520462     -0.151484
  H       2.493810      0.450841     -1.512693
  H       0.602210     -0.317516      2.246547
  H       2.512419     -1.970597     -2.001740
  H       0.614386     -2.752478      1.764329
  H       1.568843     -3.582702     -0.372311
28
Coordinates from ORCA-job ./TS1_a E -1159.998438441079
  C      -2.973756      0.029549      1.076490
  C      -2.070465      1.070796      0.935812
  C      -3.059799     -0.952730      0.094454
  C      -1.262287      1.126885     -0.201109
  C      -1.340492      0.137999     -1.183502
  C      -2.246328     -0.899443     -1.032570
  H      -1.977187      1.835330      1.698341
  C      -0.274504      2.162590     -0.314176
  H      -3.607722     -0.020881      1.954271
  H      -3.764190     -1.769292      0.210615
  H      -0.687508      0.186957     -2.046193
  H      -2.312608     -1.671211     -1.790706
  N       0.123399      3.197925     -0.750964
  O       1.165779      3.898991     -0.657672
  N       1.442288      1.606896      0.787980
  S       2.540865      2.678365      0.496191
  O       3.559460      2.311226     -0.476536
  C       1.544567      0.226112      0.440066
  C       2.036242     -0.238297     -0.779386
  C       1.033110     -0.679919      1.368813
  C       2.021069     -1.601810     -1.052203
  C       1.017965     -2.037910      1.087302
  C       1.512208     -2.504367     -0.126554
  H       2.419994      0.462452     -1.507976
  H       0.640627     -0.300422      2.305337
  H       2.406952     -1.956988     -2.001937
  H       0.614876     -2.733181      1.815966
  H       1.497443     -3.565626     -0.350153
28
Coordinates from ORCA-job ./TS1_a E -1159.998424630444
  C      -2.892694     -0.041454      1.102617
  C      -2.005234      1.013595      0.963984
  C      -3.027603     -0.974092      0.078872
  C      -1.261506      1.132362     -0.210840
  C      -1.388733      0.193069     -1.235642
  C      -2.279433     -0.857592     -1.087980
  H      -1.873933      1.739864      1.757579
  C      -0.282034      2.176271     -0.327797
  H      -3.476330     -0.141369      2.010465
  H      -3.719274     -1.801718      0.192743
  H      -0.784243      0.291131     -2.128900
  H      -2.383770     -1.591155     -1.878958
  N       0.125434      3.191118     -0.802917
  O       1.178074      3.881272     -0.732259
  N       1.423908      1.627168      0.773292
  S       2.532861      2.690397      0.482854
  O       3.587197      2.284879     -0.434913
  C       1.525588      0.240538      0.446203
  C       2.035799     -0.241078     -0.758629
  C       0.995167     -0.651782      1.377403
  C       2.021325     -1.607537     -1.014408
  C       0.977777     -2.012843      1.111584
  C       1.492226     -2.496290     -0.087135
  H       2.433090      0.448158     -1.490600
  H       0.589206     -0.260124      2.303003
  H       2.422381     -1.975472     -1.952773
  H       0.558065     -2.697254      1.841020
  H       1.476692     -3.560061     -0.297866
28
Coordinates from ORCA-job ./TS1_a E -1159.998421214322
  C      -2.931427     -0.026726      1.081958
  C      -2.031903      1.019581      0.958218
  C      -3.064581     -0.953496      0.052775
  C      -1.274402      1.135755     -0.207754
  C      -1.399600      0.202642     -1.238787
  C      -2.302074     -0.839697     -1.104978
  H      -1.900651      1.740101      1.756933
  C      -0.286699      2.172812     -0.316050
  H      -3.525254     -0.124979      1.983289
  H      -3.765524     -1.774635      0.155440
  H      -0.784648      0.298723     -2.125292
  H      -2.404751     -1.568468     -1.900559
  N       0.149387      3.152764     -0.837819
  O       1.214025      3.825908     -0.795420
  N       1.414936      1.621974      0.804793
  S       2.523169      2.681105      0.499035
  O       3.580134      2.257264     -0.405779
  C       1.530806      0.237906      0.468434
  C       2.000769     -0.227244     -0.758766
  C       1.056506     -0.668308      1.415489
  C       2.001447     -1.592289     -1.022020
  C       1.055481     -2.028403      1.143465
  C       1.528936     -2.495683     -0.078178
  H       2.356011      0.472855     -1.501948
  H       0.681957     -0.288538      2.358988
  H       2.371395     -1.947920     -1.977690
  H       0.680199     -2.724459      1.885950
  H       1.526355     -3.558546     -0.293728
28
Coordinates from ORCA-job ./TS1_a E -1159.998489028007
  C      -2.955271     -0.001440      1.079784
  C      -2.051461      1.040581      0.950555
  C      -3.070825     -0.950151      0.068505
  C      -1.271838      1.130454     -0.203494
  C      -1.379965      0.175557     -1.216217
  C      -2.286555     -0.862521     -1.076857
  H      -1.934834      1.778618      1.735399
  C      -0.282058      2.165181     -0.312832
  H      -3.566541     -0.078920      1.971407
  H      -3.775367     -1.767606      0.175725
  H      -0.748820      0.251163     -2.093066
  H      -2.375671     -1.608236     -1.858192
  N       0.130975      3.177925     -0.786516
  O       1.184314      3.866380     -0.717656
  N       1.433318      1.614511      0.789514
  S       2.534809      2.680559      0.490012
  O       3.570382      2.286593     -0.452534
  C       1.543002      0.230878      0.452234
  C       2.027282     -0.237568     -0.768268
  C       1.048448     -0.672384      1.392086
  C       2.021740     -1.602714     -1.031583
  C       1.041770     -2.032282      1.119873
  C       1.529173     -2.502884     -0.095016
  H       2.396967      0.460523     -1.506243
  H       0.662346     -0.290016      2.329859
  H       2.402186     -1.960910     -1.982163
  H       0.650814     -2.725676      1.856691
  H       1.521679     -3.565618     -0.311009
28
Coordinates from ORCA-job ./TS1_a E -1159.998478402899
  C      -2.923679     -0.022716      1.080992
  C      -2.027298      1.025553      0.949667
  C      -3.044449     -0.964635      0.063934
  C      -1.259864      1.128051     -0.211694
  C      -1.372961      0.179462     -1.229693
  C      -2.272688     -0.864374     -1.088838
  H      -1.907586      1.759071      1.738301
  C      -0.276048      2.167769     -0.322797
  H      -3.525492     -0.110020      1.978119
  H      -3.743500     -1.786659      0.172279
  H      -0.750938      0.264549     -2.112106
  H      -2.365794     -1.604938     -1.874559
  N       0.131727      3.187438     -0.783949
  O       1.181272      3.880383     -0.706092
  N       1.433700      1.622632      0.790422
  S       2.540831      2.682346      0.486848
  O       3.571210      2.282962     -0.459838
  C       1.534093      0.237613      0.456759
  C       2.010728     -0.235925     -0.764853
  C       1.036225     -0.660741      1.399486
  C       1.995099     -1.601205     -1.026352
  C       1.019347     -2.021087      1.128996
  C       1.499306     -2.496669     -0.086856
  H       2.382876      0.459201     -1.504557
  H       0.654593     -0.274350      2.337559
  H       2.369770     -1.963298     -1.977746
  H       0.625891     -2.710804      1.867914
  H       1.483632     -3.559609     -0.301345
28
Coordinates from ORCA-job ./TS1_a E -1159.998316154725
  C      -2.938778     -0.019610      1.079716
  C      -2.035028      1.023113      0.956682
  C      -3.067065     -0.952301      0.055110
  C      -1.268368      1.129957     -0.204686
  C      -1.389271      0.191258     -1.230598
  C      -2.296137     -0.847591     -1.097723
  H      -1.909423      1.749353      1.751024
  C      -0.279972      2.167195     -0.307013
  H      -3.540324     -0.110168      1.976695
  H      -3.771481     -1.770480      0.157619
  H      -0.768372      0.279946     -2.113487
  H      -2.395550     -1.580798     -1.889558
  N       0.105860      3.215117     -0.725113
  O       1.148322      3.917055     -0.630714
  N       1.453995      1.614666      0.763920
  S       2.551694      2.678326      0.448849
  O       3.536660      2.307384     -0.555461
  C       1.551932      0.226705      0.441385
  C       2.050302     -0.261895     -0.765750
  C       1.036313     -0.660878      1.385149
  C       2.040951     -1.630467     -1.009648
  C       1.022573     -2.023988      1.130331
  C       1.526680     -2.514638     -0.069730
  H       2.433053      0.424535     -1.507873
  H       0.639586     -0.263726      2.312274
  H       2.433113     -2.003694     -1.949600
  H       0.614353     -2.704335      1.869931
  H       1.514380     -3.580039     -0.271730
28
Coordinates from ORCA-job ./TS1_a E -1159.998392350738
  C      -2.998639      0.060845      1.071480
  C      -2.085189      1.090629      0.916145
  C      -3.083778     -0.941842      0.110333
  C      -1.263767      1.115196     -0.213353
  C      -1.343151      0.106644     -1.175366
  C      -2.260282     -0.919023     -1.010195
  H      -1.993355      1.871206      1.662205
  C      -0.270995      2.145712     -0.332515
  H      -3.641021      0.035294      1.944083
  H      -3.795813     -1.749969      0.237770
  H      -0.684175      0.130683     -2.034344
  H      -2.327360     -1.706049     -1.752243
  N       0.116648      3.196448     -0.738792
  O       1.148255      3.909105     -0.615752
  N       1.440839      1.602575      0.779937
  S       2.541500      2.680675      0.518873
  O       3.587107      2.321709     -0.427395
  C       1.555016      0.222906      0.433806
  C       2.051061     -0.235420     -0.786134
  C       1.045974     -0.687900      1.358539
  C       2.037889     -1.597437     -1.065438
  C       1.035659     -2.045025      1.071954
  C       1.530717     -2.505051     -0.143673
  H       2.431988      0.467568     -1.513571
  H       0.649398     -0.312750      2.294953
  H       2.423704     -1.947644     -2.016885
  H       0.633600     -2.743904      1.797496
  H       1.518169     -3.565183     -0.371920
28
Coordinates from ORCA-job ./TS1_a E -1159.998524793800
  C      -2.977180      0.039008      1.081811
  C      -2.065508      1.071818      0.933683
  C      -3.086426     -0.937712      0.096624
  C      -1.270655      1.123325     -0.212626
  C      -1.372846      0.140464     -1.198563
  C      -2.287942     -0.887662     -1.041051
  H      -1.955068      1.832265      1.697778
  C      -0.273461      2.149355     -0.336318
  H      -3.600178     -0.008879      1.967370
  H      -3.797667     -1.747291      0.218448
  H      -0.731363      0.187228     -2.069703
  H      -2.372524     -1.654790     -1.801862
  N       0.129841      3.178445     -0.781145
  O       1.174133      3.877299     -0.685533
  N       1.422476      1.604638      0.789969
  S       2.523598      2.678621      0.517078
  O       3.570329      2.301200     -0.420339
  C       1.543426      0.223856      0.445017
  C       2.043418     -0.233082     -0.773546
  C       1.042558     -0.688605      1.372614
  C       2.047624     -1.596049     -1.047169
  C       1.045767     -2.046581      1.089984
  C       1.548786     -2.505601     -0.122937
  H       2.417909      0.473203     -1.501500
  H       0.642551     -0.315063      2.308231
  H       2.439877     -1.945267     -1.996291
  H       0.649983     -2.747466      1.817043
  H       1.548542     -3.566679     -0.347063
28
Coordinates from ORCA-job ./TS1_a E -1159.998397199949
  C      -2.921500     -0.041130      1.071587
  C      -2.028112      1.010858      0.953082
  C      -3.036401     -0.973020      0.044791
  C      -1.258625      1.129192     -0.205752
  C      -1.364923      0.189834     -1.233265
  C      -2.261573     -0.858444     -1.104627
  H      -1.912019      1.736164      1.749767
  C      -0.282309      2.176991     -0.302943
  H      -3.524681     -0.139745      1.966627
  H      -3.732656     -1.798701      0.142965
  H      -0.740146      0.284605     -2.113013
  H      -2.349881     -1.591744     -1.897695
  N       0.127333      3.192632     -0.772274
  O       1.180142      3.881981     -0.703472
  N       1.448727      1.629744      0.786929
  S       2.557731      2.682973      0.466281
  O       3.585128      2.270683     -0.477591
  C       1.538131      0.242805      0.459243
  C       1.993278     -0.238035     -0.767874
  C       1.050986     -0.649197      1.413040
  C       1.965826     -1.604147     -1.023986
  C       1.023299     -2.010617      1.148622
  C       1.481064     -2.493404     -0.072744
  H       2.356196      0.450956     -1.517513
  H       0.686563     -0.256972      2.355488
  H       2.323317     -1.971956     -1.979770
  H       0.638139     -2.695209      1.896606
  H       1.456967     -3.557098     -0.282509
28
Coordinates from ORCA-job ./TS1_a E -1159.998465237947
  C      -2.919900     -0.027197      1.086124
  C      -2.023050      1.020681      0.955493
  C      -3.050733     -0.960740      0.062634
  C      -1.264829      1.130898     -0.211041
  C      -1.388387      0.191080     -1.235847
  C      -2.288977     -0.852184     -1.095981
  H      -1.895423      1.747698      1.748884
  C      -0.279263      2.169366     -0.322214
  H      -3.514194     -0.120776      1.987615
  H      -3.749936     -1.782710      0.170440
  H      -0.774220      0.282854     -2.123100
  H      -2.390333     -1.586052     -1.886953
  N       0.132793      3.182168     -0.795663
  O       1.185331      3.871576     -0.725112
  N       1.428604      1.621783      0.788342
  S       2.535904      2.681384      0.484843
  O       3.567415      2.278730     -0.459078
  C       1.533280      0.236361      0.457408
  C       2.020084     -0.238105     -0.759860
  C       1.031813     -0.661829      1.398371
  C       2.011880     -1.603855     -1.018308
  C       1.021257     -2.022749      1.130357
  C       1.512253     -2.499170     -0.080737
  H       2.394172      0.457115     -1.498521
  H       0.642987     -0.275049      2.333313
  H       2.394636     -1.966439     -1.966275
  H       0.624828     -2.712232      1.867900
  H       1.502007     -3.562605     -0.293032
28
Coordinates from ORCA-job ./TS1_a E -1159.998556584422
  C      -2.986117      0.051700      1.079366
  C      -2.067698      1.077879      0.926483
  C      -3.101818     -0.929493      0.099271
  C      -1.273330      1.118700     -0.220633
  C      -1.380470      0.130436     -1.200809
  C      -2.301734     -0.891374     -1.037818
  H      -1.952132      1.841406      1.686686
  C      -0.271055      2.138598     -0.350845
  H      -3.609400      0.012420      1.965150
  H      -3.818530     -1.733557      0.225178
  H      -0.736854      0.167436     -2.071070
  H      -2.390092     -1.662563     -1.794083
  N       0.135919      3.166998     -0.793535
  O       1.179807      3.865609     -0.691240
  N       1.416335      1.602823      0.797808
  S       2.516672      2.680298      0.535063
  O       3.584535      2.302752     -0.377333
  C       1.544055      0.223204      0.447926
  C       2.039583     -0.226614     -0.775004
  C       1.053448     -0.694510      1.375425
  C       2.049186     -1.588838     -1.053233
  C       1.063590     -2.051703      1.089132
  C       1.561764     -2.503978     -0.128212
  H       2.406490      0.483080     -1.503295
  H       0.656343     -0.325881      2.314182
  H       2.438234     -1.933194     -2.005437
  H       0.676367     -2.757241      1.816287
  H       1.566900     -3.564393     -0.355411
28
Coordinates from ORCA-job ./TS1_a E -1159.998513008085
  C      -2.941349     -0.005815      1.081104
  C      -2.038762      1.036717      0.946836
  C      -3.062805     -0.953748      0.069702
  C      -1.265608      1.127391     -0.211714
  C      -1.379477      0.172950     -1.224072
  C      -2.285497     -0.865129     -1.080268
  H      -1.918364      1.774741      1.731133
  C      -0.276985      2.162697     -0.324771
  H      -3.547358     -0.083971      1.976243
  H      -3.766617     -1.771363      0.180490
  H      -0.753462      0.248895     -2.104503
  H      -2.379210     -1.610317     -1.861536
  N       0.132392      3.180905     -0.788478
  O       1.182107      3.873682     -0.709372
  N       1.429325      1.617293      0.790170
  S       2.534940      2.680813      0.495254
  O       3.573307      2.284280     -0.443537
  C       1.537587      0.233157      0.454711
  C       2.020586     -0.235508     -0.766306
  C       1.042291     -0.669501      1.394532
  C       2.013834     -1.600339     -1.030076
  C       1.034235     -2.029507      1.121745
  C       1.520596     -2.500236     -0.093411
  H       2.390339      0.463124     -1.503944
  H       0.655968     -0.286907      2.332226
  H       2.393287     -1.958671     -1.980992
  H       0.642798     -2.722726      1.858442
  H       1.511901     -3.562904     -0.309609
28
Coordinates from ORCA-job ./TS1_a E -1159.998485714537
  C      -2.929688     -0.018980      1.082212
  C      -2.030214      1.026598      0.951207
  C      -3.055319     -0.958597      0.063624
  C      -1.264482      1.128771     -0.211261
  C      -1.382409      0.182578     -1.230887
  C      -2.285362     -0.858586     -1.090348
  H      -1.906557      1.758218      1.740976
  C      -0.278236      2.166490     -0.321935
  H      -3.530052     -0.106053      1.980329
  H      -3.756713     -1.778649      0.171742
  H      -0.761911      0.267464     -2.114436
  H      -2.382366     -1.597331     -1.877316
  N       0.130585      3.184670     -0.786274
  O       1.181005      3.876639     -0.709620
  N       1.432409      1.620326      0.787924
  S       2.538352      2.681641      0.486204
  O       3.570705      2.283262     -0.458378
  C       1.536946      0.235155      0.455715
  C       2.019457     -0.238275     -0.763659
  C       1.038621     -0.663691      1.397667
  C       2.009191     -1.603836     -1.023576
  C       1.026708     -2.024375      1.128556
  C       1.512672     -2.499811     -0.084922
  H       2.391518      0.457148     -1.503095
  H       0.653019     -0.277536      2.334187
  H       2.388377     -1.965788     -1.973221
  H       0.632699     -2.714427      1.866860
  H       1.501046     -3.563024     -0.298278
28
Coordinates from ORCA-job ./TS1_a E -1159.998491451007
  C      -2.933740     -0.015049      1.081465
  C      -2.033262      1.029621      0.949935
  C      -3.057450     -0.957278      0.065046
  C      -1.264559      1.128244     -0.210899
  C      -1.380625      0.179462     -1.228330
  C      -2.284559     -0.860787     -1.087262
  H      -1.911133      1.763266      1.738063
  C      -0.277756      2.165449     -0.321880
  H      -3.536376     -0.099352      1.978324
  H      -3.759619     -1.776607      0.173616
  H      -0.757957      0.261573     -2.110600
  H      -2.380065     -1.601548     -1.872515
  N       0.130614      3.184243     -0.785227
  O       1.180533      3.876849     -0.707895
  N       1.432486      1.619392      0.788324
  S       2.538094      2.681388      0.488037
  O       3.570961      2.284091     -0.456505
  C       1.537590      0.234510      0.455198
  C       2.019790     -0.237806     -0.764738
  C       1.040104     -0.665225      1.396737
  C       2.010050     -1.603186     -1.025636
  C       1.028818     -2.025730      1.126691
  C       1.514439     -2.500066     -0.087361
  H       2.391242      0.458382     -1.503780
  H       0.654630     -0.279896      2.333655
  H       2.388954     -1.964292     -1.975717
  H       0.635522     -2.716509      1.864695
  H       1.503274     -3.563138     -0.301442
28
Coordinates from ORCA-job ./TS1_a E -1159.998492114396
  C      -2.934523     -0.014159      1.081489
  C      -2.033877      1.030333      0.949704
  C      -3.057818     -0.957060      0.065642
  C      -1.264612      1.128130     -0.210840
  C      -1.380292      0.178689     -1.227701
  C      -2.284367     -0.861402     -1.086360
  H      -1.912069      1.764495      1.737401
  C      -0.277705      2.165210     -0.321973
  H      -3.537609     -0.097806      1.978106
  H      -3.760116     -1.776252      0.174417
  H      -0.757238      0.260184     -2.109752
  H      -2.379570     -1.602675     -1.871166
  N       0.130445      3.184405     -0.784642
  O       1.180226      3.877164     -0.706761
  N       1.432608      1.619167      0.788161
  S       2.538096      2.681394      0.488216
  O       3.570969      2.284721     -0.456574
  C       1.537799      0.234334      0.454872
  C       2.020419     -0.237853     -0.764946
  C       1.039960     -0.665506      1.396135
  C       2.010734     -1.603208     -1.026002
  C       1.028735     -2.025976      1.125928
  C       1.514772     -2.500185     -0.088009
  H       2.392123      0.458403     -1.503794
  H       0.654154     -0.280276      2.332956
  H       2.389953     -1.964211     -1.975996
  H       0.635156     -2.716830      1.863711
  H       1.503647     -3.563231     -0.302223
