 28
  Energy -1160.002167681138  Dipole 4.11750  G(298) 101.99
 C   -4.50345100  -0.80848900  -0.68465900
 C   -3.58008900   0.18938200  -0.96236900
 C   -4.12435400  -1.91392900   0.07119700
 C   -2.29033500   0.07305400  -0.45526900
 C   -1.89319500  -1.03987700   0.27943200
 C   -2.82323100  -2.03254600   0.55168100
 H   -3.85159700   1.05311400  -1.55839800
 C   -1.31562500   1.27876900  -0.57270000
 H   -5.51568100  -0.72887200  -1.06418300
 H   -4.84700600  -2.69541400   0.27950100
 H   -0.87119200  -1.11637000   0.63330500
 H   -2.53194400  -2.90216800   1.12965300
 N   -0.80612800   0.86125000  -1.66271400
 O    0.46921200   2.30090800  -1.96075200
 O   -1.20307800   2.21030400   0.22415400
 S    0.88957800   3.11967400  -0.78834600
 N    1.92328900   2.58057400   0.14197800
 C    2.56127300   1.34017300   0.30533000
 C    2.29294400   0.21578300  -0.48063200
 C    2.97693200  -0.96574900  -0.23113800
 C    3.92523800  -1.03470500   0.78354200
 C    4.19320200   0.08737900   1.56159800
 C    3.51160500   1.27041400   1.32651300
 H    1.55877400   0.26352500  -1.27178600
 H    2.76691800  -1.83854600  -0.83950600
 H    4.45616100  -1.96221900   0.96760900
 H    4.93173500   0.03909800   2.35392200
 H    3.70004600   2.15548200   1.92303900
