28
Coordinates from ORCA-job ./TS2_a E -1160.011619612935
  C       1.514871      1.397572     -2.533809
  C       1.517930      1.365820     -1.144319
  C       0.372445      1.823613     -3.225873
  C       0.350326      1.734236     -0.447521
  C      -0.791686      2.181598     -1.137420
  C      -0.775258      2.217972     -2.529211
  H       2.402351      1.056933     -0.583156
  C       0.254029      1.375878      1.057510
  H       2.411526      1.104494     -3.084873
  H       0.383961      1.861809     -4.318073
  H      -1.665146      2.508237     -0.569197
  H      -1.655559      2.566778     -3.074225
  N       0.582897      2.583724      1.221840
  O       0.650921      2.245581      3.427401
  N       0.068304      0.256570      1.697534
  S       0.735788      0.774748      3.762236
  O       2.087308      0.166603      3.830720
  C      -0.319525     -0.989907      1.203112
  C       0.374662     -2.132521      1.645469
  C      -1.410668     -1.143217      0.326627
  C      -0.014679     -3.397656      1.211210
  C      -1.772502     -2.412801     -0.122127
  C      -1.082409     -3.545159      0.319875
  H       1.217970     -2.002867      2.328508
  H      -1.971938     -0.262195      0.007327
  H       0.529245     -4.277673      1.564392
  H      -2.615428     -2.519260     -0.810210
  H      -1.379737     -4.538911     -0.023747
28
Coordinates from ORCA-job ./TS2_a E -1160.018956193590
  C       1.477927      1.286608     -2.496779
  C       1.490128      1.287185     -1.111383
  C       0.338649      1.711559     -3.184035
  C       0.336493      1.687313     -0.427067
  C      -0.799164      2.137135     -1.105902
  C      -0.794285      2.140285     -2.493883
  H       2.368618      0.978797     -0.550731
  C       0.265845      1.409037      1.083870
  H       2.360198      0.967899     -3.045612
  H       0.341016      1.721237     -4.271686
  H      -1.659064      2.486658     -0.540882
  H      -1.668790      2.486672     -3.038334
  N       0.601233      2.602674      1.267044
  O       0.611453      2.210480      3.464788
  N       0.075973      0.306402      1.750133
  S       0.685555      0.756599      3.738626
  O       2.025613      0.188651      3.774666
  C      -0.300736     -0.938570      1.213429
  C       0.397214     -2.080581      1.619104
  C      -1.378669     -1.061645      0.331333
  C       0.021113     -3.328965      1.137653
  C      -1.730291     -2.312861     -0.164266
  C      -1.036631     -3.450802      0.238762
  H       1.233097     -1.972679      2.306003
  H      -1.942384     -0.178369      0.043463
  H       0.567113     -4.212991      1.459475
  H      -2.564677     -2.398788     -0.857089
  H      -1.322547     -4.428940     -0.140699
28
Coordinates from ORCA-job ./TS2_a E -1160.021240390768
  C       1.464542      1.246789     -2.497585
  C       1.486072      1.256312     -1.114286
  C       0.333015      1.697507     -3.178270
  C       0.347109      1.692615     -0.430746
  C      -0.780478      2.169135     -1.101011
  C      -0.783606      2.161082     -2.486789
  H       2.354780      0.924820     -0.556057
  C       0.276021      1.413446      1.087027
  H       2.331224      0.900645     -3.049646
  H       0.328018      1.697957     -4.263545
  H      -1.627856      2.536292     -0.532958
  H      -1.649866      2.524199     -3.028501
  N       0.639611      2.596514      1.241086
  O       0.594969      2.164115      3.467533
  N       0.040199      0.338215      1.772159
  S       0.595476      0.705738      3.672078
  O       1.911759      0.095829      3.697702
  C      -0.313389     -0.921009      1.234099
  C       0.415868     -2.043550      1.622583
  C      -1.393438     -1.052556      0.363326
  C       0.064456     -3.293490      1.128937
  C      -1.721944     -2.304418     -0.142592
  C      -0.997137     -3.427795      0.239903
  H       1.252745     -1.923479      2.301962
  H      -1.979385     -0.180600      0.095337
  H       0.632553     -4.166629      1.433353
  H      -2.558991     -2.401985     -0.826665
  H      -1.262329     -4.405697     -0.148436
28
Coordinates from ORCA-job ./TS2_a E -1160.021419485892
  C       1.503080      1.191783     -2.449363
  C       1.507998      1.234339     -1.067450
  C       0.374469      1.615224     -3.151533
  C       0.356479      1.674540     -0.407837
  C      -0.767727      2.125503     -1.100361
  C      -0.754604      2.084179     -2.484957
  H       2.372008      0.924696     -0.490389
  C       0.270997      1.429235      1.106265
  H       2.378774      0.842072     -2.983719
  H       0.381580      1.589832     -4.236146
  H      -1.625056      2.495773     -0.550387
  H      -1.617053      2.425446     -3.045601
  N       0.636998      2.609542      1.244272
  O       0.527768      2.184380      3.477921
  N      -0.003303      0.365494      1.802832
  S       0.553787      0.718962      3.662812
  O       1.892257      0.148706      3.687230
  C      -0.334076     -0.894187      1.243166
  C       0.471362     -1.998662      1.509381
  C      -1.481314     -1.030256      0.463768
  C       0.127260     -3.237048      0.981527
  C      -1.803786     -2.267524     -0.078466
  C      -1.001952     -3.373597      0.181218
  H       1.355641     -1.877392      2.123401
  H      -2.121316     -0.170856      0.298883
  H       0.752777     -4.098641      1.189390
  H      -2.692705     -2.369541     -0.692111
  H      -1.260344     -4.342001     -0.233746
28
Coordinates from ORCA-job ./TS2_a E -1160.021323996126
  C       1.533995      1.252555     -2.491994
  C       1.557941      1.273086     -1.109310
  C       0.383008      1.650845     -3.170428
  C       0.404663      1.668015     -0.428562
  C      -0.742030      2.098265     -1.096513
  C      -0.749690      2.075811     -2.480918
  H       2.439959      0.984307     -0.549978
  C       0.333482      1.420911      1.084401
  H       2.411670      0.939502     -3.044568
  H       0.374656      1.642447     -4.254937
  H      -1.599708      2.438444     -0.528632
  H      -1.629998      2.398957     -3.023518
  N       0.712283      2.593741      1.242757
  O       0.503370      2.171136      3.457322
  N       0.004055      0.368719      1.776960
  S       0.441495      0.708571      3.651688
  O       1.739786      0.061997      3.744272
  C      -0.337737     -0.895749      1.232647
  C       0.486090     -1.989255      1.484296
  C      -1.504410     -1.043865      0.488616
  C       0.130317     -3.237631      0.990349
  C      -1.837578     -2.290800     -0.023585
  C      -1.025863     -3.390058      0.233070
  H       1.385830     -1.850004      2.071676
  H      -2.143567     -0.184648      0.319647
  H       0.765401     -4.093238      1.191741
  H      -2.741841     -2.406158     -0.611145
  H      -1.295575     -4.365899     -0.155353
28
Coordinates from ORCA-job ./TS2_a E -1160.021437459261
  C       1.511210      1.244789     -2.478706
  C       1.525253      1.265854     -1.096354
  C       0.370055      1.656629     -3.166354
  C       0.370670      1.673428     -0.423774
  C      -0.766244      2.114380     -1.100738
  C      -0.762838      2.093727     -2.485459
  H       2.399000      0.964366     -0.530670
  C       0.297070      1.419675      1.090131
  H       2.389153      0.920406     -3.024288
  H       0.370012      1.647852     -4.250826
  H      -1.625359      2.461478     -0.539352
  H      -1.635297      2.426826     -3.034563
  N       0.648256      2.602178      1.243555
  O       0.513824      2.168610      3.457282
  N       0.036371      0.351341      1.785227
  S       0.525509      0.704830      3.646177
  O       1.855938      0.124942      3.705460
  C      -0.318609     -0.908167      1.240149
  C       0.464124     -2.021015      1.535270
  C      -1.456315     -1.035871      0.447633
  C       0.101819     -3.263083      1.030471
  C      -1.796327     -2.277837     -0.072066
  C      -1.021783     -3.394145      0.222002
  H       1.344263     -1.902403      2.155443
  H      -2.073537     -0.167040      0.251032
  H       0.707971     -4.131520      1.263399
  H      -2.678376     -2.374781     -0.695608
  H      -1.295812     -4.365449     -0.174472
28
Coordinates from ORCA-job ./TS2_a E -1160.021440920076
  C       1.494197      1.232343     -2.483436
  C       1.514455      1.251724     -1.100949
  C       0.354808      1.657407     -3.165719
  C       0.367509      1.670795     -0.422855
  C      -0.767294      2.124616     -1.094498
  C      -0.770300      2.105749     -2.479310
  H       2.387690      0.940326     -0.539841
  C       0.298139      1.419610      1.090760
  H       2.366229      0.898923     -3.033105
  H       0.350015      1.650080     -4.250228
  H      -1.620328      2.480256     -0.529134
  H      -1.641558      2.449080     -3.024079
  N       0.660843      2.598688      1.248376
  O       0.542698      2.177742      3.450507
  N       0.027327      0.353805      1.785873
  S       0.529706      0.715465      3.656753
  O       1.850834      0.115325      3.732014
  C      -0.320033     -0.906850      1.238744
  C       0.454481     -2.020149      1.553196
  C      -1.443098     -1.035453      0.425603
  C       0.100016     -3.263170      1.045216
  C      -1.775136     -2.278599     -0.096543
  C      -1.007882     -3.395057      0.215478
  H       1.323220     -1.900899      2.189256
  H      -2.055619     -0.166563      0.215177
  H       0.700190     -4.131856      1.292377
  H      -2.645490     -2.376155     -0.736281
  H      -1.275618     -4.367182     -0.183349
28
Coordinates from ORCA-job ./TS2_a E -1160.021112050591
  C       1.448453      1.150281     -2.447434
  C       1.464621      1.191449     -1.065462
  C       0.334785      1.621744     -3.141778
  C       0.337196      1.677999     -0.399137
  C      -0.771969      2.174640     -1.083087
  C      -0.769186      2.136377     -2.467547
  H       2.318915      0.845679     -0.495089
  C       0.249643      1.433615      1.116278
  H       2.304603      0.763943     -2.987495
  H       0.334111      1.597949     -4.226081
  H      -1.609397      2.578392     -0.526675
  H      -1.619963      2.514465     -3.021710
  N       0.655952      2.599642      1.258704
  O       0.600733      2.177479      3.464692
  N      -0.048389      0.378303      1.816393
  S       0.592136      0.715090      3.649820
  O       1.901221      0.092584      3.568573
  C      -0.349366     -0.888966      1.252879
  C       0.432867     -1.991020      1.586737
  C      -1.438609     -1.029610      0.396767
  C       0.120751     -3.234322      1.051258
  C      -1.727430     -2.272333     -0.151204
  C      -0.951387     -3.377868      0.177854
  H       1.277504     -1.862809      2.252847
  H      -2.059996     -0.169653      0.174895
  H       0.728003     -4.094439      1.311249
  H      -2.571302     -2.378427     -0.824336
  H      -1.184501     -4.350183     -0.241910
28
Coordinates from ORCA-job ./TS2_a E -1160.021423631833
  C       1.483767      1.201323     -2.465905
  C       1.500068      1.232704     -1.083605
  C       0.352808      1.636826     -3.155586
  C       0.357117      1.674299     -0.412904
  C      -0.769293      2.137678     -1.092010
  C      -0.767720      2.107540     -2.476639
  H       2.366787      0.913361     -0.516802
  C       0.278498      1.425916      1.101402
  H       2.352519      0.850192     -3.009721
  H       0.351151      1.619763     -4.239974
  H      -1.619294      2.509177     -0.532316
  H      -1.632292      2.458427     -3.027211
  N       0.652901      2.601409      1.255304
  O       0.550123      2.177362      3.460188
  N      -0.000153      0.362895      1.798748
  S       0.557103      0.714142      3.653429
  O       1.886450      0.129124      3.685793
  C      -0.331253     -0.900025      1.244008
  C       0.450856     -2.009337      1.553284
  C      -1.448588     -1.031762      0.423374
  C       0.109079     -3.251017      1.032946
  C      -1.767926     -2.273125     -0.110581
  C      -0.993286     -3.385830      0.196555
  H       1.316495     -1.889300      2.193027
  H      -2.066672     -0.165992      0.216253
  H       0.715655     -4.116446      1.275938
  H      -2.634105     -2.372338     -0.755693
  H      -1.250794     -4.356965     -0.211302
28
Coordinates from ORCA-job ./TS2_a E -1160.021055364404
  C       1.530138      1.295171     -2.498710
  C       1.549001      1.301976     -1.116147
  C       0.375941      1.683897     -3.178130
  C       0.387544      1.673265     -0.434421
  C      -0.762886      2.091309     -1.103414
  C      -0.765394      2.083241     -2.488334
  H       2.432753      1.017591     -0.557232
  C       0.323013      1.408423      1.079173
  H       2.414353      0.999886     -3.050830
  H       0.371884      1.686645     -4.262704
  H      -1.628123      2.412352     -0.535834
  H      -1.648715      2.398920     -3.030490
  N       0.657690      2.596050      1.235269
  O       0.513372      2.171744      3.446514
  N       0.072440      0.336391      1.766441
  S       0.495097      0.711248      3.654990
  O       1.805189      0.089002      3.712869
  C      -0.308044     -0.917699      1.232433
  C       0.463956     -2.035176      1.538530
  C      -1.452724     -1.040633      0.449862
  C       0.086140     -3.279064      1.050837
  C      -1.808987     -2.285331     -0.052885
  C      -1.043511     -3.405800      0.249389
  H       1.345993     -1.914153      2.157110
  H      -2.062740     -0.167407      0.249675
  H       0.682842     -4.152212      1.290598
  H      -2.696009     -2.381166     -0.669676
  H      -1.330216     -4.378472     -0.134882
28
Coordinates from ORCA-job ./TS2_a E -1160.020704465393
  C       1.573037      1.384306     -2.529917
  C       1.593789      1.367764     -1.147469
  C       0.397100      1.717472     -3.201295
  C       0.415322      1.662155     -0.457240
  C      -0.758648      2.024595     -1.118753
  C      -0.764125      2.037991     -2.503299
  H       2.494092      1.126338     -0.594961
  C       0.363969      1.389742      1.052551
  H       2.471969      1.151071     -3.087850
  H       0.390906      1.740130     -4.285542
  H      -1.638563      2.290657     -0.545298
  H      -1.665249      2.311691     -3.038788
  N       0.659109      2.587566      1.220701
  O       0.475993      2.163978      3.401673
  N       0.147132      0.312442      1.744398
  S       0.435702      0.703807      3.627160
  O       1.732006      0.108873      3.906073
  C      -0.275017     -0.935222      1.226753
  C       0.486605     -2.067115      1.504660
  C      -1.452620     -1.038544      0.491269
  C       0.064609     -3.305116      1.038395
  C      -1.853650     -2.277458      0.008760
  C      -1.099236     -3.412017      0.284666
  H       1.392763     -1.964196      2.089943
  H      -2.052857     -0.154503      0.311127
  H       0.652763     -4.189253      1.257768
  H      -2.766286     -2.357259     -0.571749
  H      -1.420614     -4.379894     -0.083736
28
Coordinates from ORCA-job ./TS2_a E -1160.021177862578
  C       1.527278      1.295611     -2.501039
  C       1.546427      1.302005     -1.118443
  C       0.371458      1.680189     -3.179698
  C       0.384255      1.669246     -0.435831
  C      -0.768048      2.083089     -1.104216
  C      -0.770968      2.075311     -2.489052
  H       2.431678      1.020942     -0.560246
  C       0.322047      1.408751      1.075857
  H       2.412395      1.003802     -3.053449
  H       0.366827      1.683311     -4.264184
  H      -1.634176      2.401199     -0.536331
  H      -1.655632      2.387897     -3.030676
  N       0.657098      2.595983      1.240591
  O       0.522982      2.168863      3.426272
  N       0.073923      0.338213      1.770527
  S       0.502788      0.706942      3.638586
  O       1.819263      0.115587      3.810862
  C      -0.302650     -0.918327      1.235610
  C       0.463945     -2.040357      1.538686
  C      -1.445255     -1.035515      0.448292
  C       0.081723     -3.281051      1.045344
  C      -1.805087     -2.276589     -0.060180
  C      -1.045820     -3.401527      0.240585
  H       1.345338     -1.929452      2.158698
  H      -2.051114     -0.159697      0.247866
  H       0.674692     -4.157010      1.283853
  H      -2.690311     -2.365724     -0.680440
  H      -1.335057     -4.371691     -0.147842
28
Coordinates from ORCA-job ./TS2_a E -1160.021444508391
  C       1.515916      1.238121     -2.481612
  C       1.533748      1.262197     -1.098899
  C       0.374238      1.650953     -3.167420
  C       0.382772      1.675788     -0.424166
  C      -0.755207      2.116430     -1.099980
  C      -0.756091      2.091905     -2.484356
  H       2.408699      0.959929     -0.535475
  C       0.301838      1.421356      1.089701
  H       2.391555      0.909916     -3.028774
  H       0.371151      1.639683     -4.251906
  H      -1.611621      2.467671     -0.536942
  H      -1.629599      2.425451     -3.031608
  N       0.673121      2.597723      1.243189
  O       0.531704      2.175571      3.457025
  N       0.013340      0.360523      1.783208
  S       0.492281      0.714054      3.658457
  O       1.799732      0.085734      3.728211
  C      -0.330322     -0.901357      1.235961
  C       0.473314     -2.003524      1.513714
  C      -1.479057     -1.040893      0.462375
  C       0.120104     -3.248577      1.009882
  C      -1.811467     -2.285761     -0.055360
  C      -1.016108     -3.391949      0.221326
  H       1.361306     -1.873712      2.120518
  H      -2.110550     -0.178832      0.281120
  H       0.742366     -4.109427      1.228321
  H      -2.703134     -2.393189     -0.663298
  H      -1.284028     -4.365784     -0.173216
28
Coordinates from ORCA-job ./TS2_a E -1160.021258669023
  C       1.478928      1.163439     -2.452559
  C       1.499374      1.207111     -1.070414
  C       0.350657      1.604673     -3.142329
  C       0.363986      1.668367     -0.400836
  C      -0.759424      2.139245     -1.080180
  C      -0.762580      2.094636     -2.464338
  H       2.363946      0.883882     -0.502619
  C       0.282312      1.431214      1.114213
  H       2.342056      0.797742     -2.995658
  H       0.344972      1.576881     -4.226475
  H      -1.603641      2.525500     -0.521608
  H      -1.624730      2.449650     -3.016037
  N       0.692926      2.594956      1.265423
  O       0.559832      2.183520      3.455747
  N      -0.055988      0.386348      1.813283
  S       0.538359      0.720062      3.647883
  O       1.856947      0.108290      3.673058
  C      -0.354467     -0.880688      1.245969
  C       0.458659     -1.974552      1.528288
  C      -1.478147     -1.026866      0.436244
  C       0.137497     -3.217080      0.995917
  C      -1.776002     -2.267669     -0.111023
  C      -0.973189     -3.366431      0.173115
  H       1.328412     -1.843537      2.159941
  H      -2.115023     -0.170626      0.246156
  H       0.766217     -4.071816      1.219622
  H      -2.647061     -2.378098     -0.747742
  H      -1.214826     -4.338153     -0.243041
28
Coordinates from ORCA-job ./TS2_a E -1160.021453732394
  C       1.501885      1.223577     -2.472385
  C       1.518347      1.251377     -1.089917
  C       0.363560      1.642309     -3.160214
  C       0.369261      1.673618     -0.417410
  C      -0.764982      2.120591     -1.094820
  C      -0.764228      2.092853     -2.479399
  H       2.390417      0.944885     -0.524285
  C       0.292442      1.422535      1.096505
  H       2.375982      0.888319     -3.017659
  H       0.361500      1.628186     -4.244654
  H      -1.620140      2.478096     -0.533823
  H      -1.634760      2.430903     -3.028617
  N       0.662064      2.599491      1.250912
  O       0.537778      2.178052      3.458625
  N       0.009084      0.360317      1.792009
  S       0.533300      0.715302      3.656243
  O       1.857046      0.118585      3.700973
  C      -0.330213     -0.901391      1.240661
  C       0.459454     -2.009291      1.535484
  C      -1.462249     -1.034229      0.440860
  C       0.109727     -3.251676      1.022340
  C      -1.789698     -2.276197     -0.086848
  C      -1.008124     -3.387731      0.206773
  H       1.335127     -1.886818      2.161227
  H      -2.084469     -0.168756      0.244885
  H       0.721318     -4.116554      1.254480
  H      -2.667240     -2.377009     -0.716178
  H      -1.272190     -4.359344     -0.195768
28
Coordinates from ORCA-job ./TS2_a E -1160.021450128125
  C       1.503569      1.237555     -2.478354
  C       1.520131      1.260321     -1.095916
  C       0.362998      1.653064     -3.164628
  C       0.368692      1.673677     -0.421583
  C      -0.767799      2.117516     -1.097398
  C      -0.767031      2.095116     -2.482102
  H       2.393867      0.956026     -0.531674
  C       0.295222      1.420342      1.092141
  H       2.379304      0.908791     -3.024954
  H       0.361011      1.643040     -4.249113
  H      -1.624657      2.468702     -0.535031
  H      -1.639299      2.430888     -3.029958
  N       0.653387      2.601045      1.246768
  O       0.533722      2.173770      3.453652
  N       0.029520      0.353629      1.786752
  S       0.531335      0.710843      3.650797
  O       1.855799      0.117324      3.714912
  C      -0.320627     -0.906308      1.239763
  C       0.458789     -2.019212      1.543335
  C      -1.451309     -1.034096      0.437115
  C       0.101181     -3.261258      1.035017
  C      -1.786644     -2.276154     -0.085509
  C      -1.014608     -3.392300      0.215739
  H       1.333222     -1.900335      2.171643
  H      -2.066940     -0.165285      0.235458
  H       0.704972     -4.129855      1.273550
  H      -2.663029     -2.373199     -0.717048
  H      -1.284777     -4.363648     -0.183374
28
Coordinates from ORCA-job ./TS2_a E -1160.021450167743
  C       1.502173      1.234432     -2.477636
  C       1.518785      1.257770     -1.095179
  C       0.362303      1.651546     -3.164065
  C       0.368127      1.673358     -0.421003
  C      -0.767584      2.118721     -1.096933
  C      -0.766896      2.095813     -2.481662
  H       2.392028      0.952232     -0.530844
  C       0.294481      1.420044      1.092837
  H       2.377351      0.903965     -3.024103
  H       0.360244      1.641055     -4.248546
  H      -1.623934      2.471400     -0.534731
  H      -1.638652      2.432791     -3.029595
  N       0.653567      2.600309      1.248349
  O       0.533680      2.176338      3.454843
  N       0.027324      0.353673      1.787923
  S       0.533827      0.713831      3.654868
  O       1.859468      0.122940      3.714573
  C      -0.321693     -0.906398      1.240147
  C       0.458085     -2.019110      1.543285
  C      -1.451649     -1.034297      0.436525
  C       0.101752     -3.260893      1.033430
  C      -1.785792     -2.276028     -0.087603
  C      -1.013249     -3.391952      0.213117
  H       1.332021     -1.900414      2.172283
  H      -2.067783     -0.165761      0.235255
  H       0.705991     -4.129277      1.271609
  H      -2.661616     -2.372999     -0.719926
  H      -1.282361     -4.363088     -0.187218
28
Coordinates from ORCA-job ./TS2_a E -1160.021452825923
  C       1.503103      1.234320     -2.477638
  C       1.519641      1.257995     -1.095193
  C       0.363215      1.651104     -3.164246
  C       0.368873      1.673586     -0.421170
  C      -0.766903      2.118607     -1.097303
  C      -0.766103      2.095363     -2.482017
  H       2.392923      0.952783     -0.530742
  C       0.294808      1.420622      1.092662
  H       2.378374      0.903870     -3.023968
  H       0.361234      1.640369     -4.248724
  H      -1.623306      2.471368     -0.535232
  H      -1.637868      2.432094     -3.030093
  N       0.654347      2.600794      1.247690
  O       0.533518      2.175553      3.455082
  N       0.026627      0.354472      1.787596
  S       0.530726      0.712905      3.653773
  O       1.855079      0.119286      3.716402
  C      -0.322040     -0.905779      1.239918
  C       0.459618     -2.017764      1.540906
  C      -1.453630     -1.034472      0.438731
  C       0.103366     -3.259756      1.031482
  C      -1.787722     -2.276385     -0.085001
  C      -1.013399     -3.391631      0.213694
  H       1.334745     -1.898343      2.168124
  H      -2.070875     -0.166357      0.238973
  H       0.708975     -4.127632      1.268029
  H      -2.664829     -2.374060     -0.715435
  H      -1.282498     -4.362915     -0.186298
