! wB97X-D3BJ def2-TZVP TightSCF OptTS Freq CPCM(benzene)  # OptTS VeryTightOpt Freq SP NMR
%geom inhess Read InHessName "TS2_b.hess" end

* xyz 0 1
 C   -4.60550575  -0.80101684  -0.78001834
 C   -3.62692567   0.15447506  -1.05070817
 C   -4.31092537  -1.88974634   0.04775408
 C   -2.36247530   0.02236402  -0.46334069
 C   -2.04972051  -1.07964601   0.34400222
 C   -3.03562680  -2.02891083   0.60751930
 H   -3.83153970   1.00285516  -1.70728686
 C   -1.35670976   1.23838933  -0.51603252
 H   -5.59846273  -0.70306553  -1.22573735
 H   -5.07741068  -2.64268025   0.24873841
 H   -1.04613198  -1.17691315   0.76402383
 H   -2.80681423  -2.88696114   1.24443548
 N   -0.85353097   0.76397067  -1.58744331
 O    0.43475499   2.21469599  -1.94823238
 O   -1.27926569   2.15985307   0.30707601
 S    0.84578921   3.06625133  -0.72229048
 N    1.97244856   2.57770302   0.22481440
 C    2.64565714   1.36810484   0.34033797
 C    2.40728313   0.23560727  -0.47239821
 C    3.14993553  -0.92408315  -0.26940140
 C    4.13169393  -0.98081700   0.72693169
 C    4.37145595   0.13705326   1.53365605
 C    3.63525104   1.30182017   1.34571537
 H    1.63787358   0.28026852  -1.24452651
 H    2.96178520  -1.79687611  -0.90015503
 H    4.70954817  -1.89681730   0.87442539
 H    5.13561512   0.09735089   2.31401138
 H    3.80195360   2.18677105   1.96412969
*
