! wB97X-D3BJ def2-TZVP TightSCF OptTS Freq CPCM(benzene)  # OptTS VeryTightOpt Freq SP NMR
%geom inhess Read InHessName "TS2_a.hess" end

* xyz 0 1
 C    1.51487131   1.39757168  -2.53380903
 C    1.51793018   1.36581969  -1.14431936
 C    0.37244477   1.82361271  -3.22587347
 C    0.35032634   1.73423614  -0.44752121
 C   -0.79168580   2.18159846  -1.13742005
 C   -0.77525781   2.21797165  -2.52921110
 H    2.40235056   1.05693322  -0.58315625
 C    0.25402902   1.37587832   1.05751032
 H    2.41152612   1.10449385  -3.08487314
 H    0.38396079   1.86180919  -4.31807289
 H   -1.66514648   2.50823677  -0.56919657
 H   -1.65555919   2.56677752  -3.07422515
 N    0.58289694   2.58372398   1.22183977
 O    0.65092119   2.24558148   3.42740080
 N    0.06830396   0.25657037   1.69753384
 S    0.73578835   0.77474809   3.76223628
 O    2.08730833   0.16660338   3.83071971
 C   -0.31952453  -0.98990695   1.20311249
 C    0.37466163  -2.13252109   1.64546939
 C   -1.41066757  -1.14321677   0.32662661
 C   -0.01467943  -3.39765568   1.21121023
 C   -1.77250164  -2.41280075  -0.12212692
 C   -1.08240917  -3.54515902   0.31987505
 H    1.21796973  -2.00286734   2.32850804
 H   -1.97193755  -0.26219531   0.00732713
 H    0.52924479  -4.27767259   1.56439217
 H   -2.61542812  -2.51925968  -0.81021016
 H   -1.37973673  -4.53891132  -0.02374653
*
