17
 restart for step    4999 ; t =         4999.00 
     C    -2.8286715018   -2.2607429978   -0.2178056545   12.0000000000    0.0009753311   -0.0041799405    0.0053139518
     C    -1.4228530721   -2.2623721313   -0.2978535464   12.0000000000   -0.0014384301    0.0001766028    0.0092320501
     C    -3.4871458298   -1.1637208428    0.3885062798   12.0000000000   -0.0066293062    0.0010248525    0.0002363966
     C    -0.6397781881   -1.1494552918    0.1865086119   12.0000000000   -0.0058465329   -0.0028730414    0.0059923037
     C    -1.3006132951   -0.0806842274    0.7821482784   12.0000000000   -0.0091466149   -0.0007392356    0.0037616814
     C    -2.6947426303   -0.1454233373    0.8971634313   12.0000000000   -0.0033978854   -0.0078196251   -0.0025199629
     H    -0.9691702653   -3.1489352576   -0.7435490291    1.0078250322    0.0079723347   -0.0131726632    0.0146238127
     C     0.7606035500   -1.0413837963   -0.2112531202   12.0000000000    0.0052235231   -0.0004788404   -0.0099539865
     H    -3.4204763203   -3.0982418310   -0.5847977416    1.0078250322   -0.0007883562    0.0071064204   -0.0055441915
     H    -4.5489516022   -1.0549733166    0.4383808480    1.0078250322   -0.0168405066   -0.0029378509   -0.0096394040
     H    -0.8370094442    0.7696906646    1.2092984674    1.0078250322   -0.0002892922    0.0035567610   -0.0029979891
     H    -3.2595878481    0.6625734502    1.3409772270    1.0078250322   -0.0008641199   -0.0017109792   -0.0123564566
     N     1.4546958557    0.3531089694    0.1083010778   14.0030740040   -0.0049105072   -0.0006925639   -0.0159771902
     O     2.7178454521    0.3848911574    0.0559442141   15.9949146200    0.0028321998    0.0003404999    0.0080499017
     O     1.4693904478   -1.8045240550   -0.8835300699   15.9949146200    0.0029200401    0.0008649826   -0.0028053998
     S     1.6767899792    3.0301930364   -0.2066156589   31.9720711740    0.0057497564    0.0044299495    0.0040152401
     O     0.7215083789    1.5031001374   -0.1047661401   15.9949146200    0.0029345265    0.0021673659   -0.0073299284
