19

C   -0.07291279429329      0.03207627306442     -0.17264835777243
  C   0.67323312993765      1.18617125298896     -0.33540988699520
  C   0.52851744211520     -1.07862368401417      0.40720951392361
  C   2.01436257935231      1.21755793638806      0.08402840119858
  C   2.60225389694196      0.08067088197984      0.66843440969221
  C   1.85315759553519     -1.07171993576573      0.82893790830073
  H   0.22884630432078      2.06740359464997     -0.78495485148451
  C   2.78801534862729      2.38986503440231     -0.07331200177613
  H   -1.10859629271645     -0.01947473049039     -0.48648301919472
  N   -0.26928553525529     -2.30974894485385      0.58169834691221
  H   3.63735461887315      0.12303662267542      0.98913106896991
  H   2.27995360765965     -1.96176327919404      1.27581419708439
  N   3.49387871211571      3.30798739755820     -0.16794121493538
  O   4.25420464907063      4.24361158357710     -0.24633438266894
  O   5.46018935631370      1.94622715126791      1.46951403594858
  S   6.42041671074884      2.93814313408105      0.94071188367335
  O   7.16373988476757      2.56086951188420     -0.27042773266050
  O   -1.43341558312991     -2.28486973419041      0.20384937020289
  O   0.28625636901528     -3.27298006600884      1.09276231158134
