
                                 *****************
                                 * O   R   C   A *
                                 *****************

                                            #,                                       
                                            ###                                      
                                            ####                                     
                                            #####                                    
                                            ######                                   
                                           ########,                                 
                                     ,,################,,,,,                         
                               ,,#################################,,                 
                          ,,##########################################,,             
                       ,#########################################, ''#####,          
                    ,#############################################,,   '####,        
                  ,##################################################,,,,####,       
                ,###########''''           ''''###############################       
              ,#####''   ,,,,##########,,,,          '''####'''          '####       
            ,##' ,,,,###########################,,,                        '##       
           ' ,,###''''                  '''############,,,                           
         ,,##''                                '''############,,,,        ,,,,,,###''
      ,#''                                            '''#######################'''  
     '                                                          ''''####''''         
             ,#######,   #######,   ,#######,      ##                                
            ,#'     '#,  ##    ##  ,#'     '#,    #''#        ######   ,####,        
            ##       ##  ##   ,#'  ##            #'  '#       #        #'  '#        
            ##       ##  #######   ##           ,######,      #####,   #    #        
            '#,     ,#'  ##    ##  '#,     ,#' ,#      #,         ##   #,  ,#        
             '#######'   ##     ##  '#######'  #'      '#     #####' # '####'        



                  #######################################################
                  #                        -***-                        #
                  #          Department of theory and spectroscopy      #
                  #    Directorship and core code : Frank Neese         #
                  #        Max Planck Institute fuer Kohlenforschung    #
                  #                Kaiser Wilhelm Platz 1               #
                  #                 D-45470 Muelheim/Ruhr               #
                  #                      Germany                        #
                  #                                                     #
                  #                  All rights reserved                #
                  #                        -***-                        #
                  #######################################################


                         Program Version 5.0.4 -  RELEASE  -


 With contributions from (in alphabetic order):
   Daniel Aravena         : Magnetic Suceptibility
   Michael Atanasov       : Ab Initio Ligand Field Theory (pilot matlab implementation)
   Alexander A. Auer      : GIAO ZORA, VPT2 properties, NMR spectrum
   Ute Becker             : Parallelization
   Giovanni Bistoni       : ED, misc. LED, open-shell LED, HFLD
   Martin Brehm           : Molecular dynamics
   Dmytro Bykov           : SCF Hessian
   Vijay G. Chilkuri      : MRCI spin determinant printing, contributions to CSF-ICE
   Dipayan Datta          : RHF DLPNO-CCSD density
   Achintya Kumar Dutta   : EOM-CC, STEOM-CC
   Dmitry Ganyushin       : Spin-Orbit,Spin-Spin,Magnetic field MRCI
   Miquel Garcia          : C-PCM and meta-GGA Hessian, CC/C-PCM, Gaussian charge scheme
   Yang Guo               : DLPNO-NEVPT2, F12-NEVPT2, CIM, IAO-localization
   Andreas Hansen         : Spin unrestricted coupled pair/coupled cluster methods
   Benjamin Helmich-Paris : MC-RPA, TRAH-SCF, COSX integrals
   Lee Huntington         : MR-EOM, pCC
   Robert Izsak           : Overlap fitted RIJCOSX, COSX-SCS-MP3, EOM
   Marcus Kettner         : VPT2
   Christian Kollmar      : KDIIS, OOCD, Brueckner-CCSD(T), CCSD density, CASPT2, CASPT2-K
   Simone Kossmann        : Meta GGA functionals, TD-DFT gradient, OOMP2, MP2 Hessian
   Martin Krupicka        : Initial AUTO-CI
   Lucas Lang             : DCDCAS
   Marvin Lechner         : AUTO-CI (C++ implementation), FIC-MRCC
   Dagmar Lenk            : GEPOL surface, SMD
   Dimitrios Liakos       : Extrapolation schemes; Compound Job, initial MDCI parallelization
   Dimitrios Manganas     : Further ROCIS development; embedding schemes
   Dimitrios Pantazis     : SARC Basis sets
   Anastasios Papadopoulos: AUTO-CI, single reference methods and gradients
   Taras Petrenko         : DFT Hessian,TD-DFT gradient, ASA, ECA, R-Raman, ABS, FL, XAS/XES, NRVS
   Peter Pinski           : DLPNO-MP2, DLPNO-MP2 Gradient
   Christoph Reimann      : Effective Core Potentials
   Marius Retegan         : Local ZFS, SOC
   Christoph Riplinger    : Optimizer, TS searches, QM/MM, DLPNO-CCSD(T), (RO)-DLPNO pert. Triples
   Tobias Risthaus        : Range-separated hybrids, TD-DFT gradient, RPA, STAB
   Michael Roemelt        : Original ROCIS implementation
   Masaaki Saitow         : Open-shell DLPNO-CCSD energy and density
   Barbara Sandhoefer     : DKH picture change effects
   Avijit Sen             : IP-ROCIS
   Kantharuban Sivalingam : CASSCF convergence, NEVPT2, FIC-MRCI
   Bernardo de Souza      : ESD, SOC TD-DFT
   Georgi Stoychev        : AutoAux, RI-MP2 NMR, DLPNO-MP2 response
   Willem Van den Heuvel  : Paramagnetic NMR
   Boris Wezisla          : Elementary symmetry handling
   Frank Wennmohs         : Technical directorship


 We gratefully acknowledge several colleagues who have allowed us to
 interface, adapt or use parts of their codes:
   Stefan Grimme, W. Hujo, H. Kruse, P. Pracht,  : VdW corrections, initial TS optimization,
                  C. Bannwarth, S. Ehlert          DFT functionals, gCP, sTDA/sTD-DF
   Ed Valeev, F. Pavosevic, A. Kumar             : LibInt (2-el integral package), F12 methods
   Garnet Chan, S. Sharma, J. Yang, R. Olivares  : DMRG
   Ulf Ekstrom                                   : XCFun DFT Library
   Mihaly Kallay                                 : mrcc  (arbitrary order and MRCC methods)
   Jiri Pittner, Ondrej Demel                    : Mk-CCSD
   Frank Weinhold                                : gennbo (NPA and NBO analysis)
   Christopher J. Cramer and Donald G. Truhlar   : smd solvation model
   Lars Goerigk                                  : TD-DFT with DH, B97 family of functionals
   V. Asgeirsson, H. Jonsson                     : NEB implementation
   FAccTs GmbH                                   : IRC, NEB, NEB-TS, DLPNO-Multilevel, CI-OPT
                                                   MM, QMMM, 2- and 3-layer-ONIOM, Crystal-QMMM,
                                                   LR-CPCM, SF, NACMEs, symmetry and pop. for TD-DFT,
                                                   nearIR, NL-DFT gradient (VV10), updates on ESD,
                                                   ML-optimized integration grids
   S Lehtola, MJT Oliveira, MAL Marques          : LibXC Library
   Liviu Ungur et al                             : ANISO software


 Your calculation uses the libint2 library for the computation of 2-el integrals
 For citations please refer to: http://libint.valeyev.net

 Your ORCA version has been built with support for libXC version: 5.1.0
 For citations please refer to: https://tddft.org/programs/libxc/

 This ORCA versions uses:
   CBLAS   interface :  Fast vector & matrix operations
   LAPACKE interface :  Fast linear algebra routines
   SCALAPACK package :  Parallel linear algebra routines
   Shared memory     :  Shared parallel matrices
   BLAS/LAPACK       :  OpenBLAS 0.3.15  USE64BITINT DYNAMIC_ARCH NO_AFFINITY Zen SINGLE_THREADED
        Core in use  :  Zen
   Copyright (c) 2011-2014, The OpenBLAS Project




***************************************
The coordinates will be read from file: opt.xyz
***************************************


================================================================================

----- Orbital basis set information -----
Your calculation utilizes the basis: def2-TZVP
   F. Weigend and R. Ahlrichs, Phys. Chem. Chem. Phys. 7, 3297 (2005).

----- AuxJ basis set information -----
Your calculation utilizes the auxiliary basis: def2/J
   F. Weigend, Phys. Chem. Chem. Phys. 8, 1057 (2006).

================================================================================
                                        WARNINGS
                       Please study these warnings very carefully!
================================================================================


INFO   : the flag for use of the SHARK integral package has been found!


WARNING: TRAH does not support fractional occupations!
  ===> : Turning TRAH off
================================================================================
                                       INPUT FILE
================================================================================
NAME = FOD.inp
|  1> ! FOD
|  2> 
|  3> * xyzfile 0 1 opt.xyz
|  4> 
|  5>                          ****END OF INPUT****
================================================================================

                       ****************************
                       * Single Point Calculation *
                       ****************************

---------------------------------
CARTESIAN COORDINATES (ANGSTROEM)
---------------------------------
  C     -2.418344   -0.438062    0.166964
  C     -1.426794    0.496391   -0.096745
  C     -2.074763   -1.765671    0.423496
  C     -0.093438    0.081567   -0.059812
  C      0.265032   -1.251689    0.157110
  C     -0.739319   -2.171946    0.418706
  H     -1.667462    1.531707   -0.315947
  C      1.020658    1.142224   -0.116580
  H     -3.460705   -0.135135    0.158489
  H     -2.856622   -2.495240    0.613470
  H      1.310268   -1.543709    0.133334
  H     -0.483506   -3.210182    0.605806
  N      1.101239    1.090132   -1.372498
  O      2.484424    2.576401   -1.481824
  O      1.555592    1.724550    0.864455
  S      3.219189    2.691521   -0.156090
  O      4.264551    1.677139    0.057667

----------------------------
CARTESIAN COORDINATES (A.U.)
----------------------------
  NO LB      ZA    FRAG     MASS         X           Y           Z
   0 C     6.0000    0    12.011   -4.570009   -0.827817    0.315516
   1 C     6.0000    0    12.011   -2.696251    0.938043   -0.182821
   2 C     6.0000    0    12.011   -3.920734   -3.336635    0.800291
   3 C     6.0000    0    12.011   -0.176572    0.154140   -0.113029
   4 C     6.0000    0    12.011    0.500838   -2.365349    0.296895
   5 C     6.0000    0    12.011   -1.397110   -4.104383    0.791240
   6 H     1.0000    0     1.008   -3.151046    2.894507   -0.597053
   7 C     6.0000    0    12.011    1.928763    2.158491   -0.220304
   8 H     1.0000    0     1.008   -6.539786   -0.255369    0.299501
   9 H     1.0000    0     1.008   -5.398233   -4.715321    1.159291
  10 H     1.0000    0     1.008    2.476047   -2.917187    0.251964
  11 H     1.0000    0     1.008   -0.913693   -6.066366    1.144807
  12 N     7.0000    0    14.007    2.081039    2.060050   -2.593645
  13 O     8.0000    0    15.999    4.694881    4.868693   -2.800241
  14 O     8.0000    0    15.999    2.939642    3.258928    1.633584
  15 S    16.0000    0    32.060    6.083386    5.086237   -0.294967
  16 O     8.0000    0    15.999    8.058833    3.169333    0.108974

--------------------------------
INTERNAL COORDINATES (ANGSTROEM)
--------------------------------
 C      0   0   0     0.000000000000     0.00000000     0.00000000
 C      1   0   0     1.387773612614     0.00000000     0.00000000
 C      1   2   0     1.395135419653   119.98269231     0.00000000
 C      2   1   3     1.396882826311   118.49050742   358.20325624
 C      4   2   1     1.397543252118   122.15708010     3.73390791
 C      5   4   2     1.387092859121   118.45535925   356.26676184
 H      2   1   3     1.085288426294   121.48540668   178.95352646
 C      4   2   1     1.539293587634   119.02927631   190.07430722
 H      1   2   3     1.085519582624   119.78152759   180.88615750
 H      3   1   2     1.086123795669   119.60957163   180.97365736
 H      5   4   2     1.085522381989   120.01456000   177.16847772
 H      6   5   4     1.085532544486   119.76285506   180.95816485
 N      8   4   2     1.259577787487    93.12862188   268.65452221
 O     13   8   4     2.033261354315    93.83607997   176.46931616
 O      8   4   2     1.260035206587   126.65553706    89.90816003
 S     14  13   8     1.520099878669   109.71174497    23.03850561
 O     16  14  13     1.472223720252   114.68726497    78.58429966

---------------------------
INTERNAL COORDINATES (A.U.)
---------------------------
 C      0   0   0     0.000000000000     0.00000000     0.00000000
 C      1   0   0     2.622512063723     0.00000000     0.00000000
 C      1   2   0     2.636423862877   119.98269231     0.00000000
 C      2   1   3     2.639725982906   118.49050742   358.20325624
 C      4   2   1     2.640974006813   122.15708010     3.73390791
 C      5   4   2     2.621225626056   118.45535925   356.26676184
 H      2   1   3     2.050897902011   121.48540668   178.95352646
 C      4   2   1     2.908843320329   119.02927631   190.07430722
 H      1   2   3     2.051334724168   119.78152759   180.88615750
 H      3   1   2     2.052476521349   119.60957163   180.97365736
 H      5   4   2     2.051340014201   120.01456000   177.16847772
 H      6   5   4     2.051359218538   119.76285506   180.95816485
 N      8   4   2     2.380257062721    93.12862188   268.65452221
 O     13   8   4     3.842307118340    93.83607997   176.46931616
 O      8   4   2     2.381121459548   126.65553706    89.90816003
 S     14  13   8     2.872572466892   109.71174497    23.03850561
 O     16  14  13     2.782099639138   114.68726497    78.58429966

---------------------
BASIS SET INFORMATION
---------------------
There are 5 groups of distinct atoms

 Group   1 Type C   : 11s6p2d1f contracted to 5s3p2d1f pattern {62111/411/11/1}
 Group   2 Type H   : 5s1p contracted to 3s1p pattern {311/1}
 Group   3 Type N   : 11s6p2d1f contracted to 5s3p2d1f pattern {62111/411/11/1}
 Group   4 Type O   : 11s6p2d1f contracted to 5s3p2d1f pattern {62111/411/11/1}
 Group   5 Type S   : 14s9p3d1f contracted to 5s5p2d1f pattern {73211/51111/21/1}

Atom   0C    basis set group =>   1
Atom   1C    basis set group =>   1
Atom   2C    basis set group =>   1
Atom   3C    basis set group =>   1
Atom   4C    basis set group =>   1
Atom   5C    basis set group =>   1
Atom   6H    basis set group =>   2
Atom   7C    basis set group =>   1
Atom   8H    basis set group =>   2
Atom   9H    basis set group =>   2
Atom  10H    basis set group =>   2
Atom  11H    basis set group =>   2
Atom  12N    basis set group =>   3
Atom  13O    basis set group =>   4
Atom  14O    basis set group =>   4
Atom  15S    basis set group =>   5
Atom  16O    basis set group =>   4
---------------------------------
AUXILIARY/J BASIS SET INFORMATION
---------------------------------
There are 5 groups of distinct atoms

 Group   1 Type C   : 12s5p4d2f1g contracted to 6s4p3d1f1g pattern {711111/2111/211/2/1}
 Group   2 Type H   : 5s2p1d contracted to 3s1p1d pattern {311/2/1}
 Group   3 Type N   : 12s5p4d2f1g contracted to 6s4p3d1f1g pattern {711111/2111/211/2/1}
 Group   4 Type O   : 12s5p4d2f1g contracted to 6s4p3d1f1g pattern {711111/2111/211/2/1}
 Group   5 Type S   : 14s5p5d2f1g contracted to 8s4p3d1f1g pattern {71111111/2111/311/2/1}

Atom   0C    basis set group =>   1
Atom   1C    basis set group =>   1
Atom   2C    basis set group =>   1
Atom   3C    basis set group =>   1
Atom   4C    basis set group =>   1
Atom   5C    basis set group =>   1
Atom   6H    basis set group =>   2
Atom   7C    basis set group =>   1
Atom   8H    basis set group =>   2
Atom   9H    basis set group =>   2
Atom  10H    basis set group =>   2
Atom  11H    basis set group =>   2
Atom  12N    basis set group =>   3
Atom  13O    basis set group =>   4
Atom  14O    basis set group =>   4
Atom  15S    basis set group =>   5
Atom  16O    basis set group =>   4
------------------------------------------------------------------------------
                           ORCA GTO INTEGRAL CALCULATION
                           -- RI-GTO INTEGRALS CHOSEN --
------------------------------------------------------------------------------
------------------------------------------------------------------------------
                   ___                                                        
                  /   \      - P O W E R E D   B Y -                         
                 /     \                                                     
                 |  |  |   _    _      __       _____    __    __             
                 |  |  |  | |  | |    /  \     |  _  \  |  |  /  |          
                  \  \/   | |  | |   /    \    | | | |  |  | /  /          
                 / \  \   | |__| |  /  /\  \   | |_| |  |  |/  /          
                |  |  |   |  __  | /  /__\  \  |    /   |      \           
                |  |  |   | |  | | |   __   |  |    \   |  |\   \          
                \     /   | |  | | |  |  |  |  | |\  \  |  | \   \       
                 \___/    |_|  |_| |__|  |__|  |_| \__\ |__|  \__/        
                                                                              
                      - O R C A' S   B I G   F R I E N D -                    
                                      &                                       
                       - I N T E G R A L  F E E D E R -                       
                                                                              
 v1 FN, 2020, v2 2021                                                         
------------------------------------------------------------------------------


Reading SHARK input file FOD.SHARKINP.tmp ... ok
----------------------
SHARK INTEGRAL PACKAGE
----------------------

Number of atoms                             ...     17
Number of basis functions                   ...    408
Number of shells                            ...    154
Maximum angular momentum                    ...      3
Integral batch strategy                     ... SHARK/LIBINT Hybrid
RI-J (if used) integral strategy            ... SPLIT-RIJ (Revised 2003 algorithm where possible)
Printlevel                                  ...      1
Contraction scheme used                     ... SEGMENTED contraction
Coulomb Range Separation                    ... NOT USED
Exchange Range Separation                   ... NOT USED
Finite Nucleus Model                        ... NOT USED
Auxiliary Coulomb fitting basis             ... AVAILABLE
   # of basis functions in Aux-J            ...    645
   # of shells in Aux-J                     ...    207
   Maximum angular momentum in Aux-J        ...      4
Auxiliary J/K fitting basis                 ... NOT available
Auxiliary Correlation fitting basis         ... NOT available
Auxiliary 'external' fitting basis          ... NOT available
Integral threshold                          ...     2.500000e-11
Primitive cut-off                           ...     2.500000e-12
Primitive pair pre-selection threshold      ...     2.500000e-12

Calculating pre-screening integrals         ... done (  0.1 sec) Dimension = 154
Organizing shell pair data                  ... done (  0.1 sec)
Shell pair information
Total number of shell pairs                 ...     11935
Shell pairs after pre-screening             ...      9709
Total number of primitive shell pairs       ...     38796
Primitive shell pairs kept                  ...     22126
          la=0 lb=0:   2184 shell pairs
          la=1 lb=0:   2686 shell pairs
          la=1 lb=1:    833 shell pairs
          la=2 lb=0:   1444 shell pairs
          la=2 lb=1:    885 shell pairs
          la=2 lb=2:    253 shell pairs
          la=3 lb=0:    697 shell pairs
          la=3 lb=1:    431 shell pairs
          la=3 lb=2:    235 shell pairs
          la=3 lb=3:     61 shell pairs

Calculating one electron integrals          ... done (  0.0 sec)
Calculating RI/J V-Matrix + Cholesky decomp.... done (  0.0 sec)
Calculating Nuclear repulsion               ... done (  0.0 sec) ENN=    748.666365922066 Eh

SHARK setup successfully completed in   0.3 seconds

Maximum memory used throughout the entire GTOINT-calculation: 163.1 MB
-------------------------------------------------------------------------------
                                 ORCA SCF
-------------------------------------------------------------------------------

------------
SCF SETTINGS
------------
Hamiltonian:
 Density Functional     Method          .... DFT(GTOs)
 Exchange Functional    Exchange        .... TPSS
 Correlation Functional Correlation     .... TPSS
 LDA part of GGA corr.  LDAOpt          .... PW91-LDA
 Gradients option       PostSCFGGA      .... off
   Density functional embedding theory  .... OFF
   NL short-range parameter             ....  5.000000
 RI-approximation to the Coulomb term is turned on
   Number of AuxJ basis functions       .... 645


General Settings:
 Integral files         IntName         .... FOD
 Hartree-Fock type      HFTyp           .... RHF
 Total Charge           Charge          ....    0
 Multiplicity           Mult            ....    1
 Number of Electrons    NEL             ....   94
 Basis Dimension        Dim             ....  408
 Nuclear Repulsion      ENuc            ....    748.6663659221 Eh

Convergence Acceleration:
 DIIS                   CNVDIIS         .... on
   Start iteration      DIISMaxIt       ....    12
   Startup error        DIISStart       ....  0.200000
   # of expansion vecs  DIISMaxEq       ....     5
   Bias factor          DIISBfac        ....   1.050
   Max. coefficient     DIISMaxC        ....  10.000
 Trust-Rad. Augm. Hess. CNVTRAH         .... off
 SOSCF                  CNVSOSCF        .... on
   Start iteration      SOSCFMaxIt      ....   150
   Startup grad/error   SOSCFStart      ....  0.003300
 Level Shifting         CNVShift        .... on
   Level shift para.    LevelShift      ....    0.2500
   Turn off err/grad.   ShiftErr        ....    0.0010
 Zerner damping         CNVZerner       .... off
 Static damping         CNVDamp         .... on
   Fraction old density DampFac         ....    0.7000
   Max. Damping (<1)    DampMax         ....    0.9800
   Min. Damping (>=0)   DampMin         ....    0.0000
   Turn off err/grad.   DampErr         ....    0.1000
 Fernandez-Rico         CNVRico         .... off

SCF Procedure:
 Maximum # iterations   MaxIter         ....   125
 SCF integral mode      SCFMode         .... Direct
   Integral package                     .... SHARK and LIBINT hybrid scheme
 Reset frequency        DirectResetFreq ....    20
 Integral Threshold     Thresh          ....  2.500e-11 Eh
 Primitive CutOff       TCut            ....  2.500e-12 Eh

Convergence Tolerance:
 Convergence Check Mode ConvCheckMode   .... Total+1el-Energy
 Convergence forced     ConvForced      .... 0
 Energy Change          TolE            ....  1.000e-08 Eh
 1-El. energy change                    ....  1.000e-05 Eh
 Orbital Gradient       TolG            ....  1.000e-05
 Orbital Rotation angle TolX            ....  1.000e-05
 DIIS Error             TolErr          ....  5.000e-07


Diagonalization of the overlap matrix:
Smallest eigenvalue                        ... 9.191e-06
Time for diagonalization                   ...    0.013 sec
Threshold for overlap eigenvalues          ... 1.000e-08
Number of eigenvalues below threshold      ... 0
Time for construction of square roots      ...    0.005 sec
Total time needed                          ...    0.018 sec

Time for model grid setup =    0.213 sec

------------------------------
INITIAL GUESS: MODEL POTENTIAL
------------------------------
Loading Hartree-Fock densities                     ... done
Calculating cut-offs                               ... done
Initializing the effective Hamiltonian             ... done
Setting up the integral package (SHARK)            ... done
Starting the Coulomb interaction                   ... done (   0.3 sec)
Reading the grid                                   ... done
Mapping shells                                     ... done
Starting the XC term evaluation                    ... done (   0.4 sec)
  promolecular density results
     # of electrons  =     93.996322884
     EX              =    -93.092173763
     EC              =     -3.246124872
     EX+EC           =    -96.338298635
Transforming the Hamiltonian                       ... done (   0.0 sec)
Diagonalizing the Hamiltonian                      ... done (   0.0 sec)
Back transforming the eigenvectors                 ... done (   0.0 sec)
Now organizing SCF variables                       ... done
                      ------------------
                      INITIAL GUESS DONE (   1.0 sec)
                      ------------------
-------------------
DFT GRID GENERATION
-------------------

General Integration Accuracy     IntAcc      ... 4.388
Radial Grid Type                 RadialGrid  ... OptM3 with GC (2021)
Angular Grid (max. ang.)         AngularGrid ... 4 (Lebedev-302)
Angular grid pruning method      GridPruning ... 4 (adaptive)
Weight generation scheme         WeightScheme... Becke
Basis function cutoff            BFCut       ... 1.0000e-11
Integration weight cutoff        WCut        ... 1.0000e-14
Angular grids for H and He will be reduced by one unit
Partially contracted basis set               ... off
Rotationally invariant grid construction     ... off

Total number of grid points                  ...    89785
Total number of batches                      ...     1410
Average number of points per batch           ...       63
Average number of grid points per atom       ...     5281
Time for grid setup =    0.775 sec


Warning: Fractional occupation numbers cannot be used with CNVRico or SOSCF

--------------
SCF ITERATIONS
--------------
ITER       Energy         Delta-E        Max-DP      RMS-DP      [F,P]     Damp
               ***  Starting incremental Fock matrix formation  ***
  0   -948.2691762210   0.000000000000 0.10933909  0.00109497  0.2801352 0.7000
  1   -948.4481346749  -0.178958453923 0.03702914  0.00067383  0.0727918 0.7000
                               ***Turning on DIIS***
  2   -948.5108659332  -0.062731258223 0.07299901  0.00089614  0.0218607 0.0000
  3   -948.6052711859  -0.094405252780 0.01952081  0.00050151  0.0329702 0.0000
  4   -948.6140264024  -0.008755216497 0.02215896  0.00024096  0.0193538 0.0000
  5   -948.6154136826  -0.001387280186 0.00739672  0.00013142  0.0167151 0.0000
  6   -948.6161211941  -0.000707511475 0.00415658  0.00006164  0.0108601 0.0000
  7   -948.6164583391  -0.000337145012 0.00146350  0.00002195  0.0019716 0.0000
  8   -948.6164745220  -0.000016182865 0.00039677  0.00000801  0.0010145 0.0000
  9   -948.6164783218  -0.000003799829 0.00034799  0.00000584  0.0004160 0.0000
 10   -948.6164975300  -0.000019208236 0.00028171  0.00000375  0.0006846 0.0000
 11   -948.6164983885  -0.000000858429 0.00013758  0.00000183  0.0002205 0.0000
 12   -948.6164985851  -0.000000196663 0.00007318  0.00000128  0.0001725 0.0000
 13   -948.6164986324  -0.000000047262 0.00004710  0.00000115  0.0000771 0.0000
 14   -948.6164986475  -0.000000015085 0.00003539  0.00000067  0.0000588 0.0000
 15   -948.6164986604  -0.000000012871 0.00007507  0.00000129  0.0000160 0.0000
 16   -948.6164986571   0.000000003230 0.00001860  0.00000038  0.0000078 0.0000
 17   -948.6164986460   0.000000011161 0.00003992  0.00000059  0.0000033 0.0000
                 **** Energy Check signals convergence ****
Fermi smearing:E(HOMO(Eh)) = -0.250741 MUE = -0.194724 gap=   2.705 eV

N_FOD =  0.264281

               *****************************************************
               *                     SUCCESS                       *
               *           SCF CONVERGED AFTER  18 CYCLES          *
               *****************************************************


----------------
TOTAL SCF ENERGY
----------------

Total Energy       :         -948.61649865 Eh          -25813.16724 eV

Components:
Nuclear Repulsion  :          748.66636592 Eh           20372.24752 eV
Electronic Energy  :        -1697.28286457 Eh          -46185.41477 eV
One Electron Energy:        -2785.51805123 Eh          -75797.79966 eV
Two Electron Energy:         1088.23518666 Eh           29612.38489 eV

Virial components:
Potential Energy   :        -1894.17237540 Eh          -51543.05073 eV
Kinetic Energy     :          945.55587675 Eh           25729.88349 eV
Virial Ratio       :            2.00323685


DFT components:
N(Alpha)           :       46.999993481203 electrons
N(Beta)            :       46.999993481203 electrons
N(Total)           :       93.999986962406 electrons
E(X)               :      -95.050563023544 Eh       
E(C)               :       -3.264012819927 Eh       
E(XC)              :      -98.314575843471 Eh       
DFET-embed. en.    :        0.000000000000 Eh       

---------------
SCF CONVERGENCE
---------------

  Last Energy change         ...   -6.6583e-09  Tolerance :   1.0000e-08
  Last MAX-Density change    ...    6.4135e-05  Tolerance :   1.0000e-07
  Last RMS-Density change    ...    1.0564e-06  Tolerance :   5.0000e-09
  Last DIIS Error            ...    2.5946e-06  Tolerance :   5.0000e-07

             **** THE GBW FILE WAS UPDATED (FOD.gbw) ****
             **** DENSITY FOD.scfp WAS UPDATED ****
             **** ENERGY FILE WAS UPDATED (FOD.en.tmp) ****
             **** THE GBW FILE WAS UPDATED (FOD.gbw) ****
             **** DENSITY FOD.scfp WAS UPDATED ****
----------------
ORBITAL ENERGIES
----------------

  NO   OCC          E(Eh)            E(eV) 
   0   2.0000     -88.509026     -2408.4530 
   1   2.0000     -18.925928      -515.0007 
   2   2.0000     -18.922894      -514.9181 
   3   2.0000     -18.907480      -514.4987 
   4   2.0000     -14.159699      -385.3050 
   5   2.0000     -10.100953      -274.8609 
   6   2.0000     -10.059271      -273.7267 
   7   2.0000     -10.032289      -272.9925 
   8   2.0000     -10.031688      -272.9761 
   9   2.0000     -10.029435      -272.9148 
  10   2.0000     -10.026518      -272.8354 
  11   2.0000     -10.026366      -272.8313 
  12   2.0000      -7.869314      -214.1349 
  13   2.0000      -5.850091      -159.1891 
  14   2.0000      -5.848731      -159.1521 
  15   2.0000      -5.841985      -158.9685 
  16   2.0000      -1.035398       -28.1746 
  17   2.0000      -0.999817       -27.2064 
  18   2.0000      -0.941288       -25.6137 
  19   2.0000      -0.875252       -23.8168 
  20   2.0000      -0.827755       -22.5243 
  21   2.0000      -0.732716       -19.9382 
  22   2.0000      -0.725990       -19.7552 
  23   2.0000      -0.601581       -16.3699 
  24   2.0000      -0.597675       -16.2636 
  25   2.0000      -0.584825       -15.9139 
  26   2.0000      -0.534721       -14.5505 
  27   2.0000      -0.491411       -13.3720 
  28   2.0000      -0.460523       -12.5315 
  29   2.0000      -0.455931       -12.4065 
  30   2.0000      -0.436461       -11.8767 
  31   2.0000      -0.428927       -11.6717 
  32   2.0000      -0.422151       -11.4873 
  33   2.0000      -0.413615       -11.2550 
  34   2.0000      -0.411257       -11.1909 
  35   2.0000      -0.383330       -10.4310 
  36   2.0000      -0.375782       -10.2256 
  37   2.0000      -0.364800        -9.9267 
  38   1.9999      -0.351592        -9.5673 
  39   1.9999      -0.345247        -9.3947 
  40   1.9989      -0.313475        -8.5301 
  41   1.9955      -0.291243        -7.9251 
  42   1.9939      -0.286518        -7.7966 
  43   1.9909      -0.279973        -7.6184 
  44   1.9840      -0.271083        -7.3765 
  45   1.9615      -0.256948        -6.9919 
  46   1.9435      -0.250741        -6.8230 
  47   0.1214      -0.151349        -4.1184 
  48   0.0096      -0.110246        -2.9999 
  49   0.0009      -0.072151        -1.9633 
  50   0.0003      -0.053750        -1.4626 
  51   0.0000      -0.009819        -0.2672 
  52   0.0000       0.015911         0.4330 
  53   0.0000       0.035209         0.9581 
  54   0.0000       0.036536         0.9942 
  55   0.0000       0.049878         1.3572 
  56   0.0000       0.057689         1.5698 
  57   0.0000       0.075155         2.0451 
  58   0.0000       0.079179         2.1546 
  59   0.0000       0.086452         2.3525 
  60   0.0000       0.102452         2.7879 
  61   0.0000       0.123023         3.3476 
  62   0.0000       0.154922         4.2156 
  63   0.0000       0.161752         4.4015 
  64   0.0000       0.164552         4.4777 
  65   0.0000       0.186612         5.0780 
  66   0.0000       0.192232         5.2309 
  67   0.0000       0.193482         5.2649 
  68   0.0000       0.195958         5.3323 
  69   0.0000       0.210820         5.7367 
  70   0.0000       0.215588         5.8664 
  71   0.0000       0.225977         6.1492 
  72   0.0000       0.234932         6.3928 
  73   0.0000       0.251159         6.8344 
  74   0.0000       0.257922         7.0184 
  75   0.0000       0.267065         7.2672 
  76   0.0000       0.279071         7.5939 
  77   0.0000       0.283295         7.7089 
  78   0.0000       0.287359         7.8194 
  79   0.0000       0.289669         7.8823 
  80   0.0000       0.296789         8.0760 
  81   0.0000       0.305038         8.3005 
  82   0.0000       0.318202         8.6587 
  83   0.0000       0.321953         8.7608 
  84   0.0000       0.329864         8.9761 
  85   0.0000       0.334552         9.1036 
  86   0.0000       0.344835         9.3834 
  87   0.0000       0.362588         9.8665 
  88   0.0000       0.369634        10.0583 
  89   0.0000       0.378956        10.3119 
  90   0.0000       0.383995        10.4490 
  91   0.0000       0.391320        10.6483 
  92   0.0000       0.397725        10.8227 
  93   0.0000       0.399269        10.8647 
  94   0.0000       0.409681        11.1480 
  95   0.0000       0.425675        11.5832 
  96   0.0000       0.431254        11.7350 
  97   0.0000       0.441626        12.0172 
  98   0.0000       0.445822        12.1314 
  99   0.0000       0.451696        12.2913 
 100   0.0000       0.457250        12.4424 
 101   0.0000       0.473016        12.8714 
 102   0.0000       0.480096        13.0641 
 103   0.0000       0.481893        13.1130 
 104   0.0000       0.516928        14.0663 
 105   0.0000       0.524000        14.2588 
 106   0.0000       0.537354        14.6222 
 107   0.0000       0.554615        15.0918 
 108   0.0000       0.557583        15.1726 
 109   0.0000       0.582686        15.8557 
 110   0.0000       0.595125        16.1942 
 111   0.0000       0.597764        16.2660 
 112   0.0000       0.603755        16.4290 
 113   0.0000       0.610227        16.6051 
 114   0.0000       0.624881        17.0039 
 115   0.0000       0.627720        17.0811 
 116   0.0000       0.637018        17.3341 
 117   0.0000       0.653089        17.7715 
 118   0.0000       0.666447        18.1349 
 119   0.0000       0.681294        18.5389 
 120   0.0000       0.698853        19.0167 
 121   0.0000       0.712022        19.3751 
 122   0.0000       0.716853        19.5066 
 123   0.0000       0.729190        19.8423 
 124   0.0000       0.745388        20.2830 
 125   0.0000       0.756456        20.5842 
 126   0.0000       0.774482        21.0747 
 127   0.0000       0.779084        21.1999 
 128   0.0000       0.799647        21.7595 
 129   0.0000       0.812638        22.1130 
 130   0.0000       0.826653        22.4944 
 131   0.0000       0.835210        22.7272 
 132   0.0000       0.842521        22.9262 
 133   0.0000       0.866911        23.5898 
 134   0.0000       0.880555        23.9611 
 135   0.0000       0.893955        24.3257 
 136   0.0000       0.928016        25.2526 
 137   0.0000       0.945028        25.7155 
 138   0.0000       0.964030        26.2326 
 139   0.0000       0.975256        26.5381 
 140   0.0000       0.984455        26.7884 
 141   0.0000       1.002005        27.2660 
 142   0.0000       1.008190        27.4343 
 143   0.0000       1.030136        28.0314 
 144   0.0000       1.040128        28.3033 
 145   0.0000       1.057563        28.7778 
 146   0.0000       1.111644        30.2494 
 147   0.0000       1.121698        30.5230 
 148   0.0000       1.152214        31.3533 
 149   0.0000       1.159472        31.5508 
 150   0.0000       1.166116        31.7316 
 151   0.0000       1.181118        32.1398 
 152   0.0000       1.204065        32.7643 
 153   0.0000       1.211619        32.9698 
 154   0.0000       1.227290        33.3963 
 155   0.0000       1.231921        33.5223 
 156   0.0000       1.237650        33.6782 
 157   0.0000       1.269265        34.5385 
 158   0.0000       1.286963        35.0201 
 159   0.0000       1.292463        35.1697 
 160   0.0000       1.322275        35.9809 
 161   0.0000       1.331511        36.2323 
 162   0.0000       1.350010        36.7356 
 163   0.0000       1.365081        37.1457 
 164   0.0000       1.373997        37.3884 
 165   0.0000       1.399654        38.0865 
 166   0.0000       1.402083        38.1526 
 167   0.0000       1.421500        38.6810 
 168   0.0000       1.424938        38.7745 
 169   0.0000       1.427663        38.8487 
 170   0.0000       1.435483        39.0615 
 171   0.0000       1.450726        39.4763 
 172   0.0000       1.461710        39.7752 
 173   0.0000       1.473116        40.0855 
 174   0.0000       1.491833        40.5948 
 175   0.0000       1.495191        40.6862 
 176   0.0000       1.509268        41.0693 
 177   0.0000       1.513897        41.1952 
 178   0.0000       1.528103        41.5818 
 179   0.0000       1.532038        41.6889 
 180   0.0000       1.550361        42.1875 
 181   0.0000       1.575295        42.8660 
 182   0.0000       1.588552        43.2267 
 183   0.0000       1.592244        43.3272 
 184   0.0000       1.605375        43.6845 
 185   0.0000       1.629121        44.3306 
 186   0.0000       1.630309        44.3630 
 187   0.0000       1.641442        44.6659 
 188   0.0000       1.652666        44.9713 
 189   0.0000       1.661873        45.2219 
 190   0.0000       1.664001        45.2798 
 191   0.0000       1.690654        46.0050 
 192   0.0000       1.694181        46.1010 
 193   0.0000       1.700112        46.2624 
 194   0.0000       1.738192        47.2986 
 195   0.0000       1.750723        47.6396 
 196   0.0000       1.794815        48.8394 
 197   0.0000       1.804273        49.0968 
 198   0.0000       1.845670        50.2232 
 199   0.0000       1.855374        50.4873 
 200   0.0000       1.873170        50.9716 
 201   0.0000       1.891551        51.4717 
 202   0.0000       1.911025        52.0016 
 203   0.0000       1.935266        52.6613 
 204   0.0000       1.950178        53.0670 
 205   0.0000       1.976844        53.7927 
 206   0.0000       1.988214        54.1021 
 207   0.0000       2.006189        54.5912 
 208   0.0000       2.029935        55.2374 
 209   0.0000       2.035843        55.3981 
 210   0.0000       2.051956        55.8366 
 211   0.0000       2.069040        56.3014 
 212   0.0000       2.079749        56.5928 
 213   0.0000       2.102374        57.2085 
 214   0.0000       2.116018        57.5798 
 215   0.0000       2.129897        57.9574 
 216   0.0000       2.145962        58.3946 
 217   0.0000       2.158559        58.7374 
 218   0.0000       2.163780        58.8794 
 219   0.0000       2.198797        59.8323 
 220   0.0000       2.228701        60.6460 
 221   0.0000       2.245196        61.0949 
 222   0.0000       2.254629        61.3516 
 223   0.0000       2.268751        61.7359 
 224   0.0000       2.310235        62.8647 
 225   0.0000       2.327370        63.3310 
 226   0.0000       2.336975        63.5923 
 227   0.0000       2.352189        64.0063 
 228   0.0000       2.377207        64.6871 
 229   0.0000       2.382685        64.8361 
 230   0.0000       2.405795        65.4650 
 231   0.0000       2.415641        65.7329 
 232   0.0000       2.465533        67.0906 
 233   0.0000       2.475514        67.3622 
 234   0.0000       2.501684        68.0743 
 235   0.0000       2.537403        69.0462 
 236   0.0000       2.547148        69.3114 
 237   0.0000       2.557731        69.5994 
 238   0.0000       2.576052        70.0979 
 239   0.0000       2.590594        70.4937 
 240   0.0000       2.592524        70.5462 
 241   0.0000       2.613397        71.1142 
 242   0.0000       2.614659        71.1485 
 243   0.0000       2.636085        71.7315 
 244   0.0000       2.665370        72.5284 
 245   0.0000       2.670850        72.6775 
 246   0.0000       2.698677        73.4347 
 247   0.0000       2.719350        73.9973 
 248   0.0000       2.727165        74.2099 
 249   0.0000       2.734727        74.4157 
 250   0.0000       2.746835        74.7452 
 251   0.0000       2.752151        74.8898 
 252   0.0000       2.762683        75.1764 
 253   0.0000       2.771414        75.4140 
 254   0.0000       2.788779        75.8865 
 255   0.0000       2.800825        76.2143 
 256   0.0000       2.804444        76.3128 
 257   0.0000       2.810435        76.4758 
 258   0.0000       2.826337        76.9085 
 259   0.0000       2.848352        77.5076 
 260   0.0000       2.854012        77.6616 
 261   0.0000       2.859825        77.8198 
 262   0.0000       2.874338        78.2147 
 263   0.0000       2.892353        78.7049 
 264   0.0000       2.923800        79.5606 
 265   0.0000       2.929480        79.7152 
 266   0.0000       2.965186        80.6868 
 267   0.0000       2.999614        81.6237 
 268   0.0000       3.016331        82.0786 
 269   0.0000       3.032293        82.5129 
 270   0.0000       3.048372        82.9504 
 271   0.0000       3.062753        83.3418 
 272   0.0000       3.080643        83.8285 
 273   0.0000       3.084082        83.9221 
 274   0.0000       3.091944        84.1361 
 275   0.0000       3.113867        84.7326 
 276   0.0000       3.128161        85.1216 
 277   0.0000       3.140044        85.4449 
 278   0.0000       3.154316        85.8333 
 279   0.0000       3.176752        86.4438 
 280   0.0000       3.188731        86.7698 
 281   0.0000       3.200681        87.0950 
 282   0.0000       3.216311        87.5203 
 283   0.0000       3.239834        88.1604 
 284   0.0000       3.251076        88.4663 
 285   0.0000       3.280400        89.2642 
 286   0.0000       3.295387        89.6720 
 287   0.0000       3.309954        90.0684 
 288   0.0000       3.320791        90.3633 
 289   0.0000       3.330513        90.6279 
 290   0.0000       3.357492        91.3620 
 291   0.0000       3.366718        91.6131 
 292   0.0000       3.389222        92.2254 
 293   0.0000       3.409447        92.7758 
 294   0.0000       3.426841        93.2491 
 295   0.0000       3.438820        93.5751 
 296   0.0000       3.442845        93.6846 
 297   0.0000       3.463434        94.2448 
 298   0.0000       3.496099        95.1337 
 299   0.0000       3.502139        95.2980 
 300   0.0000       3.518152        95.7338 
 301   0.0000       3.533942        96.1635 
 302   0.0000       3.549442        96.5852 
 303   0.0000       3.637183        98.9728 
 304   0.0000       3.655314        99.4661 
 305   0.0000       3.660521        99.6078 
 306   0.0000       3.680557       100.1530 
 307   0.0000       3.753828       102.1468 
 308   0.0000       3.776977       102.7768 
 309   0.0000       3.788689       103.0955 
 310   0.0000       3.805428       103.5509 
 311   0.0000       3.875747       105.4644 
 312   0.0000       3.922610       106.7396 
 313   0.0000       3.953355       107.5762 
 314   0.0000       3.970203       108.0347 
 315   0.0000       3.993087       108.6574 
 316   0.0000       3.997282       108.7716 
 317   0.0000       4.016161       109.2853 
 318   0.0000       4.044443       110.0549 
 319   0.0000       4.111234       111.8724 
 320   0.0000       4.120826       112.1334 
 321   0.0000       4.154818       113.0583 
 322   0.0000       4.165110       113.3384 
 323   0.0000       4.169291       113.4522 
 324   0.0000       4.195539       114.1664 
 325   0.0000       4.198593       114.2495 
 326   0.0000       4.216950       114.7490 
 327   0.0000       4.247483       115.5799 
 328   0.0000       4.257307       115.8472 
 329   0.0000       4.288490       116.6957 
 330   0.0000       4.348017       118.3156 
 331   0.0000       4.407083       119.9228 
 332   0.0000       4.490190       122.1843 
 333   0.0000       4.536603       123.4472 
 334   0.0000       4.564451       124.2050 
 335   0.0000       4.585165       124.7687 
 336   0.0000       4.603008       125.2542 
 337   0.0000       4.643055       126.3439 
 338   0.0000       4.671868       127.1280 
 339   0.0000       4.739847       128.9778 
 340   0.0000       4.812067       130.9430 
 341   0.0000       4.816683       131.0686 
 342   0.0000       4.838026       131.6494 
 343   0.0000       4.860140       132.2511 
 344   0.0000       4.941923       134.4766 
 345   0.0000       4.985386       135.6592 
 346   0.0000       5.079106       138.2095 
 347   0.0000       5.098918       138.7486 
 348   0.0000       5.112299       139.1127 
 349   0.0000       5.121724       139.3692 
 350   0.0000       5.127755       139.5333 
 351   0.0000       5.145457       140.0150 
 352   0.0000       5.148519       140.0983 
 353   0.0000       5.157200       140.3345 
 354   0.0000       5.171058       140.7116 
 355   0.0000       5.177648       140.8910 
 356   0.0000       5.187836       141.1682 
 357   0.0000       5.196893       141.4147 
 358   0.0000       5.226142       142.2105 
 359   0.0000       5.229077       142.2904 
 360   0.0000       5.244756       142.7171 
 361   0.0000       5.275433       143.5518 
 362   0.0000       5.307481       144.4239 
 363   0.0000       5.333601       145.1347 
 364   0.0000       5.353688       145.6813 
 365   0.0000       5.362336       145.9166 
 366   0.0000       5.411037       147.2418 
 367   0.0000       5.454627       148.4279 
 368   0.0000       5.509611       149.9241 
 369   0.0000       5.532727       150.5532 
 370   0.0000       5.569224       151.5463 
 371   0.0000       5.573455       151.6614 
 372   0.0000       5.593894       152.2176 
 373   0.0000       5.679176       154.5382 
 374   0.0000       5.743808       156.2970 
 375   0.0000       6.125702       166.6888 
 376   0.0000       6.204811       168.8415 
 377   0.0000       6.221956       169.3080 
 378   0.0000       6.256597       170.2506 
 379   0.0000       6.327206       172.1720 
 380   0.0000       6.352709       172.8660 
 381   0.0000       6.449747       175.5065 
 382   0.0000       6.528801       177.6577 
 383   0.0000       6.576076       178.9441 
 384   0.0000       6.588362       179.2784 
 385   0.0000       6.601399       179.6332 
 386   0.0000       6.675873       181.6597 
 387   0.0000       6.699780       182.3103 
 388   0.0000       6.773151       184.3068 
 389   0.0000       6.792683       184.8383 
 390   0.0000       6.839377       186.1089 
 391   0.0000       6.990604       190.2240 
 392   0.0000       7.116752       193.6567 
 393   0.0000       8.876202       241.5337 
 394   0.0000       8.966483       243.9904 
 395   0.0000       9.421646       256.3760 
 396   0.0000      20.828121       566.7620 
 397   0.0000      21.897954       595.8736 
 398   0.0000      22.478401       611.6684 
 399   0.0000      22.499909       612.2537 
 400   0.0000      22.609193       615.2274 
 401   0.0000      22.704479       617.8203 
 402   0.0000      23.076743       627.9501 
 403   0.0000      23.419531       637.2778 
 404   0.0000      31.952199       869.4635 
 405   0.0000      43.249714      1176.8846 
 406   0.0000      43.458581      1182.5681 
 407   0.0000      43.825801      1192.5607 

                    ********************************
                    * MULLIKEN POPULATION ANALYSIS *
                    ********************************

------------------------------------------
FOD BASED MULLIKEN REDUCED ORBITAL CHARGES
------------------------------------------
  0 C s       :    -0.000100  s :    -0.000100
      pz      :     0.006359  p :     0.006947
      px      :     0.000206
      py      :     0.000381
      dz2     :     0.000141  d :     0.000870
      dxz     :     0.000064
      dyz     :     0.000617
      dx2y2   :     0.000025
      dxy     :     0.000023
      f0      :     0.000004  f :     0.000046
      f+1     :     0.000004
      f-1     :     0.000003
      f+2     :     0.000010
      f-2     :     0.000022
      f+3     :     0.000001
      f-3     :     0.000002
  1 C s       :     0.000339  s :     0.000339
      pz      :     0.012668  p :     0.013677
      px      :     0.000483
      py      :     0.000526
      dz2     :     0.000008  d :     0.000568
      dxz     :     0.000250
      dyz     :     0.000024
      dx2y2   :     0.000101
      dxy     :     0.000185
      f0      :     0.000005  f :     0.000032
      f+1     :     0.000001
      f-1     :     0.000001
      f+2     :     0.000004
      f-2     :     0.000010
      f+3     :     0.000007
      f-3     :     0.000004
  2 C s       :     0.000013  s :     0.000013
      pz      :     0.015789  p :     0.016462
      px      :     0.000074
      py      :     0.000599
      dz2     :     0.000022  d :     0.000311
      dxz     :     0.000142
      dyz     :     0.000129
      dx2y2   :     0.000011
      dxy     :     0.000006
      f0      :     0.000004  f :     0.000020
      f+1     :     0.000000
      f-1     :     0.000002
      f+2     :     0.000010
      f-2     :     0.000002
      f+3     :     0.000001
      f-3     :     0.000001
  3 C s       :     0.001577  s :     0.001577
      pz      :     0.006321  p :     0.013391
      px      :     0.003420
      py      :     0.003650
      dz2     :     0.000241  d :     0.001689
      dxz     :     0.000720
      dyz     :     0.000581
      dx2y2   :     0.000130
      dxy     :     0.000016
      f0      :     0.000015  f :     0.000093
      f+1     :     0.000019
      f-1     :     0.000007
      f+2     :     0.000016
      f-2     :     0.000030
      f+3     :     0.000004
      f-3     :     0.000002
  4 C s       :     0.000238  s :     0.000238
      pz      :     0.012995  p :     0.014119
      px      :     0.000106
      py      :     0.001018
      dz2     :     0.000031  d :     0.000530
      dxz     :     0.000032
      dyz     :     0.000202
      dx2y2   :     0.000102
      dxy     :     0.000163
      f0      :     0.000005  f :     0.000032
      f+1     :     0.000002
      f-1     :     0.000002
      f+2     :     0.000004
      f-2     :     0.000008
      f+3     :     0.000006
      f-3     :     0.000006
  5 C s       :    -0.000109  s :    -0.000109
      pz      :     0.006131  p :     0.006699
      px      :     0.000165
      py      :     0.000403
      dz2     :     0.000051  d :     0.000890
      dxz     :     0.000715
      dyz     :     0.000037
      dx2y2   :     0.000034
      dxy     :     0.000053
      f0      :     0.000004  f :     0.000046
      f+1     :     0.000002
      f-1     :     0.000003
      f+2     :     0.000008
      f-2     :     0.000024
      f+3     :     0.000004
      f-3     :     0.000001
  6 H s       :     0.000315  s :     0.000315
      pz      :     0.000076  p :     0.000083
      px      :     0.000000
      py      :     0.000007
  7 C s       :     0.002252  s :     0.002252
      pz      :     0.000770  p :     0.002722
      px      :     0.001109
      py      :     0.000842
      dz2     :     0.001123  d :     0.004399
      dxz     :     0.001389
      dyz     :     0.001424
      dx2y2   :     0.000123
      dxy     :     0.000340
      f0      :     0.000027  f :     0.000256
      f+1     :     0.000087
      f-1     :     0.000091
      f+2     :     0.000013
      f-2     :     0.000021
      f+3     :     0.000007
      f-3     :     0.000010
  8 H s       :     0.000195  s :     0.000195
      pz      :     0.000037  p :     0.000041
      px      :     0.000001
      py      :     0.000003
  9 H s       :     0.000037  s :     0.000037
      pz      :     0.000114  p :     0.000119
      px      :     0.000001
      py      :     0.000005
 10 H s       :     0.000286  s :     0.000286
      pz      :     0.000080  p :     0.000085
      px      :     0.000001
      py      :     0.000003
 11 H s       :     0.000207  s :     0.000207
      pz      :     0.000035  p :     0.000039
      px      :     0.000002
      py      :     0.000002
 12 N s       :     0.000922  s :     0.000922
      pz      :     0.005352  p :     0.075704
      px      :     0.036360
      py      :     0.033992
      dz2     :     0.000018  d :     0.000100
      dxz     :     0.000012
      dyz     :     0.000019
      dx2y2   :     0.000007
      dxy     :     0.000044
      f0      :    -0.000001  f :     0.000003
      f+1     :     0.000002
      f-1     :     0.000003
      f+2     :     0.000000
      f-2     :    -0.000001
      f+3     :    -0.000000
      f-3     :    -0.000001
 13 O s       :     0.000242  s :     0.000242
      pz      :     0.002572  p :     0.018930
      px      :     0.004865
      py      :     0.011494
      dz2     :     0.000104  d :     0.000351
      dxz     :     0.000021
      dyz     :     0.000022
      dx2y2   :     0.000017
      dxy     :     0.000187
      f0      :     0.000002  f :     0.000008
      f+1     :     0.000001
      f-1     :     0.000002
      f+2     :     0.000001
      f-2     :     0.000002
      f+3     :     0.000001
      f-3     :     0.000000
 14 O s       :    -0.000133  s :    -0.000133
      pz      :     0.004777  p :     0.032624
      px      :     0.014081
      py      :     0.013766
      dz2     :     0.000005  d :    -0.000006
      dxz     :    -0.000013
      dyz     :    -0.000010
      dx2y2   :     0.000001
      dxy     :     0.000011
      f0      :     0.000000  f :    -0.000001
      f+1     :    -0.000000
      f-1     :    -0.000000
      f+2     :    -0.000000
      f-2     :     0.000000
      f+3     :    -0.000000
      f-3     :    -0.000000
 15 S s       :     0.003300  s :     0.003300
      pz      :     0.008498  p :     0.017184
      px      :     0.004261
      py      :     0.004426
      dz2     :     0.000359  d :     0.004736
      dxz     :     0.000588
      dyz     :     0.002093
      dx2y2   :     0.001223
      dxy     :     0.000474
      f0      :     0.000110  f :     0.000338
      f+1     :     0.000027
      f-1     :     0.000052
      f+2     :     0.000012
      f-2     :     0.000038
      f+3     :     0.000036
      f-3     :     0.000062
 16 O s       :     0.000037  s :     0.000037
      pz      :     0.007344  p :     0.020517
      px      :     0.003850
      py      :     0.009323
      dz2     :    -0.000002  d :     0.000009
      dxz     :     0.000001
      dyz     :     0.000008
      dx2y2   :     0.000002
      dxy     :    -0.000001
      f0      :     0.000000  f :     0.000001
      f+1     :     0.000000
      f-1     :     0.000000
      f+2     :     0.000000
      f-2     :     0.000000
      f+3     :     0.000000
      f-3     :     0.000000


                     *******************************
                     * LOEWDIN POPULATION ANALYSIS *
                     *******************************

----------------------
LOEWDIN ATOMIC CHARGES
----------------------
   0 C :   -0.116105
   1 C :   -0.064585
   2 C :   -0.104518
   3 C :   -0.081652
   4 C :   -0.062085
   5 C :   -0.115040
   6 H :    0.158005
   7 C :   -0.543129
   8 H :    0.148978
   9 H :    0.148286
  10 H :    0.159676
  11 H :    0.149332
  12 N :    0.170962
  13 O :   -0.229111
  14 O :    0.092412
  15 S :    0.570758
  16 O :   -0.282185

-------------------------------
LOEWDIN REDUCED ORBITAL CHARGES
-------------------------------
  0 C s       :     2.768483  s :     2.768483
      pz      :     0.880948  p :     2.921421
      px      :     0.991702
      py      :     1.048771
      dz2     :     0.031553  d :     0.383074
      dxz     :     0.021049
      dyz     :     0.067104
      dx2y2   :     0.145564
      dxy     :     0.117804
      f0      :     0.003129  f :     0.043127
      f+1     :     0.003655
      f-1     :     0.004278
      f+2     :     0.003765
      f-2     :     0.005878
      f+3     :     0.011641
      f-3     :     0.010782
  1 C s       :     2.764459  s :     2.764459
      pz      :     0.855748  p :     2.878063
      px      :     1.032246
      py      :     0.990069
      dz2     :     0.026684  d :     0.378959
      dxz     :     0.072500
      dyz     :     0.022367
      dx2y2   :     0.147215
      dxy     :     0.110194
      f0      :     0.003502  f :     0.043104
      f+1     :     0.004567
      f-1     :     0.002955
      f+2     :     0.003551
      f-2     :     0.006286
      f+3     :     0.011590
      f-3     :     0.010653
  2 C s       :     2.771903  s :     2.771903
      pz      :     0.855225  p :     2.904657
      px      :     1.025895
      py      :     1.023536
      dz2     :     0.026683  d :     0.385307
      dxz     :     0.048133
      dyz     :     0.046589
      dx2y2   :     0.101687
      dxy     :     0.162215
      f0      :     0.003300  f :     0.042650
      f+1     :     0.003491
      f-1     :     0.003958
      f+2     :     0.007363
      f-2     :     0.002146
      f+3     :     0.011601
      f-3     :     0.010791
  3 C s       :     2.715024  s :     2.715024
      pz      :     0.840770  p :     2.789883
      px      :     0.967054
      py      :     0.982058
      dz2     :     0.041985  d :     0.519189
      dxz     :     0.073716
      dyz     :     0.071697
      dx2y2   :     0.150498
      dxy     :     0.181292
      f0      :     0.004314  f :     0.057556
      f+1     :     0.004529
      f-1     :     0.004760
      f+2     :     0.007773
      f-2     :     0.005874
      f+3     :     0.015920
      f-3     :     0.014385
  4 C s       :     2.764454  s :     2.764454
      pz      :     0.854373  p :     2.876157
      px      :     0.999648
      py      :     1.022136
      dz2     :     0.031519  d :     0.378349
      dxz     :     0.021530
      dyz     :     0.067809
      dx2y2   :     0.145482
      dxy     :     0.112010
      f0      :     0.003193  f :     0.043125
      f+1     :     0.003723
      f-1     :     0.004271
      f+2     :     0.003903
      f-2     :     0.005995
      f+3     :     0.011557
      f-3     :     0.010482
  5 C s       :     2.768531  s :     2.768531
      pz      :     0.877110  p :     2.920326
      px      :     1.057641
      py      :     0.985575
      dz2     :     0.026861  d :     0.383056
      dxz     :     0.070754
      dyz     :     0.020203
      dx2y2   :     0.151020
      dxy     :     0.114219
      f0      :     0.003375  f :     0.043127
      f+1     :     0.004503
      f-1     :     0.003045
      f+2     :     0.003342
      f-2     :     0.006071
      f+3     :     0.012183
      f-3     :     0.010609
  6 H s       :     0.783045  s :     0.783045
      pz      :     0.013574  p :     0.058950
      px      :     0.011499
      py      :     0.033877
  7 C s       :     2.735954  s :     2.735954
      pz      :     1.045055  p :     2.789281
      px      :     0.877601
      py      :     0.866625
      dz2     :     0.279519  d :     0.899693
      dxz     :     0.223192
      dyz     :     0.224360
      dx2y2   :     0.078395
      dxy     :     0.094227
      f0      :     0.032022  f :     0.118200
      f+1     :     0.019976
      f-1     :     0.022123
      f+2     :     0.015261
      f-2     :     0.015161
      f+3     :     0.006768
      f-3     :     0.006890
  8 H s       :     0.792791  s :     0.792791
      pz      :     0.012760  p :     0.058231
      px      :     0.032815
      py      :     0.012657
  9 H s       :     0.793644  s :     0.793644
      pz      :     0.013167  p :     0.058070
      px      :     0.023224
      py      :     0.021679
 10 H s       :     0.781278  s :     0.781278
      pz      :     0.012478  p :     0.059046
      px      :     0.034451
      py      :     0.012117
 11 H s       :     0.792431  s :     0.792431
      pz      :     0.013421  p :     0.058236
      px      :     0.012036
      py      :     0.032780
 12 N s       :     3.329595  s :     3.329595
      pz      :     1.391100  p :     3.346843
      px      :     0.955193
      py      :     1.000550
      dz2     :     0.051079  d :     0.139074
      dxz     :     0.033797
      dyz     :     0.032073
      dx2y2   :     0.003911
      dxy     :     0.018214
      f0      :     0.004782  f :     0.013526
      f+1     :     0.003927
      f-1     :     0.003874
      f+2     :     0.000158
      f-2     :     0.000255
      f+3     :     0.000281
      f-3     :     0.000248
 13 O s       :     3.617635  s :     3.617635
      pz      :     1.516570  p :     4.535455
      px      :     1.486757
      py      :     1.532129
      dz2     :     0.024840  d :     0.072031
      dxz     :     0.023206
      dyz     :     0.011491
      dx2y2   :     0.004641
      dxy     :     0.007853
      f0      :     0.000872  f :     0.003990
      f+1     :     0.001441
      f-1     :     0.000476
      f+2     :     0.000483
      f-2     :     0.000491
      f+3     :     0.000116
      f-3     :     0.000111
 14 O s       :     3.430936  s :     3.430936
      pz      :     1.520344  p :     4.398882
      px      :     1.423053
      py      :     1.455486
      dz2     :     0.018557  d :     0.072323
      dxz     :     0.017812
      dyz     :     0.017738
      dx2y2   :     0.006577
      dxy     :     0.011639
      f0      :     0.001021  f :     0.005448
      f+1     :     0.000945
      f-1     :     0.001059
      f+2     :     0.000762
      f-2     :     0.001208
      f+3     :     0.000209
      f-3     :     0.000244
 15 S s       :     5.250929  s :     5.250929
      pz      :     2.943113  p :     8.940556
      px      :     2.851833
      py      :     3.145610
      dz2     :     0.200315  d :     1.042379
      dxz     :     0.281302
      dyz     :     0.162106
      dx2y2   :     0.206629
      dxy     :     0.192027
      f0      :     0.038449  f :     0.195378
      f+1     :     0.032060
      f-1     :     0.025793
      f+2     :     0.013867
      f-2     :     0.033271
      f+3     :     0.024224
      f-3     :     0.027714
 16 O s       :     3.631527  s :     3.631527
      pz      :     1.554227  p :     4.576144
      px      :     1.471459
      py      :     1.550458
      dz2     :     0.010402  d :     0.070259
      dxz     :     0.007734
      dyz     :     0.007196
      dx2y2   :     0.015355
      dxy     :     0.029572
      f0      :     0.000359  f :     0.004255
      f+1     :     0.000488
      f-1     :     0.000460
      f+2     :     0.000088
      f-2     :     0.000635
      f+3     :     0.001122
      f-3     :     0.001102


                      *****************************
                      * MAYER POPULATION ANALYSIS *
                      *****************************

  NA   - Mulliken gross atomic population
  ZA   - Total nuclear charge
  QA   - Mulliken gross atomic charge
  VA   - Mayer's total valence
  BVA  - Mayer's bonded valence
  FA   - Mayer's free valence

  ATOM       NA         ZA         QA         VA         BVA        FA
  0 C      6.0938     6.0000    -0.0938     3.9200     3.9048     0.0152
  1 C      6.1469     6.0000    -0.1469     3.9905     3.9623     0.0281
  2 C      6.0756     6.0000    -0.0756     3.9260     3.8938     0.0322
  3 C      5.7799     6.0000     0.2201     3.7090     3.6769     0.0321
  4 C      6.1568     6.0000    -0.1568     3.9898     3.9611     0.0287
  5 C      6.0919     6.0000    -0.0919     3.9131     3.8983     0.0148
  6 H      0.8718     1.0000     0.1282     0.9724     0.9717     0.0008
  7 C      5.8150     6.0000     0.1850     4.2377     4.2193     0.0184
  8 H      0.8814     1.0000     0.1186     0.9648     0.9643     0.0005
  9 H      0.8809     1.0000     0.1191     0.9633     0.9630     0.0003
 10 H      0.8664     1.0000     0.1336     0.9715     0.9708     0.0007
 11 H      0.8802     1.0000     0.1198     0.9647     0.9643     0.0005
 12 N      7.0926     7.0000    -0.0926     2.6596     2.5135     0.1460
 13 O      8.3230     8.0000    -0.3230     2.1093     2.0713     0.0379
 14 O      8.3133     8.0000    -0.3133     2.1959     2.1330     0.0629
 15 S     15.3894    16.0000     0.6106     3.9681     3.9188     0.0493
 16 O      8.3411     8.0000    -0.3411     2.1113     2.0712     0.0401

  Mayer bond orders larger than 0.100000
B(  0-C ,  1-C ) :   1.4231 B(  0-C ,  2-C ) :   1.3795 B(  0-C ,  8-H ) :   0.9664 
B(  1-C ,  3-C ) :   1.3130 B(  1-C ,  6-H ) :   0.9684 B(  2-C ,  5-C ) :   1.3748 
B(  2-C ,  9-H ) :   0.9632 B(  3-C ,  4-C ) :   1.3112 B(  3-C ,  7-C ) :   0.7621 
B(  3-C , 12-N ) :   0.2579 B(  4-C ,  5-C ) :   1.4223 B(  4-C , 10-H ) :   0.9675 
B(  5-C , 11-H ) :   0.9662 B(  7-C , 12-N ) :   1.7175 B(  7-C , 14-O ) :   1.5741 
B( 12-N , 13-O ) :   0.2566 B( 12-N , 14-O ) :   0.1161 B( 13-O , 15-S ) :   1.5919 
B( 13-O , 16-O ) :   0.1034 B( 14-O , 15-S ) :   0.3672 B( 15-S , 16-O ) :   1.8584 


-------
TIMINGS
-------

Total SCF time: 0 days 0 hours 0 min 57 sec 

Total time                  ....      57.795 sec
Sum of individual times     ....      57.593 sec  ( 99.7%)

Fock matrix formation       ....      55.126 sec  ( 95.4%)
  Split-RI-J                ....      13.563 sec  ( 24.6% of F)
  XC integration            ....      41.510 sec  ( 75.3% of F)
    Basis function eval.    ....       6.104 sec  ( 14.7% of XC)
    Density eval.           ....      15.062 sec  ( 36.3% of XC)
    XC-Functional eval.     ....       2.008 sec  (  4.8% of XC)
    XC-Potential eval.      ....      18.001 sec  ( 43.4% of XC)
Diagonalization             ....       0.368 sec  (  0.6%)
Density matrix formation    ....       0.204 sec  (  0.4%)
Population analysis         ....       0.013 sec  (  0.0%)
Initial guess               ....       0.754 sec  (  1.3%)
Orbital Transformation      ....       0.000 sec  (  0.0%)
Orbital Orthonormalization  ....       0.000 sec  (  0.0%)
DIIS solution               ....       0.139 sec  (  0.2%)
Grid generation             ....       0.988 sec  (  1.7%)

Maximum memory used throughout the entire SCF-calculation: 194.0 MB

-------------------------   --------------------
FINAL SINGLE POINT ENERGY      -948.616498652623
-------------------------   --------------------


                            ***************************************
                            *     ORCA property calculations      *
                            ***************************************

                                    ---------------------
                                    Active property flags
                                    ---------------------
   (+) Dipole Moment


------------------------------------------------------------------------------
                       ORCA ELECTRIC PROPERTIES CALCULATION
------------------------------------------------------------------------------

Dipole Moment Calculation                       ... on
Quadrupole Moment Calculation                   ... off
Polarizability Calculation                      ... off
GBWName                                         ... FOD.gbw
Electron density                                ... FOD.scfp
The origin for moment calculation is the CENTER OF MASS  = ( 1.842653,  1.489392 -0.219232)

-------------
DIPOLE MOMENT
-------------
                                X             Y             Z
Electronic contribution:      9.47362       8.26800      -1.03105
Nuclear contribution   :    -11.27424      -9.18786       1.65658
                        -----------------------------------------
Total Dipole Moment    :     -1.80062      -0.91986       0.62553
                        -----------------------------------------
Magnitude (a.u.)       :      2.11652
Magnitude (Debye)      :      5.37976



--------------------
Rotational spectrum 
--------------------
 
Rotational constants in cm-1:     0.088176     0.013714     0.012928 
Rotational constants in MHz :  2643.461069   411.137634   387.557352 

 Dipole components along the rotational axes: 
x,y,z [a.u.] :     2.045231    -0.158457    -0.521125 
x,y,z [Debye]:     5.198565    -0.402767    -1.324593 

 

Timings for individual modules:

Sum of individual times         ...       58.125 sec (=   0.969 min)
GTO integral calculation        ...        0.319 sec (=   0.005 min)   0.5 %
SCF iterations                  ...       57.806 sec (=   0.963 min)  99.5 %
                             ****ORCA TERMINATED NORMALLY****
TOTAL RUN TIME: 0 days 0 hours 0 minutes 58 seconds 257 msec
