17
XYZ file generated by orca_plot on BaseName=FOD
  C      -2.418344     -0.438062      0.166964
  C      -1.426794      0.496391     -0.096745
  C      -2.074763     -1.765671      0.423496
  C      -0.093438      0.081567     -0.059812
  C       0.265032     -1.251689      0.157110
  C      -0.739319     -2.171946      0.418706
  H      -1.667462      1.531707     -0.315947
  C       1.020658      1.142224     -0.116580
  H      -3.460705     -0.135135      0.158489
  H      -2.856622     -2.495240      0.613470
  H       1.310268     -1.543709      0.133334
  H      -0.483506     -3.210182      0.605806
  N       1.101239      1.090132     -1.372498
  O       2.484424      2.576401     -1.481824
  O       1.555592      1.724550      0.864455
  S       3.219189      2.691521     -0.156090
  O       4.264551      1.677139      0.057667
