-------------------------------------------------------------
----------------------- !PROPERTIES! ------------------------
-------------------------------------------------------------
# -----------------------------------------------------------
$ PAL_Flags
   description: The PAL Flags
   geom. index: 1
   prop. index: 1
        Diskflag:     2
# -----------------------------------------------------------
$ SCF_Energy
   description: The SCF energy
   geom. index: 1
   prop. index: 1
        SCF Energy:     -948.1456600183
# -----------------------------------------------------------
$ DFT_Energy
   description: The DFT energy
   geom. index: 1
   prop. index: 1
   Number of Alpha Electrons                 46.9999968312 
   Number of Beta  Electrons                 46.9999968312 
   Total number of  Electrons                93.9999936623 
   Exchange energy                          -94.6222707912 
   Correlation energy                        -3.2119573082 
   Correlation energy NL                      0.0000000000 
   Exchange-Correlation energy              -97.8342280994 
   Embedding correction                       0.0000000000 
   Total DFT Energy (No VdW correction)    -948.1456600183 
# -----------------------------------------------------------
$ Solvation_Details
   description: Details concerning solvation
   geom. index: 1
   prop. index: 1
     Epsilon:                2.2800000000
     Refrac:                 1.5010000000
     RSolv:                  1.3000000000
     Surface Type:                      2
     Number of Points:               1000
     Surface Area:         730.0834618187
     Dielectric Energy:     -0.0088864393
# -----------------------------------------------------------
$ Mayer_Pop
   description: The Mayer population analysis
   geom. index: 1
   prop. index: 1
     Number of atoms                     : 17
     Threshold for printing              : 0.1000000
     Number of bond orders printed       : 20
  NA   - Mulliken gross atomic population
  ZA   - Total nuclear charge
  QA   - Mulliken gross atomic charge
  VA   - Mayer's total valence
  BVA  - Mayer's bonded valence
  FA   - Mayer's free valence
  ATOM       NA         ZA         QA         VA         BVA        FA
  0   0     6.1577     6.0000    -0.1577     3.7931     3.7931    -0.0000
  1   0     6.1563     6.0000    -0.1563     3.9237     3.9237     0.0000
  2   0     6.0933     6.0000    -0.0933     3.7804     3.7804    -0.0000
  3   0     5.8126     6.0000     0.1874     3.6697     3.6697    -0.0000
  4   0     6.1657     6.0000    -0.1657     3.9456     3.9456    -0.0000
  5   0     6.1529     6.0000    -0.1529     3.7843     3.7843    -0.0000
  6   0     0.8188     1.0000     0.1812     0.9589     0.9589     0.0000
  7   0     5.6367     6.0000     0.3633     4.0133     4.0133    -0.0000
  8   0     0.8287     1.0000     0.1713     0.9621     0.9621     0.0000
  9   0     0.8258     1.0000     0.1742     0.9595     0.9595    -0.0000
 10   0     0.8168     1.0000     0.1832     0.9582     0.9582     0.0000
 11   0     0.8282     1.0000     0.1718     0.9619     0.9619     0.0000
 12   0     7.2028     7.0000    -0.2028     2.4528     2.4528     0.0000
 13   0     8.3740     8.0000    -0.3740     1.7735     1.7735     0.0000
 14   0     8.4164     8.0000    -0.4164     1.9903     1.9903    -0.0000
 15   0    15.2893    16.0000     0.7107     3.4100     3.4100    -0.0000
 16   0     8.4241     8.0000    -0.4241     1.7489     1.7489    -0.0000
      Bond orders larger than 0.1000000
           Atom A     A.N. of A          Atom B    A.N. of B              Bond order
                0             6               1            6                1.409373
                0             6               2            6                1.383945
                0             6               8            1                0.949530
                1             6               3            6                1.370858
                1             6               6            1                0.933338
                2             6               5            6                1.376282
                2             6               9            1                0.940925
                3             6               4            6                1.380450
                3             6               7            6                0.715829
                3             6              12            7                0.147150
                4             6               5            6                1.412950
                4             6              10            1                0.927928
                5             6              11            1                0.949519
                7             6              12            7                1.692451
                7             6              14            8                1.453684
               12             7              13            8                0.260483
               12             7              14            8                0.105911
               13             8              15           16                1.355662
               14             8              15           16                0.340206
               15            16              16            8                1.623382
# -----------------------------------------------------------
$ VdW_Correction
   description: The Van der Waals Correction
   geom. index: 1
   prop. index: 1
        Van der Waals Correction:       -0.0067672007
# -----------------------------------------------------------
$ Hessian
   description: Details about the Hessian
   geom. index: 1
   prop. index: 1
Normal modes:
Number of Rows: 51 Number of Columns: 51
                  0          1          2          3          4          5    
      0       0.000000   0.000000   0.000000   0.000000   0.000000   0.000000
      1       0.000000   0.000000   0.000000   0.000000   0.000000   0.000000
      2       0.000000   0.000000   0.000000   0.000000   0.000000   0.000000
      3       0.000000   0.000000   0.000000   0.000000   0.000000   0.000000
      4       0.000000   0.000000   0.000000   0.000000   0.000000   0.000000
      5       0.000000   0.000000   0.000000   0.000000   0.000000   0.000000
      6       0.000000   0.000000   0.000000   0.000000   0.000000   0.000000
      7       0.000000   0.000000   0.000000   0.000000   0.000000   0.000000
      8       0.000000   0.000000   0.000000   0.000000   0.000000   0.000000
      9       0.000000   0.000000   0.000000   0.000000   0.000000   0.000000
     10       0.000000   0.000000   0.000000   0.000000   0.000000   0.000000
     11       0.000000   0.000000   0.000000   0.000000   0.000000   0.000000
     12       0.000000   0.000000   0.000000   0.000000   0.000000   0.000000
     13       0.000000   0.000000   0.000000   0.000000   0.000000   0.000000
     14       0.000000   0.000000   0.000000   0.000000   0.000000   0.000000
     15       0.000000   0.000000   0.000000   0.000000   0.000000   0.000000
     16       0.000000   0.000000   0.000000   0.000000   0.000000   0.000000
     17       0.000000   0.000000   0.000000   0.000000   0.000000   0.000000
     18       0.000000   0.000000   0.000000   0.000000   0.000000   0.000000
     19       0.000000   0.000000   0.000000   0.000000   0.000000   0.000000
     20       0.000000   0.000000   0.000000   0.000000   0.000000   0.000000
     21       0.000000   0.000000   0.000000   0.000000   0.000000   0.000000
     22       0.000000   0.000000   0.000000   0.000000   0.000000   0.000000
     23       0.000000   0.000000   0.000000   0.000000   0.000000   0.000000
     24       0.000000   0.000000   0.000000   0.000000   0.000000   0.000000
     25       0.000000   0.000000   0.000000   0.000000   0.000000   0.000000
     26       0.000000   0.000000   0.000000   0.000000   0.000000   0.000000
     27       0.000000   0.000000   0.000000   0.000000   0.000000   0.000000
     28       0.000000   0.000000   0.000000   0.000000   0.000000   0.000000
     29       0.000000   0.000000   0.000000   0.000000   0.000000   0.000000
     30       0.000000   0.000000   0.000000   0.000000   0.000000   0.000000
     31       0.000000   0.000000   0.000000   0.000000   0.000000   0.000000
     32       0.000000   0.000000   0.000000   0.000000   0.000000   0.000000
     33       0.000000   0.000000   0.000000   0.000000   0.000000   0.000000
     34       0.000000   0.000000   0.000000   0.000000   0.000000   0.000000
     35       0.000000   0.000000   0.000000   0.000000   0.000000   0.000000
     36       0.000000   0.000000   0.000000   0.000000   0.000000   0.000000
     37       0.000000   0.000000   0.000000   0.000000   0.000000   0.000000
     38       0.000000   0.000000   0.000000   0.000000   0.000000   0.000000
     39       0.000000   0.000000   0.000000   0.000000   0.000000   0.000000
     40       0.000000   0.000000   0.000000   0.000000   0.000000   0.000000
     41       0.000000   0.000000   0.000000   0.000000   0.000000   0.000000
     42       0.000000   0.000000   0.000000   0.000000   0.000000   0.000000
     43       0.000000   0.000000   0.000000   0.000000   0.000000   0.000000
     44       0.000000   0.000000   0.000000   0.000000   0.000000   0.000000
     45       0.000000   0.000000   0.000000   0.000000   0.000000   0.000000
     46       0.000000   0.000000   0.000000   0.000000   0.000000   0.000000
     47       0.000000   0.000000   0.000000   0.000000   0.000000   0.000000
     48       0.000000   0.000000   0.000000   0.000000   0.000000   0.000000
     49       0.000000   0.000000   0.000000   0.000000   0.000000   0.000000
     50       0.000000   0.000000   0.000000   0.000000   0.000000   0.000000
                  6          7          8          9         10         11    
      0       0.006774  -0.006250   0.018683   0.024131   0.117090  -0.094665
      1      -0.017441   0.128046  -0.037647   0.041707   0.152222  -0.096798
      2      -0.026490   0.155936   0.226900   0.105084   0.027632   0.061286
      3       0.031847   0.064620  -0.057327   0.017668   0.207644  -0.124815
      4       0.007622   0.044109   0.021133  -0.025038   0.048247  -0.091567
      5       0.097670   0.131353   0.154001  -0.162571   0.036817  -0.088184
      6      -0.012819  -0.117544   0.104295   0.022030  -0.010349  -0.075651
      7      -0.015289   0.070622  -0.047823   0.079276   0.103927  -0.078873
      8      -0.024389   0.020193   0.072086   0.293637  -0.034509   0.132777
      9       0.026583   0.028897  -0.037051   0.007298   0.169057  -0.104359
     10       0.050410  -0.092430   0.066612  -0.056936  -0.084330  -0.036050
     11       0.260288  -0.012760  -0.051836  -0.238927   0.026587  -0.098184
     12      -0.003966  -0.086501   0.043198   0.004444   0.047214  -0.104649
     13       0.034234  -0.143758   0.064805  -0.034366  -0.122082  -0.031755
     14       0.109404  -0.143674  -0.204775  -0.109111  -0.009775  -0.109900
     15      -0.017666  -0.159660   0.116378   0.009956  -0.052827  -0.076377
     16      -0.005328  -0.065273   0.000313   0.037277  -0.034375  -0.055792
     17      -0.026321  -0.134378  -0.150653   0.165599  -0.062793  -0.023835
     18       0.019633   0.148985  -0.131295   0.023156   0.318331  -0.187294
     19       0.020536   0.086131   0.030123  -0.046168   0.080767  -0.108840
     20       0.166112   0.232620   0.275673  -0.265495   0.064278  -0.104206
     21      -0.050388   0.087148  -0.080824   0.011475   0.142548  -0.089560
     22      -0.085504  -0.152548   0.109336  -0.065221  -0.075276   0.039333
     23      -0.154521  -0.024806  -0.075984  -0.204683   0.044361   0.044305
     24       0.007510   0.023462   0.005537   0.031320   0.147454  -0.095611
     25      -0.013645   0.237386  -0.075574   0.070769   0.260026  -0.093939
     26      -0.081492   0.278371   0.407104   0.194757   0.055671   0.146291
     27      -0.016152  -0.175533   0.156688   0.028230  -0.083704  -0.050492
     28      -0.015183   0.135898  -0.089904   0.137776   0.174574  -0.064996
     29      -0.039050   0.033898   0.124358   0.542935  -0.061674   0.287751
     30      -0.003616  -0.117922   0.052506  -0.003902   0.018943  -0.105594
     31       0.027030  -0.249360   0.111802  -0.060338  -0.222577  -0.032004
     32       0.184718  -0.258755  -0.373740  -0.166249  -0.021024  -0.151423
     33      -0.012892  -0.248839   0.183024   0.006180  -0.163408  -0.029858
     34      -0.015502  -0.108038  -0.006822   0.062542  -0.072201  -0.045580
     35      -0.082775  -0.244557  -0.280472   0.307670  -0.117557  -0.030047
     36       0.514621   0.102283   0.000609   0.034624   0.296392   0.386577
     37       0.498253  -0.178698   0.013048   0.064735  -0.262937  -0.031129
     38      -0.212954  -0.022762  -0.066811  -0.201694   0.059061   0.054132
     39      -0.296288   0.032760   0.150363   0.028004  -0.141985  -0.050117
     40      -0.276615  -0.136513  -0.125762   0.185384   0.221823  -0.001513
     41       0.004928  -0.054147  -0.076383   0.080810   0.017203   0.147399
     42       0.119440   0.044568  -0.157931  -0.021907  -0.096128  -0.421092
     43       0.033325  -0.097529   0.199047  -0.179246   0.191754   0.190189
     44      -0.150549  -0.033653  -0.084152  -0.118243   0.023933   0.133938
     45      -0.117070  -0.062624   0.008607  -0.041888  -0.077390   0.188462
     46      -0.090349   0.108762  -0.047460  -0.015142   0.030412   0.026966
     47       0.074871  -0.013505  -0.000298   0.132830  -0.017112   0.012349
     48      -0.024017   0.124022  -0.107593  -0.030650  -0.347004   0.287698
     49       0.011411   0.324698  -0.120366  -0.025349  -0.249458   0.070186
     50      -0.004168   0.138278   0.232708   0.022520  -0.074756  -0.301462
                 12         13         14         15         16         17    
      0       0.074432  -0.064271  -0.109834  -0.067398  -0.035306   0.013113
      1       0.076441  -0.103698  -0.102832  -0.102788  -0.053403   0.041014
      2      -0.062612   0.007104   0.036340  -0.077194   0.027729   0.196034
      3       0.063736   0.018465  -0.242382  -0.072869  -0.035282  -0.003300
      4       0.031716  -0.163739   0.058347  -0.098956  -0.030001  -0.047794
      5      -0.223387   0.020492   0.010521  -0.150604   0.042903  -0.202553
      6       0.101555  -0.185302   0.039936  -0.072977  -0.059545  -0.002960
      7       0.127932  -0.116689  -0.080214  -0.046944  -0.068051   0.003303
      8       0.162372   0.055122  -0.001243   0.220009  -0.018574   0.005077
      9       0.043754   0.022514  -0.183462  -0.011325  -0.011601  -0.000548
     10       0.008063  -0.151357   0.178547   0.032436   0.004776   0.002082
     11      -0.164433   0.018834  -0.019914   0.075697  -0.014411   0.003378
     12       0.069442  -0.111154  -0.075788  -0.092633  -0.048284   0.016620
     13       0.014931  -0.204801   0.229651  -0.051022  -0.006319   0.032179
     14      -0.221776   0.022964  -0.015326  -0.165581   0.025691   0.198724
     15       0.084063  -0.194701   0.077627  -0.077500  -0.047427  -0.012980
     16       0.064697  -0.147152   0.082537  -0.056645  -0.019005  -0.044167
     17      -0.030697   0.055795  -0.019259  -0.076678   0.036518  -0.202016
     18       0.094283   0.031954  -0.409360  -0.140524  -0.082969  -0.015403
     19       0.022097  -0.157856   0.024272  -0.147035  -0.029280  -0.109868
     20      -0.299489   0.030750   0.033182  -0.302273   0.097222  -0.477498
     21       0.012711   0.029368   0.090402   0.073915   0.043682  -0.020132
     22       0.017323   0.015188  -0.085172   0.064809   0.025951   0.023142
     23       0.203749   0.022160   0.009339   0.094440   0.114637   0.001819
     24       0.072225  -0.034976  -0.150171  -0.068461  -0.030046   0.025066
     25       0.069506  -0.000244  -0.239311  -0.109571  -0.033072   0.091436
     26      -0.031097  -0.024514   0.078512  -0.168385   0.043038   0.410094
     27       0.114640  -0.224173   0.122427  -0.050650  -0.058309  -0.006426
     28       0.186564  -0.068290  -0.170570   0.001434  -0.082283   0.009525
     29       0.440269   0.082556  -0.011504   0.497423  -0.067758   0.014725
     30       0.069799  -0.145900  -0.035551  -0.113095  -0.053848   0.036025
     31       0.022647  -0.337018   0.377124  -0.115633  -0.030320   0.083765
     32      -0.302331   0.059413  -0.032503  -0.330229   0.061144   0.468616
     33       0.066672  -0.224024   0.231295  -0.042663  -0.011312  -0.031414
     34       0.071619  -0.148340   0.117091  -0.064188  -0.004681  -0.089249
     35       0.029911   0.095976  -0.044925  -0.164734   0.065882  -0.419704
     36       0.019713   0.042142   0.284356  -0.008822   0.228505  -0.008189
     37       0.150168   0.400422  -0.205404  -0.039971   0.189154   0.008649
     38       0.197782  -0.020385   0.015620   0.107766   0.122301   0.003108
     39      -0.143239   0.101966  -0.035731  -0.002912   0.612968   0.003875
     40      -0.262621   0.135036   0.074467   0.022013   0.105075   0.005726
     41      -0.043497  -0.110409  -0.013443   0.012177  -0.418075  -0.008632
     42      -0.031379   0.011761   0.154168   0.330014  -0.015100   0.014232
     43      -0.127744  -0.076244  -0.227320   0.269026  -0.058765  -0.014262
     44       0.291584   0.072691   0.048045  -0.106372   0.219423   0.004475
     45      -0.059734   0.225133   0.034506  -0.027657  -0.280083  -0.002357
     46      -0.009172   0.206632   0.078460  -0.016676  -0.073721  -0.003698
     47      -0.103592  -0.176864  -0.058517   0.048206   0.109210  -0.003623
     48      -0.086851  -0.199973  -0.118404   0.003039  -0.076307   0.000938
     49      -0.002270  -0.123752  -0.042240  -0.000698   0.056778   0.001953
     50       0.049430   0.242592   0.067207  -0.007262  -0.300864   0.008585
                 18         19         20         21         22         23    
      0       0.003521   0.001422  -0.338428   0.167517   0.012475   0.105682
      1       0.012518  -0.009412  -0.000294  -0.149008   0.028721   0.034240
      2      -0.155408  -0.012442   0.020379  -0.028874   0.143505  -0.032986
      3       0.007232   0.003956  -0.009720   0.189539   0.004033   0.065439
      4       0.032464  -0.003445  -0.310171  -0.096224  -0.024440   0.028143
      5       0.002598   0.018354   0.081532   0.082700  -0.083188  -0.007816
      6       0.066181  -0.010804  -0.112429  -0.208823  -0.007212   0.017627
      7       0.094399  -0.009774   0.105947  -0.187961  -0.017796   0.018826
      8       0.190954   0.004923  -0.013485   0.127440  -0.073733  -0.018998
      9      -0.016735   0.009898   0.108854   0.222878   0.005208  -0.014173
     10       0.033674   0.004841  -0.103636   0.211812   0.021955  -0.026512
     11       0.363802   0.001720   0.017226  -0.041660   0.117582   0.007209
     12       0.032911  -0.006192   0.314755  -0.114848  -0.010747  -0.011130
     13      -0.002170  -0.004222  -0.000315   0.181075  -0.009691  -0.114217
     14      -0.000245  -0.015403  -0.033177   0.037902  -0.084440  -0.004923
     15       0.034520  -0.009351   0.008279  -0.143261   0.007036  -0.016180
     16      -0.024576   0.001174   0.335257   0.128850   0.033458  -0.142458
     17      -0.142359   0.012590  -0.074395  -0.064666   0.141907   0.060263
     18       0.063472  -0.004468   0.155356  -0.085110  -0.010508   0.111583
     19      -0.009030   0.002934  -0.281530  -0.185723  -0.118622   0.086001
     20      -0.246791   0.056858   0.028596  -0.022147  -0.503283   0.214777
     21      -0.075894  -0.027255  -0.062483   0.148173   0.008068  -0.549695
     22      -0.070179   0.031814   0.076637   0.205561   0.010530   0.565602
     23      -0.036102   0.070008  -0.008642  -0.112007  -0.009528  -0.039162
     24      -0.020944   0.004152  -0.290852   0.240522   0.000857   0.116248
     25      -0.088717  -0.000047   0.162859   0.092786  -0.024772   0.071146
     26      -0.458402  -0.021525  -0.061155  -0.312537  -0.152893   0.095743
     27       0.072776  -0.011991   0.170083  -0.229358  -0.033902  -0.104404
     28       0.128218  -0.006814  -0.181950  -0.190904  -0.119128   0.154383
     29       0.345622   0.010844   0.033204   0.029951  -0.570820   0.004895
     30       0.029209  -0.011563   0.270568  -0.197320  -0.040825  -0.014836
     31       0.007556  -0.021900  -0.162917  -0.106568  -0.088236  -0.122733
     32      -0.278260  -0.029233   0.044097  -0.052290  -0.505954  -0.149671
     33      -0.025572  -0.001403  -0.155888   0.135819  -0.003542  -0.096638
     34      -0.095348   0.005772   0.304896   0.152419  -0.023454  -0.165621
     35      -0.446949   0.026740  -0.014436  -0.318562  -0.151460   0.055649
     36      -0.029548   0.137485   0.042233  -0.046333   0.002169   0.172408
     37      -0.037240   0.043448  -0.043720  -0.070034   0.001825  -0.163332
     38      -0.057188   0.071462   0.001193  -0.113002  -0.006399   0.023862
     39       0.065762  -0.221259  -0.001123  -0.032623  -0.002940   0.001470
     40       0.057479   0.556854  -0.000420  -0.042448  -0.002359   0.000921
     41      -0.039095  -0.230439   0.001599   0.033568   0.001015   0.003586
     42      -0.125536  -0.055432   0.028728  -0.058124  -0.006463   0.162641
     43      -0.110405   0.039474  -0.034602  -0.069410  -0.006324  -0.167769
     44       0.003415   0.097519   0.005053   0.119239   0.010196  -0.006403
     45       0.020468  -0.085533  -0.000716  -0.026825  -0.000696   0.004200
     46       0.017220  -0.387754   0.002633  -0.020158  -0.000687   0.016571
     47      -0.004480  -0.210622  -0.000280  -0.004755  -0.000886   0.000347
     48      -0.001705   0.358086  -0.004103  -0.002477   0.000278  -0.022104
     49      -0.002519   0.135667   0.000372   0.007766  -0.000046   0.002193
     50      -0.004524   0.429793  -0.001116  -0.002409   0.000701  -0.005383
                 24         25         26         27         28         29    
      0      -0.037132   0.193968  -0.025935  -0.001497   0.001872  -0.005507
      1       0.011140  -0.047026  -0.009963   0.003412  -0.004707  -0.022697
      2      -0.010524  -0.001304  -0.061428   0.018740  -0.013410  -0.096102
      3      -0.028458   0.131866  -0.014681  -0.010688  -0.008452   0.005673
      4       0.038027  -0.071317  -0.019699  -0.016460   0.022795   0.019329
      5       0.100653  -0.027353  -0.082978  -0.095257  -0.023318   0.080630
      6       0.031750  -0.076177   0.003390   0.008586  -0.023957   0.000384
      7       0.047724  -0.064570   0.006617   0.022382  -0.016036   0.001026
      8       0.108254   0.058232  -0.005176   0.093333   0.033997   0.003660
      9      -0.022810   0.009237   0.001031   0.002439   0.000519  -0.002120
     10      -0.047014  -0.004710  -0.000498   0.008465   0.013849   0.002187
     11      -0.163863  -0.081479   0.005249   0.040122   0.070666   0.000528
     12       0.022330  -0.053830   0.015325  -0.002647   0.027648  -0.006716
     13      -0.013764   0.141294   0.008064  -0.024260  -0.016608  -0.018986
     14       0.109363   0.006694   0.086288  -0.090733  -0.019777  -0.082819
     15       0.010670  -0.036351   0.006999   0.000497  -0.000735   0.007540
     16      -0.039364   0.208137   0.005820   0.000883  -0.000536   0.020399
     17      -0.003324   0.006151   0.060671   0.015645  -0.008948   0.094054
     18      -0.017498   0.095784   0.009428  -0.003721  -0.015723  -0.003164
     19      -0.019016  -0.023765   0.112751   0.127297   0.049546  -0.092341
     20      -0.180886   0.275234   0.503294   0.562138   0.105148  -0.428961
     21       0.012034  -0.331838   0.038860   0.012913   0.009138  -0.002148
     22       0.020535  -0.294012   0.007487   0.010038  -0.001848   0.002299
     23       0.001093   0.174848  -0.011793  -0.009854   0.027180  -0.000367
     24      -0.079953   0.261404  -0.003190  -0.013042   0.008607   0.024564
     25      -0.158802   0.166541   0.093751  -0.042866   0.025113   0.107876
     26      -0.551504  -0.065798   0.466242  -0.142023   0.056985   0.529785
     27       0.002459  -0.084219   0.015708  -0.024166  -0.035191  -0.000786
     28      -0.061612  -0.127006  -0.000576  -0.103179  -0.047877  -0.004410
     29      -0.428685  -0.234968   0.018935  -0.521994  -0.126684  -0.022214
     30       0.009032  -0.086025  -0.025562   0.038495   0.036482   0.027069
     31      -0.045199   0.066633  -0.100297   0.077195   0.000446   0.066394
     32      -0.176916  -0.141072  -0.518620   0.552605   0.133999   0.443135
     33      -0.079342   0.157203  -0.048144  -0.019127   0.012239  -0.030930
     34      -0.163954   0.184491  -0.100101  -0.030855   0.007793  -0.102781
     35      -0.549356  -0.416627  -0.434828  -0.127693   0.024435  -0.517382
     36       0.017260   0.024068  -0.007967  -0.008237   0.086100   0.000960
     37       0.016185   0.033752   0.002782  -0.009670   0.100794  -0.001104
     38       0.011215   0.196135  -0.015501  -0.021659   0.050931   0.000075
     39      -0.004932   0.025050  -0.001985  -0.004820   0.373502  -0.001012
     40      -0.007247   0.034973  -0.002554   0.000013   0.022159  -0.000045
     41       0.009341  -0.037532   0.002618  -0.010343   0.722040  -0.001912
     42       0.018509  -0.005637  -0.002355   0.000469  -0.008751   0.000226
     43       0.013033  -0.020562   0.004681   0.002636  -0.021672  -0.000445
     44      -0.002453  -0.219579   0.016970   0.020381  -0.122959   0.000063
     45      -0.004324   0.030170  -0.002208   0.001526  -0.127381   0.000331
     46      -0.002895   0.022924  -0.001811   0.001677  -0.149546   0.000450
     47      -0.002282   0.010585  -0.000751   0.004651  -0.338679   0.000887
     48      -0.000888  -0.000162   0.000240   0.002654  -0.189809   0.000400
     49       0.001133  -0.007463   0.000348  -0.002629   0.211056  -0.000526
     50       0.000433  -0.001011   0.000164   0.000275  -0.027056   0.000043
                 30         31         32         33         34         35    
      0      -0.004579  -0.008440  -0.180569   0.141266   0.044463  -0.005894
      1      -0.015970   0.027529   0.126010   0.000539  -0.000213  -0.042121
      2      -0.078754  -0.018694  -0.011599  -0.009244  -0.004572   0.009254
      3       0.009123  -0.052065   0.095165   0.022695  -0.052745   0.002661
      4      -0.013784   0.330038  -0.077926  -0.098284  -0.080885  -0.006555
      5       0.027549  -0.065191   0.006937   0.025922   0.020785   0.000383
      6       0.017883  -0.294450  -0.055909  -0.056612  -0.051068  -0.046328
      7       0.033253  -0.271447  -0.051137   0.015761   0.067208   0.047753
      8       0.103034   0.097203   0.014569  -0.000971  -0.010558  -0.007340
      9      -0.004601  -0.026824   0.051249  -0.260865   0.052731   0.003730
     10      -0.003796  -0.022475   0.047826  -0.209935   0.120306  -0.002716
     11       0.006235   0.015692  -0.015785   0.034233  -0.018873   0.000152
     12      -0.016958   0.332720  -0.075068   0.021349   0.112774   0.007229
     13       0.014292  -0.066641   0.095796   0.069064   0.011246   0.000553
     14       0.026723  -0.004407  -0.020225  -0.012533  -0.014078   0.000374
     15      -0.004667   0.032071   0.121940   0.000468  -0.002255   0.039141
     16      -0.017499  -0.011324  -0.181086   0.042515  -0.108407   0.003450
     17      -0.081992  -0.013356   0.035806  -0.006773   0.024595  -0.002914
     18       0.014591   0.058490   0.428997   0.164077  -0.601645   0.173381
     19      -0.059769   0.359209   0.005473  -0.082164  -0.208638   0.033157
     20      -0.186216  -0.133830   0.018188   0.030491   0.054027  -0.005213
     21       0.000236  -0.003760  -0.017066   0.072639  -0.010379   0.001211
     22       0.000579  -0.004798  -0.016172   0.051694  -0.036392  -0.001829
     23      -0.000645  -0.001255   0.013091  -0.046420   0.018428   0.000326
     24       0.025847   0.022010  -0.092669   0.242081   0.101422  -0.127274
     25       0.110013   0.203344   0.466841   0.313891   0.181260  -0.468020
     26       0.470611   0.046511  -0.121726  -0.114882  -0.025608   0.105220
     27      -0.020785  -0.317110  -0.066060  -0.229081  -0.336129  -0.483209
     28      -0.114031  -0.314797  -0.058777   0.205200   0.353614   0.494375
     29      -0.622551  -0.048855   0.023382   0.002776  -0.066071  -0.074719
     30      -0.031139   0.375676   0.016849   0.184154   0.193233  -0.031416
     31      -0.015666   0.031591   0.424632   0.691353   0.256880  -0.140034
     32      -0.210474  -0.093338  -0.037883  -0.111678  -0.061827   0.019399
     33       0.040884   0.199086   0.478239   0.029709  -0.307209   0.445502
     34       0.101086   0.028147  -0.116001   0.042393  -0.186475   0.096255
     35       0.490864   0.075765  -0.039083  -0.055106   0.067387  -0.047449
     36       0.000637   0.000935  -0.000439   0.000210  -0.001152   0.000563
     37       0.000813   0.001996   0.000644  -0.001682   0.002224  -0.000562
     38       0.002985   0.019831   0.008695  -0.030604   0.011932   0.000021
     39      -0.002892  -0.013565   0.001793   0.002075  -0.001148  -0.000156
     40      -0.000523  -0.003182   0.001448  -0.000320   0.000312   0.000124
     41      -0.004575  -0.020364  -0.000193   0.008055  -0.003242  -0.000188
     42       0.000414  -0.006080  -0.005671   0.027912  -0.012015  -0.000312
     43       0.000205  -0.006334  -0.005861   0.029663  -0.008628   0.000492
     44      -0.000676  -0.015030  -0.014293   0.052030  -0.019341   0.000020
     45       0.000611   0.001367   0.001513  -0.004128   0.000808   0.000208
     46       0.001058   0.006988  -0.000525  -0.003978   0.002003  -0.000161
     47       0.002187   0.009197   0.000056  -0.002911   0.001113   0.000110
     48       0.001520   0.010359  -0.001752  -0.002192   0.002216  -0.000306
     49      -0.001680  -0.011256   0.001960   0.002923  -0.002261   0.000308
     50       0.000280   0.001787  -0.000452   0.000044   0.000122  -0.000074
                 36         37         38         39         40         41    
      0       0.026991   0.014449  -0.004178   0.007997   0.068555   0.105877
      1       0.052936   0.040464  -0.028345  -0.061841   0.220960   0.098796
      2      -0.012796  -0.012291   0.009688   0.013901  -0.051559  -0.026600
      3      -0.051526  -0.039411   0.030248  -0.012480  -0.285885  -0.014545
      4      -0.013058  -0.022444   0.015611  -0.036605  -0.079641  -0.102987
      5       0.010770   0.005281   0.002597   0.008102   0.027172   0.023728
      6      -0.004184   0.010307  -0.015867   0.008157   0.198383  -0.084594
      7      -0.001295   0.010754  -0.015434  -0.007864  -0.205577   0.087901
      8      -0.000242  -0.001812   0.001561   0.001207   0.031320  -0.013469
      9      -0.015937  -0.037722   0.051298  -0.119365   0.154110  -0.108932
     10      -0.017717  -0.033850   0.043790   0.121403  -0.151077   0.116410
     11      -0.007615   0.030792  -0.041462  -0.018474   0.022944  -0.017628
     12      -0.017272  -0.026492   0.013649   0.036814   0.096198   0.104059
     13      -0.049662  -0.039152   0.027631   0.008177   0.278597  -0.000515
     14       0.016302   0.008783  -0.000211  -0.003566  -0.057654  -0.007760
     15       0.058183   0.043287  -0.029293   0.062274  -0.226397  -0.108599
     16       0.025587   0.013890  -0.002055  -0.008811  -0.061128  -0.096175
     17      -0.008902  -0.008622   0.005543  -0.003365   0.027787   0.026469
     18      -0.436822  -0.395656   0.358680   0.554384   0.412788   0.197811
     19      -0.107929  -0.097828   0.077339   0.086814   0.070008  -0.073754
     20       0.008907   0.065129  -0.084066  -0.032366  -0.043580   0.011362
     21      -0.066175   0.102466  -0.239091   0.010955  -0.007652   0.010658
     22      -0.058174   0.094018  -0.207451  -0.012341   0.004456  -0.012262
     23       0.002312  -0.017130   0.033882   0.001142   0.000166   0.001288
     24       0.145738   0.122725  -0.093525   0.131449   0.008728  -0.026328
     25       0.462515   0.412337  -0.338597   0.353875   0.013584  -0.420121
     26      -0.103971  -0.102186   0.085070  -0.090867   0.015191   0.088807
     27      -0.016878   0.000545  -0.004655  -0.138312  -0.322696   0.456267
     28       0.012014   0.025560  -0.030004   0.141961   0.326130  -0.464180
     29      -0.000472   0.009027  -0.001162  -0.021526  -0.049939   0.070395
     30      -0.128239  -0.129574   0.106479  -0.108167  -0.088983   0.077791
     31      -0.443634  -0.406904   0.365222  -0.533874  -0.413011  -0.166315
     32       0.060983   0.109969  -0.123782   0.099125   0.095591   0.023542
     33       0.514962   0.473938  -0.373047  -0.362709  -0.021279   0.446591
     34       0.132318   0.113699  -0.080780  -0.108462  -0.017877   0.016404
     35      -0.057898  -0.061912   0.046857   0.053951  -0.012987  -0.029833
     36      -0.006667   0.021490  -0.008531   0.001061  -0.001090   0.000947
     37      -0.014107   0.029904  -0.031126  -0.000477  -0.000029  -0.000436
     38      -0.094299   0.119720  -0.280982  -0.000167  -0.001477   0.000072
     39       0.004933   0.013777   0.066218  -0.000456   0.001351  -0.000484
     40       0.004111  -0.010617   0.010517   0.000298  -0.000463   0.000245
     41       0.001462   0.042366   0.093942  -0.000197   0.000922  -0.000276
     42       0.042884  -0.050966   0.127031  -0.000776   0.002655  -0.000572
     43       0.047138  -0.060652   0.130643   0.002224  -0.003238   0.001284
     44       0.091133  -0.114340   0.249091   0.000501   0.000728   0.000159
     45       0.023088  -0.127197  -0.121811  -0.000352  -0.000224  -0.000069
     46      -0.018721   0.108450   0.109792   0.000284   0.000170   0.000033
     47       0.001540  -0.038794  -0.069348   0.000097  -0.000470   0.000190
     48      -0.040714   0.218513   0.203764   0.000420   0.000136  -0.000097
     49       0.041216  -0.222990  -0.208677  -0.000503  -0.000228   0.000149
     50      -0.007169   0.039882   0.038079  -0.000086   0.000183  -0.000186
                 42         43         44         45         46         47    
      0       0.017211  -0.141970   0.127301  -0.005462   0.035707  -0.049295
      1      -0.115821  -0.286151  -0.143174  -0.012513  -0.008841   0.014472
      2       0.024179   0.068759   0.023529   0.006881   0.000121  -0.000665
      3      -0.144107   0.198966  -0.246278   0.030306  -0.003347   0.007364
      4       0.008773   0.145308   0.039907   0.013518   0.010637  -0.025580
      5       0.003307  -0.041892   0.001504  -0.006260  -0.002261   0.005412
      6       0.061877   0.079117  -0.266153   0.004189  -0.045241   0.005056
      7       0.049444   0.146358   0.242440   0.003238  -0.042664   0.000912
      8      -0.014077  -0.035671  -0.035021  -0.001625   0.011128  -0.000457
      9       0.083094  -0.049530   0.208848  -0.054076   0.000360  -0.000539
     10       0.073819  -0.096401  -0.187661  -0.050192   0.000398   0.000711
     11      -0.013226   0.016936   0.027714  -0.003575  -0.000046  -0.000100
     12      -0.001177   0.145831  -0.073529   0.016930   0.012507   0.032208
     13      -0.144211   0.247651   0.174252   0.027834  -0.004278  -0.010240
     14       0.026731  -0.058978  -0.027532  -0.008456  -0.000093  -0.000339
     15      -0.116814  -0.250184   0.213713  -0.014819  -0.008010  -0.013456
     16       0.028398  -0.160891  -0.088446  -0.003843   0.036986   0.049916
     17       0.001950   0.049192   0.004787   0.005445  -0.006947  -0.009192
     18       0.451277  -0.282543   0.293717  -0.051624   0.032239  -0.075648
     19       0.151306   0.052715   0.167212  -0.009944  -0.130963   0.307652
     20      -0.047922  -0.003344  -0.051553  -0.020912   0.028075  -0.065888
     21       0.001942  -0.027996  -0.004772   0.137505  -0.000025   0.000078
     22       0.002510  -0.024845   0.014402   0.189911  -0.000040  -0.000069
     23       0.011823  -0.024620   0.003949   0.807138   0.000022   0.000030
     24       0.180054   0.055914   0.209177   0.003254  -0.421107   0.573236
     25       0.417800   0.423475   0.064234   0.025363   0.118286  -0.163317
     26      -0.096967  -0.095815  -0.018722   0.002391  -0.004447   0.006679
     27       0.055448   0.187890   0.359434   0.002589   0.530577  -0.037802
     28       0.080284   0.066585  -0.400461   0.001348   0.499539  -0.031051
     29      -0.023249  -0.012549   0.060897  -0.014823  -0.130355   0.008364
     30       0.173072  -0.006033  -0.181827  -0.004522  -0.153327  -0.384389
     31       0.457619  -0.354127  -0.177842  -0.051560   0.043464   0.108783
     32      -0.094881   0.064842   0.050291  -0.012301   0.002661   0.006754
     33       0.419556   0.406034  -0.180046   0.026898   0.108039   0.146467
     34       0.162497  -0.022920  -0.198659   0.004568  -0.436844  -0.580971
     35      -0.058496  -0.026074   0.047230   0.005972   0.081211   0.107649
     36       0.001605  -0.006846   0.001039   0.021473  -0.000027  -0.000011
     37       0.001705  -0.006605   0.000658  -0.019861  -0.000033   0.000013
     38      -0.000492   0.005510  -0.001300  -0.467929   0.000012  -0.000003
     39      -0.002058   0.004200  -0.000135  -0.009264   0.000012  -0.000003
     40      -0.001290   0.002650  -0.000760  -0.002595   0.000003  -0.000003
     41      -0.001629   0.002905  -0.000152  -0.015427   0.000005  -0.000004
     42      -0.007422   0.013855  -0.001933  -0.082679  -0.000005  -0.000005
     43      -0.007291   0.013562  -0.003908  -0.091674  -0.000006  -0.000008
     44      -0.009984   0.020218  -0.003830  -0.204432  -0.000015  -0.000014
     45       0.000801  -0.000282   0.000065  -0.007425  -0.000012  -0.000003
     46      -0.000377   0.000630  -0.000084  -0.006285   0.000007   0.000002
     47       0.000984  -0.001947   0.000100   0.017457  -0.000001   0.000002
     48      -0.000586   0.000100   0.000180   0.003483   0.000008  -0.000002
     49       0.000749  -0.000384  -0.000199   0.000069  -0.000015  -0.000005
     50      -0.000217   0.000274   0.000170  -0.003203  -0.000002  -0.000000
                 48         49         50    
      0       0.032227   0.021666  -0.042753
      1      -0.012181  -0.004007   0.011299
      2       0.001005  -0.000259  -0.000219
      3      -0.010569   0.009504  -0.011559
      4       0.036855  -0.044000   0.053712
      5      -0.007869   0.009495  -0.011631
      6       0.036582  -0.008287  -0.020384
      7       0.034965  -0.004097  -0.019911
      8      -0.009144   0.001284   0.005142
      9       0.001109  -0.002161   0.002170
     10       0.001257   0.002646   0.001039
     11      -0.000181  -0.000398  -0.000217
     12       0.039913   0.057173   0.032586
     13      -0.012364  -0.014080  -0.008189
     14      -0.000554  -0.001460  -0.000837
     15      -0.008525   0.008132   0.007835
     16       0.021147  -0.040478  -0.031423
     17      -0.003716   0.007720   0.005893
     18       0.105890  -0.118460   0.141944
     19      -0.432057   0.496113  -0.596699
     20       0.092985  -0.106749   0.128680
     21      -0.000006   0.000219  -0.000021
     22      -0.000061  -0.000216   0.000035
     23      -0.000007   0.000085   0.000109
     24      -0.374263  -0.233663   0.465530
     25       0.109925   0.064224  -0.132051
     26      -0.005025  -0.002259   0.005439
     27      -0.413667   0.072064   0.222761
     28      -0.390010   0.063325   0.210530
     29       0.101709  -0.016805  -0.054984
     30      -0.464014  -0.637613  -0.358420
     31       0.130806   0.175906   0.098791
     32       0.008641   0.012490   0.007245
     33       0.065682  -0.109280  -0.086701
     34      -0.247336   0.442663   0.343632
     35       0.045632  -0.082181  -0.063607
     36       0.000014  -0.000021   0.000086
     37       0.000007   0.000038   0.000060
     38       0.000041  -0.000025  -0.000046
     39      -0.000033  -0.000020  -0.000122
     40      -0.000027  -0.000017  -0.000088
     41      -0.000017  -0.000008  -0.000041
     42      -0.000044  -0.000003  -0.000118
     43      -0.000042  -0.000040  -0.000097
     44      -0.000044  -0.000025  -0.000087
     45       0.000006  -0.000003   0.000028
     46      -0.000001   0.000002  -0.000022
     47       0.000013   0.000007   0.000032
     48       0.000005  -0.000001  -0.000037
     49       0.000010   0.000006   0.000024
     50      -0.000006  -0.000005  -0.000008
# -----------------------------------------------------------
$ THERMOCHEMISTRY_Energies
   description: The Thermochemistry energies
   geom. index: 1
   prop. index: 1
        Temperature (Kelvin)           :        298.1500000000
        Pressure (atm)                 :          1.0000000000
        Total Mass (AMU)               :        183.1810000000
        Spin Degeneracy                :          1.0000000000
        Electronic Energy (Hartree)    :       -948.1368841921
        Translational Energy (Hartree) :          0.0014162714
        Rotational Energy (Hartree)    :          0.0014162714
        Vibrational Energy (Hartree)   :          0.0075620595
        Number of frequencies          :     51      
        Scaling Factor for frequencies :          1.0000000000
        Vibrational frequencies        :     
                  0    
      0       0.000000
      1       0.000000
      2       0.000000
      3       0.000000
      4       0.000000
      5       0.000000
      6     -389.033296
      7      51.372018
      8      61.167157
      9      89.839370
     10     123.948724
     11     212.658124
     12     244.531449
     13     271.030714
     14     299.905634
     15     349.788675
     16     378.708078
     17     404.164800
     18     492.365750
     19     507.338396
     20     620.589752
     21     657.322954
     22     687.375204
     23     699.259480
     24     761.626427
     25     840.362326
     26     842.624188
     27     942.568073
     28     982.229324
     29     987.207174
     30     1008.924306
     31     1020.186306
     32     1042.608465
     33     1101.859676
     34     1102.110200
     35     1184.480332
     36     1192.377079
     37     1198.260875
     38     1214.528382
     39     1331.268327
     40     1361.483944
     41     1471.827699
     42     1494.819412
     43     1604.413118
     44     1605.607046
     45     1793.807003
     46     3179.008145
     47     3187.943120
     48     3193.545569
     49     3200.882575
     50     3203.999898
        Zero Point Energy (Hartree)    :          0.1098120658
        Inner Energy (Hartree)         :       -948.0166775239
        Enthalpy (Hartree)             :       -948.0157333149
        Electronic entropy             :          0.0000000000
        Rotational entropy             :          0.0147345735
        Vibrational entropy            :          0.0130596854
        Translational entropy          :          0.0147345735
        Entropy                        :          0.0475227765
        Gibbs Energy (Hartree)         :       -948.0632560914
        Is Linear                      :                 false
# -----------------------------------------------------------
$ PAL_Flags
   description: The PAL Flags
   geom. index: 2
   prop. index: 1
        Diskflag:     2
# -----------------------------------------------------------
$ SCF_Energy
   description: The SCF energy
   geom. index: 2
   prop. index: 1
        SCF Energy:     -948.1456793600
# -----------------------------------------------------------
$ DFT_Energy
   description: The DFT energy
   geom. index: 2
   prop. index: 1
   Number of Alpha Electrons                 46.9999968651 
   Number of Beta  Electrons                 46.9999968651 
   Total number of  Electrons                93.9999937301 
   Exchange energy                          -94.6215152750 
   Correlation energy                        -3.2119201612 
   Correlation energy NL                      0.0000000000 
   Exchange-Correlation energy              -97.8334354363 
   Embedding correction                       0.0000000000 
   Total DFT Energy (No VdW correction)    -948.1456793600 
# -----------------------------------------------------------
$ Solvation_Details
   description: Details concerning solvation
   geom. index: 2
   prop. index: 1
     Epsilon:                2.2800000000
     Refrac:                 1.5010000000
     RSolv:                  1.3000000000
     Surface Type:                      2
     Number of Points:                996
     Surface Area:         729.7355141892
     Dielectric Energy:     -0.0088868100
# -----------------------------------------------------------
$ VdW_Correction
   description: The Van der Waals Correction
   geom. index: 2
   prop. index: 1
        Van der Waals Correction:       -0.0067644211
# -----------------------------------------------------------
$ PAL_Flags
   description: The PAL Flags
   geom. index: 3
   prop. index: 1
        Diskflag:     2
# -----------------------------------------------------------
$ SCF_Energy
   description: The SCF energy
   geom. index: 3
   prop. index: 1
        SCF Energy:     -948.1456799829
# -----------------------------------------------------------
$ DFT_Energy
   description: The DFT energy
   geom. index: 3
   prop. index: 1
   Number of Alpha Electrons                 46.9999968738 
   Number of Beta  Electrons                 46.9999968738 
   Total number of  Electrons                93.9999937476 
   Exchange energy                          -94.6214735828 
   Correlation energy                        -3.2119150848 
   Correlation energy NL                      0.0000000000 
   Exchange-Correlation energy              -97.8333886676 
   Embedding correction                       0.0000000000 
   Total DFT Energy (No VdW correction)    -948.1456799829 
# -----------------------------------------------------------
$ Solvation_Details
   description: Details concerning solvation
   geom. index: 3
   prop. index: 1
     Epsilon:                2.2800000000
     Refrac:                 1.5010000000
     RSolv:                  1.3000000000
     Surface Type:                      2
     Number of Points:                997
     Surface Area:         729.6593604244
     Dielectric Energy:     -0.0088874183
# -----------------------------------------------------------
$ VdW_Correction
   description: The Van der Waals Correction
   geom. index: 3
   prop. index: 1
        Van der Waals Correction:       -0.0067640393
# -----------------------------------------------------------
$ PAL_Flags
   description: The PAL Flags
   geom. index: 4
   prop. index: 1
        Diskflag:     2
# -----------------------------------------------------------
$ SCF_Energy
   description: The SCF energy
   geom. index: 4
   prop. index: 1
        SCF Energy:     -948.1456798865
# -----------------------------------------------------------
$ DFT_Energy
   description: The DFT energy
   geom. index: 4
   prop. index: 1
   Number of Alpha Electrons                 46.9999968698 
   Number of Beta  Electrons                 46.9999968698 
   Total number of  Electrons                93.9999937396 
   Exchange energy                          -94.6214831229 
   Correlation energy                        -3.2119161863 
   Correlation energy NL                      0.0000000000 
   Exchange-Correlation energy              -97.8333993092 
   Embedding correction                       0.0000000000 
   Total DFT Energy (No VdW correction)    -948.1456798865 
# -----------------------------------------------------------
$ Solvation_Details
   description: Details concerning solvation
   geom. index: 4
   prop. index: 1
     Epsilon:                2.2800000000
     Refrac:                 1.5010000000
     RSolv:                  1.3000000000
     Surface Type:                      2
     Number of Points:                997
     Surface Area:         729.6783151700
     Dielectric Energy:     -0.0088876435
# -----------------------------------------------------------
$ Mayer_Pop
   description: The Mayer population analysis
   geom. index: 4
   prop. index: 1
     Number of atoms                     : 17
     Threshold for printing              : 0.1000000
     Number of bond orders printed       : 20
  NA   - Mulliken gross atomic population
  ZA   - Total nuclear charge
  QA   - Mulliken gross atomic charge
  VA   - Mayer's total valence
  BVA  - Mayer's bonded valence
  FA   - Mayer's free valence
  ATOM       NA         ZA         QA         VA         BVA        FA
  0   0     6.1577     6.0000    -0.1577     3.7926     3.7926    -0.0000
  1   0     6.1567     6.0000    -0.1567     3.9247     3.9247    -0.0000
  2   0     6.0934     6.0000    -0.0934     3.7805     3.7805    -0.0000
  3   0     5.8142     6.0000     0.1858     3.6707     3.6707    -0.0000
  4   0     6.1657     6.0000    -0.1657     3.9441     3.9441    -0.0000
  5   0     6.1534     6.0000    -0.1534     3.7849     3.7849    -0.0000
  6   0     0.8188     1.0000     0.1812     0.9590     0.9590    -0.0000
  7   0     5.6348     6.0000     0.3652     4.0113     4.0113    -0.0000
  8   0     0.8287     1.0000     0.1713     0.9621     0.9621    -0.0000
  9   0     0.8258     1.0000     0.1742     0.9595     0.9595    -0.0000
 10   0     0.8168     1.0000     0.1832     0.9582     0.9582    -0.0000
 11   0     0.8282     1.0000     0.1718     0.9619     0.9619    -0.0000
 12   0     7.2025     7.0000    -0.2025     2.4533     2.4533    -0.0000
 13   0     8.3738     8.0000    -0.3738     1.7735     1.7735    -0.0000
 14   0     8.4161     8.0000    -0.4161     1.9902     1.9902    -0.0000
 15   0    15.2896    16.0000     0.7104     3.4093     3.4093    -0.0000
 16   0     8.4239     8.0000    -0.4239     1.7485     1.7485     0.0000
      Bond orders larger than 0.1000000
           Atom A     A.N. of A          Atom B    A.N. of B              Bond order
                0             6               1            6                1.410033
                0             6               2            6                1.382991
                0             6               8            1                0.949517
                1             6               3            6                1.371460
                1             6               6            1                0.932867
                2             6               5            6                1.377339
                2             6               9            1                0.940919
                3             6               4            6                1.380367
                3             6               7            6                0.716726
                3             6              12            7                0.146322
                4             6               5            6                1.412270
                4             6              10            1                0.928498
                5             6              11            1                0.949525
                7             6              12            7                1.691676
                7             6              14            8                1.452322
               12             7              13            8                0.262846
               12             7              14            8                0.105891
               13             8              15           16                1.353622
               14             8              15           16                0.341555
               15            16              16            8                1.623192
# -----------------------------------------------------------
$ VdW_Correction
   description: The Van der Waals Correction
   geom. index: 4
   prop. index: 1
        Van der Waals Correction:       -0.0067641459
# -----------------------------------------------------------
$ SCF_Electric_Properties
   description: The SCF Calculated Electric Properties
   geom. index: 4
   prop. index: 1
       Filename                          : opt.scfp 
       Do Dipole Moment Calculation      : true 
       Do Quadrupole Moment Calculation  : false 
       Do Polarizability Calculation     : false 
** Dipole moment part of electric properties **
        Magnitude of dipole moment (Debye) :        6.4960065197
        Electronic Contribution:
                  0    
      0       9.097218
      1       8.071988
      2      -0.917060
        Nuclear Contribution:
                  0    
      0     -11.274239
      1      -9.187858
      2       1.656575
        Total Dipole moment:
                  0    
      0      -2.177021
      1      -1.115869
      2       0.739516
# -----------------------------------------------------------
$ Hessian
   description: Details about the Hessian
   geom. index: 4
   prop. index: 1
Normal modes:
Number of Rows: 51 Number of Columns: 51
                  0          1          2          3          4          5    
      0       0.000000   0.000000   0.000000   0.000000   0.000000   0.000000
      1       0.000000   0.000000   0.000000   0.000000   0.000000   0.000000
      2       0.000000   0.000000   0.000000   0.000000   0.000000   0.000000
      3       0.000000   0.000000   0.000000   0.000000   0.000000   0.000000
      4       0.000000   0.000000   0.000000   0.000000   0.000000   0.000000
      5       0.000000   0.000000   0.000000   0.000000   0.000000   0.000000
      6       0.000000   0.000000   0.000000   0.000000   0.000000   0.000000
      7       0.000000   0.000000   0.000000   0.000000   0.000000   0.000000
      8       0.000000   0.000000   0.000000   0.000000   0.000000   0.000000
      9       0.000000   0.000000   0.000000   0.000000   0.000000   0.000000
     10       0.000000   0.000000   0.000000   0.000000   0.000000   0.000000
     11       0.000000   0.000000   0.000000   0.000000   0.000000   0.000000
     12       0.000000   0.000000   0.000000   0.000000   0.000000   0.000000
     13       0.000000   0.000000   0.000000   0.000000   0.000000   0.000000
     14       0.000000   0.000000   0.000000   0.000000   0.000000   0.000000
     15       0.000000   0.000000   0.000000   0.000000   0.000000   0.000000
     16       0.000000   0.000000   0.000000   0.000000   0.000000   0.000000
     17       0.000000   0.000000   0.000000   0.000000   0.000000   0.000000
     18       0.000000   0.000000   0.000000   0.000000   0.000000   0.000000
     19       0.000000   0.000000   0.000000   0.000000   0.000000   0.000000
     20       0.000000   0.000000   0.000000   0.000000   0.000000   0.000000
     21       0.000000   0.000000   0.000000   0.000000   0.000000   0.000000
     22       0.000000   0.000000   0.000000   0.000000   0.000000   0.000000
     23       0.000000   0.000000   0.000000   0.000000   0.000000   0.000000
     24       0.000000   0.000000   0.000000   0.000000   0.000000   0.000000
     25       0.000000   0.000000   0.000000   0.000000   0.000000   0.000000
     26       0.000000   0.000000   0.000000   0.000000   0.000000   0.000000
     27       0.000000   0.000000   0.000000   0.000000   0.000000   0.000000
     28       0.000000   0.000000   0.000000   0.000000   0.000000   0.000000
     29       0.000000   0.000000   0.000000   0.000000   0.000000   0.000000
     30       0.000000   0.000000   0.000000   0.000000   0.000000   0.000000
     31       0.000000   0.000000   0.000000   0.000000   0.000000   0.000000
     32       0.000000   0.000000   0.000000   0.000000   0.000000   0.000000
     33       0.000000   0.000000   0.000000   0.000000   0.000000   0.000000
     34       0.000000   0.000000   0.000000   0.000000   0.000000   0.000000
     35       0.000000   0.000000   0.000000   0.000000   0.000000   0.000000
     36       0.000000   0.000000   0.000000   0.000000   0.000000   0.000000
     37       0.000000   0.000000   0.000000   0.000000   0.000000   0.000000
     38       0.000000   0.000000   0.000000   0.000000   0.000000   0.000000
     39       0.000000   0.000000   0.000000   0.000000   0.000000   0.000000
     40       0.000000   0.000000   0.000000   0.000000   0.000000   0.000000
     41       0.000000   0.000000   0.000000   0.000000   0.000000   0.000000
     42       0.000000   0.000000   0.000000   0.000000   0.000000   0.000000
     43       0.000000   0.000000   0.000000   0.000000   0.000000   0.000000
     44       0.000000   0.000000   0.000000   0.000000   0.000000   0.000000
     45       0.000000   0.000000   0.000000   0.000000   0.000000   0.000000
     46       0.000000   0.000000   0.000000   0.000000   0.000000   0.000000
     47       0.000000   0.000000   0.000000   0.000000   0.000000   0.000000
     48       0.000000   0.000000   0.000000   0.000000   0.000000   0.000000
     49       0.000000   0.000000   0.000000   0.000000   0.000000   0.000000
     50       0.000000   0.000000   0.000000   0.000000   0.000000   0.000000
                  6          7          8          9         10         11    
      0       0.005999  -0.003604   0.018278   0.024592   0.118786  -0.094617
      1      -0.017777   0.125871  -0.042503   0.042951   0.152838  -0.096670
      2      -0.025908   0.160607   0.223993   0.105405   0.026973   0.060192
      3       0.031083   0.064337  -0.060135   0.018134   0.208755  -0.123409
      4       0.007774   0.044569   0.019562  -0.024184   0.048231  -0.093153
      5       0.099718   0.136931   0.151587  -0.162190   0.034995  -0.090743
      6      -0.012648  -0.112786   0.106924   0.021661  -0.009074  -0.077748
      7      -0.015231   0.068950  -0.051080   0.079556   0.105779  -0.078732
      8      -0.024370   0.019061   0.072345   0.293818  -0.033061   0.135676
      9       0.026474   0.028482  -0.038810   0.007095   0.169360  -0.103194
     10       0.051338  -0.089332   0.069456  -0.057047  -0.084271  -0.039245
     11       0.258924  -0.011705  -0.051231  -0.238734   0.025534  -0.100653
     12      -0.003463  -0.084590   0.044812   0.003464   0.047562  -0.105674
     13       0.035369  -0.139937   0.069025  -0.034976  -0.121013  -0.035776
     14       0.107077  -0.148091  -0.200752  -0.108685  -0.009500  -0.111870
     15      -0.017026  -0.155288   0.120027   0.008781  -0.052297  -0.079228
     16      -0.004044  -0.063898   0.001691   0.036697  -0.032128  -0.057362
     17      -0.026803  -0.140041  -0.146634   0.166026  -0.060859  -0.021819
     18       0.018365   0.146602  -0.136578   0.024365   0.319729  -0.184276
     19       0.020423   0.086321   0.027444  -0.044840   0.080029  -0.109793
     20       0.168450   0.242910   0.271419  -0.265428   0.061753  -0.106993
     21      -0.050870   0.084966  -0.084310   0.011673   0.142998  -0.087767
     22      -0.083749  -0.147704   0.114482  -0.065778  -0.074885   0.037698
     23      -0.154234  -0.024049  -0.075362  -0.205820   0.044271   0.044218
     24       0.006407   0.026489   0.004569   0.032551   0.149802  -0.094624
     25      -0.014469   0.232916  -0.084096   0.072888   0.260418  -0.091777
     26      -0.081102   0.287022   0.401731   0.194815   0.054820   0.145031
     27      -0.015341  -0.168859   0.160978   0.027871  -0.082107  -0.053183
     28      -0.015710   0.132500  -0.095460   0.137867   0.177188  -0.063422
     29      -0.038777   0.031917   0.124557   0.542794  -0.058692   0.294654
     30      -0.002925  -0.116297   0.054913  -0.005449   0.018816  -0.107388
     31       0.028080  -0.242979   0.119712  -0.061878  -0.221223  -0.038299
     32       0.181904  -0.266618  -0.366743  -0.165987  -0.019578  -0.152654
     33      -0.011489  -0.242693   0.189119   0.004152  -0.163083  -0.034285
     34      -0.013712  -0.106040  -0.004012   0.061071  -0.068790  -0.047152
     35      -0.082768  -0.254711  -0.273463   0.308052  -0.113478  -0.024656
     36       0.514082   0.103308  -0.001923   0.033530   0.295572   0.385852
     37       0.498998  -0.177593   0.015004   0.064272  -0.259842  -0.028202
     38      -0.214034  -0.021384  -0.064719  -0.203742   0.061346   0.057092
     39      -0.293613   0.039922   0.153325   0.028998  -0.145826  -0.050209
     40      -0.281456  -0.141596  -0.121598   0.181591   0.224070   0.002466
     41       0.006033  -0.054595  -0.074193   0.076268   0.015502   0.146563
     42       0.116819   0.039695  -0.163075  -0.019846  -0.098125  -0.418765
     43       0.037002  -0.089584   0.204755  -0.179812   0.189341   0.184734
     44      -0.150395  -0.034446  -0.085335  -0.118778   0.020591   0.130763
     45      -0.116320  -0.063376   0.013070  -0.043017  -0.078308   0.188838
     46      -0.091493   0.104855  -0.049585  -0.014320   0.029662   0.031397
     47       0.075372  -0.015609  -0.002090   0.132599  -0.015946   0.013001
     48      -0.024522   0.113279  -0.112126  -0.029187  -0.343247   0.286824
     49       0.010394   0.321333  -0.130244  -0.022654  -0.255612   0.069352
     50      -0.004569   0.141958   0.230012   0.029218  -0.074395  -0.299340
                 12         13         14         15         16         17    
      0       0.074411  -0.061331  -0.112051  -0.066124  -0.035975   0.013699
      1       0.076352  -0.100151  -0.104713  -0.100980  -0.054241   0.040447
      2      -0.060912   0.004987   0.036285  -0.076149   0.026059   0.197165
      3       0.062166   0.023767  -0.243461  -0.069786  -0.035148  -0.003994
      4       0.032679  -0.162698   0.056908  -0.099913  -0.030632  -0.047488
      5      -0.223231   0.022925   0.009721  -0.151909   0.043796  -0.201659
      6       0.103430  -0.184718   0.036622  -0.073444  -0.060932  -0.003215
      7       0.126892  -0.113309  -0.082432  -0.046649  -0.068140   0.002938
      8       0.162174   0.052037   0.001262   0.220301  -0.017747   0.003641
      9       0.042388   0.026311  -0.183126  -0.008226  -0.011022  -0.000672
     10       0.009662  -0.153579   0.178235   0.029649   0.004744   0.001656
     11      -0.164513   0.020285  -0.019959   0.076192  -0.013868   0.002414
     12       0.069381  -0.108970  -0.077150  -0.091909  -0.048871   0.016923
     13       0.017003  -0.206808   0.227701  -0.053971  -0.007169   0.031489
     14      -0.222144   0.025558  -0.016566  -0.164109   0.024127   0.199697
     15       0.085461  -0.194671   0.075056  -0.079183  -0.048302  -0.013704
     16       0.064919  -0.146233   0.080356  -0.058185  -0.019148  -0.043371
     17      -0.032520   0.057978  -0.019041  -0.077789   0.037465  -0.201349
     18       0.091680   0.041138  -0.411490  -0.135813  -0.082822  -0.016979
     19       0.022809  -0.155919   0.023513  -0.147147  -0.029577  -0.108461
     20      -0.300170   0.033621   0.033685  -0.305532   0.099664  -0.475758
     21       0.012342   0.029226   0.091452   0.073464   0.044022  -0.020224
     22       0.018490   0.015869  -0.084812   0.065748   0.028102   0.022815
     23       0.203599   0.022331   0.009551   0.094284   0.114752   0.001268
     24       0.072031  -0.031090  -0.152627  -0.066724  -0.030455   0.026635
     25       0.068547   0.004796  -0.239844  -0.104870  -0.033651   0.090428
     26      -0.028339  -0.029670   0.079067  -0.166676   0.039653   0.411742
     27       0.117908  -0.225011   0.118691  -0.051686  -0.059859  -0.006826
     28       0.183796  -0.064093  -0.172230   0.002217  -0.081923   0.008602
     29       0.439802   0.075383  -0.005616   0.498202  -0.065833   0.010480
     30       0.069965  -0.144801  -0.036715  -0.113543  -0.054887   0.037230
     31       0.026333  -0.341039   0.373395  -0.119893  -0.032600   0.082192
     32      -0.302785   0.062136  -0.033079  -0.326243   0.057437   0.470521
     33       0.068748  -0.227068   0.229431  -0.047001  -0.012034  -0.032733
     34       0.071541  -0.148000   0.114575  -0.066268  -0.004966  -0.087434
     35       0.026620   0.099394  -0.043737  -0.166487   0.067679  -0.418960
     36       0.018190   0.036535   0.286904  -0.012489   0.226918  -0.007114
     37       0.150731   0.400616  -0.202923  -0.037165   0.192147   0.009645
     38       0.196580  -0.023371   0.017516   0.107784   0.122093   0.002623
     39      -0.140264   0.098813  -0.035712  -0.004073   0.614851   0.004362
     40      -0.264009   0.131902   0.077303   0.021883   0.107523   0.005650
     41      -0.041161  -0.110737  -0.015024   0.011952  -0.413887  -0.009059
     42      -0.030719   0.013641   0.159835   0.329123  -0.013648   0.013650
     43      -0.127305  -0.077164  -0.224364   0.271238  -0.054924  -0.014317
     44       0.292896   0.073702   0.047264  -0.107806   0.219138   0.004899
     45      -0.059760   0.221983   0.034737  -0.027298  -0.279432  -0.002251
     46      -0.010384   0.206213   0.079284  -0.016876  -0.074953  -0.003612
     47      -0.103962  -0.177527  -0.059045   0.047789   0.108143  -0.003607
     48      -0.089189  -0.199159  -0.119195   0.003357  -0.077481   0.000663
     49      -0.003097  -0.123510  -0.044053  -0.000879   0.050857   0.002014
     50       0.048284   0.243334   0.067893  -0.005426  -0.302456   0.008333
                 18         19         20         21         22         23    
      0       0.002307   0.001332  -0.338504   0.165717   0.013474   0.107335
      1       0.012775  -0.009053   0.001558  -0.149916   0.028365   0.032293
      2      -0.154503  -0.012495   0.021549  -0.028822   0.143434  -0.037284
      3       0.006486   0.004113  -0.011176   0.188290   0.003760   0.067633
      4       0.032078  -0.003346  -0.310326  -0.097650  -0.023898   0.027912
      5       0.001889   0.018202   0.080847   0.081275  -0.083228  -0.003405
      6       0.066760  -0.010755  -0.111761  -0.209563  -0.007208   0.016744
      7       0.093117  -0.009253   0.106727  -0.187528  -0.017471   0.018784
      8       0.191238   0.005064  -0.013345   0.127054  -0.073964  -0.014619
      9      -0.016154   0.009776   0.108433   0.223732   0.005269  -0.013019
     10       0.033574   0.004511  -0.104295   0.211179   0.021753  -0.025722
     11       0.363811   0.002134   0.016108  -0.041589   0.117787   0.004508
     12       0.032785  -0.005945   0.314730  -0.113814  -0.011202  -0.011596
     13      -0.001291  -0.004250  -0.001867   0.183306  -0.009794  -0.112240
     14       0.000706  -0.015394  -0.033839   0.038550  -0.084745  -0.000936
     15       0.033927  -0.009293   0.009975  -0.142436   0.007472  -0.017952
     16      -0.023730   0.001280   0.335428   0.131746   0.032221  -0.142179
     17      -0.143583   0.012054  -0.072929  -0.064323   0.142465   0.055270
     18       0.061151  -0.003808   0.153849  -0.087447  -0.012354   0.112834
     19      -0.009749   0.003073  -0.282677  -0.185659  -0.116657   0.084525
     20      -0.250718   0.056923   0.025841  -0.023213  -0.502787   0.219419
     21      -0.074993  -0.027604  -0.062549   0.151338   0.005903  -0.549099
     22      -0.071138   0.031821   0.076058   0.200457   0.012267   0.566868
     23      -0.035977   0.070210  -0.009561  -0.112296  -0.009649  -0.049134
     24      -0.023668   0.004127  -0.290461   0.239055   0.000619   0.119008
     25      -0.087631   0.000482   0.164191   0.092147  -0.024386   0.070342
     26      -0.457705  -0.021139  -0.061068  -0.311596  -0.152451   0.086854
     27       0.074373  -0.011854   0.169248  -0.229029  -0.036125  -0.104615
     28       0.125787  -0.006182  -0.183193  -0.191646  -0.116176   0.155929
     29       0.345993   0.011690   0.029721   0.028623  -0.571324   0.013561
     30       0.028682  -0.011385   0.269862  -0.197948  -0.042563  -0.016138
     31       0.009766  -0.021680  -0.164703  -0.103769  -0.086672  -0.122171
     32      -0.274802  -0.029000   0.041240  -0.053373  -0.506986  -0.143664
     33      -0.026525  -0.001625  -0.154577   0.137503  -0.004084  -0.097068
     34      -0.092922   0.005667   0.305335   0.155171  -0.023515  -0.165241
     35      -0.448825   0.026032  -0.014055  -0.319249  -0.151231   0.046909
     36      -0.028735   0.137210   0.042024  -0.047058   0.003110   0.171832
     37      -0.036901   0.045482  -0.043777  -0.070152   0.001089  -0.164440
     38      -0.057238   0.072350   0.001854  -0.112720  -0.006201   0.024654
     39       0.065518  -0.225573  -0.001206  -0.032411  -0.002891   0.000749
     40       0.057515   0.550830  -0.000442  -0.042313  -0.002314   0.000570
     41      -0.039351  -0.240800   0.001733   0.034027   0.001000   0.004268
     42      -0.124954  -0.058091   0.029083  -0.059941  -0.005907   0.163909
     43      -0.111029   0.039512  -0.033998  -0.066755  -0.006813  -0.166376
     44       0.003548   0.098636   0.005404   0.119604   0.010079  -0.000377
     45       0.020375  -0.079097  -0.000838  -0.026445  -0.000641   0.003152
     46       0.017679  -0.391588   0.002535  -0.020686  -0.000633   0.015851
     47      -0.004437  -0.206364  -0.000286  -0.004824  -0.000881   0.000169
     48      -0.001793   0.352394  -0.004104  -0.002412   0.000200  -0.022035
     49      -0.002752   0.146915   0.000296   0.007755  -0.000026   0.001981
     50      -0.004619   0.429655  -0.001167  -0.002399   0.000679  -0.005636
                 24         25         26         27         28         29    
      0      -0.037061   0.190367  -0.027949  -0.001384   0.001802   0.005999
      1       0.011192  -0.047577  -0.009206   0.003484  -0.004277   0.022295
      2      -0.010301  -0.004761  -0.061606   0.018550  -0.011894   0.096160
      3      -0.028030   0.129042  -0.016365  -0.011045  -0.008552  -0.006224
      4       0.038134  -0.071725  -0.018642  -0.016302   0.021871  -0.019198
      5       0.101032  -0.030743  -0.083101  -0.094944  -0.024609  -0.080776
      6       0.032184  -0.074888   0.004148   0.008933  -0.023169  -0.000068
      7       0.046984  -0.062756   0.007240   0.022063  -0.015536  -0.000655
      8       0.108391   0.057243  -0.005288   0.093392   0.034054  -0.003469
      9      -0.023323   0.007979   0.000994   0.002693   0.001030   0.002224
     10      -0.046427  -0.005348  -0.000557   0.008413   0.013624  -0.002107
     11      -0.163901  -0.080325   0.006091   0.040163   0.071177  -0.000463
     12       0.022147  -0.051493   0.016207  -0.002854   0.026421   0.006886
     13      -0.013942   0.139273   0.006399  -0.023965  -0.016135   0.018472
     14       0.108916   0.010462   0.086385  -0.091104  -0.019893   0.082748
     15       0.010546  -0.034592   0.007466   0.000447  -0.000931  -0.007913
     16      -0.039190   0.205075   0.003766   0.000704  -0.000494  -0.019935
     17      -0.003533   0.009386   0.060722   0.015827  -0.009699  -0.094127
     18      -0.018393   0.096283   0.010212  -0.001960  -0.015202   0.003738
     19      -0.018525  -0.019710   0.112075   0.125114   0.050393   0.091036
     20      -0.181994   0.293301   0.502871   0.560905   0.113829   0.430028
     21       0.013497  -0.326621   0.041718   0.012720   0.008262   0.002141
     22       0.019268  -0.287570   0.009835   0.010076  -0.001276  -0.002286
     23       0.001044   0.172532  -0.013154  -0.009866   0.027197   0.000336
     24      -0.082417   0.258834  -0.003699  -0.013494   0.008283  -0.026786
     25      -0.156999   0.167137   0.090923  -0.041687   0.022782  -0.106794
     26      -0.552320  -0.045918   0.467719  -0.141741   0.048449  -0.529960
     27       0.001293  -0.083812   0.016562  -0.025787  -0.034604   0.001039
     28      -0.060472  -0.123031  -0.000027  -0.101126  -0.047223   0.004337
     29      -0.429235  -0.231517   0.019619  -0.522400  -0.127558   0.020311
     30       0.008121  -0.085567  -0.026403   0.040440   0.035717  -0.028598
     31      -0.044292   0.062334  -0.099691   0.076003   0.000660  -0.065696
     32      -0.176302  -0.160832  -0.518730   0.554362   0.135081  -0.442371
     33      -0.080488   0.152226  -0.051043  -0.019990   0.012618   0.031685
     34      -0.160842   0.178110  -0.100098  -0.030531   0.008594   0.100462
     35      -0.549161  -0.427833  -0.433338  -0.128014   0.027982   0.517817
     36       0.016827   0.022652  -0.007957  -0.008146   0.085637  -0.000981
     37       0.016331   0.035518   0.002455  -0.009880   0.102254   0.001060
     38       0.011083   0.193384  -0.017230  -0.021676   0.050445  -0.000142
     39      -0.004946   0.024423  -0.002178  -0.004921   0.366865   0.000673
     40      -0.007159   0.034248  -0.002877  -0.000223   0.036370   0.000043
     41       0.009494  -0.037563   0.003043  -0.010777   0.724362   0.001295
     42       0.018081  -0.004032  -0.002459   0.000361  -0.007971  -0.000248
     43       0.013626  -0.022749   0.005059   0.002748  -0.022621   0.000441
     44      -0.002280  -0.216296   0.018686   0.020382  -0.123111   0.000000
     45      -0.004314   0.029272  -0.002427   0.001543  -0.122952  -0.000211
     46      -0.003068   0.023071  -0.002037   0.001850  -0.155001  -0.000329
     47      -0.002318   0.010548  -0.000872   0.004824  -0.337794  -0.000593
     48      -0.000856   0.000097   0.000209   0.002771  -0.191567  -0.000239
     49       0.001152  -0.007444   0.000425  -0.002691   0.206782   0.000337
     50       0.000403  -0.000940   0.000171   0.000355  -0.030777  -0.000027
                 30         31         32         33         34         35    
      0      -0.005008  -0.009415  -0.179816   0.102497   0.069973  -0.006111
      1      -0.015726   0.028883   0.127249  -0.000856   0.000006  -0.041837
      2      -0.078817  -0.018141  -0.010612  -0.008208  -0.002934   0.009037
      3       0.009151  -0.050288   0.095068  -0.026838   0.066844   0.002441
      4      -0.013633   0.329397  -0.079573  -0.107251  -0.002681  -0.006503
      5       0.027555  -0.064381   0.006646   0.027828   0.000762   0.000307
      6       0.018205  -0.295565  -0.055172  -0.064774   0.001773  -0.046268
      7       0.032625  -0.270541  -0.050354   0.056822  -0.049756   0.048010
      8       0.103099   0.096805   0.014215  -0.007837   0.008908  -0.007018
      9      -0.004610  -0.025861   0.051256  -0.092728  -0.255860   0.003577
     10      -0.003755  -0.021733   0.047479  -0.017797  -0.274524  -0.002817
     11       0.006285   0.015576  -0.015854   0.003626   0.044481   0.000214
     12      -0.016777   0.332019  -0.075667   0.092062  -0.086674   0.007080
     13       0.014155  -0.067379   0.096652   0.042282   0.043257   0.000113
     14       0.026652  -0.005298  -0.019639  -0.016254   0.003573   0.000404
     15      -0.004848   0.032368   0.120889  -0.001821   0.003755   0.039704
     16      -0.017090  -0.012966  -0.181867  -0.056810   0.134127   0.003343
     17      -0.081992  -0.013295   0.034841   0.014014  -0.027877  -0.003053
     18       0.014027   0.060742   0.428848  -0.349492   0.684461   0.170849
     19      -0.059164   0.358498   0.002362  -0.189360   0.125142   0.031965
     20      -0.187177  -0.132443   0.018884   0.053771  -0.026284  -0.004970
     21       0.000307  -0.004208  -0.017200   0.029057   0.067064   0.001307
     22       0.000517  -0.004807  -0.015825  -0.000659   0.072661  -0.001731
     23      -0.000650  -0.001038   0.013110  -0.009747  -0.053844   0.000301
     24       0.027707   0.022581  -0.090468   0.194790   0.097255  -0.128591
     25       0.108452   0.205904   0.467722   0.284775   0.080192  -0.464506
     26       0.471240   0.043871  -0.121139  -0.074781  -0.067611   0.103544
     27      -0.022467  -0.318874  -0.065164  -0.354622   0.129393  -0.480753
     28      -0.112121  -0.312987  -0.057868   0.359198  -0.166751   0.496748
     29      -0.622693  -0.048425   0.023797  -0.044378   0.062123  -0.072228
     30      -0.031637   0.375858   0.017653   0.233732  -0.031789  -0.032945
     31      -0.015127   0.032877   0.424969   0.530608   0.305544  -0.143005
     32      -0.209833  -0.093272  -0.038195  -0.100355  -0.030623   0.019860
     33       0.042402   0.200748   0.477097  -0.207931   0.308473   0.449731
     34       0.098928   0.025591  -0.118149  -0.112161   0.205065   0.095048
     35       0.491030   0.076147  -0.039822   0.021543  -0.104653  -0.048304
     36       0.000643   0.000823  -0.000401  -0.000777   0.001266   0.000565
     37       0.000861   0.002311   0.000668   0.000645  -0.003851  -0.000563
     38       0.002996   0.019986   0.008775  -0.007219  -0.036127   0.000092
     39      -0.002769  -0.013030   0.001763   0.000280   0.002702  -0.000155
     40      -0.000614  -0.003595   0.001497   0.000107  -0.000396   0.000113
     41      -0.004429  -0.019888  -0.000213   0.001803   0.009445  -0.000174
     42       0.000398  -0.006025  -0.005546   0.005244   0.032935  -0.000365
     43       0.000214  -0.006709  -0.006074   0.008899   0.032707   0.000437
     44      -0.000696  -0.015324  -0.014330   0.012353   0.059765  -0.000053
     45       0.000551   0.001152   0.001525  -0.001459  -0.003883   0.000168
     46       0.001055   0.006966  -0.000512  -0.000613  -0.005058  -0.000122
     47       0.002106   0.008880   0.000083  -0.000710  -0.003334   0.000100
     48       0.001500   0.010267  -0.001782   0.000426  -0.003857  -0.000240
     49      -0.001605  -0.010829   0.001937  -0.000086   0.004334   0.000232
     50       0.000301   0.001950  -0.000495   0.000104  -0.000158  -0.000066
                 36         37         38         39         40         41    
      0       0.027285   0.014764  -0.004781   0.007220   0.069567   0.105844
      1       0.053033   0.040197  -0.028042  -0.062586   0.218081   0.098935
      2      -0.012821  -0.012281   0.009568   0.013875  -0.050550  -0.026705
      3      -0.051694  -0.039374   0.030302  -0.011377  -0.284406  -0.013515
      4      -0.013045  -0.022497   0.015425  -0.036208  -0.078593  -0.102765
      5       0.010876   0.005315   0.002396   0.007941   0.027776   0.023471
      6      -0.003966   0.010658  -0.015743   0.007474   0.196459  -0.084374
      7      -0.001413   0.010807  -0.015399  -0.007392  -0.204952   0.088090
      8      -0.000219  -0.001802   0.001555   0.001084   0.029854  -0.012897
      9      -0.015850  -0.038879   0.052429  -0.119386   0.149863  -0.109124
     10      -0.017040  -0.034447   0.044538   0.122846  -0.150356   0.116227
     11      -0.007492   0.031569  -0.041419  -0.018061   0.021977  -0.017061
     12      -0.017300  -0.026646   0.013887   0.036798   0.096704   0.104239
     13      -0.049658  -0.038813   0.027676   0.007493   0.276197   0.000453
     14       0.016061   0.008474  -0.000139  -0.003478  -0.056535  -0.008138
     15       0.058118   0.042928  -0.029331   0.063052  -0.224512  -0.108479
     16       0.024988   0.013518  -0.002317  -0.009175  -0.059211  -0.096117
     17      -0.008828  -0.008624   0.005703  -0.003522   0.027558   0.026370
     18      -0.439696  -0.397263   0.359725   0.553361   0.418610   0.192733
     19      -0.106522  -0.096559   0.076246   0.084090   0.068367  -0.075963
     20       0.010124   0.066597  -0.084037  -0.033196  -0.045652   0.010988
     21      -0.065299   0.106358  -0.238587   0.011202  -0.006992   0.010892
     22      -0.058501   0.098460  -0.209207  -0.012265   0.004775  -0.012100
     23       0.002602  -0.018148   0.034956   0.001401  -0.000068   0.001606
     24       0.148928   0.125759  -0.096516   0.132512   0.011188  -0.029770
     25       0.465812   0.415296  -0.341344   0.352916   0.018245  -0.422924
     26      -0.103746  -0.102289   0.084958  -0.090150   0.013774   0.088253
     27      -0.014676   0.003434  -0.006672  -0.136763  -0.321018   0.453731
     28       0.009979   0.023210  -0.027928   0.141629   0.328984  -0.467156
     29      -0.000089   0.009682  -0.001564  -0.020703  -0.047714   0.067851
     30      -0.129846  -0.129998   0.106410  -0.110659  -0.091582   0.075419
     31      -0.442675  -0.401842   0.359004  -0.534472  -0.414792  -0.171593
     32       0.060217   0.109690  -0.122111   0.097888   0.094554   0.023748
     33       0.511404   0.468687  -0.369527  -0.364631  -0.022990   0.444159
     34       0.128729   0.110161  -0.078596  -0.107512  -0.017501   0.013167
     35      -0.057818  -0.061941   0.047137   0.054419  -0.012483  -0.030183
     36      -0.005889   0.020885  -0.006351   0.001002  -0.000967   0.000886
     37      -0.014631   0.031730  -0.033141  -0.000507   0.000084  -0.000463
     38      -0.093228   0.124268  -0.279920  -0.000135  -0.001178  -0.000055
     39       0.005067   0.012781   0.065689  -0.000427   0.001238  -0.000436
     40       0.004146  -0.010247   0.012483   0.000309  -0.000467   0.000264
     41       0.001896   0.041658   0.094905  -0.000173   0.000815  -0.000245
     42       0.041660  -0.052035   0.124558  -0.001014   0.002772  -0.000686
     43       0.047753  -0.064339   0.133348   0.002033  -0.003061   0.001179
     44       0.089861  -0.118259   0.247356   0.000273   0.000676   0.000047
     45       0.022286  -0.128984  -0.125582  -0.000371  -0.000207  -0.000096
     46      -0.017447   0.106396   0.109481   0.000269   0.000114   0.000024
     47       0.001543  -0.040617  -0.072397   0.000074  -0.000402   0.000168
     48      -0.039446   0.222580   0.211387   0.000422   0.000105  -0.000095
     49       0.038659  -0.220034  -0.209790  -0.000484  -0.000183   0.000149
     50      -0.007609   0.044447   0.043171  -0.000079   0.000181  -0.000188
                 42         43         44         45         46         47    
      0       0.017515  -0.143106   0.127217  -0.005573   0.036157  -0.049511
      1      -0.115905  -0.286235  -0.141665  -0.013059  -0.009195   0.014906
      2       0.023703   0.068476   0.022200   0.006961  -0.000004  -0.000495
      3      -0.144223   0.198689  -0.246096   0.030275  -0.003422   0.007581
      4       0.008876   0.145019   0.040173   0.013963   0.011116  -0.026903
      5       0.003838  -0.042195   0.002387  -0.006424  -0.002319   0.005592
      6       0.060904   0.078758  -0.265472   0.003956  -0.045264   0.003833
      7       0.050413   0.146754   0.242664   0.003544  -0.042283  -0.000259
      8      -0.014224  -0.035414  -0.033338  -0.001678   0.011024  -0.000165
      9       0.082585  -0.048652   0.207325  -0.053379   0.000375  -0.000574
     10       0.074346  -0.097953  -0.188494  -0.051160   0.000390   0.000682
     11      -0.013426   0.017133   0.026945  -0.003529  -0.000044  -0.000095
     12      -0.001116   0.146046  -0.073379   0.016577   0.012271   0.030998
     13      -0.143931   0.248036   0.174184   0.028176  -0.004280  -0.010046
     14       0.026221  -0.058582  -0.026839  -0.008406  -0.000129  -0.000418
     15      -0.116901  -0.249293   0.214807  -0.014403  -0.007803  -0.013097
     16       0.027978  -0.159814  -0.088942  -0.003890   0.036895   0.049882
     17       0.002498   0.048903   0.003812   0.005521  -0.006756  -0.008949
     18       0.455073  -0.282772   0.295123  -0.052194   0.032971  -0.077828
     19       0.149218   0.054890   0.164903  -0.008825  -0.136584   0.322862
     20      -0.048976  -0.002469  -0.051981  -0.020607   0.028753  -0.067929
     21       0.001779  -0.027749  -0.005003   0.131659  -0.000027   0.000075
     22       0.002553  -0.025100   0.014308   0.198243  -0.000038  -0.000071
     23       0.011880  -0.024829   0.003160   0.806040   0.000021   0.000022
     24       0.182272   0.058358   0.208253   0.003693  -0.426300   0.575934
     25       0.415039   0.424277   0.059500   0.026082   0.122188  -0.167439
     26      -0.095817  -0.094954  -0.018200   0.002380  -0.002864   0.004509
     27       0.059848   0.188801   0.356402   0.002768   0.530811  -0.023908
     28       0.075910   0.064557  -0.403528   0.001235   0.495316  -0.017783
     29      -0.022480  -0.012548   0.058833  -0.014874  -0.129194   0.004916
     30       0.175031  -0.009089  -0.183171  -0.005809  -0.150599  -0.370509
     31       0.454109  -0.354806  -0.176943  -0.051828   0.043489   0.106809
     32      -0.093306   0.064073   0.050045  -0.013044   0.003089   0.007650
     33       0.422720   0.404011  -0.184481   0.026352   0.105547   0.143251
     34       0.160104  -0.025550  -0.198494   0.004081  -0.435773  -0.580414
     35      -0.058652  -0.026472   0.047161   0.006016   0.078899   0.104743
     36       0.001606  -0.006890   0.001082   0.024083  -0.000029  -0.000012
     37       0.001693  -0.006525   0.000662  -0.023630  -0.000031   0.000013
     38      -0.000575   0.005712  -0.000966  -0.467581   0.000013  -0.000001
     39      -0.002028   0.004168  -0.000161  -0.009055   0.000012   0.000000
     40      -0.001328   0.002730  -0.000779  -0.002935   0.000003  -0.000001
     41      -0.001622   0.002911  -0.000167  -0.015453   0.000005  -0.000002
     42      -0.007296   0.013688  -0.001662  -0.080902  -0.000004  -0.000003
     43      -0.007397   0.013851  -0.003728  -0.094154  -0.000007  -0.000006
     44      -0.009915   0.020200  -0.003544  -0.204036  -0.000015  -0.000009
     45       0.000792  -0.000277   0.000082  -0.007469  -0.000011  -0.000004
     46      -0.000346   0.000610  -0.000071  -0.006241   0.000007   0.000002
     47       0.000991  -0.001964   0.000114   0.017537  -0.000002   0.000001
     48      -0.000588   0.000106   0.000185   0.003512   0.000008  -0.000001
     49       0.000728  -0.000391  -0.000200   0.000136  -0.000015  -0.000005
     50      -0.000229   0.000284   0.000175  -0.003212  -0.000001  -0.000000
                 48         49         50    
      0       0.029767   0.025505  -0.041531
      1      -0.011699  -0.005251   0.011363
      2       0.000865  -0.000313  -0.000087
      3      -0.010494   0.009832  -0.010506
      4       0.037623  -0.046875   0.050087
      5      -0.007894   0.009954  -0.010673
      6       0.037087  -0.006064  -0.021288
      7       0.034928  -0.001914  -0.020335
      8      -0.009141   0.000729   0.005264
      9       0.001163  -0.002264   0.002000
     10       0.001219   0.002611   0.001214
     11      -0.000177  -0.000381  -0.000245
     12       0.039608   0.055564   0.036480
     13      -0.012559  -0.014025  -0.009338
     14      -0.000656  -0.001564  -0.001039
     15      -0.008862   0.007164   0.008216
     16       0.023044  -0.037613  -0.034127
     17      -0.003951   0.007010   0.006244
     18       0.105668  -0.123389   0.129531
     19      -0.440038   0.527529  -0.555696
     20       0.093033  -0.111533   0.117758
     21      -0.000013   0.000218  -0.000010
     22      -0.000055  -0.000221   0.000024
     23      -0.000009   0.000064   0.000114
     24      -0.346525  -0.275999   0.452691
     25       0.104044   0.077884  -0.131150
     26      -0.003372  -0.001704   0.003573
     27      -0.418472   0.047656   0.231493
     28      -0.390811   0.039905   0.216534
     29       0.101882  -0.010694  -0.056541
     30      -0.461204  -0.620448  -0.401879
     31       0.132487   0.174447   0.112852
     32       0.010019   0.014055   0.009348
     33       0.069650  -0.099124  -0.092078
     34      -0.268712   0.411052   0.373138
     35       0.048291  -0.074336  -0.067266
     36       0.000012  -0.000026   0.000081
     37       0.000011   0.000035   0.000065
     38       0.000041  -0.000015  -0.000049
     39      -0.000033  -0.000011  -0.000122
     40      -0.000028  -0.000011  -0.000092
     41      -0.000017  -0.000005  -0.000042
     42      -0.000044   0.000005  -0.000116
     43      -0.000044  -0.000034  -0.000101
     44      -0.000044  -0.000016  -0.000087
     45       0.000007  -0.000005   0.000028
     46      -0.000001   0.000003  -0.000021
     47       0.000013   0.000005   0.000032
     48       0.000005   0.000002  -0.000038
     49       0.000010   0.000005   0.000025
     50      -0.000006  -0.000004  -0.000008
# -----------------------------------------------------------
$ THERMOCHEMISTRY_Energies
   description: The Thermochemistry energies
   geom. index: 4
   prop. index: 1
        Temperature (Kelvin)           :        298.1500000000
        Pressure (atm)                 :          1.0000000000
        Total Mass (AMU)               :        183.1810000000
        Spin Degeneracy                :          1.0000000000
        Electronic Energy (Hartree)    :       -948.1368921006
        Translational Energy (Hartree) :          0.0014162714
        Rotational Energy (Hartree)    :          0.0014162714
        Vibrational Energy (Hartree)   :          0.0075569650
        Number of frequencies          :     51      
        Scaling Factor for frequencies :          1.0000000000
        Vibrational frequencies        :     
                  0    
      0       0.000000
      1       0.000000
      2       0.000000
      3       0.000000
      4       0.000000
      5       0.000000
      6     -388.703861
      7      52.575276
      8      61.502640
      9      89.874952
     10     124.239168
     11     212.656561
     12     244.733015
     13     271.261774
     14     300.205353
     15     349.888501
     16     378.680154
     17     404.266101
     18     492.690864
     19     507.020509
     20     620.603957
     21     657.613191
     22     687.479990
     23     699.461256
     24     761.660335
     25     840.699905
     26     842.725074
     27     942.538472
     28     980.973512
     29     987.188639
     30     1008.877690
     31     1020.043664
     32     1042.487631
     33     1101.937632
     34     1102.192466
     35     1184.394545
     36     1192.325260
     37     1198.440288
     38     1214.685454
     39     1331.219809
     40     1360.962816
     41     1471.683076
     42     1494.744474
     43     1604.148963
     44     1605.218009
     45     1791.829371
     46     3178.841192
     47     3187.692823
     48     3193.314777
     49     3200.639437
     50     3203.653981
        Zero Point Energy (Hartree)    :          0.1098073894
        Inner Energy (Hartree)         :       -948.0166952033
        Enthalpy (Hartree)             :       -948.0157509943
        Electronic entropy             :          0.0000000000
        Rotational entropy             :          0.0147350322
        Vibrational entropy            :          0.0130454064
        Translational entropy          :          0.0147350322
        Entropy                        :          0.0475089562
        Gibbs Energy (Hartree)         :       -948.0632599505
        Is Linear                      :                 false
# -------------------------------------------------------------
----------------------- !GEOMETRIES! ------------------------
# -------------------------------------------------------------
------------------------ !GEOMETRY! -------------------------
    Number of atoms:    17 
    Geometry Index:     1 
    Coordinates:
               0 C     -2.420321000000   -0.442347000000    0.161879000000
               1 C     -1.432787000000    0.496571000000   -0.101286000000
               2 C     -2.070595000000   -1.767113000000    0.423443000000
               3 C     -0.097699000000    0.088433000000   -0.060929000000
               4 C      0.266998000000   -1.242656000000    0.159328000000
               5 C     -0.733111000000   -2.166690000000    0.422625000000
               6 H     -1.677814000000    1.530028000000   -0.324096000000
               7 C      1.014185000000    1.151722000000   -0.113681000000
               8 H     -3.464167000000   -0.144849000000    0.149314000000
               9 H     -2.849074000000   -2.500016000000    0.614394000000
              10 H      1.313681000000   -1.529706000000    0.138827000000
              11 H     -0.472519000000   -3.202850000000    0.614448000000
              12 N      1.087394000000    1.109453000000   -1.370133000000
              13 O      2.484562000000    2.585513000000   -1.472830000000
              14 O      1.558547000000    1.720207000000    0.869952000000
              15 S      3.230876000000    2.673799000000   -0.151943000000
              16 O      4.261842000000    1.640498000000    0.040689000000
------------------------ !GEOMETRY! -------------------------
    Number of atoms:    17 
    Geometry Index:     2 
    Coordinates:
               0 C     -2.418373832100   -0.438296915209    0.166052618153
               1 C     -1.426852717950    0.496310048715   -0.097271841459
               2 C     -2.074633124966   -1.765717066072    0.423243867795
               3 C     -0.093446055504    0.081802011257   -0.059530986752
               4 C      0.265219119465   -1.251342083059    0.157954006111
               5 C     -0.739068591446   -2.171691372906    0.419384004912
               6 H     -1.667563138277    1.531516077858   -0.316952385316
               7 C      1.020652836477    1.142449018302   -0.115918949561
               8 H     -3.460796313671   -0.135606228050    0.156790380616
               9 H     -2.856431478412   -2.495401223742    0.613009181710
              10 H      1.310523942299   -1.543180418464    0.134889923469
              11 H     -0.483160582822   -3.209795791864    0.607062480906
              12 N      1.099871966862    1.092105786769   -1.372004524681
              13 O      2.482870433242    2.578827685120   -1.480635403220
              14 O      1.557005420648    1.722966128617    0.865404711986
              15 S      3.219855546932    2.690512623733   -0.155846621764
              16 O      4.264324569222    1.674538718995    0.054370537094
------------------------ !GEOMETRY! -------------------------
    Number of atoms:    17 
    Geometry Index:     3 
    Coordinates:
               0 C     -2.418311412403   -0.437954224169    0.167195830492
               1 C     -1.426698571317    0.496394472154   -0.096623578510
               2 C     -2.074854761216   -1.765634492162    0.423568025606
               3 C     -0.093383138909    0.081408416305   -0.059893787497
               4 C      0.264954164572   -1.251900772752    0.156894403472
               5 C     -0.739468756946   -2.172072466308    0.418536852564
               6 H     -1.667288348602    1.531756705031   -0.315695347041
               7 C      1.020779352144    1.142007896624   -0.116734870694
               8 H     -3.460636801738   -0.134894746863    0.158951655652
               9 H     -2.856777933297   -2.495117763689    0.613606475924
              10 H      1.310150287097   -1.544042634826    0.132912739690
              11 H     -0.483754261648   -3.210361083742    0.605467648981
              12 N      1.101708216575    1.089492171736   -1.372618060875
              13 O      2.484688621480    2.575832470993   -1.482142547077
              14 O      1.555308114397    1.724814329602    0.864228483368
              15 S      3.218895358900    2.691999370707   -0.156173119282
              16 O      4.264687870912    1.678269351358    0.058520195227
------------------------ !GEOMETRY! -------------------------
    Number of atoms:    17 
    Geometry Index:     4 
    Coordinates:
               0 C     -2.418344497991   -0.438062056044    0.166963638218
               1 C     -1.426794432613    0.496390758016   -0.096744545223
               2 C     -2.074763102220   -1.765671194335    0.423495584721
               3 C     -0.093438094594    0.081567290693   -0.059812211615
               4 C      0.265031928255   -1.251688576645    0.157109839983
               5 C     -0.739318601851   -2.171946185681    0.418705989634
               6 H     -1.667461942364    1.531707336547   -0.315946963586
               7 C      1.020657600926    1.142224141412   -0.116579941679
               8 H     -3.460705453000   -0.135135348230    0.158489357933
               9 H     -2.856621972487   -2.495240387209    0.613470318073
              10 H      1.310267578812   -1.543709065635    0.133333578419
              11 H     -0.483505764030   -3.210182374350    0.605805732238
              12 N      1.101238667465    1.090131658297   -1.372497641072
              13 O      2.484424230525    2.576401211543   -1.481823979098
              14 O      1.555591808065    1.724550455654    0.864455317429
              15 S      3.219189294371    2.691520551582   -0.156089661963
              16 O      4.264550752730    1.677138784384    0.057666587589
