17
C7NH4SO3Cl
C        0.017810000      0.202282000      0.205569000
C        1.005941000      1.139793000     -0.053281000
C        0.338140000     -1.123985000      0.492314000
C        2.334263000      0.718964000      0.020594000
C        2.686110000     -0.608438000      0.268703000
C        1.673196000     -1.521251000      0.522604000
H        0.763370000      2.168514000     -0.294388000
C        3.455448000      1.799697000      0.047854000
Cl      -1.657757000      0.686680000      0.147872000
H       -0.455673000     -1.840209000      0.675802000
H        3.730640000     -0.900659000      0.271885000
H        1.917579000     -2.557361000      0.733735000
N        3.535782000      1.695949000     -1.201882000
O        4.958998000      3.248772000     -1.313615000
O        3.932079000      2.366933000      1.049850000
S        5.695864000      3.369133000     -0.001369000
O        6.730980000      2.354416000      0.241573000
