17
Coordinates from ORCA-job mol E -1407.708789755593
  C       0.017810      0.202282      0.205569
  C       1.005941      1.139793     -0.053281
  C       0.338140     -1.123985      0.492314
  C       2.334263      0.718964      0.020594
  C       2.686110     -0.608438      0.268703
  C       1.673196     -1.521251      0.522604
  H       0.763370      2.168514     -0.294388
  C       3.455448      1.799697      0.047854
  Cl     -1.657757      0.686680      0.147872
  H      -0.455673     -1.840209      0.675802
  H       3.730640     -0.900659      0.271885
  H       1.917579     -2.557361      0.733735
  N       3.535782      1.695949     -1.201882
  O       4.958998      3.248772     -1.313615
  O       3.932079      2.366933      1.049850
  S       5.695864      3.369133     -0.001369
  O       6.730980      2.354416      0.241573
17
Coordinates from ORCA-job mol E -1407.708521429744
  C      -0.000935      0.196713      0.239766
  C       0.977938      1.138706     -0.037201
  C       0.329838     -1.131206      0.506610
  C       2.308813      0.720050     -0.003300
  C       2.669894     -0.608788      0.224045
  C       1.666022     -1.525874      0.497402
  H       0.726986      2.168752     -0.263479
  C       3.428907      1.804562      0.010709
  Cl     -1.678552      0.677281      0.229983
  H      -0.457237     -1.850628      0.705950
  H       3.714794     -0.898443      0.196914
  H       1.917964     -2.563164      0.693332
  N       3.469987      1.703126     -1.240342
  O       5.146124      3.057740     -1.378696
  O       3.926091      2.361307      1.008102
  S       5.712413      3.406085     -0.024917
  O       6.803724      2.543012      0.448943
17
Coordinates from ORCA-job mol E -1407.705521655783
  C       0.019653      0.192134      0.197948
  C       0.993725      1.156037     -0.014924
  C       0.358855     -1.134653      0.455602
  C       2.328769      0.762019      0.070820
  C       2.699372     -0.561739      0.309017
  C       1.699883     -1.504888      0.504184
  H       0.733688      2.184384     -0.239323
  C       3.425871      1.860007      0.070222
  Cl     -1.664148      0.646143      0.118328
  H      -0.424117     -1.870688      0.603644
  H       3.749289     -0.832762      0.335391
  H       1.961254     -2.541138      0.693911
  N       3.488204      1.859828     -1.190627
  O       4.931507      2.991017     -1.363647
  O       3.950879      2.395626      1.073674
  S       5.690305      3.290701     -0.086504
  O       6.719779      2.307202      0.276105
17
Coordinates from ORCA-job mol E -1407.708338510815
  C      -0.004913      0.187229      0.222236
  C       0.979466      1.127695     -0.042045
  C       0.320099     -1.138364      0.504586
  C       2.309373      0.709329      0.013713
  C       2.665169     -0.616691      0.261920
  C       1.656232     -1.532320      0.522372
  H       0.732201      2.155831     -0.280464
  C       3.432503      1.789312      0.008614
  Cl     -1.682253      0.668667      0.179471
  H      -0.470443     -1.856089      0.696066
  H       3.710355     -0.906971      0.257336
  H       1.904827     -2.567931      0.731162
  N       3.492496      1.691298     -1.244745
  O       5.119698      3.289971     -1.356113
  O       3.938286      2.341888      1.006770
  S       5.751274      3.414633      0.011795
  O       6.808401      2.441741      0.321146
17
Coordinates from ORCA-job mol E -1407.708039396048
  C       0.013714      0.194070      0.199328
  C       0.999872      1.138590     -0.043795
  C       0.337436     -1.130528      0.486596
  C       2.329425      0.725948      0.041510
  C       2.685090     -0.599061      0.292566
  C       1.674609     -1.518800      0.531946
  H       0.753288      2.166030     -0.285930
  C       3.447082      1.803307      0.036353
  Cl     -1.664150      0.670190      0.123324
  H      -0.454090     -1.851736      0.659984
  H       3.731237     -0.885545      0.310777
  H       1.923338     -2.553455      0.745223
  N       3.550262      1.718322     -1.218214
  O       4.962211      3.314069     -1.307300
  O       3.941263      2.362263      1.038985
  S       5.715536      3.351973      0.005701
  O       6.716645      2.293592      0.196766
17
Coordinates from ORCA-job mol E -1407.708235572095
  C       0.020437      0.196934      0.196912
  C       1.004883      1.145791     -0.036237
  C       0.346582     -1.128326      0.478514
  C       2.335072      0.736761      0.054204
  C       2.693550     -0.588622      0.299724
  C       1.684598     -1.513004      0.528057
  H       0.756187      2.173702     -0.274320
  C       3.449320      1.814444      0.041178
  Cl     -1.658445      0.668471      0.114399
  H      -0.443639     -1.852820      0.643916
  H       3.740357     -0.872182      0.321013
  H       1.935271     -2.548301      0.736036
  N       3.550505      1.748262     -1.214850
  O       4.924920      3.252186     -1.310246
  O       3.941734      2.379687      1.042600
  S       5.693902      3.324245     -0.006988
  O       6.687534      2.262002      0.199908
17
Coordinates from ORCA-job mol E -1407.707909816417
  C       0.029532      0.204101      0.203686
  C       1.009916      1.156427     -0.031958
  C       0.361123     -1.121578      0.477768
  C       2.341482      0.750144      0.049923
  C       2.705414     -0.576114      0.283866
  C       1.700344     -1.503470      0.517009
  H       0.757253      2.184992     -0.262988
  C       3.452390      1.830584      0.039990
  Cl     -1.650938      0.670966      0.131696
  H      -0.426162     -1.848764      0.645392
  H       3.753024     -0.857029      0.295512
  H       1.954601     -2.539115      0.718782
  N       3.582335      1.741870     -1.210384
  O       4.887325      3.162691     -1.311094
  O       3.912739      2.429756      1.036765
  S       5.657709      3.290343     -0.013199
  O       6.634683      2.223427      0.243054
17
Coordinates from ORCA-job mol E -1407.707381321536
  C       0.012710      0.197392      0.260724
  C       0.979884      1.150317     -0.020493
  C       0.357798     -1.129273      0.516193
  C       2.314028      0.744142      0.000493
  C       2.689627     -0.582745      0.213258
  C       1.696815     -1.511703      0.490388
  H       0.716440      2.179622     -0.236694
  C       3.423147      1.834361     -0.044190
  Cl     -1.669751      0.661395      0.263636
  H      -0.420557     -1.856832      0.720111
  H       3.736680     -0.862270      0.171618
  H       1.959609     -2.548267      0.676007
  N       3.584231      1.624160     -1.272766
  O       5.151325      3.162588     -1.362776
  O       3.821369      2.532162      0.913113
  S       5.687186      3.324482      0.042682
  O       6.622229      2.279698      0.482514
17
Coordinates from ORCA-job mol E -1407.708202831491
  C       0.016863      0.197627      0.215672
  C       0.997252      1.147078     -0.030762
  C       0.347714     -1.128705      0.488077
  C       2.328669      0.737316      0.037725
  C       2.691360     -0.589075      0.272738
  C       1.686090     -1.514092      0.514689
  H       0.744971      2.176012     -0.260747
  C       3.442620      1.818274      0.019448
  Cl     -1.663060      0.668565      0.159833
  H      -0.439832     -1.853533      0.664490
  H       3.738379     -0.872389      0.274685
  H       1.939487     -2.550261      0.714834
  N       3.554413      1.715231     -1.231074
  O       4.992412      3.208348     -1.334416
  O       3.909113      2.419495      1.011546
  S       5.690823      3.330570      0.003478
  O       6.685494      2.288767      0.293603
17
Coordinates from ORCA-job mol E -1407.708268391784
  C       0.019679      0.198813      0.201720
  C       1.003620      1.147003     -0.035757
  C       0.346465     -1.126950      0.480852
  C       2.333848      0.736152      0.046213
  C       2.692826     -0.589659      0.289213
  C       1.684297     -1.513144      0.522769
  H       0.754672      2.175427     -0.271403
  C       3.449198      1.814248      0.038534
  Cl     -1.659189      0.671182      0.127075
  H      -0.443465     -1.850822      0.650359
  H       3.739524     -0.874035      0.303337
  H       1.934866     -2.548889      0.728573
  N       3.552027      1.741421     -1.215404
  O       4.935745      3.221729     -1.316989
  O       3.937117      2.382922      1.039827
  S       5.686440      3.327847     -0.005623
  O       6.695100      2.285985      0.230526
17
Coordinates from ORCA-job mol E -1407.708267286080
  C       0.018884      0.198728      0.203935
  C       1.002651      1.146117     -0.037407
  C       0.345729     -1.126954      0.483604
  C       2.332863      0.734573      0.041627
  C       2.691806     -0.591359      0.284419
  C       1.683402     -1.513990      0.521978
  H       0.753646      2.174549     -0.272956
  C       3.448545      1.813159      0.034883
  Cl     -1.659872      0.672024      0.134047
  H      -0.444139     -1.850101      0.656485
  H       3.738372     -0.876229      0.295688
  H       1.933862     -2.549682      0.728175
  N       3.550138      1.738434     -1.218849
  O       4.946155      3.220101     -1.318436
  O       3.934513      2.383429      1.036104
  S       5.687295      3.331720     -0.002246
  O       6.698921      2.294712      0.242770
17
Coordinates from ORCA-job mol E -1407.708267396553
  C       0.018650      0.198738      0.204226
  C       1.002528      1.145747     -0.038207
  C       0.345320     -1.126864      0.484492
  C       2.332654      0.733778      0.040072
  C       2.691427     -0.592099      0.283438
  C       1.682899     -1.514300      0.522147
  H       0.753677      2.174104     -0.274230
  C       3.448539      1.812421      0.034338
  Cl     -1.660009      0.672392      0.134922
  H      -0.444636     -1.849660      0.658432
  H       3.737929     -0.877226      0.294063
  H       1.933158     -2.549948      0.728802
  N       3.550057      1.737573     -1.219232
  O       4.947911      3.222318     -1.318108
  O       3.934528      2.381852      1.035937
  S       5.687507      3.333029     -0.000982
  O       6.700631      2.297375      0.243709
17
Coordinates from ORCA-job mol E -1407.708267582359
  C       0.018449      0.198695      0.204404
  C       1.002379      1.145522     -0.038588
  C       0.345048     -1.126855      0.484986
  C       2.332451      0.733330      0.039280
  C       2.691166     -0.592513      0.282881
  C       1.682582     -1.514489      0.522227
  H       0.753602      2.173838     -0.274857
  C       3.448464      1.811986      0.033850
  Cl     -1.660163      0.672541      0.135505
  H      -0.444943     -1.849473      0.659513
  H       3.737638     -0.877759      0.293129
  H       1.932744     -2.550114      0.729120
  N       3.549415      1.737450     -1.219721
  O       4.949341      3.222992     -1.318032
  O       3.934809      2.380737      1.035664
  S       5.687752      3.333906     -0.000250
  O       6.702035      2.299436      0.244708
