!DLPNO-CCSD(T) Extrapolate(3/4,cc) cc-pVQZ/C TightPNO TightSCF 
%geom maxiter 300 end
%maxcore 4000 
%pal nprocs 36
end

*xyz 0 1
6       -0.034279000      0.128055000      0.062758000
6        0.919495000      1.086631000     -0.241060000
6        0.396228000     -1.123633000      0.488250000
6        2.269087000      0.769633000     -0.081900000
6        2.692717000     -0.500958000      0.311381000
6        1.739799000     -1.459836000      0.615338000
1        0.630992000      2.072068000     -0.590735000
6        3.324238000      1.913952000     -0.155568000
1       -1.094276000      0.329601000     -0.034865000
7       -0.624407000     -2.153622000      0.804048000
1        3.752616000     -0.720954000      0.383761000
1        2.018642000     -2.456649000      0.935279000
7        3.488260000      1.698046000     -1.385127000
8        4.793916000      3.250393000     -1.609272000
8        3.712105000      2.619989000      0.795993000
16       5.467363000      3.577331000     -0.293302000
8        6.532050000      2.655962000      0.122619000
8       -1.797869000     -1.838310000      0.670013000
8       -0.220859000     -3.245303000      1.177338000

*
