!DLPNO-CCSD(T) Extrapolate(3/4,cc) cc-pVQZ/C TightPNO TightSCF 
%geom maxiter 300 end
%maxcore 4000 
%pal nprocs 36
end

*xyz 0 1
6       -2.418875000     -0.444954000      0.161002000
6       -1.429819000      0.493735000     -0.095209000
6       -2.071626000     -1.770899000      0.416499000
6       -0.095579000      0.087663000     -0.053622000
6        0.265507000     -1.242846000      0.165406000
6       -0.735013000     -2.169490000      0.418041000
1       -1.672385000      1.527869000     -0.316790000
6        1.019063000      1.158141000     -0.099213000
1       -3.462466000     -0.146751000      0.146942000
1       -2.851028000     -2.504369000      0.600590000
1        1.312393000     -1.528134000      0.144560000
1       -0.475109000     -3.207076000      0.602691000
7        1.094145000      1.082448000     -1.354248000
8        2.480081000      2.569269000     -1.487510000
8        1.535101000      1.742441000      0.883493000
16       3.237708000      2.688426000     -0.179329000
8        4.267902000      1.664527000      0.046697000

*
