16
Coordinates from ORCA-job mol
  C   1.77330006782391     -0.42048044818003      0.36764438528806
  C   2.85791271523883      0.37284415075823      0.03386209533704
  C   1.98355387610725     -1.76405097477239      0.65447136159307
  C   4.14079824046971     -0.18209249338366     -0.01061783438757
  C   4.33433188887904     -1.53924151023032      0.28176654734641
  C   3.25192010080613     -2.33353885552738      0.61567295013134
  H   2.72739756461186      1.42485814679240     -0.19513901549061
  C   6.39680110238605      0.52114281231999     -0.48404730173344
  H   0.76984756237403     -0.01400786448682      0.40873701412809
  N   0.83223056751287     -2.60934078438817      1.00965089034138
  H   5.33380243938720     -1.96274807884950      0.24515326108964
  H   3.37549179139028     -3.38521456432915      0.84571810247286
  N   5.19986684113895      0.65312359732703     -0.35146062069741
  O   7.55301108992267      0.53657834652365     -0.64837733297773
  O   -0.27275283308101     -2.08051877021724      1.03320022568317
  O   1.05139698503219     -3.78883270935663      1.25936527187568
