17
Coordinates from ORCA-job orca
  C   0.06397545750932      0.08807869999440     -0.08185126900944
  C   1.05191668481427      1.05100814229823     -0.22089562694477
  C   0.36838002541773     -1.16207092899746      0.45768363132784
  C   2.36501173284613      0.76346193174603      0.17763947633782
  C   2.67068069147101     -0.48964909224833      0.71949732877144
  C   1.67054121437473     -1.44601916026674      0.85710037559568
  H   0.81657562200986      2.02610458583948     -0.63449153717857
  C   3.41275934463705      1.77485919989342      0.03239343493297
  H   -0.95180181687873      0.31407078904448     -0.39249324728590
  H   -0.41038169197186     -1.91130062775265      0.56650647761769
  H   3.68634800031561     -0.71482094232058      1.02612281655602
  H   1.91295027841004     -2.41766933643085      1.27703294633333
  N   3.24123861185469      2.88029705699250     -0.60198841708156
  O   4.37444139662195      3.68485055784778     -0.57647125741024
  O   4.61850284414665      1.50276739345721      0.61375545066148
  Se  5.87895697305383      2.75020395363542      0.06814330797400
  O   6.60430463136766      2.10282777726762     -1.21698389119776
