14
Coordinates from ORCA job orca
  C       1.80553293679912     -0.43167513876202      0.36618651044462
  C       2.88607185710830      0.37284487924227      0.02928252576530
  C       1.99467599879971     -1.77750740081355      0.65702606489668
  C       4.16297434440956     -0.17575424499386     -0.01605930346923
  C       4.36197108371440     -1.52400407345969      0.27407894230697
  C       3.27499589181963     -2.31865962681685      0.60961210342068
  H       2.75238982174718      1.42355666504810     -0.19968674108842
  C       6.42501301406108      0.56511612064345     -0.49805705192384
  H       0.81049555735742     -0.00188399106113      0.40074476039383
  H       1.14887328653774     -2.40286140505390      0.91956635978660
  H       5.36200237729503     -1.94250403175801      0.23601637507376
  H       3.43146446065682     -3.36786308327233      0.83511201608589
  N       5.23612166525374      0.66480939659046     -0.36082291507971
  O       7.58101770444020      0.58698593446707     -0.66199964661310
