14
Coordinates from ORCA-job orca E -400.028809553443
  C       1.806997     -0.419592      0.362265
  C       2.922676      0.352003      0.030274
  C       1.949608     -1.779650      0.662171
  C       4.193171     -0.242406     -0.001790
  C       4.343102     -1.607584      0.298593
  C       3.219814     -2.368147      0.628522
  H       2.828883      1.405482     -0.204694
  C       6.472869      0.673489     -0.531235
  H       0.825828      0.042593      0.386512
  H       1.080461     -2.375178      0.919770
  H       5.329927     -2.057214      0.271485
  H       3.338470     -3.421525      0.859683
  N       5.292558      0.545181     -0.335681
  O       7.629234      0.923148     -0.754876
14
Coordinates from ORCA-job orca E -400.031573321527
  C       1.818022     -0.421737      0.361329
  C       2.925759      0.348258      0.030581
  C       1.963299     -1.773279      0.659009
  C       4.187667     -0.241375     -0.001779
  C       4.342539     -1.596027      0.295555
  C       3.227551     -2.355213      0.624705
  H       2.829206      1.401685     -0.203807
  C       6.452741      0.658560     -0.524803
  H       0.836578      0.038152      0.386135
  H       1.096276     -2.370549      0.916660
  H       5.330348     -2.041507      0.266905
  H       3.349038     -3.407608      0.855377
  N       5.285466      0.548211     -0.335711
  O       7.589110      0.883030     -0.739156
14
Coordinates from ORCA-job orca E -400.031750337946
  C       1.818009     -0.423365      0.361754
  C       2.922326      0.349303      0.030736
  C       1.967365     -1.772830      0.658492
  C       4.183618     -0.236426     -0.002536
  C       4.343183     -1.588400      0.293498
  C       3.231709     -2.350319      0.623018
  H       2.821805      1.402605     -0.203022
  C       6.451511      0.651666     -0.522962
  H       0.835067      0.033844      0.387368
  H       1.102127     -2.372866      0.916582
  H       5.332569     -2.030624      0.263606
  H       3.356457     -3.402656      0.853332
  N       5.281375      0.556372     -0.337333
  O       7.586479      0.854298     -0.731533
14
Coordinates from ORCA-job orca E -400.031895812322
  C       1.816025     -0.425211      0.362563
  C       2.916071      0.352699      0.030619
  C       1.971960     -1.773408      0.658216
  C       4.178628     -0.227341     -0.004364
  C       4.345356     -1.577695      0.290341
  C       3.238194     -2.344814      0.620835
  H       2.809262      1.405636     -0.202173
  C       6.449641      0.640635     -0.519949
  H       0.830939      0.027617      0.389595
  H       1.109710     -2.377647      0.917087
  H       5.336919     -2.015098      0.258731
  H       3.368027     -3.396835      0.850515
  N       5.274665      0.571276     -0.340452
  O       7.588203      0.810786     -0.720566
14
Coordinates from ORCA-job orca E -400.032227805666
  C       1.809826     -0.430006      0.364976
  C       2.896837      0.364989      0.029587
  C       1.986738     -1.775394      0.657547
  C       4.165292     -0.196940     -0.011223
  C       4.354211     -1.544062      0.279838
  C       3.260244     -2.328078      0.613803
  H       2.770387      1.416397     -0.200290
  C       6.438604      0.601439     -0.508440
  H       0.818283      0.008658      0.396796
  H       1.134375     -2.392711      0.919130
  H       5.352172     -1.966680      0.242948
  H       3.406266     -3.378666      0.841314
  N       5.252927      0.621627     -0.351630
  O       7.587437      0.670027     -0.683356
14
Coordinates from ORCA-job orca E -400.032405094553
  C       1.806323     -0.432350      0.366372
  C       2.885530      0.373472      0.028854
  C       1.996346     -1.776715      0.657051
  C       4.159252     -0.176507     -0.015984
  C       4.361309     -1.523001      0.273262
  C       3.275347     -2.317822      0.609342
  H       2.747392      1.423705     -0.199421
  C       6.427101      0.572997     -0.499799
  H       0.810966     -0.002773      0.401149
  H       1.150437     -2.402133      0.920114
  H       5.362777     -1.937435      0.233365
  H       3.431544     -3.367248      0.835183
  N       5.238516      0.657424     -0.360057
  O       7.580762      0.578984     -0.658430
14
Coordinates from ORCA-job orca E -400.032491597297
  C       1.805026     -0.432502      0.366657
  C       2.883262      0.375482      0.028933
  C       1.997568     -1.777536      0.656897
  C       4.159874     -0.171311     -0.017093
  C       4.363458     -1.519028      0.272371
  C       3.278747     -2.316314      0.608566
  H       2.743932      1.425558     -0.199205
  C       6.423111      0.564199     -0.497411
  H       0.809025     -0.004873      0.401959
  H       1.153123     -2.404657      0.919872
  H       5.365159     -1.933245      0.232669
  H       3.437143     -3.365340      0.833800
  N       5.234399      0.669180     -0.362725
  O       7.579773      0.560988     -0.654288
14
Coordinates from ORCA-job orca E -400.032517041788
  C       1.805189     -0.431867      0.366386
  C       2.885292      0.373820      0.029105
  C       1.995195     -1.777669      0.657067
  C       4.162311     -0.174440     -0.016507
  C       4.362470     -1.523037      0.273641
  C       3.276070     -2.318453      0.609403
  H       2.749528      1.424278     -0.199528
  C       6.424427      0.566202     -0.498148
  H       0.809971     -0.002593      0.401222
  H       1.149728     -2.403390      0.919710
  H       5.363048     -1.940121      0.235164
  H       3.432858     -3.367573      0.834847
  N       5.235774      0.666127     -0.361686
  O       7.581740      0.579315     -0.659676
14
Coordinates from ORCA-job orca E -400.032522531408
  C       1.805441     -0.431663      0.366243
  C       2.886066      0.373040      0.029197
  C       1.994596     -1.777570      0.657096
  C       4.163065     -0.175607     -0.016220
  C       4.362070     -1.524143      0.274013
  C       3.275155     -2.318853      0.609623
  H       2.751893      1.423680     -0.199702
  C       6.424782      0.565915     -0.498132
  H       0.810446     -0.001846      0.400872
  H       1.148806     -2.402885      0.919664
  H       5.362201     -1.942369      0.235889
  H       3.431513     -3.368034      0.835130
  N       5.236095      0.664918     -0.361118
  O       7.581472      0.586016     -0.661556
14
Coordinates from ORCA-job orca E -400.032523702837
  C       1.805539     -0.431656      0.366199
  C       2.886147      0.372816      0.029256
  C       1.994610     -1.777507      0.657059
  C       4.163075     -0.175810     -0.016110
  C       4.361957     -1.524126      0.274068
  C       3.274972     -2.318728      0.609626
  H       2.752459      1.423523     -0.199724
  C       6.424960      0.565275     -0.498036
  H       0.810535     -0.001804      0.400768
  H       1.148792     -2.402820      0.919620
  H       5.361981     -1.942646      0.236000
  H       3.431370     -3.367932      0.835137
  N       5.236120      0.664729     -0.360892
  O       7.581081      0.587286     -0.661971
14
Coordinates from ORCA-job orca E -400.032523794845
  C       1.805533     -0.431675      0.366187
  C       2.886072      0.372845      0.029283
  C       1.994676     -1.777507      0.657026
  C       4.162974     -0.175754     -0.016059
  C       4.361971     -1.524004      0.274079
  C       3.274996     -2.318660      0.609612
  H       2.752390      1.423557     -0.199687
  C       6.425013      0.565116     -0.498057
  H       0.810496     -0.001884      0.400745
  H       1.148873     -2.402861      0.919566
  H       5.362002     -1.942504      0.236016
  H       3.431464     -3.367863      0.835112
  N       5.236122      0.664809     -0.360823
  O       7.581018      0.586986     -0.662000
