14
Coordinates from ORCA-job mol
  C   1.80699716960966     -0.41959153855892      0.36226529564954
  C   2.92267622206204      0.35200323650593      0.03027404979681
  C   1.94960753772094     -1.77965014451830      0.66217074927734
  C   4.19317129463800     -0.24240605209745     -0.00178953937682
  C   4.34310239087061     -1.60758381120671      0.29859299451784
  C   3.21981423892605     -2.36814726064001      0.62852245097600
  H   2.82888311450976      1.40548181493776     -0.20469399236336
  C   6.47286909032291      0.67348863807276     -0.53123521757331
  H   0.82582843853527      0.04259341587316      0.38651183828251
  H   1.08046064921482     -2.37517798728246      0.91976950480226
  H   5.32992743724600     -2.05721437367343      0.27148503347831
  H   3.33846963810395     -3.42152476241303      0.85968345584905
  N   5.29255845756385      0.54518105833033     -0.33568099016552
  O   7.62923432067611      0.92314776667038     -0.75487563315065

