17

C   0.29877100860221      0.02504658094494     -0.53448601177935
  C   1.41291557304775      0.84377313356620     -0.59434507894900
  C   0.27965554872968     -1.02483820708279      0.38474145958657
  C   2.50173631641377      0.57789369699307      0.23980937069263
  C   2.46185730749059     -0.44965826449873      1.18403520092056
  C   1.34740372270397     -1.26946447187303      1.24755460849902
  H   1.45304638766105      1.67874419806456     -1.28644555666581
  C   3.81321361559672      1.35495711609325      0.01228970562576
  H   -0.55477135603871      0.19972205036878     -1.17992190178111
  Cl  -1.12790336400887     -2.04558279403834      0.47097470758240
  H   3.30148850319951     -0.60047005748870      1.85443381018122
  H   1.29472732255489     -2.08147733919349      1.96406740929733
  N   3.49720121446981      2.20283167216332      0.89035346113323
  O   5.24590870877335      3.23715520836741      0.70401073972346
  O   4.71074544858385      1.09300400672802     -0.82365573490613
  S   5.84907778326882      2.99688258985571     -0.66608178115615
  O   5.22579625895152      3.74336088102981     -1.76803440800464

