-------------------------------------------------------------
----------------------- !PROPERTIES! ------------------------
-------------------------------------------------------------
# -----------------------------------------------------------
$ PAL_Flags
   description: The PAL Flags
   geom. index: 1
   prop. index: 1
        Diskflag:     2
# -----------------------------------------------------------
$ SCF_Energy
   description: The SCF energy
   geom. index: 1
   prop. index: 1
        SCF Energy:    -1407.7192991082
# -----------------------------------------------------------
$ DFT_Energy
   description: The DFT energy
   geom. index: 1
   prop. index: 1
   Number of Alpha Electrons                 55.0000003770 
   Number of Beta  Electrons                 55.0000003770 
   Total number of  Electrons               110.0000007540 
   Exchange energy                         -121.8257369299 
   Correlation energy                        -3.8578707873 
   Correlation energy NL                      0.0000000000 
   Exchange-Correlation energy             -125.6836077172 
   Embedding correction                       0.0000000000 
   Total DFT Energy (No VdW correction)   -1407.7192991082 
# -----------------------------------------------------------
$ VdW_Correction
   description: The Van der Waals Correction
   geom. index: 1
   prop. index: 1
        Van der Waals Correction:       -0.0074818133
# -----------------------------------------------------------
$ PAL_Flags
   description: The PAL Flags
   geom. index: 2
   prop. index: 1
        Diskflag:     2
# -----------------------------------------------------------
$ SCF_Energy
   description: The SCF energy
   geom. index: 2
   prop. index: 1
        SCF Energy:    -1407.7177169959
# -----------------------------------------------------------
$ DFT_Energy
   description: The DFT energy
   geom. index: 2
   prop. index: 1
   Number of Alpha Electrons                 55.0000214522 
   Number of Beta  Electrons                 55.0000214522 
   Total number of  Electrons               110.0000429045 
   Exchange energy                         -121.8335358305 
   Correlation energy                        -3.8591069964 
   Correlation energy NL                      0.0000000000 
   Exchange-Correlation energy             -125.6926428269 
   Embedding correction                       0.0000000000 
   Total DFT Energy (No VdW correction)   -1407.7177169959 
# -----------------------------------------------------------
$ VdW_Correction
   description: The Van der Waals Correction
   geom. index: 2
   prop. index: 1
        Van der Waals Correction:       -0.0074751527
# -----------------------------------------------------------
$ PAL_Flags
   description: The PAL Flags
   geom. index: 3
   prop. index: 1
        Diskflag:     2
# -----------------------------------------------------------
$ SCF_Energy
   description: The SCF energy
   geom. index: 3
   prop. index: 1
        SCF Energy:    -1407.7132554812
# -----------------------------------------------------------
$ DFT_Energy
   description: The DFT energy
   geom. index: 3
   prop. index: 1
   Number of Alpha Electrons                 55.0000125501 
   Number of Beta  Electrons                 55.0000125501 
   Total number of  Electrons               110.0000251003 
   Exchange energy                         -121.7939213854 
   Correlation energy                        -3.8510500419 
   Correlation energy NL                      0.0000000000 
   Exchange-Correlation energy             -125.6449714273 
   Embedding correction                       0.0000000000 
   Total DFT Energy (No VdW correction)   -1407.7132554812 
# -----------------------------------------------------------
$ VdW_Correction
   description: The Van der Waals Correction
   geom. index: 3
   prop. index: 1
        Van der Waals Correction:       -0.0073611916
# -----------------------------------------------------------
$ PAL_Flags
   description: The PAL Flags
   geom. index: 4
   prop. index: 1
        Diskflag:     2
# -----------------------------------------------------------
$ SCF_Energy
   description: The SCF energy
   geom. index: 4
   prop. index: 1
        SCF Energy:    -1407.7186096260
# -----------------------------------------------------------
$ DFT_Energy
   description: The DFT energy
   geom. index: 4
   prop. index: 1
   Number of Alpha Electrons                 54.9999987778 
   Number of Beta  Electrons                 54.9999987778 
   Total number of  Electrons               109.9999975556 
   Exchange energy                         -121.8191854220 
   Correlation energy                        -3.8563970179 
   Correlation energy NL                      0.0000000000 
   Exchange-Correlation energy             -125.6755824399 
   Embedding correction                       0.0000000000 
   Total DFT Energy (No VdW correction)   -1407.7186096260 
# -----------------------------------------------------------
$ VdW_Correction
   description: The Van der Waals Correction
   geom. index: 4
   prop. index: 1
        Van der Waals Correction:       -0.0074429012
# -----------------------------------------------------------
$ PAL_Flags
   description: The PAL Flags
   geom. index: 5
   prop. index: 1
        Diskflag:     2
# -----------------------------------------------------------
$ SCF_Energy
   description: The SCF energy
   geom. index: 5
   prop. index: 1
        SCF Energy:    -1407.7191845592
# -----------------------------------------------------------
$ DFT_Energy
   description: The DFT energy
   geom. index: 5
   prop. index: 1
   Number of Alpha Electrons                 55.0000005641 
   Number of Beta  Electrons                 55.0000005641 
   Total number of  Electrons               110.0000011282 
   Exchange energy                         -121.8288703913 
   Correlation energy                        -3.8584672234 
   Correlation energy NL                      0.0000000000 
   Exchange-Correlation energy             -125.6873376146 
   Embedding correction                       0.0000000000 
   Total DFT Energy (No VdW correction)   -1407.7191845592 
# -----------------------------------------------------------
$ VdW_Correction
   description: The Van der Waals Correction
   geom. index: 5
   prop. index: 1
        Van der Waals Correction:       -0.0074760427
# -----------------------------------------------------------
$ PAL_Flags
   description: The PAL Flags
   geom. index: 6
   prop. index: 1
        Diskflag:     2
# -----------------------------------------------------------
$ SCF_Energy
   description: The SCF energy
   geom. index: 6
   prop. index: 1
        SCF Energy:    -1407.7183884147
# -----------------------------------------------------------
$ DFT_Energy
   description: The DFT energy
   geom. index: 6
   prop. index: 1
   Number of Alpha Electrons                 54.9999946100 
   Number of Beta  Electrons                 54.9999946100 
   Total number of  Electrons               109.9999892201 
   Exchange energy                         -121.8197670530 
   Correlation energy                        -3.8562279603 
   Correlation energy NL                      0.0000000000 
   Exchange-Correlation energy             -125.6759950134 
   Embedding correction                       0.0000000000 
   Total DFT Energy (No VdW correction)   -1407.7183884147 
# -----------------------------------------------------------
$ VdW_Correction
   description: The Van der Waals Correction
   geom. index: 6
   prop. index: 1
        Van der Waals Correction:       -0.0074560600
# -----------------------------------------------------------
$ PAL_Flags
   description: The PAL Flags
   geom. index: 7
   prop. index: 1
        Diskflag:     2
# -----------------------------------------------------------
$ SCF_Energy
   description: The SCF energy
   geom. index: 7
   prop. index: 1
        SCF Energy:    -1407.7189376328
# -----------------------------------------------------------
$ DFT_Energy
   description: The DFT energy
   geom. index: 7
   prop. index: 1
   Number of Alpha Electrons                 54.9999947452 
   Number of Beta  Electrons                 54.9999947452 
   Total number of  Electrons               109.9999894904 
   Exchange energy                         -121.8228986704 
   Correlation energy                        -3.8567535864 
   Correlation energy NL                      0.0000000000 
   Exchange-Correlation energy             -125.6796522568 
   Embedding correction                       0.0000000000 
   Total DFT Energy (No VdW correction)   -1407.7189376328 
# -----------------------------------------------------------
$ VdW_Correction
   description: The Van der Waals Correction
   geom. index: 7
   prop. index: 1
        Van der Waals Correction:       -0.0074441963
# -----------------------------------------------------------
$ PAL_Flags
   description: The PAL Flags
   geom. index: 8
   prop. index: 1
        Diskflag:     2
# -----------------------------------------------------------
$ SCF_Energy
   description: The SCF energy
   geom. index: 8
   prop. index: 1
        SCF Energy:    -1407.7191179135
# -----------------------------------------------------------
$ DFT_Energy
   description: The DFT energy
   geom. index: 8
   prop. index: 1
   Number of Alpha Electrons                 54.9999913678 
   Number of Beta  Electrons                 54.9999913678 
   Total number of  Electrons               109.9999827356 
   Exchange energy                         -121.8230526203 
   Correlation energy                        -3.8562364321 
   Correlation energy NL                      0.0000000000 
   Exchange-Correlation energy             -125.6792890524 
   Embedding correction                       0.0000000000 
   Total DFT Energy (No VdW correction)   -1407.7191179135 
# -----------------------------------------------------------
$ VdW_Correction
   description: The Van der Waals Correction
   geom. index: 8
   prop. index: 1
        Van der Waals Correction:       -0.0074072328
# -----------------------------------------------------------
$ PAL_Flags
   description: The PAL Flags
   geom. index: 9
   prop. index: 1
        Diskflag:     2
# -----------------------------------------------------------
$ SCF_Energy
   description: The SCF energy
   geom. index: 9
   prop. index: 1
        SCF Energy:    -1407.7190707617
# -----------------------------------------------------------
$ DFT_Energy
   description: The DFT energy
   geom. index: 9
   prop. index: 1
   Number of Alpha Electrons                 54.9999931847 
   Number of Beta  Electrons                 54.9999931847 
   Total number of  Electrons               109.9999863693 
   Exchange energy                         -121.8169641252 
   Correlation energy                        -3.8568173653 
   Correlation energy NL                      0.0000000000 
   Exchange-Correlation energy             -125.6737814905 
   Embedding correction                       0.0000000000 
   Total DFT Energy (No VdW correction)   -1407.7190707617 
# -----------------------------------------------------------
$ VdW_Correction
   description: The Van der Waals Correction
   geom. index: 9
   prop. index: 1
        Van der Waals Correction:       -0.0074891009
# -----------------------------------------------------------
$ PAL_Flags
   description: The PAL Flags
   geom. index: 10
   prop. index: 1
        Diskflag:     2
# -----------------------------------------------------------
$ SCF_Energy
   description: The SCF energy
   geom. index: 10
   prop. index: 1
        SCF Energy:    -1407.7193600890
# -----------------------------------------------------------
$ DFT_Energy
   description: The DFT energy
   geom. index: 10
   prop. index: 1
   Number of Alpha Electrons                 54.9999984075 
   Number of Beta  Electrons                 54.9999984075 
   Total number of  Electrons               109.9999968151 
   Exchange energy                         -121.8259413443 
   Correlation energy                        -3.8580583383 
   Correlation energy NL                      0.0000000000 
   Exchange-Correlation energy             -125.6839996827 
   Embedding correction                       0.0000000000 
   Total DFT Energy (No VdW correction)   -1407.7193600890 
# -----------------------------------------------------------
$ VdW_Correction
   description: The Van der Waals Correction
   geom. index: 10
   prop. index: 1
        Van der Waals Correction:       -0.0074888734
# -----------------------------------------------------------
$ PAL_Flags
   description: The PAL Flags
   geom. index: 11
   prop. index: 1
        Diskflag:     2
# -----------------------------------------------------------
$ SCF_Energy
   description: The SCF energy
   geom. index: 11
   prop. index: 1
        SCF Energy:    -1407.7193153289
# -----------------------------------------------------------
$ DFT_Energy
   description: The DFT energy
   geom. index: 11
   prop. index: 1
   Number of Alpha Electrons                 54.9999875136 
   Number of Beta  Electrons                 54.9999875136 
   Total number of  Electrons               109.9999750272 
   Exchange energy                         -121.8218186263 
   Correlation energy                        -3.8578080301 
   Correlation energy NL                      0.0000000000 
   Exchange-Correlation energy             -125.6796266564 
   Embedding correction                       0.0000000000 
   Total DFT Energy (No VdW correction)   -1407.7193153289 
# -----------------------------------------------------------
$ VdW_Correction
   description: The Van der Waals Correction
   geom. index: 11
   prop. index: 1
        Van der Waals Correction:       -0.0074997551
# -----------------------------------------------------------
$ PAL_Flags
   description: The PAL Flags
   geom. index: 12
   prop. index: 1
        Diskflag:     2
# -----------------------------------------------------------
$ SCF_Energy
   description: The SCF energy
   geom. index: 12
   prop. index: 1
        SCF Energy:    -1407.7193066667
# -----------------------------------------------------------
$ DFT_Energy
   description: The DFT energy
   geom. index: 12
   prop. index: 1
   Number of Alpha Electrons                 54.9999968405 
   Number of Beta  Electrons                 54.9999968405 
   Total number of  Electrons               109.9999936809 
   Exchange energy                         -121.8239710655 
   Correlation energy                        -3.8577039351 
   Correlation energy NL                      0.0000000000 
   Exchange-Correlation energy             -125.6816750006 
   Embedding correction                       0.0000000000 
   Total DFT Energy (No VdW correction)   -1407.7193066667 
# -----------------------------------------------------------
$ VdW_Correction
   description: The Van der Waals Correction
   geom. index: 12
   prop. index: 1
        Van der Waals Correction:       -0.0074853654
# -----------------------------------------------------------
$ PAL_Flags
   description: The PAL Flags
   geom. index: 13
   prop. index: 1
        Diskflag:     2
# -----------------------------------------------------------
$ SCF_Energy
   description: The SCF energy
   geom. index: 13
   prop. index: 1
        SCF Energy:    -1407.7192996407
# -----------------------------------------------------------
$ DFT_Energy
   description: The DFT energy
   geom. index: 13
   prop. index: 1
   Number of Alpha Electrons                 54.9999984550 
   Number of Beta  Electrons                 54.9999984550 
   Total number of  Electrons               109.9999969099 
   Exchange energy                         -121.8246788958 
   Correlation energy                        -3.8577575924 
   Correlation energy NL                      0.0000000000 
   Exchange-Correlation energy             -125.6824364882 
   Embedding correction                       0.0000000000 
   Total DFT Energy (No VdW correction)   -1407.7192996407 
# -----------------------------------------------------------
$ VdW_Correction
   description: The Van der Waals Correction
   geom. index: 13
   prop. index: 1
        Van der Waals Correction:       -0.0074848021
# -----------------------------------------------------------
$ PAL_Flags
   description: The PAL Flags
   geom. index: 14
   prop. index: 1
        Diskflag:     2
# -----------------------------------------------------------
$ SCF_Energy
   description: The SCF energy
   geom. index: 14
   prop. index: 1
        SCF Energy:    -1407.7192975019
# -----------------------------------------------------------
$ DFT_Energy
   description: The DFT energy
   geom. index: 14
   prop. index: 1
   Number of Alpha Electrons                 54.9999980787 
   Number of Beta  Electrons                 54.9999980787 
   Total number of  Electrons               109.9999961573 
   Exchange energy                         -121.8244024349 
   Correlation energy                        -3.8577246402 
   Correlation energy NL                      0.0000000000 
   Exchange-Correlation energy             -125.6821270751 
   Embedding correction                       0.0000000000 
   Total DFT Energy (No VdW correction)   -1407.7192975019 
# -----------------------------------------------------------
$ VdW_Correction
   description: The Van der Waals Correction
   geom. index: 14
   prop. index: 1
        Van der Waals Correction:       -0.0074847047
# -----------------------------------------------------------
$ SCF_Electric_Properties
   description: The SCF Calculated Electric Properties
   geom. index: 14
   prop. index: 1
       Filename                          : mol.scfp 
       Do Dipole Moment Calculation      : true 
       Do Quadrupole Moment Calculation  : false 
       Do Polarizability Calculation     : false 
** Dipole moment part of electric properties **
        Magnitude of dipole moment (Debye) :        3.9639311809
        Electronic Contribution:
                  0    
      0       0.611044
      1      -0.120425
      2      -0.555835
        Nuclear Contribution:
                  0    
      0      -1.432432
      1      -1.183797
      2       0.793243
        Total Dipole moment:
                  0    
      0      -0.821389
      1      -1.304222
      2       0.237408
# -----------------------------------------------------------
$ PAL_Flags
   description: The PAL Flags
   geom. index: 15
   prop. index: 1
        Diskflag:     2
# -----------------------------------------------------------
$ SCF_Energy
   description: The SCF energy
   geom. index: 15
   prop. index: 1
        SCF Energy:    -1407.7192974986
# -----------------------------------------------------------
$ DFT_Energy
   description: The DFT energy
   geom. index: 15
   prop. index: 1
   Number of Alpha Electrons                 54.9999980785 
   Number of Beta  Electrons                 54.9999980785 
   Total number of  Electrons               109.9999961569 
   Exchange energy                         -121.8243995974 
   Correlation energy                        -3.8577243068 
   Correlation energy NL                      0.0000000000 
   Exchange-Correlation energy             -125.6821239042 
   Embedding correction                       0.0000000000 
   Total DFT Energy (No VdW correction)   -1407.7192974986 
# -----------------------------------------------------------
$ VdW_Correction
   description: The Van der Waals Correction
   geom. index: 15
   prop. index: 1
        Van der Waals Correction:       -0.0074847047
# -----------------------------------------------------------
$ THERMOCHEMISTRY_Energies
   description: The Thermochemistry energies
   geom. index: 15
   prop. index: 1
        Temperature (Kelvin)           :        298.1500000000
        Pressure (atm)                 :          1.0000000000
        Total Mass (AMU)               :        216.9600418485
        Spin Degeneracy                :          1.0000000000
        Electronic Energy (Hartree)    :      -1407.7101976285
        Translational Energy (Hartree) :          0.0014162714
        Rotational Energy (Hartree)    :          0.0014162714
        Vibrational Energy (Hartree)   :          0.0088264182
        Number of frequencies          :     51      
        Scaling Factor for frequencies :          1.0000000000
        Vibrational frequencies        :     
                  0    
      0       0.000000
      1       0.000000
      2       0.000000
      3       0.000000
      4       0.000000
      5       0.000000
      6     -393.960957
      7      43.536330
      8      49.792901
      9      61.841638
     10     114.409902
     11     165.038824
     12     203.586344
     13     237.131966
     14     253.641868
     15     272.899127
     16     347.694268
     17     361.097554
     18     379.673107
     19     408.662777
     20     472.331288
     21     507.487015
     22     517.709622
     23     630.292718
     24     700.869340
     25     703.100228
     26     726.760701
     27     821.379515
     28     824.915506
     29     848.174713
     30     962.006831
     31     973.641103
     32     994.377624
     33     1036.778683
     34     1097.166486
     35     1109.840986
     36     1130.127862
     37     1197.335298
     38     1207.108965
     39     1233.343741
     40     1314.924362
     41     1344.303481
     42     1426.277244
     43     1495.366126
     44     1590.531850
     45     1599.727011
     46     1807.915647
     47     3191.212861
     48     3193.919767
     49     3206.534360
     50     3207.470146
        Zero Point Energy (Hartree)    :          0.1001754450
        Inner Energy (Hartree)         :      -1407.5983632224
        Enthalpy (Hartree)             :      -1407.5974190134
        Electronic entropy             :          0.0000000000
        Rotational entropy             :          0.0152744552
        Vibrational entropy            :          0.0154051162
        Translational entropy          :          0.0152744552
        Entropy                        :          0.0506477766
        Gibbs Energy (Hartree)         :      -1407.6480667900
        Is Linear                      :                 false
# -------------------------------------------------------------
----------------------- !GEOMETRIES! ------------------------
# -------------------------------------------------------------
------------------------ !GEOMETRY! -------------------------
    Number of atoms:    17 
    Geometry Index:     1 
    Coordinates:
               0 C      0.298771008602    0.025046580945   -0.534486011779
               1 C      1.412915573048    0.843773133566   -0.594345078949
               2 C      0.279655548730   -1.024838207083    0.384741459587
               3 C      2.501736316414    0.577893696993    0.239809370693
               4 C      2.461857307491   -0.449658264499    1.184035200921
               5 C      1.347403722704   -1.269464471873    1.247554608499
               6 H      1.453046387661    1.678744198065   -1.286445556666
               7 C      3.813213615597    1.354957116093    0.012289705626
               8 H     -0.554771356039    0.199722050369   -1.179921901781
               9 Cl    -1.127903364009   -2.045582794038    0.470974707582
              10 H      3.301488503200   -0.600470057489    1.854433810181
              11 H      1.294727322555   -2.081477339193    1.964067409297
              12 N      3.497201214470    2.202831672163    0.890353461133
              13 O      5.245908708773    3.237155208367    0.704010739723
              14 O      4.710745448584    1.093004006728   -0.823655734906
              15 S      5.849077783269    2.996882589856   -0.666081781156
              16 O      5.225796258952    3.743360881030   -1.768034408005
------------------------ !GEOMETRY! -------------------------
    Number of atoms:    17 
    Geometry Index:     2 
    Coordinates:
               0 C      0.291402137997    0.042467825217   -0.510336236041
               1 C      1.405024019105    0.862917675963   -0.557697109379
               2 C      0.279299796917   -1.030529572451    0.381896216610
               3 C      2.500202273362    0.576905048941    0.261597149767
               4 C      2.467481300129   -0.474971675330    1.179180340848
               5 C      1.353617316434   -1.296681851110    1.230041127840
               6 H      1.440140692046    1.714372129041   -1.229656612321
               7 C      3.812388586086    1.355617137825    0.038969060177
               8 H     -0.566725805754    0.232731570042   -1.145240829365
               9 Cl    -1.126939048890   -2.054317078960    0.451797515181
              10 H      3.312670596866   -0.643661826337    1.838197629590
              11 H      1.306801290564   -2.127340677889    1.925309388462
              12 N      3.506638169912    2.187088502317    0.936399001603
              13 O      5.029793250440    3.370153444518    0.600521985288
              14 O      4.701660875168    1.107815346240   -0.809964507768
              15 S      5.851026908990    3.002570740140   -0.619697865474
              16 O      5.446387640626    3.656743261834   -1.872016255018
------------------------ !GEOMETRY! -------------------------
    Number of atoms:    17 
    Geometry Index:     3 
    Coordinates:
               0 C      0.237217899151    0.011636177827   -0.481284539859
               1 C      1.326524009358    0.865732890935   -0.512549000636
               2 C      0.261846011676   -1.086569190989    0.378977722204
               3 C      2.436515303126    0.589597679133    0.288329890874
               4 C      2.447546840716   -0.499845628592    1.160586037431
               5 C      1.351670203677   -1.347664395932    1.206807718548
               6 H      1.328818680514    1.738406472669   -1.157785877067
               7 C      3.724943212584    1.419162407131    0.074307801702
               8 H     -0.631421622841    0.196086861858   -1.103502061506
               9 Cl    -1.113883557088   -2.154185091431    0.427044743550
              10 H      3.310110328280   -0.674888922977    1.794986218900
              11 H      1.336925397966   -2.202426539257    1.873889730826
              12 N      3.382998492326    2.287460119527    0.924447153226
              13 O      5.211876276991    3.620216391878    0.529223987520
              14 O      4.637420153579    1.156015593668   -0.746489041763
              15 S      5.984346899007    2.979062251036   -0.617330496485
              16 O      5.777415470978    3.584082923517   -1.940359987465
------------------------ !GEOMETRY! -------------------------
    Number of atoms:    17 
    Geometry Index:     4 
    Coordinates:
               0 C      0.274005055824    0.023079567685   -0.509709604709
               1 C      1.376943814582    0.857601556741   -0.561774153294
               2 C      0.276649958589   -1.046457818984    0.386744512894
               3 C      2.477338029305    0.588349471667    0.256143750208
               4 C      2.461585150971   -0.463873156172    1.173805713434
               5 C      1.356221374563   -1.296587776112    1.233013157955
               6 H      1.399647852201    1.707066450367   -1.236727223307
               7 C      3.781186869094    1.379373820607    0.023299994600
               8 H     -0.587413160073    0.200072553648   -1.143997815726
               9 Cl    -1.116150504562   -2.088010406028    0.462358291977
              10 H      3.313011947280   -0.624487401658    1.826813878228
              11 H      1.322080244429   -2.126620333855    1.929796251238
              12 N      3.443731685377    2.245844014030    0.874883773992
              13 O      5.189301183795    3.348744528356    0.653910159755
              14 O      4.685644916588    1.108103819608   -0.801578190434
              15 S      5.905352581465    2.980185489346   -0.631538206682
              16 O      5.451733000574    3.689495620754   -1.836144290128
------------------------ !GEOMETRY! -------------------------
    Number of atoms:    17 
    Geometry Index:     5 
    Coordinates:
               0 C      0.280662089257    0.026722470723   -0.516873161831
               1 C      1.384631818184    0.859377165777   -0.579003970741
               2 C      0.284540360619   -1.034536198977    0.389164867991
               3 C      2.485293226062    0.598588831617    0.241709942316
               4 C      2.469851443696   -0.444368330021    1.170232367859
               5 C      1.365457005430   -1.277249073406    1.236469466289
               6 H      1.407174377397    1.702600740782   -1.261552372927
               7 C      3.794051765155    1.379188288940   -0.000771070605
               8 H     -0.581924572550    0.198451972426   -1.151016245908
               9 Cl    -1.108230884082   -2.074737092113    0.476971421655
              10 H      3.321510008132   -0.598670451708    1.824548150994
              11 H      1.332032486673   -2.100953446129    1.940744075872
              12 N      3.441735140308    2.261047898610    0.828001984917
              13 O      5.203056989098    3.241305899885    0.700088290433
              14 O      4.717590782867    1.078486322640   -0.792437739858
              15 S      5.881546666951    2.970346253974   -0.626702199241
              16 O      5.331891296800    3.696278746979   -1.780273807217
------------------------ !GEOMETRY! -------------------------
    Number of atoms:    17 
    Geometry Index:     6 
    Coordinates:
               0 C      0.273273778919    0.040632961801   -0.507702430698
               1 C      1.373880377685    0.879430967038   -0.554193808836
               2 C      0.286773029058   -1.042456043931    0.371245054369
               3 C      2.475657232862    0.609126350809    0.261707741047
               4 C      2.466657767804   -0.452460080604    1.169221705287
               5 C      1.371295166090   -1.297831708358    1.211354162341
               6 H      1.390577187391    1.738513218610   -1.216690550554
               7 C      3.789052313982    1.388263212910    0.032542354250
               8 H     -0.592076132058    0.222356331107   -1.135261958081
               9 Cl    -1.098393062190   -2.094199820967    0.437276197881
              10 H      3.319429351272   -0.616242749253    1.820036568935
              11 H      1.345575644843   -2.139714318841    1.894137053131
              12 N      3.389559982737    2.306447599100    0.796993694699
              13 O      5.261064219527    3.339733726794    0.669526566232
              14 O      4.769101491324    1.028617661150   -0.658967432752
              15 S      5.896201971347    2.972152301596   -0.653830880096
              16 O      5.293239679407    3.599510391039   -1.838094037156
------------------------ !GEOMETRY! -------------------------
    Number of atoms:    17 
    Geometry Index:     7 
    Coordinates:
               0 C      0.270594857539    0.033531412644   -0.506995635133
               1 C      1.369052450884    0.874698288719   -0.555904849858
               2 C      0.284612153032   -1.044459008766    0.378419012368
               3 C      2.473023107641    0.606371126343    0.257771993946
               4 C      2.465152825203   -0.450424845079    1.171210864615
               5 C      1.369157003978   -1.294551688850    1.220068103922
               6 H      1.384976414891    1.730380332404   -1.222789510817
               7 C      3.784997540459    1.384503868409    0.020938453032
               8 H     -0.594578787352    0.210924746745   -1.135985104232
               9 Cl    -1.099624217441   -2.096709629426    0.450003191922
              10 H      3.319034963601   -0.611348917960    1.821171721721
              11 H      1.344057006987   -2.132882567638    1.907239911553
              12 N      3.402085266127    2.279406157146    0.820142123023
              13 O      5.220482057308    3.329994293002    0.665337237336
              14 O      4.735913037215    1.053733280843   -0.723266655045
              15 S      5.906109792425    2.971722713534   -0.634778144802
              16 O      5.375824527503    3.636990437929   -1.833282713548
------------------------ !GEOMETRY! -------------------------
    Number of atoms:    17 
    Geometry Index:     8 
    Coordinates:
               0 C      0.261241031785    0.027754656155   -0.502387554538
               1 C      1.351919552845    0.878966713486   -0.546769250865
               2 C      0.284365698811   -1.053645701082    0.378816836229
               3 C      2.459503130267    0.614329612528    0.263458894765
               4 C      2.460810052996   -0.446598350999    1.173039537289
               5 C      1.371410340640   -1.298787289846    1.219267868364
               6 H      1.360533695681    1.738308744795   -1.209024958007
               7 C      3.772888342656    1.389378778426    0.016395817717
               8 H     -0.605702574516    0.201017121882   -1.130066177401
               9 Cl    -1.090934010148   -2.116937565030    0.447018811466
              10 H      3.317251763851   -0.604957456129    1.820198261202
              11 H      1.353460837932   -2.140668110495    1.902325332518
              12 N      3.376186283669    2.271983755322    0.820209043358
              13 O      5.227416676315    3.351428691878    0.652862898967
              14 O      4.714636165545    1.063254448972   -0.738978237951
              15 S      5.935626451627    2.967067870231   -0.624820806301
              16 O      5.460256560042    3.639984079905   -1.842246316814
------------------------ !GEOMETRY! -------------------------
    Number of atoms:    17 
    Geometry Index:     9 
    Coordinates:
               0 C      0.292300760689    0.026135142449   -0.531489356571
               1 C      1.402900585959    0.852098054566   -0.585744216982
               2 C      0.281694767301   -1.032793806171    0.375864653274
               3 C      2.492292368511    0.591790676010    0.248636249232
               4 C      2.456822178419   -0.442376067645    1.185949545584
               5 C      1.351930513283   -1.276427171357    1.235932023873
               6 H      1.437203566042    1.692476966263   -1.271390891112
               7 C      3.808510469931    1.367597613564    0.026764956742
               8 H     -0.563226070584    0.200969863128   -1.174336927132
               9 Cl    -1.117458984874   -2.067129463273    0.452530506245
              10 H      3.295250472848   -0.591810782697    1.858278016329
              11 H      1.306578329378   -2.096915900410    1.943374197110
              12 N      3.506970550785    2.239051785851    0.889722438254
              13 O      5.287139408169    3.250493376382    0.699103610279
              14 O      4.722267636652    1.077855987603   -0.784331149778
              15 S      5.854934484296    2.988056250182   -0.684293200753
              16 O      5.194758963194    3.702807475554   -1.785270454594
------------------------ !GEOMETRY! -------------------------
    Number of atoms:    17 
    Geometry Index:     10 
    Coordinates:
               0 C      0.294961373607    0.024908869334   -0.532056411101
               1 C      1.405934116933    0.848888428404   -0.592247803165
               2 C      0.282599625739   -1.027312617990    0.383935406891
               3 C      2.496684493359    0.588386110640    0.240328487775
               4 C      2.462605528804   -0.441449711955    1.183033585529
               5 C      1.352960958097   -1.267855278958    1.245067182941
               6 H      1.441418509665    1.684655637695   -1.283675099163
               7 C      3.812133119557    1.360857601061    0.010359700635
               8 H     -0.560328232077    0.196815288463   -1.175936219581
               9 Cl    -1.118132200054   -2.057777317384    0.468473567821
              10 H      3.302988925750   -0.589651010995    1.853074577740
              11 H      1.305856156448   -2.082649967563    1.958899474844
              12 N      3.499375696657    2.217221650425    0.881961579633
              13 O      5.253107165605    3.220522890463    0.707887250173
              14 O      4.711334915990    1.086499399098   -0.819090776054
              15 S      5.851171904979    2.989803394660   -0.665719234537
              16 O      5.216197940937    3.730016634601   -1.764995270382
------------------------ !GEOMETRY! -------------------------
    Number of atoms:    17 
    Geometry Index:     11 
    Coordinates:
               0 C      0.312199904635    0.005799610990   -0.555284468515
               1 C      1.431189855538    0.817814911168   -0.623644126303
               2 C      0.275337275847   -1.018597044931    0.391728079994
               3 C      2.509593284399    0.568957346946    0.227970389588
               4 C      2.453440800422   -0.435470478124    1.195889827019
               5 C      1.330588173351   -1.244357206649    1.273441632729
               6 H      1.483923237129    1.631309780289   -1.340413332830
               7 C      3.824596827059    1.341944257304   -0.004148139235
               8 H     -0.531576434960    0.166172536139   -1.217199813726
               9 Cl    -1.138638004432   -2.031052954132    0.486331492300
              10 H      3.282726307742   -0.570204573457    1.882101233506
              11 H      1.263122267698   -2.033799197259    2.013612243718
              12 N      3.593640206949    2.140974009003    0.946418300321
              13 O      5.328951427818    3.141777792383    0.733288273339
              14 O      4.654585895774    1.145226830968   -0.925475996898
              15 S      5.820290479105    3.013092204382   -0.698584219085
              16 O      5.116898495926    3.842292174980   -1.686731375923
------------------------ !GEOMETRY! -------------------------
    Number of atoms:    17 
    Geometry Index:     12 
    Coordinates:
               0 C      0.296041417904    0.021706588567   -0.534151955602
               1 C      1.407082350713    0.845368879376   -0.593914271506
               2 C      0.280904938344   -1.028024961797    0.384943880486
               3 C      2.496285026867    0.585995040672    0.241288147398
               4 C      2.460215870099   -0.442237283598    1.185491137248
               5 C      1.349218529529   -1.267081189473    1.248686236090
               6 H      1.444334085830    1.678692545790   -1.288162138384
               7 C      3.810515915356    1.360143193665    0.009635226747
               8 H     -0.557351779624    0.191756902938   -1.181071474229
               9 Cl    -1.120960714581   -2.056985600820    0.469062903628
              10 H      3.300140021176   -0.590304523875    1.856054522639
              11 H      1.300090560665   -2.079872358707    1.964638237769
              12 N      3.507557617974    2.209123511704    0.892154432490
              13 O      5.266939232134    3.220937899177    0.708683744502
              14 O      4.700873933646    1.094494350901   -0.832419391595
              15 S      5.852516515477    2.992304428124   -0.671047501025
              16 O      5.216466478491    3.745862577355   -1.760571736657
------------------------ !GEOMETRY! -------------------------
    Number of atoms:    17 
    Geometry Index:     13 
    Coordinates:
               0 C      0.295428152124    0.025570702695   -0.531002399282
               1 C      1.405786493536    0.850313378866   -0.587917044794
               2 C      0.282220855461   -1.028662319542    0.382965837586
               3 C      2.496126010804    0.587396048989    0.244834688274
               4 C      2.461712540395   -0.444848528626    1.184629327320
               5 C      1.351768827794   -1.271191532921    1.244402576058
               6 H      1.441543702473    1.687283089714   -1.277806097964
               7 C      3.810192465601    1.361504028071    0.013747833708
               8 H     -0.558966302647    0.198312091965   -1.175878637893
               9 Cl    -1.119046285823   -2.058458472267    0.464275429270
              10 H      3.302681221527   -0.595856608255    1.853289525483
              11 H      1.304169468560   -2.087670095125    1.956247537486
              12 N      3.494431392641    2.220555416331    0.881479438444
              13 O      5.255098919003    3.234447661571    0.702074678787
              14 O      4.710368242352    1.084837618854   -0.813990945320
              15 S      5.853658854936    2.990575718760   -0.668910032784
              16 O      5.223695441264    3.727771800922   -1.773141714379
------------------------ !GEOMETRY! -------------------------
    Number of atoms:    17 
    Geometry Index:     14 
    Coordinates:
               0 C      0.295749282469    0.024931171103   -0.531594725803
               1 C      1.406105646091    0.849664863281   -0.588449077786
               2 C      0.282025311351   -1.028708570600    0.383080078128
               3 C      2.495976169575    0.587413879936    0.245218752969
               4 C      2.461097015154   -0.444330778211    1.185478450769
               5 C      1.351116631026   -1.270705030023    1.245167607064
               6 H      1.442195345071    1.686103720286   -1.278947178941
               7 C      3.809968230296    1.361541075257    0.013374795652
               8 H     -0.558231900871    0.197133982553   -1.177166496933
               9 Cl    -1.119171953581   -2.058655399875    0.463973734945
              10 H      3.301815055315   -0.595048241017    1.854512998932
              11 H      1.303207723987   -2.086819848024    1.957406899249
              12 N      3.497174916991    2.218647421313    0.884190484993
              13 O      5.257904238249    3.232529417529    0.702361519472
              14 O      4.707991419003    1.086381806163   -0.817304106855
              15 S      5.853585784953    2.990715133584   -0.670305772019
              16 O      5.222361084922    3.731085396747   -1.771697963835
------------------------ !GEOMETRY! -------------------------
    Number of atoms:    17 
    Geometry Index:     15 
    Coordinates:
               0 C      0.295749282469    0.024931171103   -0.531594725803
               1 C      1.406105646091    0.849664863281   -0.588449077786
               2 C      0.282025311351   -1.028708570600    0.383080078128
               3 C      2.495976169575    0.587413879936    0.245218752969
               4 C      2.461097015154   -0.444330778211    1.185478450769
               5 C      1.351116631026   -1.270705030023    1.245167607064
               6 H      1.442195345071    1.686103720286   -1.278947178941
               7 C      3.809968230296    1.361541075257    0.013374795652
               8 H     -0.558231900871    0.197133982553   -1.177166496933
               9 Cl    -1.119171953581   -2.058655399875    0.463973734945
              10 H      3.301815055315   -0.595048241017    1.854512998932
              11 H      1.303207723987   -2.086819848024    1.957406899249
              12 N      3.497174916991    2.218647421313    0.884190484993
              13 O      5.257904238249    3.232529417529    0.702361519472
              14 O      4.707991419003    1.086381806163   -0.817304106855
              15 S      5.853585784953    2.990715133584   -0.670305772019
              16 O      5.222361084922    3.731085396747   -1.771697963835
