17
Coordinates from ORCA-job mol E -1407.758513066363
  C       0.628130     -1.409130      0.023040
  C       1.379150     -0.807520     -0.977600
  C       0.642610     -0.868320      1.303240
  C       2.137690      0.328360     -0.694600
  C       2.145990      0.864310      0.596750
  C       1.396040      0.263360      1.597220
  H       1.381630     -1.214280     -1.983260
  C       3.610080      1.837070     -1.917230
  Cl     -0.256390     -3.108960     -0.513420
  H      -0.185650     -1.391010      2.278550
  H       2.738230      1.747850      0.815190
  H       1.397400      0.672490      2.601690
  N       2.878400      0.901110     -1.729920
  O       4.332230      2.706270     -2.241720
  O       4.179260      3.818300      0.800100
  S       5.522170      4.003460      0.223730
  O       6.486120      2.908050      0.390960
17
Coordinates from ORCA-job mol E -1407.789228619876
  C       0.632880     -1.402649      0.029201
  C       1.376741     -0.814179     -0.979224
  C       0.634555     -0.878830      1.305532
  C       2.132938      0.322384     -0.692559
  C       2.139771      0.857316      0.599732
  C       1.386591      0.252214      1.597543
  H       1.377345     -1.224205     -1.983347
  C       3.603596      1.830178     -1.914062
  Cl     -0.236250     -3.033320     -0.453513
  H      -0.113706     -1.362702      2.180174
  H       2.731430      1.741038      0.819275
  H       1.385219      0.659363      2.602314
  N       2.872303      0.893847     -1.727160
  O       4.325035      2.699330     -2.237846
  O       4.171537      3.811848      0.803969
  S       5.514471      3.997456      0.227666
  O       6.478635      2.902322      0.395026
17
Coordinates from ORCA-job mol E -1407.808370773885
  C       0.635150     -1.402746      0.030897
  C       1.375161     -0.821852     -0.984703
  C       0.623371     -0.892550      1.311052
  C       2.128528      0.315891     -0.692134
  C       2.134039      0.849874      0.601067
  C       1.378437      0.241122      1.595367
  H       1.375660     -1.232463     -1.987688
  C       3.598714      1.825807     -1.911081
  Cl     -0.223075     -2.960263     -0.386018
  H      -0.044893     -1.335352      2.090409
  H       2.725011      1.733851      0.821496
  H       1.376760      0.649239      2.600097
  N       2.867888      0.888486     -1.725718
  O       4.319572      2.695672     -2.233462
  O       4.163888      3.805777      0.808956
  S       5.507057      3.992791      0.233646
  O       6.471823      2.898127      0.400537
17
Coordinates from ORCA-job mol E -1407.811313610591
  C       0.646451     -1.415620      0.028038
  C       1.385053     -0.834911     -0.991287
  C       0.614725     -0.907179      1.313802
  C       2.129341      0.307807     -0.693804
  C       2.130403      0.843099      0.598640
  C       1.369320      0.233063      1.586580
  H       1.388641     -1.245149     -1.993718
  C       3.597461      1.823154     -1.909626
  Cl     -0.242900     -2.851351     -0.333640
  H       0.002833     -1.354104      2.061678
  H       2.719184      1.728194      0.819490
  H       1.364814      0.645940      2.590222
  N       2.868989      0.883502     -1.726181
  O       4.316348      2.695187     -2.230800
  O       4.156302      3.804772      0.810889
  S       5.499917      3.994139      0.237515
  O       6.466208      2.900867      0.404922
17
Coordinates from ORCA-job mol E -1407.812065376084
  C       0.645793     -1.419778      0.026409
  C       1.389305     -0.835664     -0.989349
  C       0.617287     -0.904619      1.312730
  C       2.133179      0.307206     -0.692283
  C       2.132308      0.845068      0.598691
  C       1.370625      0.235535      1.585744
  H       1.395557     -1.246045     -1.991887
  C       3.600835      1.822910     -1.909102
  Cl     -0.283227     -2.861858     -0.350570
  H       0.008558     -1.370494      2.081237
  H       2.719962      1.730969      0.818721
  H       1.364805      0.649911      2.588962
  N       2.873347      0.882722     -1.724941
  O       4.319066      2.695295     -2.231284
  O       4.157018      3.811403      0.808416
  S       5.500858      4.000576      0.235581
  O       6.467813      2.908274      0.405645
17
Coordinates from ORCA-job mol E -1407.812119496553
  C       0.641342     -1.420143      0.023508
  C       1.388623     -0.835542     -0.989698
  C       0.616781     -0.905100      1.312217
  C       2.134461      0.305425     -0.691456
  C       2.132364      0.845016      0.598536
  C       1.371836      0.233541      1.584848
  H       1.397020     -1.246541     -1.992092
  C       3.603664      1.819921     -1.908476
  Cl     -0.298501     -2.852826     -0.349118
  H       0.019635     -1.379131      2.083122
  H       2.718943      1.731682      0.817824
  H       1.366277      0.648190      2.588162
  N       2.876369      0.879705     -1.724047
  O       4.322118      2.692062     -2.231091
  O       4.155137      3.816194      0.806190
  S       5.499730      4.005056      0.235098
  O       6.467290      2.913902      0.409194
17
Coordinates from ORCA-job mol E -1407.812128922367
  C       0.638447     -1.420321      0.021629
  C       1.386740     -0.834382     -0.989837
  C       0.617108     -0.905542      1.311871
  C       2.133858      0.305310     -0.691057
  C       2.131864      0.845604      0.598466
  C       1.372580      0.232048      1.584538
  H       1.396094     -1.245590     -1.992296
  C       3.605637      1.817420     -1.908072
  Cl     -0.304238     -2.849544     -0.348173
  H       0.025394     -1.384203      2.083866
  H       2.718095      1.732572      0.817162
  H       1.367244      0.646517      2.588016
  N       2.877805      0.877684     -1.723586
  O       4.324947      2.688879     -2.230739
  O       4.154505      3.820062      0.804340
  S       5.499790      4.007825      0.234588
  O       6.467220      2.917072      0.412003
17
Coordinates from ORCA-job mol E -1407.812129692636
  C       0.638187     -1.420701      0.021412
  C       1.386393     -0.834208     -0.989636
  C       0.617269     -0.905663      1.311809
  C       2.133695      0.305329     -0.690820
  C       2.131810      0.845718      0.598613
  C       1.372496      0.231726      1.584615
  H       1.395644     -1.245194     -1.992226
  C       3.605722      1.817070     -1.907856
  Cl     -0.304434     -2.850094     -0.348278
  H       0.025386     -1.384313      2.083299
  H       2.718070      1.732686      0.817165
  H       1.367031      0.646168      2.588110
  N       2.877882      0.877306     -1.723492
  O       4.325088      2.688552     -2.230321
  O       4.155030      3.821145      0.804170
  S       5.500307      4.008401      0.234260
  O       6.467513      2.917483      0.411895
