19
Coordinates from ORCA-job mol E -1152.629409020878
  C      -0.034279      0.128055      0.062758
  C       0.919495      1.086631     -0.241060
  C       0.396228     -1.123633      0.488250
  C       2.269087      0.769633     -0.081900
  C       2.692717     -0.500958      0.311381
  C       1.739799     -1.459836      0.615338
  H       0.630992      2.072068     -0.590735
  C       3.324238      1.913952     -0.155568
  H      -1.094276      0.329601     -0.034865
  N      -0.624407     -2.153622      0.804048
  H       3.752616     -0.720954      0.383761
  H       2.018642     -2.456649      0.935279
  N       3.488260      1.698046     -1.385127
  O       4.793916      3.250393     -1.609272
  O       3.712105      2.619989      0.795993
  S       5.467363      3.577331     -0.293302
  O       6.532050      2.655962      0.122619
  O      -1.797869     -1.838310      0.670013
  O      -0.220859     -3.245303      1.177338
19
Coordinates from ORCA-job mol E -1152.628244528995
  C      -0.050387      0.130499      0.088694
  C       0.897546      1.089599     -0.229733
  C       0.388377     -1.125977      0.492386
  C       2.249770      0.767474     -0.103603
  C       2.681429     -0.507913      0.265927
  C       1.734019     -1.467036      0.584266
  H       0.602452      2.079154     -0.562509
  C       3.304571      1.910849     -0.186877
  H      -1.111623      0.336617      0.018067
  N      -0.626346     -2.156739      0.822317
  H       3.742329     -0.731052      0.311452
  H       2.019748     -2.466984      0.887958
  N       3.435133      1.708999     -1.422049
  O       4.960487      3.048338     -1.631638
  O       3.716942      2.603160      0.765455
  S       5.465965      3.607195     -0.318900
  O       6.576805      2.869826      0.297324
  O      -1.802915     -1.840238      0.719672
  O      -0.218484     -3.253375      1.176740
19
Coordinates from ORCA-job mol E -1152.629938183291
  C      -0.068532      0.128417      0.115672
  C       0.885097      1.065337     -0.250050
  C       0.364181     -1.129823      0.520189
  C       2.234394      0.713320     -0.170757
  C       2.657647     -0.572346      0.173815
  C       1.705904     -1.499607      0.561972
  H       0.596929      2.060957     -0.569369
  C       3.314597      1.837616     -0.243888
  H      -1.126591      0.359442      0.085614
  N      -0.654921     -2.136437      0.898107
  H       3.713524     -0.822050      0.167374
  H       1.987598     -2.501252      0.863414
  N       3.446160      1.559808     -1.457855
  O       5.209315      3.181349     -1.645842
  O       3.701682      2.546349      0.703499
  S       5.467834      3.723938     -0.257567
  O       6.618866      3.145724      0.453244
  O      -1.830593     -1.810982      0.806672
  O      -0.257270     -3.247368      1.220707
19
Coordinates from ORCA-job mol E -1152.629472864454
  C      -0.053107      0.127096      0.088710
  C       0.900952      1.077020     -0.238794
  C       0.378644     -1.127588      0.505653
  C       2.250985      0.745406     -0.109940
  C       2.675788     -0.531117      0.264383
  C       1.722242     -1.477878      0.599375
  H       0.611989      2.066667     -0.576556
  C       3.315552      1.880326     -0.194280
  H      -1.112674      0.341430      0.017430
  N      -0.642029     -2.147988      0.846000
  H       3.735016     -0.762741      0.307678
  H       2.003076     -2.476465      0.911885
  N       3.463802      1.639182     -1.418616
  O       4.976049      3.240532     -1.642953
  O       3.715289      2.585387      0.753633
  S       5.484017      3.655301     -0.278945
  O       6.598992      2.859318      0.253113
  O      -1.816738     -1.836889      0.708531
  O      -0.242026     -3.254605      1.178645
19
Coordinates from ORCA-job mol E -1152.628605353923
  C      -0.040001      0.127241      0.060906
  C       0.912438      1.083307     -0.252189
  C       0.393595     -1.126304      0.479776
  C       2.262460      0.759953     -0.104042
  C       2.689918     -0.515972      0.269128
  C       1.737875     -1.468590      0.591362
  H       0.622200      2.072416     -0.590554
  C       3.318135      1.900612     -0.173021
  H      -1.099841      0.335136     -0.024003
  N      -0.625598     -2.155286      0.799015
  H       3.749920     -0.741065      0.326046
  H       2.020178     -2.466562      0.904561
  N       3.525668      1.637507     -1.385101
  O       4.852533      3.285220     -1.602492
  O       3.675576      2.634052      0.771034
  S       5.472465      3.604775     -0.260351
  O       6.521858      2.678457      0.186541
  O      -1.799577     -1.816754      0.745670
  O      -0.223982     -3.225750      1.232664
19
Coordinates from ORCA-job mol E -1152.630060111766
  C      -0.035833      0.136985      0.079944
  C       0.913006      1.083365     -0.269004
  C       0.401364     -1.115192      0.501650
  C       2.264082      0.753875     -0.141330
  C       2.694766     -0.524590      0.222343
  C       1.745441     -1.466726      0.581668
  H       0.620254      2.072356     -0.605901
  C       3.315302      1.902688     -0.188629
  H      -1.095890      0.351618      0.018626
  N      -0.616348     -2.135275      0.853541
  H       3.754255     -0.756111      0.251695
  H       2.030130     -2.463997      0.894813
  N       3.562414      1.556465     -1.368347
  O       4.892999      3.311773     -1.590722
  O       3.595283      2.698780      0.727291
  S       5.467038      3.603710     -0.227872
  O       6.464065      2.635511      0.251569
  O      -1.792794     -1.813938      0.759117
  O      -0.213718     -3.228903      1.224496
19
Coordinates from ORCA-job mol E -1152.629645647144
  C      -0.033074      0.131545      0.063670
  C       0.920820      1.085983     -0.248781
  C       0.398044     -1.118801      0.495581
  C       2.269658      0.764284     -0.085068
  C       2.695507     -0.508654      0.301036
  C       1.741250     -1.460440      0.619777
  H       0.632561      2.072178     -0.597344
  C       3.322719      1.906396     -0.159948
  H      -1.092127      0.338831     -0.031524
  N      -0.623601     -2.144834      0.817139
  H       3.755046     -0.732017      0.369626
  H       2.021929     -2.455912      0.942185
  N       3.499917      1.649323     -1.377209
  O       4.800772      3.322481     -1.598402
  O       3.694840      2.635596      0.781261
  S       5.476811      3.585709     -0.273502
  O       6.508397      2.611432      0.109386
  O      -1.798273     -1.837059      0.669446
  O      -0.225376     -3.243649      1.177620
19
Coordinates from ORCA-job mol E -1152.629319904857
  C      -0.033275      0.125595      0.045159
  C       0.914431      1.101568     -0.219572
  C       0.405199     -1.120906      0.477861
  C       2.262886      0.802951     -0.017921
  C       2.696030     -0.460069      0.388724
  C       1.749607     -1.436941      0.649689
  H       0.621253      2.082273     -0.578857
  C       3.313387      1.936504     -0.137379
  H      -1.091767      0.312879     -0.089454
  N      -0.607158     -2.167395      0.757796
  H       3.756112     -0.662413      0.503711
  H       2.037202     -2.429154      0.976090
  N       3.452126      1.763964     -1.379033
  O       4.715598      3.311099     -1.599452
  O       3.770142      2.614134      0.810327
  S       5.497831      3.501544     -0.314954
  O       6.491987      2.458645     -0.028481
  O      -1.783566     -1.874311      0.593356
  O      -0.202205     -3.257573      1.137339
19
Coordinates from ORCA-job mol E -1152.629083505064
  C      -0.037043      0.123203      0.036553
  C       0.922108      1.083191     -0.247465
  C       0.389418     -1.122188      0.482960
  C       2.267135      0.767712     -0.050574
  C       2.689422     -0.499278      0.356535
  C       1.731412     -1.453879      0.651268
  H       0.639352      2.065605     -0.610005
  C       3.336648      1.886929     -0.135713
  H      -1.093428      0.323768     -0.094798
  N      -0.632805     -2.154023      0.775829
  H       3.747591     -0.717545      0.460356
  H       2.010154     -2.444784      0.988982
  N       3.416945      1.756590     -1.385501
  O       4.725693      3.311726     -1.585875
  O       3.843080      2.492465      0.833209
  S       5.460772      3.581265     -0.287417
  O       6.595144      2.686931     -0.015969
  O      -1.806886     -1.844418      0.626448
  O      -0.238894     -3.240877      1.176126
19
Coordinates from ORCA-job mol E -1152.629432320823
  C      -0.036248      0.125878      0.049670
  C       0.916373      1.091073     -0.237197
  C       0.397399     -1.121839      0.483441
  C       2.264548      0.780793     -0.052201
  C       2.693114     -0.485775      0.351707
  C       1.741210     -1.450098      0.637505
  H       0.626464      2.074024     -0.592816
  C       3.322601      1.912941     -0.146793
  H      -1.094538      0.324026     -0.069703
  N      -0.619714     -2.157493      0.781553
  H       3.752516     -0.698946      0.449922
  H       2.025578     -2.442722      0.965407
  N       3.442104      1.748980     -1.389855
  O       4.755733      3.279850     -1.601445
  O       3.775043      2.579364      0.809541
  S       5.475930      3.550111     -0.295642
  O       6.542186      2.594571      0.036384
  O      -1.795335     -1.853862      0.632396
  O      -0.219145     -3.248484      1.163076
19
Coordinates from ORCA-job mol E -1152.629465033202
  C      -0.034996      0.126716      0.051771
  C       0.917154      1.089968     -0.242761
  C       0.398983     -1.120928      0.485708
  C       2.265801      0.778202     -0.064450
  C       2.694691     -0.488605      0.338472
  C       1.742988     -1.450958      0.632402
  H       0.626268      2.072863     -0.597904
  C       3.321165      1.914519     -0.151812
  H      -1.093542      0.327079     -0.061461
  N      -0.618087     -2.154446      0.790977
  H       3.754325     -0.703495      0.430029
  H       2.028232     -2.443476      0.959789
  N       3.459568      1.739337     -1.391094
  O       4.761653      3.287510     -1.597378
  O       3.753842      2.594922      0.803859
  S       5.472804      3.547925     -0.284392
  O       6.526158      2.580689      0.055766
  O      -1.793952     -1.850004      0.645234
  O      -0.217236     -3.245426      1.172195
19
Coordinates from ORCA-job mol E -1152.629484075393
  C      -0.036170      0.127982      0.057007
  C       0.914417      1.091747     -0.240870
  C       0.399861     -1.120627      0.486264
  C       2.263774      0.779335     -0.069953
  C       2.694818     -0.487867      0.328821
  C       1.744547     -1.451324      0.624362
  H       0.621550      2.074886     -0.593764
  C       3.317314      1.916864     -0.159362
  H      -1.095148      0.329460     -0.050103
  N      -0.615715     -2.154105      0.795870
  H       3.754903     -0.703364      0.413486
  H       2.032022     -2.444548      0.947614
  N       3.468595      1.729445     -1.395285
  O       4.780824      3.267343     -1.601455
  O       3.736660      2.611966      0.792228
  S       5.470720      3.546333     -0.280412
  O       6.518297      2.583134      0.088384
  O      -1.792281     -1.849240      0.656636
  O      -0.213172     -3.245027      1.175484
19
Coordinates from ORCA-job mol E -1152.629496666706
  C      -0.035826      0.129783      0.061440
  C       0.915434      1.091138     -0.241814
  C       0.399287     -1.120155      0.488201
  C       2.264817      0.775115     -0.077448
  C       2.694942     -0.493646      0.317115
  C       1.743716     -1.454602      0.618369
  H       0.622837      2.075207     -0.592374
  C       3.318524      1.912624     -0.164373
  H      -1.094719      0.334775     -0.039651
  N      -0.617312     -2.151084      0.802600
  H       3.754862     -0.712422      0.394319
  H       2.030942     -2.448778      0.938862
  N       3.482660      1.713192     -1.396250
  O       4.791628      3.257975     -1.603452
  O       3.725589      2.618555      0.784693
  S       5.461947      3.555003     -0.275877
  O       6.515888      2.606652      0.113401
  O      -1.793687     -1.844184      0.666138
  O      -0.215711     -3.242755      1.181050
19
Coordinates from ORCA-job mol E -1152.629501267903
  C      -0.035534      0.130442      0.063722
  C       0.916972      1.089659     -0.242158
  C       0.397908     -1.120551      0.489303
  C       2.266135      0.770596     -0.081165
  C       2.694423     -0.499431      0.311260
  C       1.741821     -1.458124      0.615703
  H       0.625463      2.074588     -0.591226
  C       3.320793      1.907312     -0.167239
  H      -1.094207      0.337951     -0.034523
  N      -0.620231     -2.149314      0.805929
  H       3.754050     -0.720781      0.384869
  H       2.027789     -2.453019      0.935080
  N       3.487407      1.705293     -1.398250
  O       4.798822      3.255741     -1.604917
  O       3.723905      2.616541      0.781216
  S       5.457098      3.565686     -0.274202
  O       6.519601      2.631405      0.125730
  O      -1.796192     -1.840351      0.670569
  O      -0.220206     -3.241250      1.185250
19
Coordinates from ORCA-job mol E -1152.629501954425
  C      -0.033980      0.131821      0.065124
  C       0.920532      1.088329     -0.242511
  C       0.396779     -1.120362      0.490199
  C       2.269167      0.765392     -0.083556
  C       2.694632     -0.506307      0.306398
  C       1.739872     -1.461876      0.614015
  H       0.631066      2.074375     -0.590124
  C       3.324910      1.901113     -0.166859
  H      -1.092252      0.342241     -0.031309
  N      -0.623762     -2.146364      0.808334
  H       3.753783     -0.730845      0.377050
  H       2.023625     -2.457568      0.932878
  N       3.492782      1.696358     -1.396923
  O       4.796541      3.251929     -1.605123
  O       3.725392      2.611309      0.781717
  S       5.448615      3.577183     -0.275362
  O       6.523203      2.659844      0.131429
  O      -1.798909     -1.835585      0.670301
  O      -0.226177     -3.238594      1.189272
19
Coordinates from ORCA-job mol E -1152.629504004754
  C      -0.034267      0.131532      0.065659
  C       0.920206      1.088234     -0.241573
  C       0.396546     -1.120837      0.490075
  C       2.268911      0.765392     -0.083066
  C       2.694334     -0.506223      0.307019
  C       1.739659     -1.462236      0.613693
  H       0.630644      2.074324     -0.588990
  C       3.324436      1.901218     -0.167922
  H      -1.092564      0.341867     -0.030677
  N      -0.623910     -2.146996      0.807958
  H       3.753505     -0.730662      0.377727
  H       2.023480     -2.458042      0.932138
  N       3.493091      1.698224     -1.398422
  O       4.799525      3.253653     -1.606507
  O       3.724785      2.612120      0.780387
  S       5.449867      3.577259     -0.275211
  O       6.522996      2.658659      0.132449
  O      -1.799077     -1.836658      0.668998
  O      -0.226350     -3.238434      1.191215
19
Coordinates from ORCA-job mol E -1152.629504347576
  C      -0.034278      0.130933      0.063542
  C       0.920340      1.087608     -0.243377
  C       0.396436     -1.120727      0.490047
  C       2.268927      0.765345     -0.082739
  C       2.694324     -0.505914      0.308709
  C       1.739558     -1.461535      0.615974
  H       0.631068      2.073374     -0.591931
  C       3.324702      1.901239     -0.165716
  H      -1.092546      0.340641     -0.034461
  N      -0.624059     -2.146966      0.807568
  H       3.753478     -0.729953      0.381066
  H       2.023141     -2.456852      0.936167
  N       3.488303      1.701577     -1.397374
  O       4.794790      3.259935     -1.604078
  O       3.729419      2.606537      0.784646
  S       5.451816      3.576938     -0.274822
  O       6.526082      2.655650      0.123643
  O      -1.799174     -1.836891      0.667665
  O      -0.226509     -3.238546      1.190421
19
Coordinates from ORCA-job mol E -1152.629504431776
  C      -0.034190      0.131066      0.063990
  C       0.920523      1.087637     -0.242931
  C       0.396390     -1.120800      0.490054
  C       2.269105      0.765074     -0.082734
  C       2.694343     -0.506320      0.308313
  C       1.739468     -1.461908      0.615451
  H       0.631327      2.073512     -0.591246
  C       3.324721      1.900980     -0.166137
  H      -1.092438      0.341020     -0.033717
  N      -0.624223     -2.146884      0.807693
  H       3.753476     -0.730603      0.380237
  H       2.022988     -2.457361      0.935271
  N       3.489267      1.701170     -1.397677
  O       4.795710      3.258771     -1.604715
  O       3.728630      2.607284      0.783887
  S       5.451200      3.577489     -0.275038
  O       6.525642      2.657323      0.125513
  O      -1.799302     -1.836739      0.667622
  O      -0.226819     -3.238318      1.191114
