14
Coordinates from ORCA-job orca E -399.653558651124
  C       1.806997     -0.419592      0.362265
  C       2.922676      0.352003      0.030274
  C       1.949608     -1.779650      0.662171
  C       4.193171     -0.242406     -0.001790
  C       4.343102     -1.607584      0.298593
  C       3.219814     -2.368147      0.628522
  H       2.828883      1.405482     -0.204694
  C       6.472869      0.673489     -0.531235
  H       0.825828      0.042593      0.386512
  H       1.080461     -2.375178      0.919770
  H       5.329927     -2.057214      0.271485
  H       3.338470     -3.421525      0.859683
  N       5.292558      0.545181     -0.335681
  O       7.629234      0.923148     -0.754876
14
Coordinates from ORCA-job orca E -399.655349099312
  C       1.815527     -0.420236      0.361222
  C       2.923482      0.352547      0.030025
  C       1.961946     -1.774414      0.659364
  C       4.189533     -0.238529     -0.002481
  C       4.345842     -1.597638      0.295634
  C       3.228946     -2.357257      0.625018
  H       2.825092      1.407572     -0.204456
  C       6.454517      0.656070     -0.524534
  H       0.832316      0.039670      0.386206
  H       1.093901     -2.372986      0.917360
  H       5.335333     -2.043928      0.266934
  H       3.350846     -3.411294      0.855992
  N       5.281184      0.549254     -0.335209
  O       7.595133      0.881770     -0.740075
14
Coordinates from ORCA-job orca E -399.655599048078
  C       1.815881     -0.421914      0.361578
  C       2.919215      0.354901      0.030044
  C       1.967182     -1.773834      0.658586
  C       4.186199     -0.231150     -0.003821
  C       4.347752     -1.588559      0.293156
  C       3.234806     -2.351101      0.622796
  H       2.815203      1.409763     -0.203535
  C       6.451075      0.644303     -0.521267
  H       0.830695      0.034603      0.387584
  H       1.101375     -2.375899      0.917069
  H       5.339201     -2.030959      0.263031
  H       3.360736     -3.405156      0.853316
  N       5.274306      0.560363     -0.337018
  O       7.589973      0.845241     -0.730519
14
Coordinates from ORCA-job orca E -399.655893826255
  C       1.813837     -0.424761      0.362599
  C       2.910170      0.360234      0.029946
  C       1.974458     -1.774529      0.657892
  C       4.180542     -0.216235     -0.006794
  C       4.351556     -1.572263      0.288581
  C       3.245110     -2.341992      0.619242
  H       2.796055      1.414495     -0.202027
  C       6.446284      0.623023     -0.515481
  H       0.825408      0.025295      0.390615
  H       1.113235     -2.383024      0.917344
  H       5.346374     -2.007394      0.255974
  H       3.378891     -3.395629      0.848714
  N       5.262811      0.584558     -0.341525
  O       7.588868      0.778821     -0.714080
14
Coordinates from ORCA-job orca E -399.656354564942
  C       1.808349     -0.430473      0.364991
  C       2.889249      0.374120      0.029206
  C       1.991724     -1.776794      0.656524
  C       4.168526     -0.179236     -0.014690
  C       4.362302     -1.532914      0.277142
  C       3.271175     -2.321404      0.610770
  H       2.752017      1.426468     -0.199148
  C       6.429179      0.568824     -0.499930
  H       0.812770      0.003921      0.398013
  H       1.142081     -2.400509      0.918410
  H       5.364684     -1.950912      0.238772
  H       3.424212     -3.373349      0.837388
  N       5.236851      0.646999     -0.354200
  O       7.580481      0.615858     -0.672247
14
Coordinates from ORCA-job orca E -399.656516852522
  C       1.805690     -0.431233      0.365626
  C       2.884855      0.377108      0.029251
  C       1.993828     -1.778179      0.656516
  C       4.166549     -0.171632     -0.016078
  C       4.364682     -1.525545      0.275272
  C       3.276190     -2.318858      0.609521
  H       2.744278      1.429020     -0.198673
  C       6.426000      0.558341     -0.497156
  H       0.809026      0.000017      0.399519
  H       1.146665     -2.404856      0.918613
  H       5.368062     -1.941295      0.236227
  H       3.433170     -3.370155      0.835231
  N       5.232503      0.663519     -0.357924
  O       7.582102      0.584348     -0.664946
14
Coordinates from ORCA-job orca E -399.656577009727
  C       1.803728     -0.430508      0.365757
  C       2.885139      0.376634      0.029340
  C       1.991475     -1.779109      0.656970
  C       4.166999     -0.173331     -0.015740
  C       4.364415     -1.527709      0.275912
  C       3.274798     -2.321532      0.610309
  H       2.747660      1.428734     -0.199104
  C       6.427850      0.560644     -0.498024
  H       0.807688      0.001278      0.399567
  H       1.144066     -2.405146      0.918923
  H       5.366725     -1.945919      0.237871
  H       3.431183     -3.372543      0.835902
  N       5.233765      0.665755     -0.358712
  O       7.588109      0.593351     -0.667970
14
Coordinates from ORCA-job orca E -399.656580107821
  C       1.803616     -0.430381      0.365750
  C       2.884919      0.376844      0.029292
  C       1.991946     -1.778984      0.656916
  C       4.166759     -0.173006     -0.015821
  C       4.364854     -1.527032      0.275623
  C       3.275380     -2.321182      0.610135
  H       2.747908      1.428985     -0.199248
  C       6.426882      0.558894     -0.497452
  H       0.807430      0.001007      0.399703
  H       1.144749     -2.405294      0.918952
  H       5.367015     -1.945589      0.237674
  H       3.432034     -3.372143      0.835686
  N       5.232990      0.667120     -0.358979
  O       7.587119      0.591362     -0.667230
14
Coordinates from ORCA-job orca E -399.656582034742
  C       1.803654     -0.430074      0.365684
  C       2.885272      0.376561      0.029292
  C       1.991901     -1.778724      0.656887
  C       4.166832     -0.173975     -0.015629
  C       4.364931     -1.527632      0.275717
  C       3.275007     -2.321413      0.610237
  H       2.749796      1.428845     -0.199515
  C       6.426815      0.558661     -0.497401
  H       0.807459      0.001275      0.399658
  H       1.144529     -2.404841      0.918934
  H       5.366564     -1.947437      0.238118
  H       3.431233     -3.372418      0.835851
  N       5.232947      0.666442     -0.358842
  O       7.586660      0.595330     -0.667991
14
Coordinates from ORCA-job orca E -399.656582192581
  C       1.803707     -0.430031      0.365670
  C       2.885381      0.376447      0.029302
  C       1.991801     -1.778684      0.656894
  C       4.166925     -0.174265     -0.015585
  C       4.364865     -1.527923      0.275792
  C       3.274764     -2.321516      0.610297
  H       2.750275      1.428766     -0.199558
  C       6.427049      0.558880     -0.497517
  H       0.807512      0.001335      0.399640
  H       1.144333     -2.404688      0.918929
  H       5.366353     -1.948065      0.238280
  H       3.430811     -3.372552      0.835948
  N       5.233077      0.666018     -0.358773
  O       7.586747      0.596877     -0.668321
