18
Coordinates from ORCA-job mol E -514.163259313280
  C       1.645209     -0.346474      0.367726
  C       2.751619      0.437844      0.032337
  C       1.804392     -1.701687      0.664955
  C       4.014622     -0.137215     -0.004625
  C       4.192743     -1.495624      0.290739
  C       3.083397     -2.255882      0.620888
  H       2.616676      1.489034     -0.196289
  C       6.286900      0.542326     -0.474103
  O       0.453361      0.310963      0.375877
  H       0.959624     -2.326460      0.927221
  H       5.184798     -1.935210      0.259037
  H       3.210164     -3.309634      0.851448
  N       5.094191      0.685019     -0.345538
  O       7.447487      0.544477     -0.634639
  C      -0.711807     -0.437616      0.710947
  H      -1.542423      0.267939      0.658981
  H      -0.645073     -0.846770      1.727793
  H      -0.882082     -1.253290     -0.004267
18
Coordinates from ORCA-job mol E -514.163278261701
  C       1.645306     -0.346001      0.367391
  C       2.752690      0.438438      0.032226
  C       1.803779     -1.701651      0.664626
  C       4.015717     -0.137796     -0.004244
  C       4.193804     -1.496352      0.291191
  C       3.083267     -2.256247      0.620998
  H       2.618437      1.490250     -0.196607
  C       6.288425      0.542945     -0.474641
  O       0.453349      0.311195      0.375597
  H       0.958487     -2.326226      0.926538
  H       5.185844     -1.936480      0.259580
  H       3.209409     -3.310227      0.851511
  N       5.096328      0.684750     -0.345563
  O       7.449583      0.546878     -0.635988
  C      -0.714487     -0.438135      0.711554
  H      -1.545188      0.267206      0.659239
  H      -0.647153     -0.846843      1.727991
  H      -0.883796     -1.253967     -0.002910
18
Coordinates from ORCA-job mol E -514.163283265754
  C       1.645202     -0.345482      0.367254
  C       2.753177      0.438779      0.032174
  C       1.803095     -1.701417      0.664522
  C       4.015758     -0.138727     -0.003911
  C       4.193994     -1.497146      0.291527
  C       3.082609     -2.256468      0.621130
  H       2.619795      1.490716     -0.196749
  C       6.288966      0.543510     -0.474981
  O       0.453609      0.311723      0.375325
  H       0.957500     -2.325627      0.926259
  H       5.185818     -1.937679      0.260074
  H       3.208105     -3.310536      0.851725
  N       5.097140      0.683873     -0.345267
  O       7.450413      0.549800     -0.637112
  C      -0.715562     -0.438766      0.711854
  H      -1.545876      0.266737      0.659343
  H      -0.646682     -0.847098      1.728042
  H      -0.883260     -1.254452     -0.002718
18
Coordinates from ORCA-job mol E -514.163284272014
  C       1.645097     -0.345560      0.367219
  C       2.753233      0.438563      0.032204
  C       1.802982     -1.701573      0.664528
  C       4.015542     -0.139397     -0.003684
  C       4.193977     -1.497682      0.291667
  C       3.082373     -2.256749      0.621205
  H       2.620249      1.490478     -0.196742
  C       6.288957      0.544040     -0.475125
  O       0.453760      0.311831      0.375171
  H       0.957386     -2.325723      0.926242
  H       5.185703     -1.938314      0.260295
  H       3.207622     -3.310839      0.851854
  N       5.097099      0.683148     -0.344928
  O       7.450378      0.552002     -0.637705
  C      -0.715868     -0.438775      0.711907
  H      -1.545556      0.267354      0.659173
  H      -0.646205     -0.846762      1.728126
  H      -0.882929     -1.254302     -0.002918
