17
Coordinates from ORCA-job orca
  C   0.26702347308465      0.04520261136882     -0.48873021525668
  C   1.36808905217323      0.88662554361374     -0.52898947392415
  C   0.25222054957966     -1.04272680436539      0.38505986573025
  C   2.46122133352908      0.59837599470663      0.29318585514710
  C   2.44527744497697     -0.46650856375499      1.19743536038376
  C   1.33558334064077     -1.29794351811416      1.22590253402376
  H   1.40194707437718      1.75029732520028     -1.18534445479242
  C   3.81161304395402      1.33406354160292      0.01083076499383
  H   -0.58810159731161      0.24372055705444     -1.12717815456400
  H   -0.61960961324362     -1.68931323662258      0.42193197453722
  H   3.29417340848718     -0.62840781230370      1.85363994259430
  H   1.30666435413416     -2.13751124466579      1.91332884325813
  N   3.46491634184480      2.14747124838344      0.89625767096255
  O   5.26861145921701      3.28482252046196      0.73016543469184
  O   4.68343146128343      1.03799206504198     -0.83459605882900
  Se  5.95660284555591      2.95084147303879     -0.74382242424413
  O   5.26473802771713      3.77999929935360     -1.94837646471235
