17

C          0.09169        0.11063       -0.09962
C          1.08324        1.06676       -0.23399
C          0.41055       -1.12825        0.45310
C          2.39359        0.78734        0.17679
C          2.69493       -0.46135        0.72852
C          1.70326       -1.42264        0.86895
H          0.84943        2.03707       -0.65921
C          3.43284        1.79902        0.03227
Cl        -1.78773        0.64457       -0.66654
H         -0.47149       -2.05321        0.56733
H          3.70766       -0.68477        1.04523
H          1.93149       -2.39313        1.29533
N          3.27198        2.91913       -0.57596
O          4.45975        3.66223       -0.49948
O          4.65705        1.53570        0.58886
S          5.80432        2.68225       -0.00973
O          6.43021        2.09788       -1.19803
