17
Coordinates from ORCA-job mol E -948.175011600869
  C       0.080939      0.089224     -0.096399
  C       1.066144      1.053886     -0.232948
  C       0.385478     -1.156396      0.451921
  C       2.376079      0.771880      0.177857
  C       2.682517     -0.476726      0.727737
  C       1.684674     -1.434602      0.862630
  H       0.836295      2.026532     -0.655234
  C       3.415652      1.785966      0.033438
  H      -0.932833      0.309274     -0.416954
  H      -0.391430     -1.907685      0.558059
  H       3.697373     -0.694535      1.041986
  H       1.926110     -2.403472      1.288970
  N       3.256906      2.904650     -0.577358
  O       4.445167      3.648731     -0.498639
  O       4.639541      1.525509      0.594044
  S       5.786763      2.670401     -0.001824
  O       6.419025      2.084363     -1.186585
17
Coordinates from ORCA-job mol E -948.175044154252
  C       0.079364      0.088855     -0.095770
  C       1.063877      1.054553     -0.233195
  C       0.385823     -1.157020      0.452244
  C       2.375058      0.772856      0.176245
  C       2.683424     -0.476012      0.726023
  C       1.686100     -1.434672      0.861934
  H       0.830956      2.027229     -0.654107
  C       3.414802      1.786902      0.031446
  H      -0.935121      0.308391     -0.414825
  H      -0.390581     -1.908874      0.559298
  H       3.698605     -0.693984      1.039871
  H       1.928657     -2.403370      1.288314
  N       3.259791      2.905052     -0.582251
  O       4.449988      3.649109     -0.499264
  O       4.637540      1.527437      0.594311
  S       5.788846      2.669991      0.003412
  O       6.417273      2.080557     -1.182985
17
Coordinates from ORCA-job mol E -948.175051534893
  C       0.078473      0.089081     -0.094257
  C       1.062541      1.055377     -0.232561
  C       0.386344     -1.157053      0.452827
  C       2.374470      0.773514      0.174812
  C       2.684436     -0.475607      0.723739
  C       1.687440     -1.434630      0.860754
  H       0.826969      2.028009     -0.652159
  C       3.414103      1.787244      0.029086
  H      -0.936551      0.308491     -0.411627
  H      -0.389699     -1.909194      0.560665
  H       3.699829     -0.694255      1.036310
  H       1.930916     -2.403356      1.286525
  N       3.261336      2.904261     -0.588211
  O       4.452415      3.648860     -0.503132
  O       4.634951      1.529082      0.595827
  S       5.787877      2.669994      0.008375
  O       6.418550      2.077183     -1.176273
17
Coordinates from ORCA-job mol E -948.175053048482
  C       0.078393      0.089306     -0.093414
  C       1.062270      1.055870     -0.231850
  C       0.386791     -1.156983      0.452865
  C       2.374356      0.773967      0.174514
  C       2.684961     -0.475334      0.722647
  C       1.688156     -1.434552      0.859855
  H       0.825487      2.028489     -0.650740
  C       3.413782      1.787729      0.028398
  H      -0.936845      0.308759     -0.410009
  H      -0.389075     -1.909278      0.560841
  H       3.700431     -0.694456      1.034480
  H       1.932063     -2.403417      1.285029
  N       3.261909      2.903200     -0.591945
  O       4.452882      3.648369     -0.505362
  O       4.633476      1.531220      0.598379
  S       5.786906      2.669920      0.010071
  O       6.418455      2.074191     -1.173058
17
Coordinates from ORCA-job mol E -948.175054099228
  C       0.078003      0.089725     -0.091594
  C       1.061682      1.056546     -0.230376
  C       0.387160     -1.156952      0.453106
  C       2.374136      0.774410      0.173933
  C       2.685576     -0.475279      0.720569
  C       1.689031     -1.434709      0.858162
  H       0.823436      2.029364     -0.647926
  C       3.413278      1.788320      0.027031
  H      -0.937657      0.309493     -0.406578
  H      -0.388507     -1.909402      0.561449
  H       3.701339     -0.695093      1.030874
  H       1.933626     -2.403926      1.282120
  N       3.262723      2.900885     -0.598645
  O       4.453183      3.647204     -0.510714
  O       4.631274      1.535082      0.602475
  S       5.785306      2.670960      0.012817
  O       6.420810      2.070371     -1.166005
