21
Coordinates from ORCA-job mol E -1062.646377025010
  C       0.101712     -0.050158      0.009892
  C       1.072074      0.929661     -0.211077
  C       0.490506     -1.321331      0.420381
  C       2.427461      0.602403      0.015124
  C       2.802394     -0.685864      0.399713
  C       1.831867     -1.648256      0.620472
  O       0.828196      2.190045     -0.603597
  C       3.470945      1.717432     -0.050799
  H      -0.948526      0.165477     -0.146067
  H      -0.275143     -2.075554      0.578277
  H       3.858253     -0.904684      0.523029
  H       2.113646     -2.647789      0.932862
  N       3.770581      1.421154     -1.241290
  O       5.094900      2.947608     -1.427700
  O       3.793805      2.525979      0.859025
  S       5.587082      3.367824     -0.053936
  O       6.604406      2.488907      0.542603
  C      -0.529115      2.579263     -0.828960
  H      -0.485749      3.627782     -1.123622
  H      -1.123667      2.477342      0.087041
  H      -0.976978      1.987940     -1.636881
21
Coordinates from ORCA-job mol E -1062.645612688081
  C       0.088394     -0.049841      0.021594
  C       1.058897      0.925378     -0.217588
  C       0.479681     -1.322249      0.426128
  C       2.417176      0.591699     -0.012477
  C       2.794836     -0.699291      0.364217
  C       1.823844     -1.655956      0.603222
  O       0.814370      2.185989     -0.606810
  C       3.461503      1.702630     -0.093555
  H      -0.963506      0.170210     -0.116102
  H      -0.286429     -2.073110      0.597424
  H       3.851761     -0.923062      0.470095
  H       2.106387     -2.656522      0.911792
  N       3.727881      1.405930     -1.290954
  O       5.290288      2.751116     -1.423234
  O       3.803168      2.509279      0.812987
  S       5.594089      3.405215     -0.087657
  O       6.632506      2.735767      0.711880
  C      -0.546934      2.583225     -0.809320
  H      -0.502969      3.630061     -1.109712
  H      -1.123962      2.488440      0.117980
  H      -1.012334      1.990270     -1.605420
21
Coordinates from ORCA-job mol E -1062.640618713119
  C       0.113469     -0.063756      0.012416
  C       1.079020      0.922887     -0.185322
  C       0.494164     -1.345881      0.415685
  C       2.419414      0.609218      0.017285
  C       2.788036     -0.660309      0.414403
  C       1.825927     -1.656321      0.607878
  O       0.830793      2.204734     -0.571587
  C       3.455128      1.744131     -0.097215
  H      -0.936171      0.154678     -0.144066
  H      -0.270940     -2.097889      0.585866
  H       3.846579     -0.864388      0.549322
  H       2.121298     -2.656859      0.906419
  N       3.733668      1.512164     -1.331104
  O       5.142039      2.708507     -1.430670
  O       3.802101      2.540015      0.835834
  S       5.577332      3.364566     -0.104997
  O       6.557461      2.579960      0.638610
  C      -0.508123      2.583287     -0.812051
  H      -0.482921      3.648126     -1.052995
  H      -1.141379      2.433044      0.073793
  H      -0.938245      2.035267     -1.663014
21
Coordinates from ORCA-job mol E -1062.645817704065
  C       0.094337     -0.054628      0.008292
  C       1.070080      0.919829     -0.203992
  C       0.474060     -1.329946      0.419862
  C       2.422543      0.585231      0.019596
  C       2.789321     -0.701607      0.409514
  C       1.812956     -1.662848      0.622841
  O       0.831295      2.186854     -0.593185
  C       3.472859      1.692415     -0.067365
  H      -0.954230      0.168390     -0.150104
  H      -0.297127     -2.077822      0.580522
  H       3.843781     -0.925470      0.541246
  H       2.091121     -2.663774      0.934399
  N       3.783311      1.409331     -1.261234
  O       5.152863      2.969737     -1.458705
  O       3.814091      2.493087      0.847530
  S       5.582364      3.414651     -0.061844
  O       6.628490      2.588359      0.556441
  C      -0.523771      2.580499     -0.822233
  H      -0.482153      3.633923     -1.100800
  H      -1.128562      2.465877      0.085409
  H      -0.968978      2.003091     -1.641702
21
Coordinates from ORCA-job mol E -1062.644912512405
  C       0.122077     -0.046934     -0.005419
  C       1.093971      0.933571     -0.202521
  C       0.505280     -1.320945      0.408302
  C       2.443764      0.610362      0.051732
  C       2.816663     -0.677218      0.432522
  C       1.843332     -1.643947      0.634048
  O       0.853051      2.200547     -0.591584
  C       3.482506      1.721925     -0.021320
  H      -0.924943      0.168185     -0.182636
  H      -0.262117     -2.077303      0.545410
  H       3.870267     -0.895128      0.578835
  H       2.124741     -2.642845      0.948966
  N       3.829446      1.461026     -1.211886
  O       4.893532      3.004166     -1.408494
  O       3.790737      2.540694      0.891031
  S       5.532124      3.325715     -0.056499
  O       6.509202      2.330398      0.405550
  C      -0.501416      2.586766     -0.837026
  H      -0.461897      3.637972     -1.123791
  H      -1.115196      2.477363      0.065044
  H      -0.936475      2.000808     -1.655774
21
Coordinates from ORCA-job mol E -1062.644704748887
  C       0.109742     -0.047637      0.024140
  C       1.077502      0.928597     -0.221566
  C       0.506730     -1.316093      0.436118
  C       2.432826      0.610956      0.022810
  C       2.820046     -0.682103      0.383421
  C       1.851499     -1.639065      0.631838
  O       0.832104      2.185136     -0.622879
  C       3.466190      1.719086     -0.085569
  H      -0.941609      0.163271     -0.130010
  H      -0.254347     -2.077809      0.580059
  H       3.876927     -0.902238      0.495489
  H       2.138388     -2.634916      0.951786
  N       3.794632      1.442764     -1.276625
  O       5.112136      3.069021     -1.397381
  O       3.737121      2.598060      0.785809
  S       5.588783      3.327303      0.026732
  O       6.486630      2.285941      0.553217
  C      -0.532877      2.578346     -0.829763
  H      -0.487888      3.607022     -1.186502
  H      -1.096330      2.535246      0.109090
  H      -1.009555      1.944294     -1.585722
21
Coordinates from ORCA-job mol E -1062.645872922493
  C       0.103515     -0.052650      0.008788
  C       1.077853      0.920888     -0.216472
  C       0.488028     -1.323401      0.427791
  C       2.430403      0.592331      0.021444
  C       2.803949     -0.696461      0.404467
  C       1.828429     -1.652397      0.635959
  O       0.839172      2.183866     -0.610733
  C       3.472810      1.698576     -0.071802
  H      -0.945253      0.165484     -0.153408
  H      -0.280294     -2.076048      0.580118
  H       3.858369     -0.920092      0.533747
  H       2.108215     -2.649791      0.957335
  N       3.777037      1.453253     -1.276950
  O       5.087770      3.039355     -1.421056
  O       3.793575      2.519253      0.836594
  S       5.577140      3.378002     -0.014646
  O       6.570795      2.436080      0.522864
  C      -0.520270      2.580055     -0.829471
  H      -0.475940      3.627350     -1.128347
  H      -1.110353      2.484244      0.089291
  H      -0.976298      1.987285     -1.631023
21
Coordinates from ORCA-job mol E -1062.646476521915
  C       0.109660     -0.050377     -0.004166
  C       1.077638      0.935230     -0.202800
  C       0.499589     -1.322222      0.406515
  C       2.431545      0.612068      0.034175
  C       2.809625     -0.672557      0.423704
  C       1.840273     -1.642382      0.624029
  O       0.831032      2.200207     -0.587924
  C       3.471036      1.718520     -0.064493
  H      -0.939173      0.161260     -0.174824
  H      -0.265193     -2.079395      0.553960
  H       3.864222     -0.888302      0.565910
  H       2.125337     -2.640994      0.936834
  N       3.812759      1.447782     -1.253451
  O       5.054970      2.903642     -1.436829
  O       3.792170      2.545122      0.838072
  S       5.559226      3.341887     -0.061202
  O       6.555382      2.438552      0.534274
  C      -0.529079      2.584020     -0.819442
  H      -0.494688      3.640603     -1.085592
  H      -1.134908      2.452314      0.084784
  H      -0.962775      2.010203     -1.647043
21
Coordinates from ORCA-job mol E -1062.646435251135
  C       0.106357     -0.049418      0.003929
  C       1.076361      0.933491     -0.204864
  C       0.496739     -1.321038      0.411593
  C       2.431297      0.605647      0.027445
  C       2.809898     -0.683229      0.409798
  C       1.838717     -1.646875      0.619898
  O       0.835012      2.194884     -0.594319
  C       3.471292      1.708864     -0.068655
  H      -0.943104      0.164306     -0.159364
  H      -0.268591     -2.077296      0.561514
  H       3.864564     -0.902799      0.543112
  H       2.121027     -2.646595      0.931652
  N       3.805932      1.431094     -1.256771
  O       5.064621      2.895504     -1.426718
  O       3.790524      2.542450      0.829757
  S       5.547530      3.358589     -0.055229
  O       6.560833      2.483735      0.558098
  C      -0.526788      2.587739     -0.820567
  H      -0.482241      3.638374     -1.106645
  H      -1.120820      2.476955      0.093600
  H      -0.970509      2.000797     -1.632775
21
Coordinates from ORCA-job mol E -1062.645732583518
  C       0.092446     -0.040158      0.059769
  C       1.072062      0.927656     -0.187602
  C       0.477214     -1.321260      0.434360
  C       2.428493      0.577709      0.018255
  C       2.800424     -0.729557      0.358333
  C       1.821194     -1.677850      0.583342
  O       0.849162      2.176155     -0.604701
  C       3.474943      1.671113     -0.070855
  H      -0.959149      0.192941     -0.058627
  H      -0.293689     -2.069164      0.598444
  H       3.855294     -0.966262      0.451398
  H       2.091197     -2.688860      0.868632
  N       3.794567      1.364843     -1.249628
  O       5.162599      2.992275     -1.428848
  O       3.776568      2.541456      0.800283
  S       5.512974      3.422467     -0.015202
  O       6.566403      2.616075      0.632805
  C      -0.514187      2.588622     -0.834665
  H      -0.437674      3.590218     -1.255486
  H      -1.063291      2.612565      0.112478
  H      -0.998899      1.914197     -1.547996
21
Coordinates from ORCA-job mol E -1062.646383516840
  C       0.101083     -0.047261      0.020601
  C       1.075944      0.927230     -0.208425
  C       0.488024     -1.321260      0.421872
  C       2.431234      0.591440      0.019436
  C       2.806079     -0.703587      0.390535
  C       1.830700     -1.659093      0.611322
  O       0.841516      2.186413     -0.601170
  C       3.471955      1.692981     -0.065534
  H      -0.949389      0.175412     -0.123746
  H      -0.280320     -2.072903      0.579657
  H       3.860824     -0.929936      0.510388
  H       2.107309     -2.661990      0.917832
  N       3.791524      1.412537     -1.254599
  O       5.091934      2.952074     -1.424073
  O       3.791816      2.528757      0.831357
  S       5.538781      3.388217     -0.035123
  O       6.572836      2.530453      0.570750
  C      -0.520603      2.587889     -0.827958
  H      -0.463137      3.623554     -1.161497
  H      -1.099494      2.524364      0.100036
  H      -0.979966      1.969888     -1.607170
21
Coordinates from ORCA-job mol E -1062.646405748490
  C       0.101144     -0.047346      0.017890
  C       1.075848      0.927680     -0.208636
  C       0.487666     -1.320624      0.422088
  C       2.431266      0.591968      0.019186
  C       2.805630     -0.702553      0.392022
  C       1.830052     -1.657294      0.615500
  O       0.840507      2.187587     -0.599158
  C       3.471798      1.694488     -0.061916
  H      -0.949014      0.174439     -0.130170
  H      -0.280657     -2.072546      0.578573
  H       3.860396     -0.928856      0.512154
  H       2.106557     -2.659464      0.924466
  N       3.784998      1.417550     -1.253426
  O       5.085606      2.955700     -1.423262
  O       3.799727      2.520676      0.840548
  S       5.543514      3.387346     -0.036521
  O       6.581409      2.527329      0.559006
  C      -0.521413      2.586526     -0.829258
  H      -0.466077      3.625610     -1.152410
  H      -1.105410      2.512115      0.094770
  H      -0.974894      1.974849     -1.616952
21
Coordinates from ORCA-job mol E -1062.646401799573
  C       0.100369     -0.049120      0.013941
  C       1.075475      0.927167     -0.204309
  C       0.484932     -1.322455      0.420612
  C       2.430465      0.590281      0.020634
  C       2.802488     -0.702447      0.399435
  C       1.826255     -1.657956      0.620014
  O       0.840423      2.188708     -0.593487
  C       3.473534      1.692149     -0.063489
  H      -0.948865      0.171654     -0.141745
  H      -0.284031     -2.074034      0.575501
  H       3.856970     -0.928767      0.522747
  H       2.102248     -2.659641      0.931076
  N       3.783865      1.416110     -1.256806
  O       5.086490      2.957464     -1.430040
  O       3.810076      2.511384      0.842124
  S       5.543935      3.392793     -0.042658
  O       6.589095      2.541267      0.550912
  C      -0.520085      2.586663     -0.827627
  H      -0.466959      3.632476     -1.129078
  H      -1.113455      2.491712      0.088600
  H      -0.964577      1.989771     -1.631869
21
Coordinates from ORCA-job mol E -1062.646410737185
  C       0.101718     -0.048489      0.013713
  C       1.076247      0.928113     -0.205445
  C       0.487378     -1.322119      0.418378
  C       2.431231      0.592675      0.022591
  C       2.804531     -0.700407      0.399516
  C       1.829079     -1.657337      0.616617
  O       0.840646      2.189586     -0.593604
  C       3.472861      1.694674     -0.063012
  H      -0.947898      0.172387     -0.139442
  H      -0.281113     -2.074208      0.573104
  H       3.859060     -0.925718      0.524044
  H       2.105695     -2.659425      0.925763
  N       3.789278      1.414478     -1.253475
  O       5.082971      2.944068     -1.429610
  O       3.802231      2.522252      0.837810
  S       5.540605      3.387284     -0.045020
  O       6.579875      2.533589      0.556099
  C      -0.520358      2.587551     -0.826250
  H      -0.466903      3.631480     -1.134018
  H      -1.110931      2.498495      0.092364
  H      -0.967552      1.986252     -1.625633
21
Coordinates from ORCA-job mol E -1062.646411402988
  C       0.101740     -0.048474      0.014026
  C       1.076448      0.927953     -0.204939
  C       0.487170     -1.322298      0.418316
  C       2.431397      0.592298      0.023287
  C       2.804437     -0.701070      0.399669
  C       1.828813     -1.657843      0.616515
  O       0.841221      2.189470     -0.593061
  C       3.472918      1.694300     -0.062466
  H      -0.947836      0.172689     -0.138968
  H      -0.281449     -2.074310      0.572777
  H       3.858921     -0.926521      0.524255
  H       2.105172     -2.660121      0.925269
  N       3.788180      1.414579     -1.253280
  O       5.081891      2.945994     -1.429795
  O       3.802760      2.522237      0.837980
  S       5.539679      3.387947     -0.044851
  O       6.579700      2.534163      0.554907
  C      -0.519638      2.587640     -0.826503
  H      -0.465714      3.631229     -1.135326
  H      -1.110434      2.499703      0.092066
  H      -0.966726      1.985615     -1.625390
